40pc-10G-120us-DC1.csv
40pc-10G-120us-DC2.csv
40pc-10G-120us-DC3.csv
40pc-10G-120us-1.csv
40pc-10G-120us-2.csv
40pc-10G-120us-3.csv
40pc-10G-120us-4.csv
40pc-10G-120us-5.csv
40pc-10G-120us-6.csv
40pc-10G-120us-7.csv
40pc-10G-120us-8.csv
40pc-10G-120us-9.csv
40pc-10G-120us-10.csv
40pc-10G-120us-11.csv
40pc-10G-120us-12.csv
40pc-10G-120us-13.csv
40pc-10G-120us-14.csv
40pc-10G-120us-15.csv
