1.0,0.00012012320000009957
5.0,0.00024061279999987306
4.0,0.00024049279999993622
224.0,0.00072445919999863939
127.0,0.00048721279999686118
13.0,0.00024048640000007282
45.0,0.00048205919999944058
9.0,0.00012108319999959427
359.0,0.0010811088000008962
7.0,0.0001208431999997206
769.0,0.001814832469993588
20.0,0.00024132639999963068
46.0,0.00036216959999935128
1.0,0.00012012320000009957
15.0,0.00036487969999687841
3157.0,0.0062495264000035355
40.0,0.00036166719999819463
448.0,0.0013218416000007061
1311.0,0.002884996800001316
2419.0,0.0048112330999934283
396.0,0.0025235532000016381
18.0,0.00024108639999975701
2.0,0.00012024320000003641
297.0,0.00096194560000029128
52.0,0.00048289919999899844
1466.0,0.0031248832000017046
606.0,0.0015656879999990103
25.0,0.00024192639999931487
25.0,0.00024202550999730121
943.0,0.0021754457099893987
22.0,0.0003615759999995305
15.0,0.00036073599999997263
16.0,0.00024084639999988333
2550.0,0.005173055999981635
261.0,0.00084242239999987589
35.0,0.00036084960000004607
1096.0,0.002403544000001423
4.0,0.00012048319999991008
9.0,0.00012108319999959427
27.0,0.00024228352999311475
2909.0,0.0057720353899994858
1229.0,0.0026482340299849305
2106.0,0.0043311700799988362
1923.0,0.0039659428099951821
2257.0,0.007090757179997853
7.0,0.0001208431999997206
6458.0,0.012506916789998712
562.0,0.0026514806299866578
1327.0,0.0028893167999990421
13.0,0.0002404889999940707
2568.0,0.0051719220299974999
20.0,0.00024132639999963068
1609.0,0.0033678239999959114
21.0,0.00024144639999956752
48.0,0.00036240959999922495
282.0,0.00084506239999848631
6083.0,0.012155749609994659
35.0,0.00036084960000004607
41.0,0.00036156959999966709
17.0,0.00024096639999982017
1989.0,0.004090428800000101
3148.0,0.0062501913999917225
40.0,0.00036164852999931441
27.0,0.00024216639999918854
3.0,0.00012036319999997325
344.0,0.00096686559999770161
7.0,0.0001208431999997206
227.0,0.00072505919999832358
5.0,0.00012060319999984692
23.0,0.00024220279998288241
6.0,0.00012072319999978376
5.0,0.00012060319999984692
7.0,0.0001208431999997206
3011.0,0.0070947847399871478
1975.0,0.004216616239979265
672.0,0.0015661615999988943
48.0,0.00036240959999922495
209.0,0.00072293535998935177
2625.0,0.005413759289997877
869.0,0.0034903643099961634
47.0,0.00036239415998440272
3.0,0.00012036319999997325
728.0,0.0018043680000001672
372.0,0.0010860287999983065
215.0,0.001325869159995996
1.0,0.00012012320000009957
116.0,0.00048589279999755597
24.0,0.00024184675999805449
1791.0,0.0038507237599971766
2226.0,0.0045690016000015099
32.0,0.00036048960000023555
16.0,0.0002408509500002598
84.0,0.00048205279999957718
3755.0,0.0074484784000057314
6.0,0.00012075854999915592
5644.0,0.010955265799994063
2.0,0.00012024320000003641
17.0,0.00024096639999982017
10.0,0.00012120319999953111
8.0,0.00012096319999965743
14.0,0.00024062290999382618
2730.0,0.0055328616500018857
15.0,0.00024072639999994649
352.0,0.0018053279999996619
20.0,0.00024132639999963068
21.0,0.00024145675000464273
53.0,0.00036300959999890914
8.0,0.00012096319999965743
42.0,0.00036168959999960393
375.0,0.001086388799998117
5.0,0.00012060319999984692
11023.0,0.02355873323999691
4.0,0.00012048319999991008
3.0,0.00012036319999997325
23.0,0.00024168639999944119
20.0,0.00024132639999963068
1.0,0.00012012320000009957
49.0,0.00036252959999916179
7.0,0.0001208431999997206
33.0,0.00036060960000017239
19.0,0.00024120639999969384
29.0,0.00024240639999906222
5.0,0.00012060319999984692
16.0,0.00024084639999988333
42.0,0.00036264679999820082
5.0,0.0001207790999961933
394.0,0.0010868687999978643
19.0,0.00024120639999969384
3.0,0.00012036319999997325
120.0,0.00060157599999999256
2018.0,0.0042112450799980383
36.0,0.0003609695999999829
31.0,0.00036064019999826336
2380.0,0.0050484506799977069
2.0,0.00012024320000003641
86.0,0.00048229279999945085
5.0,0.00012060319999984692
43.0,0.00036180959999954077
15.0,0.00024398935999614402
149.0,0.000602649339998651
22.0,0.00024156639999950436
110.0,0.00048517279999793494
26.0,0.0002420463999992517
3.0,0.00012036319999997325
215.0,0.0012041119999994798
694.0,0.0018041280000002935
1567.0,0.0040958382999953802
44.0,0.0003619295999994776
9.0,0.0001211578000017699
5.0,0.00012060319999984692
1211.0,0.002645296300002542
274.0,0.0008427823999996864
983.0,0.0026484788899954204
28.0,0.00024228639999912538
17.0,0.00024270252799873937
40.0,0.00036144959999973025
6.0,0.00012082801799917497
1390.0,0.0028946562899856421
138.0,0.00060210820798123343
6215.0,0.012267578269984369
19.0,0.00024120639999969384
120.0,0.00060187090799246334
5402.0,0.010464638400001336
9.0,0.00012108319999959427
27.0,0.0002424402299987527
403.0,0.0020423344000015664
851.0,0.003725368000001783
20.0,0.00024139202999973186
5975.0,0.013591116019998184
2134.0,0.004692698549989105
67.0,0.00036468959999802486
31.0,0.00036036960000029872
51.0,0.00048061280000033513
49.0,0.00048109280000008248
32.0,0.00036048960000023555
2398.0,0.0050648543999938234
1.0,0.00012018219999943014
544.0,0.0013260797699967686
3.0,0.00012036319999997325
1037.0,0.0022863888999999915
2052.0,0.0042290319999904735
1.0,0.00012022639999487161
354.0,0.00096802012998997711
999.0,0.0040946092299802839
2.0,0.00012035170000279649
1419.0,0.0036109508299830839
1255.0,0.0028865568000004949
1540.0,0.0049309312000009875
83.0,0.00048193279999964034
46.0,0.00036221540999714641
57.0,0.000481112630000613
26.0,0.0002420463999992517
6.0,0.00012072319999978376
7.0,0.0001208431999997206
2.0,0.0001202618200073502
36.0,0.00036308981999555456
6334.0,0.012273728379997628
8.0,0.00012102224000076767
3756.0,0.0074584254299929764
3.0,0.00012043511999837442
4248.0,0.008299554129995057
19.0,0.00024127688999930896
20.0,0.00024132639999963068
6118.0,0.011794500429990862
26.0,0.0002420463999992517
45.0,0.00036204959999941444
2695.0,0.0061285919400022593
19.0,0.00024120639999969384
2.0,0.00012026404000198276
3099.0,0.0062556002799858401
60.0,0.00036385463999599743
49.0,0.00036252959999916179
47.0,0.00036236113999210673
2260.0,0.0045729626999959638
17.0,0.00024096639999982017
1921.0,0.0061274832000044466
337.0,0.00096366510000156502
3.0,0.00012036319999997325
57.0,0.00036348959999865649
6.0,0.00012072319999978376
929.0,0.0027649936000011532
37.0,0.00036108959999991974
32.0,0.00036054578000288551
11951.0,0.02287223697999119
7.0,0.0001208431999997206
212.0,0.00072312023999576702
4721.0,0.010931691200008808
22.0,0.00024156639999950436
3848.0,0.0075732519399986931
224.0,0.00072462619999869027
276.0,0.0010926287999948325
40.0,0.00036144959999973025
16.0,0.00024084639999988333
3.0,0.00012036319999997325
351.0,0.00096637609998939666
44.0,0.0003619295999994776
1435.0,0.0032475264000004778
4993.0,0.0097424257599889597
3944.0,0.0078277699999824701
42.0,0.00036173449999665763
12.0,0.00024036640000013598
22.0,0.00024156639999950436
52.0,0.00036293135999398984
2.0,0.00012034799598659163
3115.0,0.0062537375999971445
35.0,0.00036084960000004607
23.0,0.00024173999600041185
21.0,0.00024144639999956752
107.0,0.00048481279999812443
2942.0,0.0058872725999903341
7.0,0.0001209420499970193
31.0,0.00036036960000029872
3702.0,0.0090103200000068995
943.0,0.0042085558959954472
35.0,0.00036116654599371856
49.0,0.00036262624600502669
3304.0,0.0066070160000053502
6.0,0.00012078076600752219
32.0,0.00036048960000023555
3869.0,0.0075718416000041255
6.0,0.00012072319999978376
2.0,0.00012024320000003641
94.0,0.00084122240000050752
17.0,0.00024099741999994428
43.0,0.00036180959999954077
41.0,0.00036156959999966709
101.0,0.00048412578999834643
38.0,0.00036120959999985658
30.0,0.0003609695999999829
1061.0,0.0024047440000007914
14.0,0.00024065719601118474
2934.0,0.0058936395499964433
3.0,0.00012036319999997325
6.0,0.00012072319999978376
17.0,0.00024096639999982017
3.0,0.00012036319999997325
19.0,0.00024120639999969384
1277.0,0.0027778335999943948
1244.0,0.0026493103999987166
164.0,0.00060675471998439257
24.0,0.00024180639999937803
33.0,0.00036060960000017239
128.0,0.00048733279999679802
5.0,0.00012072126601592181
60.0,0.000363849599998467
597.0,0.0015616016000012944
25.0,0.00024203986998405647
2.0,0.00012024320000003641
2353.0,0.0066251480899839343
53.0,0.00036305326999475085
43.0,0.00048226066999190742
6.0,0.00012072319999978376
17.0,0.00024153477999866446
38.0,0.00036120959999985658
60.0,0.00060213001999742666
3485.0,0.0069817933999893889
111.0,0.00048579311999130681
1419.0,0.0051782138199867322
18.0,0.00024108639999975701
48.0,0.00048121280000001931
24.0,0.00024180639999937803
21.0,0.00024144639999956752
4.0,0.00012051479798258491
15.0,0.00024083486800097198
132.0,0.00060181599999986624
41.0,0.00036156959999966709
9.0,0.00012119578401814657
2646.0,0.0054131958819967352
6328.0,0.012259060211996742
261.0,0.001087499899996347
53.0,0.00048301919999893528
925.0,0.002166499087969509
16129.0,0.030642300603971107
1409.0,0.003006164199993
212.0,0.00084317289800361905
4.0,0.00012059401000219516
3495.0,0.0090190877199973762
3.0,0.00012057379797392187
17880.0,0.034009828404006459
4514.0,0.0087982472979744042
1093.0,0.0024074234999904576
5572.0,0.010963228799971914
2008.0,0.0049332566999953364
687.0,0.0018089043999969245
18.0,0.00024139340799522735
1033.0,0.0022875503779933304
23.0,0.00036362215996543767
2134.0,0.0043539419999751861
1780.0,0.003859738099993848
40.0,0.00036147327999991319
2585.0,0.0051705776000015025
9.0,0.00012120626998779471
2.0,0.00012044909996489217
26.0,0.00024228671997916784
1265.0,0.0030115413599858254
144.0,0.0014470724099926446
6546.0,0.012882711939990577
728.0,0.0018054169099970263
45.0,0.00036204959999941444
1.0,0.00012023695999685557
6.0,0.00012080983796769473
5.0,0.00012060319999984692
16.0,0.00024091211698129555
2768.0,0.0055308272000018643
3713.0,0.0074652701499720031
3916.0,0.0077030414499650313
13.0,0.00024048640000007282
1010.0,0.0022843447599965039
6.0,0.00012072319999978376
37.0,0.0004808528000002088
718.0,0.0016877247999982359
5252.0,0.010228794049976786
686.0,0.002407973983991063
2.0,0.00012024427698986706
20.0,0.00024132995699233106
2937.0,0.0058919168000017841
127.0,0.00048732167696274864
1.0,0.00012012320000009957
8255.0,0.018285669539992222
2.0,0.00012024320000003641
1976.0,0.0069276837699996374
42.0,0.00036176057999814937
4.0,0.00012048319999991008
1174.0,0.0026431904000019379
2267.0,0.0045692416000013836
16.0,0.00024089873999666445
132.0,0.00060121600000018205
69.0,0.00036492959999789853
24.0,0.00024180639999937803
8.0,0.00012097096999696966
43.0,0.00048588327999232739
4.0,0.00012051592999795524
4.0,0.00012051618999775471
1057.0,0.0033706502399957206
5884.0,0.014078254182996686
5.0,0.00012060319999984692
16.0,0.00024086072999485175
1200.0,0.0025295471999984276
5.0,0.00012060319999984692
480.0,0.0013227013399965681
6.0,0.00012078759999978317
251.0,0.00084387650999584451
16.0,0.00024098867998900708
1325.0,0.003972902229992803
20.0,0.00024493987997664668
32.0,0.00036765957996620635
3797.0,0.0074762297599717531
37.0,0.00036108959999991974
47.0,0.00048109280000008248
22.0,0.00024165687999855301
1.0,0.00012022475998030302
6.0,0.00012094838999510138
1206.0,0.0054242737099730043
1497.0,0.0032481754799620344
1586.0,0.0044616084799711242
3.0,0.00012041428998421644
44.0,0.0004807710899989992
5367.0,0.012987808339983919
4240.0,0.0082971412499888153
25.0,0.00024195776996682739
80.0,0.00048157279999982983
2817.0,0.0081717875200006951
10201.0,0.019850608600974651
4884.0,0.0095006902299907825
14.0,0.00024060640000000966
4589.0,0.0088960768000037049
18668.0,0.035495535752982921
41.0,0.00036156959999966709
134.0,0.0010832687999997592
1.0,0.00012012320000009957
63.0,0.00036421708999601066
16.0,0.00024084639999988333
87.0,0.00048301279999907187
14.0,0.00024060640000000966
96.0,0.00048413921999590492
356.0,0.0020438944000007453
29.0,0.00024240639999906222
82.0,0.00048187199999505381
1233.0,0.0039661056000022121
76.0,0.00048109280000008248
32.0,0.00036048960000023555
19.0,0.00024120639999969384
7.0,0.0001208431999997206
46.0,0.00036216959999935128
20.0,0.00024132639999963068
8.0,0.00012105373999315994
31.0,0.00036036960000029872
6478.0,0.012505352059996477
9637.0,0.018402459080000488
30.0,0.00036084960000004607
11.0,0.00024024640000019915
2.0,0.00012031177999394238
13.0,0.00024048640000007282
434.0,0.0012060397999982264
50.0,0.00036272619999921929
4.0,0.00012048319999991008
1057.0,0.0045772940599948519
20.0,0.00024134423000399252
37.0,0.00036108959999991974
55.0,0.00036324959999878281
55.0,0.00036324959999878281
9.0,0.00012108319999959427
3288.0,0.0067307392000035549
12606.0,0.02405088670999822
327.0,0.00096206560000022812
19.0,0.00024122859999753388
1319.0,0.0027672735999999531
620.0,0.001569281599997252
17.0,0.00024096639999982017
2583.0,0.0058935968000008998
53.0,0.00036300959999890914
43.0,0.00036180959999954077
1215.0,0.0027639136000017217
4.0,0.00012063464999889639
20.0,0.00024132639999963068
2.0,0.00012024320000003641
25.0,0.00024192639999931487
6.0,0.00012072319999978376
419.0,0.0025236672000015226
4.0,0.00012048319999991008
20.0,0.00024132639999963068
9.0,0.00012108319999959427
36.0,0.00036098475000145847
496.0,0.0012072319999978376
47.0,0.00036228959999928811
20.0,0.00024132639999963068
32.0,0.00036048960000023555
13.0,0.00024048640000007282
10.0,0.00012120319999953111
53.0,0.00060097600000030837
117.0,0.00048610824999784086
5.0,0.00012060319999984692
40.0,0.00036144959999973025
16.0,0.00024085177000188196
910.0,0.0020447315999998494
134.0,0.00060097600000030837
1.0,0.00012012320000009957
2.0,0.00012024320000003641
3232.0,0.0063741825499961102
3282.0,0.0064897728000037347
22.0,0.00024156639999950436
65.0,0.00036444959999815119
32.0,0.00036221436999817058
28.0,0.00024228639999912538
4.0,0.00012048401999864566
2809.0,0.0076944848000028987
28.0,0.00024228639999912538
5667.0,0.011906116800002531
1058.0,0.0025296671999983644
471.0,0.0013242557199946159
6.0,0.00012081060998725413
91.0,0.00048289279999913504
3.0,0.0001205622399935713
49.0,0.00036288763999414719
48.0,0.00048193279999964034
58.0,0.00036360959999859332
3.0,0.00012051824999681493
1001.0,0.0030119636199965605
14.0,0.00024060640000000966
1236.0,0.002768113599999511
34.0,0.00036072960000010923
34.0,0.00036072960000010923
8923.0,0.018513186900000589
131.0,0.00060181599999986624
1556.0,0.00324670839999186
25.0,0.00024192639999931487
27.0,0.00024216639999918854
266.0,0.0014426784000005632
9047.0,0.017435830799996888
1584.0,0.0032493263999995303
89.0,0.00048265279999926136
1.0,0.00012012320000009957
3.0,0.00012037076300197569
30.0,0.00024252639999899905
1014.0,0.0044547412199964498
41.0,0.0006048040999935278
1946.0,0.0048192442899879229
73.0,0.00048301279999907187
15.0,0.00024398899999367174
18.0,0.00024108639999975701
74.0,0.00048090180000026628
807.0,0.0018115679999963774
6.0,0.00012072319999978376
15.0,0.00024072639999994649
28.0,0.00024228639999912538
750.0,0.0022996433999900034
132.0,0.00060194940998958835
640.0,0.0036160335999764204
4.0,0.00012048319999991008
1563.0,0.0037246612430053005
47.0,0.00036228959999928811
32.0,0.00036086579999650148
2709.0,0.0054224158199842609
614.0,0.0015693244999894773
5075.0,0.01201448000000882
1311.0,0.0039692762699994333
20.0,0.00024132639999963068
471.0,0.0014467583999984157
3224.0,0.0066087715999985086
5880.0,0.011547159689996755
7951.0,0.017208008226984539
17.0,0.00024096639999982017
4.0,0.00012048319999991008
375.0,0.001562681600000726
2.0,0.00012024320000003641
119.0,0.00048625279999736648
53.0,0.00036300959999890914
2043.0,0.0042059920000026008
441.0,0.0010877087999974222
21.0,0.00024144639999956752
4244.0,0.010815036730001282
1183.0,0.0040885088000011116
8.0,0.00012096319999965743
561.0,0.0018026880000010514
9.0,0.00012108319999959427
447.0,0.0013236351999998952
2.0,0.00012036625000022561
23.0,0.00024170299999926037
65.0,0.00036444959999815119
8.0,0.00012096319999965743
24.0,0.00024367777998901552
29.0,0.00024240639999906222
6.0,0.00012072319999978376
1640.0,0.0046895740299923716
52.0,0.0003628895999989723
162.0,0.000963625599999407
20.0,0.00024135067999919713
61.0,0.00048061280000033513
432.0,0.0010869887999978012
1147.0,0.0025363654399896962
301.0,0.0010823088000002645
20.0,0.00024143525999886783
586.0,0.0032433264000026885
42.0,0.00036168959999960393
1.0,0.00012023193999710635
15259.0,0.029115585399984489
535.0,0.0013254351999989478
42.0,0.00036172079999685636
92.0,0.00060085600000037154
53.0,0.00036300959999890914
11.0,0.00024037396000053945
100.0,0.00048421279999844025
133.0,0.0010857001499953167
1121.0,0.0040870688000018696
575.0,0.0016876646499988102
2328.0,0.0048189464999910392
4150.0,0.0083105830099878819
577.0,0.001445814269994905
68.0,0.00036492772998331091
2147.0,0.0061325308999888861
8.0,0.00012115246998134488
93.0,0.00060289599999929777
535.0,0.002050734399997145
26.0,0.00024213255999461225
20.0,0.00024132639999963068
6.0,0.00012079580000179391
46.0,0.00036257102998038526
1245.0,0.002763071800002459
651.0,0.0015643615999998417
306.0,0.0012019520000006167
5021.0,0.0097488408899988332
1.0,0.00012012320000009957
6.0,0.00012072319999978376
6683.0,0.012994574399994407
19.0,0.00024181569998371621
833.0,0.0024070326999865443
63.0,0.00036445629999071194
791.0,0.003128114829981099
2.0,0.00012024320000003641
855.0,0.0024060640000000966
3456.0,0.0097459310599903315
21.0,0.00024145545998055518
687.0,0.0016948245999715006
15.0,0.00024072639999994649
5060.0,0.0098580817299975809
35.0,0.00036084960000004607
47.0,0.00036228959999928811
3.0,0.00012050110998940156
544.0,0.0013269012999912455
3628.0,0.0072247333699888561
2632.0,0.0060109236699970037
1675.0,0.0037321065999782466
453.0,0.0015731555099969263
65.0,0.00036449388999471033
416.0,0.0018125265499868704
2911.0,0.0059071567999937624
916.0,0.0020448763499920641
4114.0,0.0099762525299953442
2367.0,0.0048049280000039829
5092.0,0.012259398259999221
75.0,0.00048097280000014564
18.0,0.00024108639999975701
29.0,0.00024240639999906222
75.0,0.0004821080599837213
14160.0,0.026955097309995901
1181.0,0.0026461804999864391
25.0,0.00024192639999931487
14.0,0.00024060640000000966
1182.0,0.0028866776599993926
3.0,0.00012036319999997325
3310.0,0.0066204789199795222
41.0,0.00036159715999395381
3367.0,0.00722244349999146
47.0,0.00036234840000060053
1272.0,0.00276739359999989
31.0,0.00036036960000029872
1205.0,0.0025297871999983013
8.0,0.00012096319999965743
132.0,0.00060928279999283852
62.0,0.00036408959999834067
47.0,0.00036232475689668142
2.0,0.00012024320000003641
1718.0,0.0036081360000006502
326.0,0.00096457219999335209
240.0,0.00084110240000057068
35.0,0.0003608900568770057
1058.0,0.0034835728000028876
5.0,0.00012424791998233431
47.0,0.00036228959999928811
11.0,0.0002409457199836762
2978.0,0.0058902368000026684
3189.0,0.0070907488000040431
3.0,0.00012036319999997325
3538.0,0.0070888039999985608
2.0,0.00012029961998094585
1189.0,0.0031358438799906629
4054.0,0.0086717306430823538
7.0,0.0001208431999997206
40.0,0.00036271089999795336
16.0,0.00024089591500042751
36.0,0.0003609695999999829
14.0,0.00024060640000000966
455.0,0.0012029120000001114
1135.0,0.0044543849299876204
1146.0,0.0025313471999974801
97.0,0.00048370963499211328
24.0,0.00024180639999937803
4413.0,0.0086640075999930843
2161.0,0.0044517355999944552
1136.0,0.0025290671999986802
16.0,0.00024084639999988333
28.0,0.00036108959999991974
4.0,0.00012048319999991008
536.0,0.0013249805349972998
4.0,0.00012048319999991008
33.0,0.00036060960000017239
29.0,0.00024240639999906222
981.0,0.0021656433499934735
629.0,0.0014484205099878356
27.0,0.0003609695999999829
884.0,0.0020429344000012506
622.0,0.0015672415999983258
21.0,0.00024144639999956752
935.0,0.0020505029699848798
11.0,0.00024048643998297869
1393.0,0.0030107141399888793
42.0,0.00036168959999960393
54.0,0.00036320453998439639
515.0,0.0013248351999992636
35.0,0.00036084960000004607
42.0,0.00036180733998647518
18.0,0.00024257093998003576
5.0,0.00012060319999984692
45.0,0.0004818127999997035
37.0,0.00036132090999752009
18216.0,0.034915012343079033
43.0,0.00036180959999954077
50.0,0.00036271678999533208
14.0,0.00024060640000000966
20.0,0.00024132639999963068
38.0,0.00036120959999985658
2537.0,0.0060163278999985081
15.0,0.00024072639999994649
5889.0,0.011423257124995256
73.0,0.00048073280000027196
1645.0,0.0036042960000026714
1114.0,0.0024099243459951847
2.0,0.00012035540000088218
8.0,0.00012096319999965743
17.0,0.00024098805598460338
472.0,0.0027652336000010269
2.0,0.00012024320000003641
7.0,0.0001208431999997206
2.0,0.00012024320000003641
5.0,0.00012060319999984692
432.0,0.0014451983999992368
5034.0,0.011062327859994614
28.0,0.00024228639999912538
1750.0,0.0057712935300016088
19.0,0.00024120639999969384
972.0,0.0022830608000015129
25.0,0.00024192639999931487
43.0,0.00048314749999622819
1.0,0.00012012320000009957
3976.0,0.0078095680000056511
2113.0,0.0043305914400011414
6.0,0.00012072319999978376
18.0,0.00024108639999975701
1.0,0.00012012320000009957
5582.0,0.010821973769996829
4.0,0.00012048319999991008
329.0,0.00096674559999776477
836.0,0.001923251746004162
5.0,0.00012067009599769918
2646.0,0.0052922608000007809
4344.0,0.0085375569360006676
88.0,0.00048253279999932452
568.0,0.001446518399998542
243.0,0.00084206240000006538
627.0,0.0028869168000003054
24.0,0.00024180639999937803
14.0,0.00024060640000000966
4.0,0.00012048319999991008
384.0,0.00096842559999688049
6.0,0.00012081859999191202
6.0,0.00012075689999302419
1241.0,0.0033663296000012721
37.0,0.00036108959999991974
3112.0,0.0069847762449903872
46.0,0.00036431853899165922
6.0,0.00012072319999978376
545.0,0.0013261754999944753
29.0,0.00036060960000017239
1.0,0.00012012320000009957
19318.0,0.039333512579001528
3.0,0.00012036319999997325
366.0,0.0009662905190004345
21.0,0.00024144639999956752
3.0,0.00012036319999997325
72.0,0.00048061280000033513
2631.0,0.0054192239999972802
5.0,0.00012060319999984692
19.0,0.00024120639999969384
14.0,0.00024072510899530997
48.0,0.00036240959999922495
6.0,0.00012073997900019506
19.0,0.00024120639999969384
731.0,0.001803048000000862
564.0,0.0013280465599903035
13.0,0.00024048640000007282
385.0,0.0010825488000001382
47.0,0.00036231375999729032
1.0,0.00012012320000009957
53.0,0.00036310455900334659
917.0,0.0020525752389941587
4884.0,0.0094971728000039501
12.0,0.00024036640000013598
7.0,0.00012086232899588545
37.0,0.00036118938999973871
46.0,0.00036216959999935128
617.0,0.0015666891799948068
578.0,0.0019223252589988249
8.0,0.00012106541000256321
3153.0,0.0062625133999929528
2.0,0.00012024320000003641
4.0,0.00012048319999991008
29.0,0.00024240639999906222
4.0,0.00012055442000136196
258.0,0.00084266239999974957
21.0,0.00024174089999551285
25.0,0.00024192639999931487
4.0,0.00012048319999991008
17.0,0.00024096639999982017
9.0,0.00012126184999927681
58.0,0.00036363876000278239
103.0,0.00048433279999837708
2881.0,0.0057715536000018108
3.0,0.00012036319999997325
43.0,0.00036190954000336895
450.0,0.0012043519999993535
5.0,0.00012068435999879057
13.0,0.00024062593000029331
26.0,0.000242143689999752
1306.0,0.002768113599999511
1077.0,0.0024144639999956752
17.0,0.00024099263000643134
3146.0,0.0085349620800008186
4.0,0.00012051972999960192
6509.0,0.012735939200009039
722.0,0.001688251930002771
4.0,0.00012059652999862891
29.0,0.00024271183999835522
73.0,0.00048073280000027196
40.0,0.00036144959999973025
23.0,0.00024169221000458485
28.0,0.00024228639999912538
63.0,0.00036420959999827751
281.0,0.00096098560000079658
3185.0,0.0063788710699961282
14685.0,0.028135607725991552
77.0,0.00048169279999976666
6.0,0.00012072319999978376
3787.0,0.009975296110002585
31.0,0.00036036960000029872
1268.0,0.0034857328000017507
2.0,0.00012024320000003641
2544.0,0.0058913646399976205
4.0,0.00012050840000021878
607.0,0.0014471183999982262
234.0,0.0007257791999979446
105.0,0.00048457279999825076
49.0,0.00036252959999916179
43.0,0.00036180959999954077
29.0,0.00024240639999906222
38.0,0.00036120959999985658
18.0,0.00024108639999975701
2161.0,0.0044511584000002102
6.0,0.00012072319999978376
14.0,0.00024060640000000966
26.0,0.0002420463999992517
11.0,0.00024024640000019915
45.0,0.00036204959999941444
8.0,0.00012099438600121637
1.0,0.0001201782959965314
121.0,0.00060301599999923461
299.0,0.0008466704560012861
1375.0,0.0028897967999987895
40.0,0.00036153564600205357
2477.0,0.004945878253990621
12.0,0.00024036640000013598
186.0,0.00072305059999333565
37.0,0.00036186305999286184
52.0,0.00036292186998210241
6.0,0.00012074135600603775
414.0,0.0026509391899800505
24.0,0.00024180639999937803
7.0,0.0001208431999997206
1161.0,0.0025251072000007646
20.0,0.00024158199999346763
2714.0,0.0054336680299880147
21.0,0.00024149754998181727
1050.0,0.0024036615859994725
2838.0,0.0058978746699902551
1329.0,0.0037307848999976745
210.0,0.00072432852599213504
4.0,0.00012052300999920718
6077.0,0.011783953600003505
17.0,0.00024099604999738844
270.0,0.00084398239999905478
2839.0,0.005766993600004211
3.0,0.00012043719999543789
30.0,0.00024255460999600409
4.0,0.00012048319999991008
3.0,0.00012036319999997325
9.0,0.00012115084999431147
24.0,0.00024180639999937803
16.0,0.00024084639999988333
5.0,0.00012060319999984692
6653.0,0.012878321119983882
212.0,0.00072325744999646169
17.0,0.00024097521999721927
7884.0,0.01516543726399977
29.0,0.00024240639999906222
2594.0,0.0052874608000033074
25.0,0.00024192639999931487
14.0,0.00024067406999961349
6.0,0.00012079721509894448
6.0,0.00012221596508221744
41.0,0.00036427483509204883
279.0,0.00085085516998772981
48.0,0.0004821217350949869
446.0,0.0012085812699798026
106.0,0.00048481011510070893
31.0,0.00036036960000029872
125.0,0.00060370585509605945
17.0,0.00024096639999982017
5.0,0.00012060319999984692
6699.0,0.012869350269999247
32.0,0.00036056730510480861
24.0,0.00024180639999937803
166.0,0.001321595200000969
547.0,0.0014463052999980075
6570.0,0.014558373344891073
21.0,0.00024144639999956752
2235.0,0.0045724817051002731
797.0,0.0033657296000015879
3.0,0.00012036319999997325
5.0,0.00012060319999984692
43.0,0.00036180959999954077
655.0,0.002168593899993132
88.0,0.00060301599999923461
14586.0,0.028047023648892555
17.0,0.00024096639999982017
77.0,0.00072169920000009213
2839.0,0.0056487904000031008
9.0,0.00012116209510959486
2499.0,0.0050457744000038662
4964.0,0.0097477887599877189
14.0,0.00024062265998758825
28.0,0.00024228639999912538
47.0,0.00036228959999928811
7.0,0.00012088162999734919
1053.0,0.0024118102699866029
783.0,0.001803768000000483
831.0,0.0031314345499913188
2198.0,0.0044563914499899937
1323.0,0.0033641696000024091
715.0,0.0016838470099826974
2025.0,0.004223878849972218
2780.0,0.0056623490999792025
110.0,0.00048694637997281909
29.0,0.00024241947997527546
3025.0,0.0061375251999895575
16.0,0.00024084639999988333
32.0,0.00036089809995965005
3.0,0.00012037389997110459
931.0,0.0045677470799787567
822.0,0.0019242512000003931
603.0,0.00144608929996215
1201.0,0.00434215497995738
3.0,0.00012039609997049894
22.0,0.00024162064999888599
431.0,0.0012020424199996604
4809.0,0.0096303072799830414
403.0,0.0014487340199806908
14422.0,0.027528543024895491
30.0,0.00024252639999899905
20.0,0.00024132639999963068
51.0,0.00036276959999903546
1451.0,0.0030106303299963777
1027.0,0.0022861680700005937
194.0,0.00072113579999943944
15.0,0.00024081599998604375
15.0,0.00024072639999994649
38.0,0.00036127569999999665
32.0,0.00036048960000023555
32.0,0.00036601420998061407
3558.0,0.0069814255999982588
19.0,0.00024120639999969384
459.0,0.0015667615999985784
232.0,0.0019352495099782541
21.0,0.00024275250997329856
12.0,0.00024036640000013598
5040.0,0.01057250852000724
273.0,0.00084602610998429917
50.0,0.00036281060997800374
15.0,0.00024232260997614219
8525.0,0.017595434749968497
2813.0,0.0076020542299755078
30.0,0.00024252639999899905
420.0,0.0016904944099722652
20.0,0.00024132639999963068
294.0,0.0008475823999971599
6.0,0.00012080287999460815
1649.0,0.0034877540099935711
34.0,0.00036072960000010923
16.0,0.00024104622999865377
4.0,0.00012069073999887436
17853.0,0.03407505617000095
218.0,0.0010823088000002645
9.0,0.00012108319999959427
3392.0,0.0067320503999983572
4.0,0.00012048319999991008
839.0,0.002044134400000619
524.0,0.0014435184000001211
177.0,0.00084473180999622421
19.0,0.00024120639999969384
893.0,0.0021680975999986973
29.0,0.00024240639999906222
531.0,0.0014422325839931194
23.0,0.00024169068398682825
3.0,0.00012036319999997325
88.0,0.00048253279999932452
5.0,0.00012060319999984692
18.0,0.00024108639999975701
10.0,0.00012120319999953111
3.0,0.00012036319999997325
15.0,0.00024072639999994649
31.0,0.00036036960000029872
560.0,0.0015630895440033044
46.0,0.00036216959999935128
126.0,0.00048803303998745662
22.0,0.00024156639999950436
296.0,0.00084585900399725134
363.0,0.002287663279984864
4.0,0.00012057690399291943
20.0,0.00024134262999297995
651.0,0.0024054640000004124
27.0,0.00024241179999551221
16.0,0.00024248918499325534
45.0,0.0003624338099947888
11702.0,0.022375677549995254
51.0,0.00048315583499380921
31.0,0.0003603754890113553
1865.0,0.0058910190340093482
1.0,0.00012020987899363789
7.0,0.0001208431999997206
710.0,0.0022841408000009444
4.0,0.00012082732499241189
16.0,0.00024092691899824104
15.0,0.00024072639999994649
14.0,0.00024061405399478097
3.0,0.00012036319999997325
2.0,0.0001203011500032769
752.0,0.0026514443949934297
1988.0,0.0058984346039914204
41.0,0.00048116752500071414
3297.0,0.0066185124699948972
16046.0,0.030558550745992674
5060.0,0.0098599458749963897
57.0,0.00036358652499401956
5287.0,0.010470185554985578
94.0,0.00048393269998769917
8.0,0.00012096319999965743
49.0,0.00036292129999271339
173.0,0.00084422239999892845
11692.0,0.023335444909997838
1491.0,0.003133934199995192
7.0,0.0001208431999997206
2.0,0.00012024320000003641
51.0,0.00036281946499161499
93.0,0.00060128648500712423
12.0,0.00024036640000013598
48.0,0.00036240959999922495
4688.0,0.011178417600005597
7.0,0.0001208431999997206
112.0,0.00096134367000066945
47.0,0.00036228959999928811
260.0,0.00084146240000038119
10.0,0.00012120319999953111
18.0,0.00024115526999435311
42.0,0.00036172847500037797
35.0,0.00036084960000004607
36.0,0.00036144959999973025
3576.0,0.0091367750499988798
111.0,0.00060373599999885563
1.0,0.00012023059999499708
25.0,0.00024192639999931487
2045.0,0.0056523173199931609
877.0,0.0020471343999990399
2.0,0.00012047505299106476
7.0,0.0001209328230029616
42.0,0.00036186329299936482
780.0,0.0018060065029958938
7384.0,0.015027441196997948
101.0,0.00048478268999385676
14.0,0.00024060640000000966
333.0,0.0019232480999975543
50.0,0.00036264959999909863
294.0,0.00096838081999472969
6415.0,0.012495452800008966
1425.0,0.0031331272769972163
31.0,0.0003603758999775053
10.0,0.00012120890799938167
307.0,0.00084854239999665459
1738.0,0.0036196220499937759
1962.0,0.0040901006369860049
2952.0,0.0070954558969933412
289.0,0.0016850767079883422
51.0,0.00036319630798864466
1.0,0.00012012320000009957
2.0,0.00012034393799509324
4.0,0.00012048319999991008
1214.0,0.0027654736000009006
10.0,0.00012120319999953111
2568.0,0.0076914829269936202
37.0,0.00036162506000025907
19.0,0.00024235980796971646
4.0,0.00012048319999991008
50.0,0.00036264959999909863
173.0,0.00072110630798616349
1595.0,0.0033744032479772201
748.0,0.0032598784079680421
5.0,0.0001207164980070452
20.0,0.00024132639999963068
1058.0,0.0050582332079753822
13193.0,0.026713848091972858
22.0,0.00024156639999950436
3174.0,0.0063784664279822323
17519.0,0.033534119248995076
29.0,0.00024240639999906222
422.0,0.001326035199998632
33.0,0.00036060960000017239
13.0,0.00024049260000036377
2.0,0.00012024320000003641
14.0,0.00024060640000000966
5.0,0.00012060319999984692
92.0,0.00048301279999907187
6.0,0.00012072319999978376
167.0,0.00060481599999828717
6757.0,0.012981229108003589
1546.0,0.0052949994999957894
1458.0,0.0032562772999860101
25.0,0.00024192639999931487
2794.0,0.0079341690999945591
4.0,0.00012048319999991008
703.0,0.0027630736000021638
16.0,0.00024106722999950314
37.0,0.00036112723998082963
927.0,0.0020471343999990399
19.0,0.00024120639999969384
21.0,0.00024152182999759297
73.0,0.00048076384000106387
45.0,0.00036204959999941444
4.0,0.00012058877000353796
629.0,0.0020493886999974897
7.0,0.0001214503499991082
17.0,0.00024145840999589829
53.0,0.00036300959999890914
19.0,0.00024124128000435618
3882.0,0.0080602270799940978
15.0,0.00024077336997896381
5091.0,0.0098679823999987537
21.0,0.00024156609998948753
600.0,0.0014479798699915669
19.0,0.00024141805998945109
1006.0,0.0021792913399736324
3122.0,0.006249203709966622
2752.0,0.0071166838799814336
8.0,0.00012096319999965743
6.0,0.00012182173997721257
9637.0,0.020595543569979613
369.0,0.0012033237599833324
1181.0,0.0025266671999999435
3.0,0.00012036319999997325
1248.0,0.0036089715099929531
265.0,0.00085062575999339529
38.0,0.00036125009999810054
2742.0,0.0055449188899907575
4.0,0.00012049150000081887
946.0,0.0020496543999977135
43.0,0.00036222239999617045
1465.0,0.0058953434299942042
293.0,0.00096122560000067025
17.0,0.00024096639999982017
766.0,0.0018038880000004198
15449.0,0.030536351461989186
25.0,0.00024192639999931487
2025.0,0.0042115197699961193
3.0,0.00012036319999997325
7.0,0.0001208431999997206
4.0,0.00012062639999466107
23.0,0.00024168639999944119
1031.0,0.0022872607999993022
18.0,0.00024114640999339798
41.0,0.00036156959999966709
39.0,0.00036170778899591305
46.0,0.00048221303899076418
2102.0,0.0062567085899920549
3193.0,0.0063761044999974814
15.0,0.00024076475898926475
11.0,0.00024024885899964765
3778.0,0.0074523923199918407
3.0,0.00012036319999997325
84.0,0.00048216847899507087
75.0,0.00072241919999971316
13.0,0.00024048640000007282
6.0,0.00012072319999978376
30.0,0.00024252639999899905
1891.0,0.0042086320000012112
1066.0,0.0024041440000011072
132.0,0.00060061600000049786
1548.0,0.0032503595789965534
472.0,0.0012069919999979639
16.0,0.00024084639999988333
427.0,0.0012043836589927803
7.0,0.00012092619999548582
7.0,0.00012089635999945614
3.0,0.00012042291900660196
348.0,0.0022840208000010076
56.0,0.00036336959999871965
771.0,0.0019270561499966643
26.0,0.00024213005999751402
403.0,0.0022825015289937856
343.0,0.00096710559999757528
661.0,0.001685943018995717
14399.0,0.027419825400970987
12809.0,0.025976787610998864
1.0,0.00012012320000009957
15762.0,0.030202866400988571
1.0,0.00012012320000009957
4927.0,0.01046275628998905
1404.0,0.0031294706199971323
1146.0,0.0051921388999818241
10.0,0.00012120319999953111
3645.0,0.007719481019969221
858.0,0.0019328789199970497
4.0,0.00012049296999272485
573.0,0.0015624644200034066
15.0,0.00024072639999994649
14.0,0.00024060640000000966
204.0,0.00072672816997565448
15.0,0.00024343942498283866
311.0,0.00096192415900664408
108.0,0.00048493279999806127
4611.0,0.0091419018109974992
4025.0,0.0079512254949947181
2559.0,0.0073277041890134065
20.0,0.00024143047500935211
726.0,0.001687604799998299
1697.0,0.0034897227780101847
6625.0,0.012891682649979863
46.0,0.00036216959999935128
4368.0,0.0089143663199786616
20.0,0.00024133717500607332
16.0,0.00024092382497165055
2632.0,0.0054112313489889097
4.0,0.00012048319999991008
5.0,0.00012070243498762956
5.0,0.00012060319999984692
18.0,0.00024108639999975701
2250.0,0.0046977707749955577
20.0,0.00024132639999963068
10371.0,0.02216547171499994
1.0,0.00012012320000009957
6487.0,0.012517154454995572
96.0,0.00048351055499695761
3.0,0.00012036319999997325
9.0,0.00012119173500613201
74.0,0.00048141478000096605
2893.0,0.0079375021499981102
1649.0,0.0034853538150045882
2026.0,0.0042078268999934387
3.0,0.00012096043998077732
37.0,0.00036108959999991974
3159.0,0.006272611729980726
245.0,0.0012095694899918463
3.0,0.00012057776999441217
4.0,0.00012052648999705262
156.0,0.00060407068999324132
2414.0,0.0050568372199970568
3333.0,0.0066213724799943918
1330.0,0.0031400420999760925
15.0,0.00024434628999370211
15.0,0.00024080859998831805
6.0,0.00012082728999041059
72.0,0.00048115729996855983
2575.0,0.0051693776000021341
3.0,0.00012276779997622
876.0,0.0020458054899963329
66.0,0.00036462578998452955
2.0,0.00012032319999000229
502.0,0.0013275875999894104
17.0,0.00024155579996443244
13434.0,0.025736087054989865
861.0,0.0020490128999715029
2338.0,0.0048165352999818278
19551.0,0.0375068143659818
1.0,0.00012012406996664282
22.0,0.00024156639999950436
24.0,0.00024180639999937803
46.0,0.00036256632997799798
3037.0,0.0060180159499894081
3181.0,0.006382086979969559
53.0,0.00060133600000011889
4356.0,0.0085424399700004816
10.0,0.00012120319999953111
1230.0,0.0050525618999812671
14.0,0.00024060640000000966
236.0,0.00084159182997711746
251.0,0.00072781919999687084
628.0,0.0015644815999997785
11378.0,0.022869284084974018
50.0,0.00036264959999909863
18.0,0.00024108639999975701
48.0,0.00036240959999922495
4495.0,0.0099802189699991217
207.0,0.00072253919999964999
35.0,0.0003614564699994105
198.0,0.00072133920000028162
1120.0,0.0024171389999929627
50.0,0.00036264959999909863
20.0,0.00024136410999942015
19.0,0.00024120639999969384
15.0,0.00024078690000028935
5.0,0.00012062965999160014
20.0,0.00024150193998484504
50.0,0.00048145279999989299
4.0,0.00012057126999498458
1083.0,0.002525587200000512
531.0,0.0014421984000008159
3291.0,0.006492890959995723
30.0,0.00024261366998712397
2.0,0.00012024320000003641
50.0,0.00036271915998953297
2867.0,0.0056521292199960271
391.0,0.0010844687999991276
3452.0,0.0068506896599944689
5.0,0.00012060319999984692
20.0,0.0002413475099922735
3561.0,0.0070900372599989048
4796.0,0.0096151868599996249
124.0,0.0004869302899899175
11881.0,0.02273016348999457
564.0,0.001446070490002338
1206.0,0.0046933368499932904
1027.0,0.0024024640000019915
50.0,0.00036264959999909863
41.0,0.00036156959999966709
103.0,0.00048433279999837708
95.0,0.00048339870998748147
54.0,0.00036312959999884598
1.0,0.00012012320000009957
10.0,0.00012131100998713507
14926.0,0.028489701779992771
70.0,0.00036504959999783537
395.0,0.0010843487999991908
32.0,0.00036048960000023555
51.0,0.00048460099999658723
239.0,0.00084194240000012854
85.0,0.00048221889999378043
4.0,0.00012048319999991008
2920.0,0.0058946041599883259
33.0,0.00036060960000017239
106.0,0.0004846927999981876
65.0,0.00036446659999800346
3.0,0.00012042189999150743
222.0,0.00072397919999889204
43.0,0.00036180959999954077
5252.0,0.010215840789997932
4.0,0.00012066999999671424
1.0,0.00012041069698631723
19.0,0.00024120639999969384
814.0,0.0036062977969903987
2428.0,0.0050460144000037399
5.0,0.00012068350699978581
1230.0,0.002647289599991387
53.0,0.00036318489999542791
2639.0,0.0054137714899940015
1281.0,0.0030082267099591498
48.0,0.00036240959999922495
1452.0,0.0031251232000015783
562.0,0.0015622016000009786
2.0,0.00012024320000003641
1912.0,0.0039646140499913773
3778.0,0.007466152599973741
40.0,0.00048430126997534018
12.0,0.00024046836995550436
3256.0,0.0065132442499660215
5.0,0.00012073136995072176
396.0,0.0012033069699550758
41.0,0.00036156959999966709
5.0,0.00012060319999984692
53.0,0.00036386287999068401
47.0,0.00048523046997850372
216.0,0.0010887604799825201
3153.0,0.0084128300399926026
17350.0,0.035481928402957941
3.0,0.00012066106994956804
18233.0,0.03477151005297463
4216.0,0.0083230929599491521
1336.0,0.0051702320999635898
6363.0,0.012406839739977693
619.0,0.0032452292699558516
9410.0,0.018770369002967691
3362.0,0.0067356182999915859
2932.0,0.0058915568000019736
10.0,0.00012120319999953111
33.0,0.00036091309999486398
6216.0,0.012168429939949377
2780.0,0.0057797150999940872
1008.0,0.0021686975999983815
5755.0,0.011434738959980928
6.0,0.00012074900997105509
103.0,0.00048433279999837708
559.0,0.0013283151999974319
52.0,0.0003628895999989723
4.0,0.00012048319999991008
1021.0,0.0022842608000008813
31.0,0.00036040951000204657
11.0,0.00024024640000019915
596.0,0.001456181199968265
20.0,0.00024132639999963068
981.0,0.003366449600001209
2201.0,0.0045709924999628448
5337.0,0.013108741569952009
29.0,0.00024240639999906222
30.0,0.00024252639999899905
5.0,0.00012060319999984692
20.0,0.00024132639999963068
1117.0,0.0025254672000005751
10906.0,0.02105167805999475
49.0,0.00036252959999916179
4.0,0.00012048319999991008
3283.0,0.0064905222000091189
1.0,0.00012014239997215626
10.0,0.00012120319999953111
2028.0,0.0042062320000024744
18828.0,0.035830657692996093
4756.0,0.0092580754999971315
40.0,0.00036144959999973025
6.0,0.00012072319999978376
51.0,0.00036276959999903546
5886.0,0.014194082889971149
43.0,0.00036180959999954077
20.0,0.00024132639999963068
23.0,0.00024168639999944119
5.0,0.00012060319999984692
197.0,0.00072301919999939734
18.0,0.00024144252999613869
14.0,0.00024061592999280457
132.0,0.00060133600000011889
15.0,0.00024072764999383267
13.0,0.00024048640000007282
405.0,0.0012114549599830937
615.0,0.0014463983999986052
17.0,0.00024102800000025404
11.0,0.00024026879999916595
750.0,0.001687597599995927
2599.0,0.0052924829000000617
1725.0,0.0036036960000029872
21.0,0.00024144639999956752
36.0,0.00036104467998465672
359.0,0.0010844687999991276
28.0,0.00024229551998811161
31.0,0.00036040338000176142
20.0,0.00024139981999726778
97.0,0.00048589939999721388
20.0,0.00024138329999412456
32.0,0.0003605046099925957
613.0,0.0014460383999987947
2906.0,0.0058911968000021631
5504.0,0.012992322886992147
1.0,0.00012012320000009957
1174.0,0.0025273871999995645
129.0,0.00072869440997935797
4150.0,0.0086661101599978529
50.0,0.00036264959999909863
4.0,0.00012049089999544016
5534.0,0.010839122979984905
1071.0,0.0025292507099856643
14.0,0.00024066144000056688
488.0,0.0012079519999974586
320.0,0.00096242560000003863
370.0,0.0010845887999990644
2.0,0.0001202466199810015
2673.0,0.0054192075099814829
13.0,0.00024048640000007282
1497.0,0.0033674096000007037
39.0,0.00036132959999979342
21.0,0.00024144639999956752
4767.0,0.010939057319994783
22.0,0.00024156639999950436
10.0,0.00012120319999953111
1236.0,0.0038458624000021757
6.0,0.00012072319999978376
6191.0,0.012023019199999485
7.0,0.0001208431999997206
7.0,0.0001208431999997206
2822.0,0.0058962854399942088
21.0,0.00024144639999956752
336.0,0.0010812868399927567
42.0,0.00036168959999960393
7.0,0.0001208431999997206
55.0,0.00036324959999878281
30.0,0.00024252639999899905
18.0,0.00024108639999975701
5.0,0.00012060319999984692
15.0,0.00024084272999624901
52.0,0.0003628895999989723
616.0,0.001446518399998542
417.0,0.0012164981299722655
1258.0,0.0027668969699692347
261.0,0.00097408792997843996
266.0,0.00084514182998751686
845.0,0.0019265434300002049
25.0,0.00024204062999810816
3200.0,0.0063708496000030035
4.0,0.00012048319999991008
148.0,0.00060261172999398482
8.0,0.00012096319999965743
40.0,0.00036144959999973025
5018.0,0.010112142359982146
2980.0,0.0060288183099890258
19.0,0.00024120639999969384
11.0,0.00024024640000019915
14.0,0.00024060821000038146
40.0,0.00036144959999973025
21.0,0.00024144639999956752
4842.0,0.0097460135599960473
6.0,0.00012085959997776285
43.0,0.0003623738669729093
507.0,0.0013256751999988214
22.0,0.00024156639999950436
48.0,0.00036502226696599749
6.0,0.00012116033699971496
1326.0,0.0036161578999953647
11037.0,0.021197691249967399
629.0,0.0015649420369996392
29.0,0.00036269685099865612
828.0,0.0025292677369770367
1418.0,0.0033648378669830503
911.0,0.0021704651069696101
1310.0,0.0028834368000021371
608.0,0.0014485403099973038
6285.0,0.012510575602991736
69.0,0.00048177524797532456
40.0,0.00036144959999973025
4306.0,0.011428437429980676
4.0,0.00012048319999991008
885.0,0.004215059150995959
317.0,0.0009626655999999123
18.0,0.00024108639999975701
5.0,0.00012060319999984692
15.0,0.00024075858500305358
85.0,0.0004827727999991982
1322.0,0.0028877567999998632
20.0,0.00024132639999963068
33.0,0.00036060960000017239
1.0,0.00012016048500385068
34.0,0.00036072960000010923
568.0,0.0014455583999990473
19.0,0.00024120639999969384
40.0,0.00048049280000039829
52.0,0.0003628895999989723
5233.0,0.010105110434991627
98.0,0.00048433688000026898
20.0,0.00024132639999963068
675.0,0.0018032675999963832
398.0,0.0024024640000019915
399.0,0.0010857878999959159
2083.0,0.0043324751999993527
6280.0,0.012143723855987609
2006.0,0.0042056320000027902
18.0,0.00024108639999975701
1406.0,0.0031244070799996138
269.0,0.00084518239999842315
6.0,0.00012072319999978376
768.0,0.0018020880000013673
459.0,0.0012027900299891314
30.0,0.00024252639999899905
50.0,0.00036264959999909863
398.0,0.0012041119999994798
361.0,0.001082668800000075
4.0,0.00012048319999991008
8.0,0.00012096319999965743
19.0,0.00024120639999969384
763.0,0.0018089133999970031
6.0,0.00012072319999978376
33.0,0.0003606263899955664
42.0,0.00036175338000266066
18665.0,0.036791933437995805
960.0,0.0043332107999958236
2641.0,0.0075799381999970272
999.0,0.0032457264000014252
8.0,0.00012096319999965743
1.0,0.00012015003000120927
1.0,0.00012020683000701915
80.0,0.00048166705000030063
11.0,0.00024060222999944259
334.0,0.00097032437999278187
14.0,0.00024060640000000966
1.0,0.00012014857578734883
49.0,0.00036333904579843868
6.0,0.00012080859579710612
1104.0,0.0024136239999961173
6303.0,0.012253046400009904
51.0,0.00036276959999903546
44.0,0.0003619295999994776
2.0,0.00012179000578682597
321.0,0.00096537801580076632
719.0,0.0026568009757850231
5225.0,0.01108512472998302
1.0,0.00012012320000009957
802.0,0.0018060893058033933
2446.0,0.0049436828299913582
45.0,0.0003621591258060608
4393.0,0.0090284168199987747
1998.0,0.0043414478499910203
17.0,0.00024096639999982017
5.0,0.00012060319999984692
13.0,0.00024055914998899475
721.0,0.0016859247999991833
27.0,0.00024216639999918854
2230.0,0.0045709366857973333
1498.0,0.0053103841899917459
2.0,0.00012029959999804163
5.0,0.00012060319999984692
17.0,0.00024096767999637336
1024.0,0.0022893007999982284
244.0,0.00072752084999638811
2118.0,0.0073453130799900901
398.0,0.0012019520000006167
20.0,0.00024135918000034451
1183.0,0.00264463040000118
2813.0,0.0057673072999999686
1218.0,0.0026472703999997904
6324.0,0.012509576424193147
15.0,0.00024072639999994649
18.0,0.00024108639999975701
34.0,0.00036072960000010923
513.0,0.0018029657299936108
988.0,0.0022836608000011971
943.0,0.0021687978999875845
18.0,0.00024108639999975701
95.0,0.00048337279999888239
46.0,0.00036216959999935128
13.0,0.00024048640000007282
730.0,0.0016863659999926117
23.0,0.00024168639999944119
18.0,0.00024108639999975701
4.0,0.00012048319999991008
19.0,0.00024120639999969384
5.0,0.00012060319999984692
11.0,0.00024024640000019915
655.0,0.0016818448000013309
5.0,0.00012060319999984692
13.0,0.00024057484999406853
475.0,0.0016836045000001576
5.0,0.00012065354999979405
14.0,0.00024060640000000966
918.0,0.002163177600001287
1840.0,0.0038488624000005967
2.0,0.00012047629999512033
6514.0,0.012501798629993344
724.0,0.0018155571999933784
2.0,0.00012024320000003641
432.0,0.0012043519999993535
19.0,0.00024120639999969384
74.0,0.0004808528000002088
37.0,0.00036113108799207261
11.0,0.00024024640000019915
1.0,0.00012022027799551971
90.0,0.0004827727999991982
922.0,0.0025314271259961885
3.0,0.00012036319999997325
39.0,0.00036132959999979342
13.0,0.00024106319998051795
241.0,0.0014489990999762004
2199.0,0.0052876680099989137
1167.0,0.0044604548099820285
3220.0,0.0065093077839857294
1273.0,0.0028841640999976992
4.0,0.00012183012999567033
65.0,0.00036448043998893453
53.0,0.00036300959999890914
877.0,0.0020471343999990399
824.0,0.0020463602099960454
5543.0,0.010816789599999543
5.0,0.00012061223999082493
23.0,0.00024168639999944119
98.0,0.00048376259998539339
27.0,0.00024216639999918854
36.0,0.0003609695999999829
7.0,0.00012089983999552523
37.0,0.00036108959999991974
31.0,0.00036046298999226067
210.0,0.00072289919999946051
127.0,0.00060114879999373372
2376.0,0.0054181423399990436
28.0,0.00024240043999990135
24.0,0.00024182768999536641
4.0,0.00012048319999991008
2940.0,0.0060300168799947151
76.0,0.00048355229999530458
31.0,0.00036036960000029872
1048.0,0.0022895907999873621
14.0,0.00024060640000000966
1033.0,0.0022877087999966239
3022.0,0.0060121624099958026
4778.0,0.0094030074499888983
901.0,0.0021674202999935055
31.0,0.0003604003799930755
2031.0,0.0041026469399911836
3.0,0.00012036319999997325
31.0,0.00036044353000974638
874.0,0.0021637736999955415
22.0,0.00024184028999862939
281.0,0.00084629838998995233
6260.0,0.012160529769990047
19.0,0.00024120639999969384
31.0,0.00036227042999348313
35.0,0.00036094273000775168
532.0,0.0013284391200041323
45.0,0.00036214890999497484
2.0,0.00012026557999433862
5585.0,0.012617792840009967
3401.0,0.006752176649993169
12605.0,0.024065400351991117
2526.0,0.0051703071299900039
45.0,0.00036209317999702506
10.0,0.00012120319999953111
529.0,0.0026502538199963954
21.0,0.00024144639999956752
296.0,0.0014441974999899188
24.0,0.00024183820000045486
1294.0,0.0028883346999872828
46.0,0.00036223375999910878
3216.0,0.0066096560000039606
120.0,0.00048637279999730332
11.0,0.00024032282999719712
90.0,0.00048277552999675954
2917.0,0.0057839842899922722
15.0,0.0002417940599948043
3700.0,0.009502602919998715
10.0,0.00012129459000420617
1001.0,0.0021687929299984976
12.0,0.00024036640000013598
3.0,0.00012036319999997325
74.0,0.0004808528000002088
1975.0,0.0040895398299856112
7.0,0.0001208431999997206
42.0,0.00036602778999861307
11.0,0.00024024640000019915
1006.0,0.0022824641900072162
14.0,0.00024070439199874727
6030.0,0.012387671799994449
17.0,0.00024098635200120455
6451.0,0.012633798130002427
29.0,0.0003642236219969508
16.0,0.00024084639999988333
40.0,0.00036144959999973025
16.0,0.00024084639999988333
3.0,0.00012045566000096208
5.0,0.00012060319999984692
18.0,0.00024108639999975701
19.0,0.00024120639999969384
15975.0,0.031261729973993457
32.0,0.0003605484199964426
1697.0,0.0034876528000007401
9.0,0.00012118174199748921
1206.0,0.0026503183999937452
1122.0,0.0042070796000026611
2.0,0.00012024320000003641
360.0,0.0018047279999999777
6.0,0.00012079841998358098
4180.0,0.0084337336379858296
47.0,0.0003623606420009029
3.0,0.00012045932200654974
36.0,0.00036099720000049018
862.0,0.0019257977600002363
92.0,0.0007215792000001553
2.0,0.00012024320000003641
2.0,0.00012024320000003641
1222.0,0.0026486902199904794
15.0,0.00024072639999994649
2274.0,0.0046965359199848677
480.0,0.0012054037219979552
17.0,0.00024106572999804676
1704.0,0.0062626116099961937
1677.0,0.0034860751200005424
20.0,0.0002414445299785406
5.0,0.00012230003998880967
6506.0,0.014418945160007635
3171.0,0.0063754207199970825
792.0,0.0018061679999992197
4.0,0.00012048319999991008
1.0,0.00012012320000009957
2.0,0.00012030829000164722
2977.0,0.0060183952219952097
194.0,0.00072362225998845453
29.0,0.00036120959999985658
5962.0,0.013002703719980024
6485.0,0.012627938969998365
2330.0,0.0047011964899796865
8.0,0.00012096319999965743
8480.0,0.016362925607977363
896.0,0.0019294405099921086
2172.0,0.0063764855699948164
2.0,0.00012024320000003641
7.0,0.0001208431999997206
3159.0,0.006261526389985006
7.0,0.0001208431999997206
6.0,0.00012072319999978376
126.0,0.00048709279999692434
2767.0,0.0055325770699923282
82.0,0.0004818127999997035
2045.0,0.0042176372899898062
17.0,0.00024096639999982017
5608.0,0.010818665699999563
518.0,0.0013243551999995162
18.0,0.00024113998999331088
311.0,0.0022925637499915386
37.0,0.00036227718998849134
6.0,0.00012072319999978376
190.0,0.00072073920000059744
743.0,0.001688861599996816
11.0,0.00024031278999703254
1.0,0.00012012320000009957
3.0,0.00012036319999997325
2568.0,0.0051714401899927154
21.0,0.00024144639999956752
16.0,0.00024086963999958577
3500.0,0.007217659999996684
49.0,0.00036252959999916179
8.0,0.00012096319999965743
13.0,0.00024051434000238459
4.0,0.00012048319999991008
16.0,0.00024084639999988333
6134.0,0.011901878290002887
49.0,0.00036252959999916179
27.0,0.00024216639999918854
121.0,0.00048649279999724016
5.0,0.00012060319999984692
41.0,0.00036156959999966709
22.0,0.00024156639999950436
23.0,0.00024168639999944119
3200.0,0.0063815056299951767
11.0,0.00024024640000019915
436.0,0.0016841248000001308
5201.0,0.010211792000007769
73.0,0.00048073280000027196
15.0,0.00024072639999994649
12.0,0.00024036640000013598
5493.0,0.010698177859996827
10.0,0.00012120319999953111
1103.0,0.0026434304000018116
132.0,0.00060109600000024521
2859.0,0.0056584457499941898
3019.0,0.0060072400000044102
3575.0,0.006974022729999918
1149.0,0.0038493740399994092
533.0,0.0019261018600029711
1052.0,0.0038446624000028073
49.0,0.00036252959999916179
5.0,0.00012081328999480334
53.0,0.00036310850999909938
295.0,0.00096134560000060709
1.0,0.00012012320000009957
8.0,0.00012096319999965743
3107.0,0.0061340144999955104
52.0,0.0003628895999989723
16.0,0.00024084639999988333
1072.0,0.0024079160999967986
369.0,0.00096758559999732263
14.0,0.00024060640000000966
868.0,0.001927744799996356
5.0,0.00012060319999984692
2.0,0.00012024320000003641
43.0,0.00036184621999746369
48.0,0.00036672368699597335
5577.0,0.010814404471994443
595.0,0.0014444105229969306
40.0,0.00036144959999973025
441.0,0.0021716718699960058
672.0,0.0018041280000002935
34.0,0.00036072960000010923
14.0,0.00024060640000000966
1662.0,0.0036137759999976815
1062.0,0.0025375106769902622
1301.0,0.0027692379149997226
22.0,0.00024181637699394187
199.0,0.00072133920000028162
20.0,0.00024139381500898338
3.0,0.00012047661501046747
13.0,0.00024048640000007282
3.0,0.00012067927698788949
105.0,0.0010897845999828792
2288.0,0.0045706821770017392
1535.0,0.0043401572999861582
15.0,0.00024129557698837623
1150.0,0.005174166816993564
3937.0,0.0092684378199705542
19.0,0.00024120639999969384
764.0,0.0018026071769852159
4.0,0.00012050551197329007
2121.0,0.0072287251769878047
298.0,0.00096206560000022812
77.0,0.00084769429998998724
14.0,0.00024060640000000966
1850.0,0.0040926458769767748
48.0,0.0006007360000004347
65.0,0.00036453304699590738
28.0,0.00024228639999912538
16.0,0.00024084639999988333
9.0,0.00012108319999959427
6.0,0.00012072319999978376
31.0,0.00036036960000029872
3.0,0.00012046024499046126
935.0,0.004204312000003485
3799.0,0.0088910607769956407
22.0,0.00024160616699941961
3676.0,0.0073371380769833294
10.0,0.00012126354499542025
46.0,0.00036216959999935128
50.0,0.00048145279999989299
19.0,0.00024128955500035687
496.0,0.0028872780899964479
531.0,0.0014433984000001843
277.0,0.00084650239999772836
47.0,0.00036228959999928811
19.0,0.00024120639999969384
554.0,0.0013301096669764423
45.0,0.00036204959999941444
39.0,0.0003619295999994776
424.0,0.0025243402549963712
8750.0,0.016834504409996676
2382.0,0.0073306778669843808
77.0,0.00048121280000001931
16231.0,0.030887512795000127
53.0,0.00060137948999350321
13.0,0.00024048640000007282
21.0,0.00024144639999956752
5732.0,0.011064094624995136
27.0,0.00024216639999918854
7499.0,0.014544945435005729
8.0,0.00012096319999965743
191.0,0.00072181920000002897
5.0,0.00012060319999984692
3.0,0.00012036319999997325
299.0,0.0008487636419833855
58.0,0.00036360959999859332
1.0,0.00012012320000009957
30.0,0.00024252639999899905
99.0,0.00096182560000035444
39.0,0.00036132959999979342
4.0,0.00012054666700045402
19.0,0.00024120639999969384
11.0,0.00024024640000019915
6.0,0.00012072319999978376
29.0,0.00024240639999906222
2.0,0.00012042451198479576
15.0,0.00024083786700535015
2227.0,0.0045780616919854911
2.0,0.00012024320000003641
51.0,0.00036276959999903546
24.0,0.00024180639999937803
12094.0,0.023556606528002844
1.0,0.00012012320000009957
25.0,0.00024192639999931487
19.0,0.00024120639999969384
4912.0,0.010935891200006598
16.0,0.00024094613200098536
48.0,0.00036240959999922495
20.0,0.00024156874199632306
97.0,0.00096268687399914121
16.0,0.00024084639999988333
2.0,0.00012024320000003641
2.0,0.00012024320000003641
17.0,0.00024118573000064814
5785.0,0.013336673565005119
2674.0,0.0078243625119875926
2071.0,0.0043301952000005528
195.0,0.0007209476160021655
1333.0,0.0028894295659978031
4.0,0.00012048319999991008
16.0,0.00024084639999988333
19.0,0.00024127460799761025
16.0,0.00024084639999988333
45.0,0.00048278343299412718
7017.0,0.015994622001996195
23.0,0.00036048960000023555
626.0,0.0015664986229875222
12410.0,0.02369996734498625
3419.0,0.0068619023999978435
45.0,0.00036204959999941444
21.0,0.00024144639999956752
846.0,0.0019234112000008352
19.0,0.00024120639999969384
365.0,0.0010827888000000119
109.0,0.0010811560500001427
3029.0,0.00745922888499706
54.0,0.00048217279999951401
78.0,0.00048133279999995615
4545.0,0.0088961968000036418
25.0,0.00024192639999931487
5136.0,0.011172987132008982
472.0,0.0013232752000000847
27.0,0.00024222898300729767
1812.0,0.003730787359992771
1099.0,0.0024045539430093132
103.0,0.00048435159999682398
19.0,0.00024136057999513127
3086.0,0.0061362431999998357
379.0,0.0010850687999988118
945.0,0.0044562319430032638
1.0,0.00012012320000009957
254.0,0.00084194240000012854
1149.0,0.002523307200001712
41.0,0.00036156959999966709
317.0,0.00096158560000048077
38.0,0.00036120959999985658
97.0,0.00048361279999875606
89.0,0.00048265279999926136
73.0,0.0004808041600006252
32.0,0.00036050781000462884
606.0,0.0014521583999955734
39.0,0.00048109280000008248
20.0,0.00024132639999963068
30.0,0.00036048960000023555
4061.0,0.0079378984999955993
1287.0,0.0053087156599904706
39.0,0.00036132959999979342
403.0,0.0010853141599962424
5.0,0.00012060319999984692
37.0,0.00036115049999896343
19.0,0.00024131885999856273
18.0,0.00024108639999975701
12.0,0.0002404286499979591
2405.0,0.0049309312000009875
59.0,0.00048186930999549737
486.0,0.0012072319999978376
12.0,0.00024036640000013598
4.0,0.00012048319999991008
243.0,0.00072661919999750246
43.0,0.00036185348999517863
2999.0,0.0060136000000010625
3091.0,0.0062483264000041672
3.0,0.00012036319999997325
36.0,0.0003609695999999829
2.0,0.00012024320000003641
37.0,0.00036108959999991974
20.0,0.00024132639999963068
2992.0,0.0060103908999993294
16.0,0.00024084639999988333
36.0,0.00036120959999985658
7.0,0.0001208431999997206
420.0,0.0012049850999975575
1.0,0.00012012320000009957
52.0,0.0003628895999989723
4624.0,0.0090125197100008325
4.0,0.00012048319999991008
4.0,0.00012048319999991008
3.0,0.00012036319999997325
10.0,0.00012120319999953111
54.0,0.00036312959999884598
45.0,0.00048184448999744056
42.0,0.0003621436899983177
619.0,0.0015647215999996522
59.0,0.00036372959999853016
17.0,0.00024096639999982017
1656.0,0.0036121820099930257
4.0,0.00012089950998817045
15.0,0.00024104360998888907
1062.0,0.0027774504799895627
1290.0,0.0045654397999854712
15.0,0.00024072639999994649
35.0,0.00036084960000004607
6.0,0.0001208306829985073
94.0,0.00096125931000257125
5.0,0.00012060319999984692
440.0,0.0012037519999996693
23.0,0.00024168639999944119
17.0,0.00024096639999982017
712.0,0.0016882047999979832
2.0,0.00012037335999681709
2700.0,0.0055327854269942023
4883.0,0.010100872056993726
640.0,0.001567121599998389
282.0,0.00084742162998097115
90.0,0.0004827908299886996
2.0,0.00012024320000003641
2458.0,0.0079479164169906635
2.0,0.00012035701300394663
21.0,0.00024144639999956752
52.0,0.0003628895999989723
15.0,0.00024248844199870057
592.0,0.0014487983999973419
19.0,0.00024120639999969384
6.0,0.00012083524198502893
40.0,0.00036144959999973025
32.0,0.00036277705499832003
2.0,0.00012037397499797819
55.0,0.00036324959999878281
430.0,0.0021635376000010975
4.0,0.00012068059999292835
10.0,0.00012120319999953111
5467.0,0.010693964800007283
3.0,0.00012051981999516848
5514.0,0.010703928979999056
304.0,0.00096470559999883854
18.0,0.00024108639999975701
1270.0,0.0027665052799965562
6.0,0.00012072319999978376
1910.0,0.0040925030299963083
38.0,0.00036120959999985658
252.0,0.0014448404199984832
6.0,0.00012072319999978376
206.0,0.0012050097399920467
10.0,0.00012120319999953111
727.0,0.0018030363900025659
29.0,0.00024240639999906222
2442.0,0.0057802730599931795
9.0,0.00012118616000167393
3.0,0.00012036319999997325
6.0,0.00012072319999978376
3.0,0.00012036319999997325
3409.0,0.0067327351399977253
361.0,0.0013249551999992004
3995.0,0.0084256211879871756
39.0,0.00036132959999979342
6.0,0.00012072319999978376
874.0,0.0019271311999988772
28.0,0.00024228639999912538
101.0,0.00048409279999850341
4883.0,0.0094955188099985488
18.0,0.00024108639999975701
15.0,0.00024072639999994649
6.0,0.00012093479997998813
32.0,0.00036048960000023555
476.0,0.0016836872699992345
944.0,0.003727970589991525
721.0,0.0021678035199801382
1212.0,0.002530552419982568
9.0,0.00012108319999959427
1928.0,0.0040847888000030697
6.0,0.00012072319999978376
570.0,0.0033733252999716967
17012.0,0.032479625454995942
4.0,0.00012048319999991008
6.0,0.00012083373997562319
2.0,0.00012024320000003641
6.0,0.00012072319999978376
2090.0,0.0063691094299886952
5.0,0.00012071551917958168
52.0,0.0003628895999989723
5.0,0.00012060319999984692
77.0,0.00048121280000001931
332.0,0.00096542559999845956
3918.0,0.0077005339299773823
105.0,0.00048457279999825076
16.0,0.00024084639999988333
326.0,0.00096590559999820691
39.0,0.00036132959999979342
43.0,0.00036180959999954077
12.0,0.00024042889718245419
105.0,0.00048457279999825076
994.0,0.004091649699997868
15.0,0.00024147619999759229
47.0,0.0003630119999975534
12.0,0.00024036640000013598
21.0,0.00024144639999956752
144.0,0.00060289599999929777
28.0,0.00036333819999700978
10.0,0.00012120319999953111
184.0,0.00072133099717519578
5.0,0.00012060319999984692
623.0,0.0015684415999976942
14.0,0.00024060640000000966
238.0,0.0018025680000011146
5.0,0.00012296078999129989
3.0,0.00012067468999132913
8.0,0.00012096319999965743
21.0,0.00024144639999956752
21.0,0.00024242387998962833
47.0,0.00036228959999928811
6.0,0.00012072319999978376
31.0,0.00036036960000029872
43.0,0.00048328348099491159
41.0,0.00036156959999966709
15.0,0.00024108346499729372
11.0,0.00024024640000019915
69.0,0.00072169920000009213
6.0,0.00012078516499536285
3691.0,0.0084216931199947442
107.0,0.00048481279999812443
1433.0,0.0032434330581825321
2690.0,0.0060141214199995741
542.0,0.0014447183999994895
1083.0,0.0022923057649868461
526.0,0.0026434152649934539
1.0,0.00012023666218063944
7.0,0.0001208431999997206
66.0,0.00060114900000263205
6.0,0.00012072319999978376
16058.0,0.030660471702788072
11.0,0.00024030043999889728
106.0,0.00048478985999866886
6107.0,0.012033393584993668
14.0,0.00024060640000000966
531.0,0.0018029568599997603
506.0,0.001328195199997495
112.0,0.00084225033999496546
1502.0,0.0056465638200029478
7.0,0.00012087549998818226
3157.0,0.0063725296000021192
3120.0,0.0069763672999887394
19.0,0.0002412795599986417
24.0,0.00024180639999937803
20.0,0.00024132639999963068
6066.0,0.011777296300003126
2742.0,0.0056511904000018376
44.0,0.00048169279999976666
7.0,0.00012091729301211274
26.0,0.0002420463999992517
25.0,0.00024194915999897759
543.0,0.0026430025930135326
5379.0,0.010466313399996929
31.0,0.00036036960000029872
997.0,0.0026544703999960007
7.0,0.00012103285999520708
50.0,0.00036265525301804047
1203.0,0.0025289684100020526
104.0,0.00060163079999320246
3278.0,0.0085319872000053643
1.0,0.00012012320000009957
14.0,0.00024090629998507751
15.0,0.00024207706898082826
3086.0,0.0061377054409881282
18.0,0.00024108639999975701
608.0,0.001451398270998272
2493.0,0.0075756941499907082
694.0,0.0020438944000007453
6.0,0.00012188995900186406
15.0,0.00024258791999831608
36.0,0.00036158081999260183
1437.0,0.0055424917099904381
9.0,0.00012108319999959427
3146.0,0.0062588591099974611
2071.0,0.0043367282899862136
16.0,0.00024093243997946878
145.0,0.0010813245999994336
1138.0,0.0026522432999942502
730.0,0.0019243912809989716
105.0,0.00084199942099161262
1341.0,0.0028942115809826863
17423.0,0.034376843104979127
2760.0,0.0062584500789766295
2789.0,0.0075800616499741569
1059.0,0.0028839168000018844
1183.0,0.0030163999999954783
22.0,0.00024202787998217623
787.0,0.001808774199997254
2965.0,0.0061553441789856667
216.0,0.0014414784000011949
7.0,0.0001208431999997206
19.0,0.00024125450099066192
16.0,0.00024214457298854519
1.0,0.00012012320000009957
1.0,0.00012012320000009957
47.0,0.00036228959999928811
6268.0,0.014704715159980619
28.0,0.00024228639999912538
5312.0,0.011325292840986823
3.0,0.00012061173198785191
17.0,0.00024096639999982017
1038.0,0.0040906354799898903
21.0,0.00024152083198569763
3679.0,0.0073372617999956091
509.0,0.0025253472000006383
97.0,0.00048361279999875606
130.0,0.00048757279999667169
657.0,0.0021635376000010975
13.0,0.00024048640000007282
5.0,0.00012305769999687577
182.0,0.00060649599999740289
1606.0,0.0034941374499912747
2747.0,0.0067494904979930048
33.0,0.00036108959999991974
3186.0,0.0087792576179983595
12856.0,0.024550048957986181
14.0,0.00024060640000000966
124.0,0.00096122560000067025
116.0,0.00060157599999999256
38.0,0.00036120959999985658
5.0,0.00012060319999984692
402.0,0.0014449583999993632
31.0,0.00036144959999973025
2.0,0.00012030889999881111
7.0,0.0001208431999997206
3778.0,0.0074493184000052892
3278.0,0.0067409495999939395
1.0,0.00012012320000009957
5.0,0.00012060319999984692
47.0,0.00036228959999928811
1284.0,0.0027667595999996131
336.0,0.001210212299991964
440.0,0.0022848608000005655
45.0,0.00036217949999683974
41.0,0.00048135079999234165
13.0,0.00024048640000007282
15.0,0.00024072639999994649
23.0,0.00024168639999944119
6896.0,0.01359712254999601
74.0,0.0004808528000002088
147.0,0.0006026559999994241
4.0,0.00012057246999197524
45.0,0.00036204959999941444
32.0,0.00036048960000023555
6568.0,0.015037653899990788
1630.0,0.0034838128000027613
42.0,0.00036168959999960393
3.0,0.00012036319999997325
13.0,0.00024049669999981482
54.0,0.00048289279999913504
2819.0,0.0057753110999974044
412.0,0.0010865087999980538
4.0,0.00012048319999991008
1105.0,0.0031278832000001255
27.0,0.00024216639999918854
30.0,0.000242535406995259
36.0,0.00036165376299868157
363.0,0.00096626559999801742
1234.0,0.0027628336000022902
31.0,0.00036144959999973025
6987.0,0.013458090880002382
820.0,0.0019293059499940757
1475.0,0.0031270034799986135
50.0,0.00036264959999909863
10.0,0.00012120319999953111
101.0,0.00048409279999850341
1.0,0.00012012320000009957
39.0,0.00036132959999979342
581.0,0.001447665550000421
3.0,0.00012036319999997325
2472.0,0.0050457744000038662
620.0,0.0015640906699994073
3863.0,0.0077093451629910437
2.0,0.00012036386999336735
5413.0,0.012744209752999502
52.0,0.0003628895999989723
3425.0,0.0090204168999969969
16.0,0.00024084639999988333
47.0,0.00036228959999928811
1259.0,0.0050497046699928827
53.0,0.00036335427999278913
1112.0,0.0025251072000007646
4777.0,0.0093727191299965984
632.0,0.0015673615999982626
978.0,0.0022828208000016392
1615.0,0.0033674096000007037
741.0,0.0018100079999971985
1882.0,0.0048206880699948051
2436.0,0.0049288912000020613
13.0,0.00024048640000007282
602.0,0.0014489183999972788
22.0,0.00024156639999950436
508.0,0.0019262234999968264
1.0,0.00012012320000009957
2.0,0.00012024320000003641
6.0,0.00012072319999978376
4.0,0.00012048319999991008
19.0,0.00024120639999969384
26.0,0.0002420463999992517
24.0,0.00024208177999862635
34.0,0.00036072960000010923
5.0,0.00012060319999984692
34.0,0.00036083626700134097
22.0,0.00024156639999950436
52.0,0.00036325613699927928
3749.0,0.0073391551999999471
83.0,0.00048193279999964034
3616.0,0.0070969888999972142
813.0,0.0019266941770028634
4.0,0.00012048319999991008
30.0,0.0002425790470024225
5.0,0.00012060319999984692
53.0,0.00036300959999890914
108.0,0.00048775059998695802
1666.0,0.0035015560499909171
7.0,0.0001208431999997206
6069.0,0.011779716012993546
297.0,0.0013234806999933291
1910.0,0.0039801855799859176
52.0,0.0003628895999989723
35.0,0.00036084960000004607
1849.0,0.0038506353799989679
673.0,0.002531467199997417
550.0,0.001327475199997874
874.0,0.0026449731000008914
1.0,0.00012012320000009957
5112.0,0.010097880012993166
3.0,0.00012036319999997325
45.0,0.00036204959999941444
34.0,0.00036072960000010923
7.0,0.00012084320999905529
5651.0,0.013457518400009194
630.0,0.0014486783999974051
1262.0,0.0026488303999989693
31.0,0.00036036960000029872
15.0,0.00024072639999994649
48.0,0.00036240959999922495
43.0,0.00036180959999954077
42.0,0.00036168959999960393
67.0,0.0003647708259986171
5.0,0.00012269952599708311
43.0,0.00036180959999954077
17.0,0.00024096639999982017
850.0,0.002523307200001712
2948.0,0.0062492047639981507
32.0,0.00036048960000023555
32.0,0.00036048960000023555
37.0,0.00036108959999991974
2256.0,0.0057672336000040847
5.0,0.00012060319999984692
446.0,0.0010886687999969169
2692.0,0.0055286512549956868
6.0,0.00012072319999978376
2.0,0.00012024320000003641
33.0,0.00036168959999960393
53.0,0.00036300959999890914
873.0,0.0043338143499966897
114.0,0.00048583759999654141
1015.0,0.0022846557500013631
16.0,0.00024084639999988333
87.0,0.00048241279999938769
136.0,0.00060157599999999256
18.0,0.00024110455999681868
5.0,0.00012060319999984692
56.0,0.0006016959999999294
99.0,0.00048540074000147371
1642.0,0.0034841728000025718
11.0,0.00024034613000289973
613.0,0.0014522764599951277
903.0,0.002048311459990293
4.0,0.00012048319999991008
214.0,0.00072457919999857623
4306.0,0.0085526271999945003
32.0,0.00036053778000155745
4704.0,0.0091512898799905873
13.0,0.00024048640000007282
3644.0,0.0073481551999952099
10.0,0.00012120319999953111
5.0,0.00012156680999897418
24.0,0.00024191211000079704
1059.0,0.002289660799998039
232.0,0.0009626655999999123
2023.0,0.0052915749399977674
4.0,0.00012055179999781451
1072.0,0.0024060640000000966
128.0,0.00048733279999679802
1028.0,0.002285940799999997
5.0,0.00012060319999984692
47.0,0.00036228959999928811
16.0,0.00024093570000016662
23.0,0.00024175261000047854
782.0,0.0018052765099971779
1195.0,0.0026493674099921094
19.0,0.00024120639999969384
12.0,0.00024036640000013598
150.0,0.00060301599999923461
53.0,0.00036300959999890914
4615.0,0.0097356192000050967
5.0,0.00012060319999984692
47.0,0.00036228959999928811
156.0,0.00060433599999853982
3.0,0.00012036319999997325
17.0,0.00024096639999982017
5137.0,0.011172897600008502
3.0,0.00012036319999997325
1.0,0.00012012320000009957
18.0,0.00024108639999975701
544.0,0.0013249551999992004
7.0,0.0001208431999997206
19.0,0.00024120639999969384
16.0,0.00024084639999988333
359.0,0.0015633920999993389
6.0,0.00012072319999978376
20.0,0.00024132639999963068
32.0,0.00036048960000023555
27.0,0.00024222349999614146
34.0,0.00036072960000010923
7.0,0.0001208431999997206
19.0,0.00024120708999442186
114.0,0.00060411629599799177
1023.0,0.0022942096359901409
12.0,0.00024042489600173411
713.0,0.0016900438399809481
1028.0,0.0022871736599989756
85.0,0.00048217279999951401
29.0,0.00024240639999906222
2933.0,0.0085447382824896945
3975.0,0.0086506704000062218
1.0,0.00012012320000009957
2266.0,0.0054112382960014305
17.0,0.00024096639999982017
32.0,0.00036048960000023555
53.0,0.00036300959999890914
5251.0,0.010225712000000442
92.0,0.00048301824000018811
4.0,0.00012057183599867294
45.0,0.00036263125199598178
104.0,0.00060561939999748127
30.0,0.0002425971520003678
2.0,0.00012024320000003641
19.0,0.00024154987998992183
2464.0,0.0050461344000036767
1219.0,0.0026532367939888779
4.0,0.00012048319999991008
50.0,0.00036264959999909863
128.0,0.00060397599999872931
2996.0,0.0072176860039938617
22.0,0.00024158139600016781
20.0,0.00024141074000039175
17809.0,0.034526708883482415
711.0,0.0018036548799811314
1785.0,0.0042097120000006427
51.0,0.00036276959999903546
9.0,0.00012108319999959427
3.0,0.00012058049999397191
31.0,0.00036036960000029872
3857.0,0.00757353402000005
201.0,0.00084410239999899161
173.0,0.00084086240000069701
6582.0,0.012757714383987206
49.0,0.00036252959999916179
2519.0,0.0050534642499922011
18.0,0.00024229382600293725
1152.0,0.002643910400001559
27.0,0.00024218399998954254
1295.0,0.0027709954260026759
6189.0,0.012994054883989303
44.0,0.00036197406399529619
70.0,0.00036504959999783537
50.0,0.00036266235000770308
18.0,0.00024111024999995401
23.0,0.00024168639999944119
43.0,0.00036226489999102718
1368.0,0.0028927010759922656
1045.0,0.0022857008000001233
15.0,0.00024072639999994649
1026.0,0.0030113089999959097
556.0,0.0014473583999980999
4.0,0.00012048319999991008
19.0,0.00024123279999366254
16.0,0.00024084639999988333
5.0,0.0001222937799991719
819.0,0.0019247312000001404
264.0,0.00084418560998988923
34.0,0.00036072960000010923
44.0,0.00036204550000018543
664.0,0.0020480031099852081
583.0,0.0014461583999987315
17.0,0.00024096639999982017
16.0,0.0002414074999992355
16.0,0.00024084639999988333
30.0,0.00024259717000196801
19.0,0.00024120639999969384
446.0,0.0012038719999996061
44.0,0.00036202452999778423
44.0,0.0003619295999994776
2.0,0.00012024320000003641
2123.0,0.0051742813800006449
4.0,0.00012048319999991008
6.0,0.00012197726198315273
83.0,0.00048416571196452374
33.0,0.00036097905199738989
17.0,0.00024274476198438144
9.0,0.0001212428619945527
393.0,0.001092106011974403
1539.0,0.003378804588980211
1328.0,0.0028983174399821454
24.0,0.00036048960000023555
1671.0,0.0040968654109911906
54.0,0.00036401350298786994
13017.0,0.02523638038496645
40.0,0.00036256170299453494
19723.0,0.039305871042974339
822.0,0.0020496550729964813
37.0,0.00036108959999991974
46.0,0.00036226357299029566
7.0,0.00012089227298650584
2866.0,0.0062482168480004763
30.0,0.00024252639999899905
30.0,0.00024252639999899905
290.0,0.00084776549999565631
9.0,0.00012108319999959427
31.0,0.00036036960000029872
3180.0,0.0088910368000063578
127.0,0.00060061600000049786
193.0,0.00072301919999939734
20.0,0.00024134702299383193
530.0,0.0016892640399743808
394.0,0.0012020049499896768
54.0,0.00036370224997672729
1.0,0.00012012872300548594
49.0,0.00036256907500042956
27.0,0.00024256175997017237
1930.0,0.0039660078530032727
1172.0,0.0026443904000013063
32.0,0.00036380705996919005
7.0,0.00012100446999285808
11.0,0.00024141575997083109
1603.0,0.0060266803729920326
867.0,0.0022880727599845496
5070.0,0.0099749662730077571
96.0,0.00072265926997383545
16.0,0.00024416735994736705
15.0,0.00024094375996797091
366.0,0.0010850925699656955
570.0,0.0014516050999568986
18399.0,0.037574392495961062
8.0,0.00012153839993800375
4272.0,0.0083156866129834306
387.0,0.0024059414999719753
13.0,0.00024048640000007282
27.0,0.00024313369999529044
17.0,0.00024096639999982017
3602.0,0.0073405871749270268
15.0,0.00024103583994961042
1.0,0.0001202582399468799
4.0,0.00012078073992349836
1269.0,0.0046981162999224502
3.0,0.00012059604991665474
88.0,0.00072430224990172043
1081.0,0.0031355522399205693
3363.0,0.010142276759939506
5937.0,0.01180984062295809
46.0,0.00036226524991822551
1.0,0.00012016934995218165
8.0,0.00012114474992519497
38.0,0.00036130294990122103
1232.0,0.0027686579499419661
14.0,0.00024069121993908205
43.0,0.0003618403499436873
27.0,0.00036546451992536255
40.0,0.00048322531992095463
12228.0,0.023506018022899866
3969.0,0.010595878069888931
339.0,0.0010841040699376414
4461.0,0.011229233359927537
119.0,0.00048793714988759618
4313.0,0.008576682399916935
8182.0,0.015801181752984617
11.0,0.00024052790989204098
49.0,0.00036285834992733079
72.0,0.00072500471997605231
6534.0,0.015550667979977506
12341.0,0.023743733602973327
1087.0,0.0024104659198846967
2087.0,0.005176995549935226
18893.0,0.036240310085886351
365.0,0.0024037308699322857
19.0,0.00024120639999969384
4.0,0.00012054322992671729
43.0,0.00036180959999954077
609.0,0.001456424929977107
14.0,0.00024064635992249173
28.0,0.00036334305999718985
8627.0,0.019777203384973685
63.0,0.00036459915992037573
18.0,0.00024111435999518704
15547.0,0.030466801072915439
2908.0,0.0059000839999019394
2915.0,0.0058892336299281034
4793.0,0.0094097245199182833
50.0,0.00036273455993063308
28.0,0.00024263880990749165
3.0,0.00012036319999997325
36.0,0.0003609695999999829
6374.0,0.015409324079993292
4.0,0.00012057065999582228
20.0,0.00024207289998057213
2944.0,0.0059023325999787435
222.0,0.00072505919999832358
30.0,0.00024262540998565285
1.0,0.00012012320000009957
54.0,0.00036312959999884598
5109.0,0.010241710989993047
478.0,0.0012056167599980849
3246.0,0.008309454719980458
1167.0,0.0048133830899970143
3226.0,0.006497093899986206
53.0,0.00036300959999890914
4.0,0.00012054825999352481
11220.0,0.021557783929992524
3447.0,0.0093786834899878269
17.0,0.00024096639999982017
573.0,0.0014459868599836501
5378.0,0.010470707889980835
3825.0,0.0075804914899677556
1435.0,0.0031316193999728625
17.0,0.00024184453297193542
657.0,0.0015668815999985153
19.0,0.00024147570296251253
309.0,0.0009665942899781399
64.0,0.00036535730298514757
5296.0,0.012642786689992302
7.0,0.00012107060298904848
463.0,0.002774587489987379
20.0,0.00024144339999798703
38.0,0.00036128459999762441
1469.0,0.0032562018029791417
8826.0,0.019142022129962522
382.0,0.0010857061029985182
4.0,0.00012048319999991008
1438.0,0.0030068000000005313
13.0,0.00024049840298601133
12.0,0.00024036640000013598
1225.0,0.0051772841599915242
3057.0,0.006505734789972184
3414.0,0.0068527480600033552
17.0,0.00024096639999982017
6642.0,0.013004694499976654
8.0,0.00012100430298378484
16.0,0.00024084639999988333
74.0,0.00048093524299841484
16.0,0.00024084639999988333
115.0,0.00096574884297995212
4.0,0.00012048319999991008
15.0,0.00024072639999994649
5.0,0.00012060319999984692
6202.0,0.011911167396995825
28.0,0.00024228639999912538
41.0,0.00036156959999966709
5067.0,0.01324462589998654
31.0,0.00036036960000029872
1742.0,0.0036051417429907584
101.0,0.00048417298999692271
4919.0,0.012514279639972425
5.0,0.00012060319999984692
39.0,0.00048065218298432022
14.0,0.00024060640000000966
51.0,0.00036276959999903546
46.0,0.00036218534300158645
53.0,0.00036300959999890914
20.0,0.00024207753999450077
16144.0,0.033465830996998625
20.0,0.00024136825598120026
2843.0,0.0061326022769963018
1312.0,0.0028883141829767478
2232.0,0.004571161600000373
543.0,0.0013253151999990109
138.0,0.00060169435597878795
9.0,0.00012108319999959427
27.0,0.00024216639999918854
84.0,0.00072253919999964999
72.0,0.00048191556099985711
18.0,0.00024118476100221109
1360.0,0.0028863168000006212
6.0,0.00012072319999978376
706.0,0.0016818568279968193
34.0,0.00036072960000010923
32.0,0.00036048960000023555
20.0,0.00024142632799750707
104.0,0.00048496532798991687
85.0,0.00048218892799756219
6109.0,0.011780992247002908
2.0,0.00012024320000003641
579.0,0.0014505645679880885
25.0,0.00024192639999931487
724.0,0.0016864047999989307
493.0,0.0013246814779834803
4098.0,0.0099965649199911244
4625.0,0.011176673566977602
6851.0,0.015401136038979635
3330.0,0.0067374434279969808
2507.0,0.0083174725799883831
12.0,0.00024036640000013598
727.0,0.0016867647999987412
1.0,0.00012026732999226297
128.0,0.00060097600000030837
1258.0,0.0027645280779950987
17.0,0.00024096639999982017
45.0,0.00036354979999564385
1309.0,0.002777369399991958
37.0,0.00036108959999991974
37.0,0.00036108959999991974
22.0,0.00024212176998061885
20.0,0.00024134323999769336
4972.0,0.012645299579987279
15.0,0.00024072639999994649
2605.0,0.0081828843299898146
2107.0,0.0044512261299842759
6.0,0.00012072319999978376
17115.0,0.03257428690600217
19.0,0.00024120639999969384
4421.0,0.01143223141999683
6.0,0.00012072319999978376
24.0,0.00024180639999937803
31.0,0.00036036960000029872
6064.0,0.011661980000000183
54.0,0.00036318782999567034
28.0,0.00036368879999759685
46.0,0.00048193279999964034
4.0,0.00012048319999991008
14.0,0.00024060640000000966
7308.0,0.0140569404900035
35.0,0.00036207719298575469
21.0,0.00036264004999875254
3.0,0.00012046321300007712
54.0,0.00072652253999394567
20.0,0.00024151367298541615
3.0,0.00012046679000032867
1486.0,0.0037307096599983325
1.0,0.00012012320000009957
5.0,0.00012060319999984692
7.0,0.0001208431999997206
145.0,0.0012045979729928824
3.0,0.00012036319999997325
1389.0,0.0030088399999994575
6260.0,0.012037015319985134
13.0,0.00024058003300075903
8.0,0.00012096319999965743
44.0,0.00048169279999976666
4789.0,0.0094995594600000288
2846.0,0.0057749860999993796
6651.0,0.012749428799998075
48.0,0.00036240959999922495
169.0,0.0014419195799986184
91.0,0.00048289279999913504
36.0,0.0003609695999999829
14.0,0.00024066844300252299
22.0,0.00024157140298952662
3.0,0.00012043496299107836
438.0,0.0010873487999976117
50.0,0.0003630622029862085
1113.0,0.0046883939830049126
2987.0,0.0059004502799928638
5776.0,0.011183577600002881
32.0,0.00036156959999966709
24.0,0.00024191404999940325
12.0,0.00024036640000013598
1008.0,0.0021694175999980025
848.0,0.0039677856000013279
5420.0,0.011779688423000145
17.0,0.00024365710899498794
36.0,0.0003613706999969768
7.0,0.00012087776899849523
5750.0,0.013965038343989322
461.0,0.0012033919999998588
2116.0,0.0044523335399975217
3264.0,0.0064921728000024714
1045.0,0.0045656416000032785
10.0,0.00012124006899716377
2.0,0.00012024320000003641
15.0,0.00024072639999994649
58.0,0.00048070606900108004
3275.0,0.006732108760003408
34.0,0.00036088068898854075
5499.0,0.010692777763001038
5668.0,0.011085625839986513
4.0,0.00012048319999991008
12.0,0.00024037348000183201
15.0,0.00024072639999994649
381.0,0.00228867418898826
5.0,0.00012060319999984692
8.0,0.00012105752898250444
1033.0,0.0044522383999996418
17.0,0.00024096639999982017
44.0,0.00048169542000042753
2065.0,0.0071018281689856355
551.0,0.0013257951999987583
10.0,0.00012130992899472837
997.0,0.0022846208000006918
50.0,0.00036275132899787899
49.0,0.00036252959999916179
4308.0,0.0091500483599937787
10.0,0.00012131162899087222
338.0,0.0022912659199916252
26.0,0.00036084960000004607
27.0,0.00024221330000018249
1789.0,0.0037241792000028973
1030.0,0.0022833008000013866
3.0,0.00012036319999997325
54.0,0.00036312959999884598
4091.0,0.0080715837599918405
13.0,0.00024048640000007282
64.0,0.00036432959999821435
1633.0,0.0034950759199947612
105.0,0.00084194240000012854
2830.0,0.0056558466499898596
613.0,0.0014472383999981631
29.0,0.00024240639999906222
53.0,0.00036300959999890914
20.0,0.00024139164999947837
36.0,0.00048073280000027196
1990.0,0.0063731296000018034
952.0,0.0045729103379996694
7.0,0.0001208431999997206
3965.0,0.009129723200007378
42.0,0.00036168959999960393
22.0,0.00024156639999950436
4360.0,0.008536690849996198
1001.0,0.0021694175999980025
25.0,0.00024207727999625561
18.0,0.00024108639999975701
59.0,0.00036372959999853016
19.0,0.00024120640000169224
16.0,0.0002408464000012156
40.0,0.00036144960000239479
1175.0,0.0025276272000105404
400.0,0.0021679776000118611
354.0,0.00096625821802120981
509.0,0.0021668158800149939
15.0,0.00024072640000127876
17.0,0.00024096640000159653
28.0,0.00024228640000334423
372.0,0.0025307752780312498
2551.0,0.0051702176000172351
3.0,0.00012036320000063938
1012.0,0.002285100800009765
18.0,0.00024108640000175541
10.0,0.00012120320000175155
72.0,0.00060227674002266696
194.0,0.001081820940020517
402.0,0.0010863888000098854
13.0,0.000240486400000961
1050.0,0.0022935364400371583
369.0,0.00096662560001004039
2677.0,0.0054101387000287104
1.0,0.00012012320000032162
4.0,0.00012057628006001408
3484.0,0.0096219641600532313
6549.0,0.012626184392027673
4218.0,0.008416141180029868
7.0,0.00012089588006425345
946.0,0.0038473299500862979
15.0,0.00024101172007728877
1402.0,0.0030102333800661185
43.0,0.00036180960000287143
2970.0,0.0059014515100845877
2805.0,0.0056507597100616813
732.0,0.002766632680080594
5110.0,0.011311300580040484
6.0,0.00012074124000438502
43.0,0.00036278670001710367
23.0,0.00024168640000254982
51.0,0.00036282488002781221
7.0,0.00012092623004500425
122.0,0.00048661280000938945
5635.0,0.010950423380034824
7.0,0.00012084320000127491
152.0,0.00060327277002336643
2971.0,0.0060196464000448202
12.0,0.00024040831003535601
20.0,0.00024141518005427187
26.0,0.00024204640000302646
1200.0,0.0026464304000120009
49.0,0.00048273807015730696
4702.0,0.010211672000028926
958.0,0.0021663521100538929
3956.0,0.0078113680000253538
1084.0,0.0037259798700732816
32.0,0.00036064027018412048
1790.0,0.0036201055701217122
108.0,0.00048493967021157047
2885.0,0.0079349895800495673
42.0,0.00036168960000271255
20.0,0.00024132640000207317
10414.0,0.020110711580109797
482.0,0.0024061247702085176
40.0,0.00036152565005131976
64.0,0.00036432960000620795
2.0,0.0001202432000004805
79.0,0.0004834575300254329
596.0,0.0028867855202383552
38.0,0.00036120960000207702
2866.0,0.0056561104000287798
40.0,0.00036144960000239479
1254.0,0.0030055979202256999
4142.0,0.0080595099801099579
2577.0,0.0051718225500447801
6.0,0.00012072320000111603
5907.0,0.011556766460135037
1427.0,0.0030068000000129658
18.0,0.00024116280005515023
11.0,0.00024024640000064323
71.0,0.00048049280000128647
6.0,0.00012072320000111603
1112.0,0.0024067840000121521
98.0,0.00060277600000446796
215.0,0.00072565920000844386
174.0,0.0012030320000055994
32.0,0.00036048960000112373
16.0,0.00024084640000143764
1.0,0.00012012320000032162
55.0,0.00036324960000477802
20.0,0.00024132640000207317
126.0,0.00048709280001002497
632.0,0.0015623051300481805
7.0,0.00012084320000127491
44.0,0.00036194382501975042
873.0,0.0020453344000097573
1279.0,0.0028891158050172727
2780.0,0.0055356272000279816
8491.0,0.016233504099983254
88.0,0.00096732468001503591
490.0,0.0013218352000041733
2.0,0.00012034283000694757
30.0,0.00024252640000366199
1085.0,0.0024025840000065912
757.0,0.0018037680000073664
1223.0,0.0027647403000119475
2378.0,0.0048085280000176311
3000.0,0.0060077200000181463
839.0,0.0036039360000099663
12479.0,0.023933681834945375
2225.0,0.0066141439500437826
6450.0,0.013941378570068164
