1.0,1.2123200000102585e-05
3157.0,0.0006335264000036922
5.0,1.2603199999849934e-05
224.0,7.6939199998404817e-05
4.0,1.2483199999913097e-05
127.0,5.521279999687323e-05
13.0,2.4486400000078845e-05
359.0,0.00012074239996873182
769.0,0.00020816086997310634
45.0,3.8049599999423478e-05
9.0,1.3083199999597284e-05
7.0,1.2843199999723609e-05
2419.0,0.00050113120000205846
20.0,2.5326399999636706e-05
46.0,3.8169599999360315e-05
1.0,1.2239700000860054e-05
1311.0,0.00030572000000117505
15.0,2.4825300000363981e-05
448.0,0.0001477226999413439
396.0,0.00013377399989633609
6458.0,0.0012953640999986415
40.0,3.7449599999739291e-05
1466.0,0.00033473439992515175
2550.0,0.0005735951999314981
18.0,2.5171889999509034e-05
297.0,9.9625599999431103e-05
2.0,1.2243200000039423e-05
2257.0,0.00047952480000046371
52.0,4.0092799998392437e-05
606.0,0.000176670679939539
2909.0,0.00070448487984342556
943.0,0.0005973111998311964
25.0,2.5926399999320893e-05
6083.0,0.0012926559998382992
25.0,3.6729600000118268e-05
2106.0,0.00049220319990950223
22.0,2.5909829912018623e-05
1096.0,0.00030594519991011815
15.0,2.472639999995252e-05
261.0,9.7582519910988097e-05
16.0,2.4846399999889357e-05
1923.0,0.00073461669990870782
1229.0,0.00030728000000035394
35.0,3.6849600000055105e-05
4.0,1.2483199999913097e-05
9.0,1.3083199999597284e-05
27.0,2.6166399999194567e-05
562.0,0.00017357299998033149
2568.0,0.00060675039998536739
1327.0,0.00032044159991562182
3148.0,0.00071229056987553996
7.0,1.2843199999723609e-05
1609.0,0.00038329436988160381
1989.0,0.00041290880000310892
3011.0,0.00069638269971639133
13.0,2.4602299719456155e-05
20.0,2.5403899721609946e-05
21.0,2.5446399999573543e-05
48.0,3.8458799728857684e-05
282.0,9.6415899700552643e-05
11023.0,0.0022936511997069253
35.0,3.6849600000055105e-05
41.0,3.7569599999676129e-05
17.0,2.497469999762636e-05
2625.0,0.00061060799977585845
1975.0,0.00056203934977450132
344.0,0.00025782364977922079
40.0,0.00026122240000003849
27.0,2.6166399999194567e-05
3.0,1.236319999997626e-05
7.0,1.2843199999723609e-05
869.0,0.00038830240000309324
227.0,9.044482997722092e-05
23.0,2.5686399999447218e-05
5.0,1.2819909996242274e-05
5644.0,0.0011474021999944295
672.0,0.00035336459999979475
6.0,1.2723199999786772e-05
5.0,1.2603199999849934e-05
7.0,1.2843199999723609e-05
209.0,0.00016972480000143619
48.0,4.9452799999905039e-05
728.0,0.00020244959991289058
3755.0,0.0008647479999155383
47.0,6.0616000000512926e-05
3.0,1.236319999997626e-05
372.0,0.00022025760000077277
2226.0,0.00047580480000242176
215.0,7.7659199998025841e-05
1791.0,0.00064761940000002127
1.0,1.2123200000102585e-05
116.0,5.3892799997568019e-05
24.0,2.5806399999384055e-05
32.0,3.7303799999444109e-05
2730.0,0.00065140960000076298
16.0,2.4846399999889357e-05
84.0,5.0052799999589226e-05
6.0,1.2723199999786772e-05
2.0,1.2243200000039423e-05
17.0,2.4966399999826194e-05
10.0,1.3203199999534121e-05
8.0,1.2963199999660446e-05
352.0,0.00014619840000085205
14.0,2.4606400000015682e-05
15.0,2.472639999995252e-05
20.0,2.5326399999636706e-05
21.0,2.5446399999573543e-05
53.0,3.9009599998918176e-05
8.0,1.3038919999486254e-05
375.0,0.00012375199999969944
42.0,3.7689599999612966e-05
5.0,1.2603199999849934e-05
4.0,1.2483199999913097e-05
3.0,1.236319999997626e-05
23.0,2.5686399999447218e-05
20.0,2.559689999759307e-05
49.0,3.8529599999170827e-05
1.0,1.2210399999545984e-05
2018.0,0.00044280245999761547
7.0,1.2843199999723609e-05
33.0,3.7618849998199977e-05
19.0,2.6808849985737737e-05
29.0,4.4752449848362019e-05
2380.0,0.00056911669982473434
5.0,1.3173299975743902e-05
394.0,0.00033129912979745768
6215.0,0.0016313246497183798
42.0,6.8938029723852878e-05
16.0,2.4846399999889357e-05
5.0,1.2716699999248959e-05
5975.0,0.0014461695700014321
19.0,2.5206399999699869e-05
3.0,1.236319999997626e-05
120.0,6.0856000000386601e-05
36.0,5.8266199892686998e-05
1567.0,0.00060880579986388739
5402.0,0.0011295877898638285
31.0,3.6369600000307756e-05
86.0,8.606240000008647e-05
43.0,3.7809599999549803e-05
2.0,1.2243200000039423e-05
149.0,6.445599999849172e-05
5.0,1.2603199999849934e-05
110.0,5.3172799997946996e-05
15.0,2.472639999995252e-05
22.0,2.5566399999510381e-05
26.0,2.604639999925773e-05
3.0,1.236319999997626e-05
694.0,0.00035577280000076428
215.0,8.5582400000339121e-05
1211.0,0.00031748320000146713
983.0,0.00023238080000087535
44.0,4.9692799999778714e-05
1390.0,0.00033992960000261974
274.0,0.00010142559999848366
9.0,1.3083199999597284e-05
5.0,1.2603199999849934e-05
28.0,2.6430799996646215e-05
17.0,2.6846927996260206e-05
40.0,4.9212800000031365e-05
851.0,0.00027841919989235464
2134.0,0.00052325874189729227
138.0,0.00015108759989534981
6.0,1.2723199999786772e-05
403.0,0.00012985279995758603
19.0,2.5206399999699869e-05
2398.0,0.00055768609999717889
120.0,0.00011042880000022848
9.0,1.3083199999597284e-05
27.0,3.8004429985249999e-05
20.0,2.8696029712449445e-05
67.0,9.7564929464999395e-05
6334.0,0.0018324796992255088
11951.0,0.0026717578992279112
31.0,3.7581629229732627e-05
2052.0,0.0008386777292335168
51.0,3.8769599999044502e-05
49.0,3.8529599999170827e-05
32.0,3.7329599999802454e-05
544.0,0.00025698720000089104
1.0,1.2175029999061948e-05
1037.0,0.00029489759996148557
1540.0,0.00063652092973764951
999.0,0.00063609712972123589
6118.0,0.0013411352297150181
1419.0,0.00035675872972174005
3.0,1.2410029722742522e-05
3756.0,0.0009044765295422863
1255.0,0.00031360422940895916
4248.0,0.0010232881294163221
354.0,0.00013807762941309143
1.0,1.2123200000102585e-05
2.0,1.2243200000039423e-05
83.0,4.9932799999652389e-05
57.0,3.9489599998665526e-05
46.0,3.8169599999360315e-05
26.0,2.604639999925773e-05
6.0,1.2836459998277761e-05
2695.0,0.00055310400000063709
3099.0,0.00063472640000306058
7.0,1.2843199999723609e-05
2.0,1.2243200000039423e-05
36.0,3.6969599999991942e-05
8.0,1.2963199999660446e-05
4721.0,0.0010224399000053896
3.0,1.236319999997626e-05
1921.0,0.00041350880000279311
19.0,2.5206399999699869e-05
20.0,2.5655369998434097e-05
2260.0,0.00048828800000233485
45.0,3.8049599999423478e-05
26.0,2.604639999925773e-05
19.0,2.5206399999699869e-05
2.0,1.2243200000039423e-05
3848.0,0.00079208800000452051
60.0,3.9849599998476037e-05
49.0,3.8529599999170827e-05
929.0,0.00022505759999824626
47.0,3.8385799999041126e-05
337.0,0.00011868959995697814
4993.0,0.0010270642399616836
17.0,2.4966399999826194e-05
57.0,3.9489599998665526e-05
3.0,1.236319999997626e-05
6.0,1.2723199999786772e-05
37.0,3.708959999992878e-05
32.0,3.6506200000951949e-05
3944.0,0.00087587040000580707
212.0,7.5499199999162769e-05
7.0,1.2843199999723609e-05
22.0,2.5566399999510381e-05
276.0,0.00012123200000102585
224.0,7.7539199998089003e-05
40.0,3.7449599999739291e-05
1435.0,0.00044944099982480168
16.0,2.4918099829518425e-05
351.0,0.00042268749922458326
3.0,1.402759909407969e-05
3702.0,0.0016962008390515315
44.0,5.1483999041312956e-05
3115.0,0.0019233451990101624
42.0,6.9221898393090342e-05
17880.0,0.0043456143982962825
12.0,2.6143998290040216e-05
22.0,3.0001828088543903e-05
2942.0,0.0013424863980884272
52.0,8.4823757297458613e-05
3304.0,0.0016691835972917346
3869.0,0.0017692891572869129
2.0,1.2345793291679286e-05
16129.0,0.0045687793972895019
35.0,3.6849600000055105e-05
943.0,0.00051033469329309078
23.0,2.5686399999447218e-05
21.0,2.5446399999573543e-05
107.0,6.133600000013395e-05
31.0,3.6369600000307756e-05
7.0,1.2843199999723609e-05
35.0,3.6969599999991942e-05
49.0,6.0856000000386601e-05
32.0,3.6489600000244593e-05
6.0,1.280502000033934e-05
2934.0,0.00067157600000311568
6.0,1.2723199999786772e-05
94.0,9.7225600000694357e-05
2.0,1.2243200000039423e-05
1061.0,0.00046356160000238233
17.0,2.4966399999826194e-05
43.0,3.7929599999486641e-05
41.0,4.9332799999968202e-05
101.0,6.1935999999818137e-05
38.0,3.7209599999865617e-05
30.0,3.6369600000307756e-05
14.0,2.4935399997927377e-05
2353.0,0.00076884408992405895
1277.0,0.00055174879993002968
3.0,1.2514399998053705e-05
1244.0,0.00051897189999894344
6.0,1.2723199999786772e-05
17.0,2.9536599814417031e-05
6328.0,0.0014706785997324889
3.0,1.2396799736968944e-05
19.0,2.5260319739039971e-05
3485.0,0.00090333849973611713
164.0,6.5536099998819708e-05
1419.0,0.00057027040000456886
597.0,0.00028111360000115937
24.0,2.5806399999384055e-05
128.0,6.1863859998734227e-05
33.0,3.660960000018143e-05
60.0,3.9849599998476037e-05
5.0,1.2603199999849934e-05
25.0,2.5926399999320893e-05
2.0,1.2243200000039423e-05
53.0,3.9009599998918176e-05
43.0,3.7809599999549803e-05
6.0,1.2723199999786772e-05
17.0,2.7083309996012161e-05
38.0,4.2511949983392583e-05
60.0,6.9435349814739311e-05
2646.0,0.00074812159969050995
111.0,9.8252049628877458e-05
18.0,3.1025349541691227e-05
48.0,8.6217127511556413e-05
5572.0,0.0014142877294547329
3495.0,0.0014292202494572415
24.0,3.660960000018143e-05
21.0,2.5522600001659512e-05
4.0,1.2561900001095694e-05
15.0,2.4779840002597808e-05
4514.0,0.0010992480000049376
132.0,0.00012194884000438222
41.0,4.9332799999968202e-05
9.0,1.5217599467876042e-05
261.0,0.00030243289903864046
8255.0,0.0023556159987925263
1409.0,0.0010542209983988027
925.0,0.00089854829827684668
2008.0,0.0011565886081310595
6546.0,0.0032381127981337965
53.0,4.9572799999841877e-05
212.0,0.00012287509999664437
18668.0,0.0050476679400033309
4.0,1.2483199999913097e-05
1093.0,0.00034388960000053537
3.0,1.2389700001280701e-05
5252.0,0.0012733487998743964
687.0,0.00026461147979417454
3916.0,0.00099877539961767958
1033.0,0.00035616467945609465
3713.0,0.0015876344993321911
2585.0,0.0012356638793338259
18.0,2.7283359978369504e-05
2134.0,0.00098581239993089653
1780.0,0.0007136692998925831
2768.0,0.00072013759989975057
1265.0,0.0003545728000013959
5884.0,0.0013854776997608287
23.0,2.6016799758110665e-05
2937.0,0.00074216774999591451
728.0,0.0002424640000020517
144.0,7.369920000011021e-05
40.0,3.7449599999739291e-05
9.0,1.3141699999774659e-05
2.0,1.2277330002863351e-05
26.0,2.6134149999190726e-05
1976.0,0.00049837120000351121
1010.0,0.0002434240000015464
45.0,3.8049599999423478e-05
1.0,1.2123200000102585e-05
6.0,1.2820793999113178e-05
5.0,1.279043399660118e-05
16.0,2.5299072988094196e-05
686.0,0.00022433439999214322
718.0,0.00021691937289847196
13.0,2.4486400000078845e-05
37.0,3.708959999992878e-05
6.0,1.2792272908068725e-05
10201.0,0.0020842802939120553
20.0,2.5326399999636706e-05
2.0,1.2243200000039423e-05
2267.0,0.00055082400000183718
127.0,6.3855999998807533e-05
1.0,1.2123200000102585e-05
1174.0,0.00028459359999932765
2.0,1.2243200000039423e-05
42.0,3.81091799981359e-05
5367.0,0.0011405408000091377
4.0,1.2483199999913097e-05
1057.0,0.00026827040000143576
132.0,6.2227199999043137e-05
16.0,2.4846399999889357e-05
3797.0,0.00083738716000292257
69.0,4.0929599997907573e-05
24.0,2.5806399999384055e-05
8.0,1.5005029985193374e-05
43.0,4.1782479980767562e-05
1200.0,0.00030329119994410014
4.0,1.2539929948651718e-05
4.0,1.2909829937068906e-05
16.0,2.8625529774117808e-05
5.0,1.3905539725689309e-05
9637.0,0.0022759886794869733
1325.0,0.0010053870293549316
480.0,0.00032048693935693429
5.0,1.3637849258785195e-05
4240.0,0.001959134848918076
1206.0,0.0010204279487244783
6.0,0.00022774374867573499
2817.0,0.0018462838384640801
251.0,0.00032682274845030612
16.0,2.8851718219646827e-05
1586.0,0.0010079451180844412
12606.0,0.0044477478280799954
32.0,4.0341818069000723e-05
4884.0,0.0027723593480668551
20.0,2.5884518067842421e-05
1497.0,0.00074415851792108967
4589.0,0.0023816397479059503
37.0,3.7689917909533577e-05
47.0,3.8297397912057107e-05
6478.0,0.0017077437179162658
22.0,2.5566399999510381e-05
1.0,1.2123200000102585e-05
6.0,1.2723199999786772e-05
44.0,3.8169599999360315e-05
3.0,1.236319999997626e-05
80.0,5.0892799999147087e-05
25.0,2.5926399999320893e-05
1233.0,0.00036381600000301439
14.0,2.4606400000015682e-05
41.0,3.7809599999549803e-05
134.0,6.445599999849172e-05
356.0,0.00014883839999946247
1.0,1.2123200000102585e-05
63.0,4.0209599998286549e-05
87.0,5.0412799999399738e-05
96.0,7.3579200000173373e-05
16.0,2.4846399999889357e-05
82.0,5.1132799999020762e-05
14.0,2.4606400000015682e-05
29.0,2.6406399999068242e-05
76.0,4.9092800000094527e-05
32.0,3.6729600000118268e-05
19.0,2.5206399999699869e-05
7.0,1.2843199999723609e-05
46.0,3.8169599999360315e-05
20.0,2.5326399999636706e-05
8.0,1.2963199999660446e-05
1057.0,0.00029647679999955656
31.0,3.6369600000307756e-05
30.0,2.658579999970101e-05
11.0,2.4314000000691394e-05
3288.0,0.00076940160000349422
2.0,1.2243200000039423e-05
434.0,0.00022001760000089909
13.0,2.4486400000078845e-05
50.0,3.8649599999107664e-05
4.0,1.2483199999913097e-05
20.0,2.5411449999124258e-05
2583.0,0.00061096000000260275
37.0,3.7329599999802454e-05
55.0,3.9249599998791851e-05
55.0,3.9249599998791851e-05
1319.0,0.00040552436999874431
9.0,1.3083199999597284e-05
327.0,0.00012434658999849191
620.0,0.00028135360000103304
19.0,2.5258100001535055e-05
17.0,2.8928599924205045e-05
1215.0,0.00040960999987649238
419.0,0.00015238809984130519
8923.0,0.0018390431998489554
53.0,4.9092800000094527e-05
43.0,3.7809599999549803e-05
20.0,2.6283199992649386e-05
4.0,1.3704479957077353e-05
25.0,4.4626579854378789e-05
2.0,1.3739079814945043e-05
6.0,1.4688179688748804e-05
4.0,1.3831179489054435e-05
20.0,4.3760179418095291e-05
5667.0,0.0013897370793041208
9.0,1.3185079309252501e-05
9047.0,0.0022780590793085587
496.0,0.00029239680000170409
36.0,3.6969599999991942e-05
47.0,6.0616000000512926e-05
20.0,2.5704429996720179e-05
32.0,4.1883199984438235e-05
3232.0,0.00094894231962117104
2809.0,0.00085006294961664786
13.0,2.4770299619891745e-05
10.0,1.3296499620896185e-05
53.0,6.1426969622635497e-05
3282.0,0.0011405205996248835
117.0,6.2775999999375998e-05
910.0,0.00027007040000048832
5.0,1.2603199999849934e-05
40.0,3.7449599999739291e-05
134.0,0.00012207200000058371
16.0,2.4846399999889357e-05
1.0,1.2123200000102585e-05
2.0,1.2243200000039423e-05
65.0,4.9096100001921883e-05
1058.0,0.00046320160000257182
22.0,3.6369600000307756e-05
32.0,3.6489600000244593e-05
28.0,2.6286399999131405e-05
4.0,1.2483199999913097e-05
28.0,3.708959999992878e-05
1001.0,0.00032120319999950908
471.0,0.00028111360000115937
1236.0,0.00045353119986502044
91.0,0.00012283077987063074
6.0,1.4690189851451763e-05
48.0,4.2073179849388964e-05
1556.0,0.0005108279798469173
49.0,3.8529599999170827e-05
3.0,1.236319999997626e-05
58.0,6.5902619849289579e-05
3.0,1.3574629787571624e-05
14.0,3.1370882721315496e-05
7951.0,0.00188482029967596
1584.0,0.00073445859955723058
34.0,5.4851852554049785e-05
5075.0,0.001239988629555322
34.0,4.8599852553676826e-05
131.0,6.1935999999818137e-05
266.0,9.791041255269306e-05
25.0,4.237198225243155e-05
1946.0,0.00065330948223385477
27.0,2.6166399999194567e-05
1014.0,0.00077996501223598358
89.0,5.1039792232643322e-05
1.0,1.2331599999804155e-05
15259.0,0.0035236172897210594
3.0,1.2431599728524034e-05
5880.0,0.0015027759997277013
30.0,2.6526399999005079e-05
41.0,4.000619999988686e-05
640.0,0.0001785777799536703
2709.0,0.00079561439985353921
73.0,4.8732800000284016e-05
1563.0,0.00040747099999860481
807.0,0.00022769759999685668
15.0,2.4806599998372647e-05
750.0,0.00027264179999786364
18.0,2.5086399999763032e-05
74.0,4.8852800000220853e-05
15.0,2.7575699973247936e-05
6.0,1.5505329950649127e-05
132.0,0.0001118966099125096
3224.0,0.00072097799986248212
28.0,2.6286399999131405e-05
1311.0,0.00039375519986406537
4.0,1.2483199999913097e-05
47.0,6.0616000000512926e-05
32.0,3.6517300000982189e-05
614.0,0.00028555359999882235
4244.0,0.00086206720000658876
20.0,2.5326399999636706e-05
471.0,0.00023046080000188596
17.0,2.4966399999826194e-05
375.0,0.00011498879999782829
2043.0,0.00062116320000371594
4.0,1.2483199999913097e-05
119.0,6.2295999999628648e-05
2.0,1.2243200000039423e-05
1183.0,0.00042635200000251672
53.0,3.9009599998918176e-05
441.0,0.00023094080000163331
21.0,2.663053999696352e-05
1640.0,0.00037017599999966677
561.0,0.00031640320000203559
447.0,0.00021965760000108858
8.0,1.2963199999660446e-05
9.0,1.3124900000605066e-05
23.0,2.5686399999447218e-05
2.0,1.2296609996687025e-05
65.0,5.02927999994629e-05
24.0,4.3738999861320238e-05
1147.0,0.00033685599985511239
8.0,1.3001779857191309e-05
29.0,3.7504189858150738e-05
162.0,0.00011061692985792071
586.0,0.00035495077985858714
6.0,1.2824679853862264e-05
52.0,8.4512109806977875e-05
432.0,0.00014860497979851672
20.0,2.5618249996250952e-05
61.0,5.8073749945153352e-05
14160.0,0.0030207748799160328
301.0,0.00020860414992207588
4150.0,0.0010473535999220296
20.0,2.5326399999636706e-05
42.0,6.8625099865826655e-05
535.0,0.00027862009986523439
1.0,1.4248839774078093e-05
2147.0,0.0010144370996185703
2328.0,0.00076721343952912413
6683.0,0.001945595199533523
1121.0,0.00057817893953648891
42.0,3.7689599999612966e-05
92.0,9.6985600000820682e-05
5021.0,0.0010973280000059482
53.0,3.9009599998918176e-05
575.0,0.00017440479999897285
133.0,8.6302399999960144e-05
11.0,2.424640000020517e-05
100.0,6.1815999999881299e-05
3456.0,0.00089686465988547681
577.0,0.00040804766988844499
5060.0,0.0011660527998984538
68.0,5.0412799999399738e-05
535.0,0.0003052400000014277
8.0,1.2963199999660446e-05
93.0,5.16910599979159e-05
1245.0,0.00039608319996009556
26.0,2.6076569964228469e-05
20.0,2.5326399999636706e-05
5092.0,0.001089802369966586
651.0,0.00018556799999958073
46.0,3.8169599999360315e-05
6.0,1.2723199999786772e-05
3628.0,0.00093100509999999304
306.0,0.00033354176978006578
4114.0,0.0012831125996948245
2632.0,0.00082231539969379597
791.0,0.00064864369969153124
833.0,0.0004115887696920506
855.0,0.00036585600000194063
1.0,1.2123200000102585e-05
6.0,1.2723199999786772e-05
19.0,2.547319999912645e-05
63.0,6.6772999974151759e-05
687.0,0.00032264529997649838
2.0,1.4453659782365236e-05
21.0,2.893215968335916e-05
15.0,2.9693659535645622e-05
1675.0,0.001013432899493294
35.0,5.7778769448679768e-05
2911.0,0.0011990339594409871
544.0,0.00036462165944595171
47.0,3.9526769441744491e-05
3.0,1.428386931467962e-05
2367.0,0.00081692466920046947
453.0,0.00017285986916970586
18216.0,0.003848631999173735
416.0,0.00018503437999894956
916.0,0.00042622737999753468
3310.0,0.00095035199988879882
65.0,4.8612800000347178e-05
3367.0,0.00074289257989601509
1181.0,0.0002578272000004489
75.0,5.0652799999273412e-05
18.0,2.5086399999763032e-05
29.0,2.6406399999068242e-05
75.0,4.9091200001294411e-05
1182.0,0.00034796959999838784
25.0,2.5926399999320893e-05
14.0,2.4606400000015682e-05
3.0,1.236319999997626e-05
41.0,3.7569599999676129e-05
1272.0,0.00030308000000256463
1205.0,0.00027427039999827763
47.0,3.8289599999297153e-05
31.0,3.7815999999191163e-05
1718.0,0.00049440799999911356
3189.0,0.00069189649983192325
4054.0,0.0010002531996768926
3538.0,0.0011797142995220167
8.0,1.2963199999660446e-05
2978.0,0.00092235509952587336
132.0,6.1731300000422706e-05
1058.0,0.00036381279999653238
326.0,0.00011330879999871257
62.0,7.3194619997440924e-05
47.0,3.8289599999297153e-05
2.0,1.2304700001797286e-05
240.0,9.9881299980619787e-05
35.0,5.6278199726200739e-05
4413.0,0.0011486495994148527
47.0,7.2089949951781307e-05
5.0,1.46879198694716e-05
1189.0,0.00036252959982863153
11.0,2.7059319790634362e-05
1135.0,0.00056514144977670711
19318.0,0.0042229062197782774
3.0,1.236319999997626e-05
2.0,1.2243200000039423e-05
1146.0,0.00030740000000029077
40.0,3.7525700003593343e-05
2161.0,0.00063652640000211314
7.0,1.2843199999723609e-05
16.0,2.4846399999889357e-05
455.0,0.00027919360000216997
36.0,3.6969599999991942e-05
14.0,2.4606400000015682e-05
97.0,5.162696999838623e-05
1136.0,0.00049329279992837982
5889.0,0.0013752149299366412
24.0,3.660960000018143e-05
536.0,0.00017344479999947815
28.0,2.6286399999131405e-05
16.0,2.4846399999889357e-05
4.0,1.2483199999913097e-05
981.0,0.00036753600000105635
4.0,1.2483199999913097e-05
33.0,3.660960000018143e-05
29.0,4.2015589883703797e-05
1393.0,0.0003511307998462776
2537.0,0.00071949279980931813
629.0,0.00037669762981540345
884.0,0.00054975249981281671
935.0,0.00027390192999821039
622.0,0.00032864640000207501
27.0,2.6179549998062157e-05
21.0,2.5446399999573543e-05
515.0,0.00019863839997324995
5034.0,0.0010245833399780135
11.0,2.424640000020517e-05
42.0,4.9212800000031365e-05
54.0,3.9129599998855014e-05
35.0,3.6849600000055105e-05
42.0,3.7689599999612966e-05
45.0,3.8049599999423478e-05
18.0,2.5086399999763032e-05
37.0,3.708959999992878e-05
5.0,1.2603199999849934e-05
43.0,3.7809599999549803e-05
50.0,3.8741739998293667e-05
14.0,2.4606400000015682e-05
38.0,3.7256639998428653e-05
20.0,2.5326399999636706e-05
1645.0,0.00059393869399726462
15.0,2.472639999995252e-05
1114.0,0.00031584959985320182
5582.0,0.0012486761998535822
73.0,4.897280000015769e-05
472.0,0.00018220800000134929
1750.0,0.00061036000000291857
3976.0,0.00082545760000640733
2.0,1.2243200000039423e-05
8.0,1.2963199999660446e-05
17.0,2.4966399999826194e-05
2.0,1.2243200000039423e-05
7.0,1.2843199999723609e-05
432.0,0.00013719519999910723
2.0,1.2243200000039423e-05
5.0,1.3538899947818095e-05
4344.0,0.00090549179991250561
2113.0,0.00052683289999766458
972.0,0.00042875200000125346
28.0,2.6286399999131405e-05
19.0,2.5206399999699869e-05
43.0,3.821309999807454e-05
25.0,2.5956389999359786e-05
2646.0,0.00063700640000186048
1.0,1.2123200000102585e-05
18.0,2.5086399999763032e-05
6.0,1.2723199999786772e-05
1.0,1.2123200000102585e-05
836.0,0.00026046719999905932
329.0,0.0001161759999712686
627.0,0.0003988238498928709
3112.0,0.00087678354974274342
4.0,1.2558099747206342e-05
568.0,0.00032318479974713377
5.0,1.2603199999849934e-05
88.0,6.1895399750211411e-05
243.0,9.2419999718540424e-05
24.0,2.5806399999384055e-05
14.0,2.5028904995005874e-05
14685.0,0.002982597599955561
1241.0,0.0003229366049599669
384.0,0.00018316800000084399
4.0,1.2483199999913097e-05
2631.0,0.00062032320000415808
6.0,1.2723199999786772e-05
6.0,1.2723199999786772e-05
37.0,3.708959999992878e-05
46.0,3.9947438995824314e-05
545.0,0.00017249399999985648
6.0,1.2831639000454587e-05
4884.0,0.0011279376000092878
29.0,2.6406399999068242e-05
1.0,1.2123200000102585e-05
366.0,0.00013755519999891774
3.0,1.236319999997626e-05
21.0,2.5446399999573543e-05
3.0,1.236319999997626e-05
72.0,4.8612800000347178e-05
5.0,1.2603199999849934e-05
19.0,2.5206399999699869e-05
14.0,2.4660940000753584e-05
48.0,3.8790709997238437e-05
731.0,0.00023586079999904364
6.0,1.2808799998209608e-05
3153.0,0.00068950239984455486
564.0,0.00043038595984579153
19.0,2.5536159848238427e-05
385.0,0.00014872785981823178
6509.0,0.001470350599824366
13.0,2.4486400000078845e-05
917.0,0.00023166080000125433
47.0,4.8612800000347178e-05
1.0,1.2123200000102585e-05
53.0,3.9009599998918176e-05
578.0,0.0001941695999172488
2881.0,0.00067368717991822535
617.0,0.00017344479999947815
12.0,2.4439770000439509e-05
3146.0,0.00083344566999965508
37.0,3.7189170001949989e-05
7.0,1.2843199999723609e-05
46.0,3.8169599999360315e-05
8.0,1.2963199999660446e-05
2.0,1.2243200000039423e-05
4.0,1.2483199999913097e-05
29.0,2.6406399999068242e-05
4.0,1.2483199999913097e-05
258.0,0.00011006880000041797
21.0,2.548539999902566e-05
25.0,2.5950250001516295e-05
4.0,1.2483199999913097e-05
3787.0,0.0007844048000020809
17.0,2.4966399999826194e-05
9.0,1.3083199999597284e-05
58.0,3.9609599998602363e-05
103.0,7.4899199999478583e-05
450.0,0.00016180159999912291
43.0,3.7809599999549803e-05
3.0,1.236319999997626e-05
1306.0,0.00036441600000269858
1077.0,0.00031652320000197243
5.0,1.2603199999849934e-05
3185.0,0.0008381808000061941
13.0,2.4486400000078845e-05
26.0,2.604639999925773e-05
17.0,2.7358299969471034e-05
2544.0,0.00060434889996874297
722.0,0.0002359679999730524
4.0,1.2483199999913097e-05
4.0,1.2483199999913097e-05
1268.0,0.00033176640000043278
73.0,5.1012799999083924e-05
29.0,2.6406399999068242e-05
40.0,3.7449599999739291e-05
281.0,0.00016972480000143619
23.0,2.5686399999447218e-05
28.0,2.6286399999131405e-05
63.0,4.9812799999715551e-05
77.0,4.9932799999652389e-05
6.0,1.2723199999786772e-05
31.0,3.6729600000118268e-05
607.0,0.0002009087999526038
2.0,1.2243200000039423e-05
2161.0,0.00048990999995446316
4.0,1.2483199999913097e-05
234.0,9.974559999936794e-05
105.0,5.2812799998136484e-05
49.0,3.8529599999170827e-05
43.0,3.7876800003111555e-05
38.0,3.7209599999865617e-05
29.0,2.6496989997681908e-05
6077.0,0.0014158405199979907
18.0,2.5086399999763032e-05
6.0,1.2867509999070492e-05
14.0,3.1627229958752778e-05
26.0,4.3899229757560221e-05
2477.0,0.00086283990967017665
11.0,2.9364929629016601e-05
45.0,7.0477015604364368e-05
8.0,1.4290385115023341e-05
7884.0,0.0024093999990559833
1375.0,0.001002570099998934
1.0,2.7523419408481686e-05
121.0,0.00017735171938881855
299.0,0.0003133259993655102
40.0,7.0147969208456118e-05
2838.0,0.0017185679991797986
414.0,0.00036396371907310154
2714.0,0.001797006899077358
6653.0,0.0034599667989858585
186.0,0.00019529272889395877
14586.0,0.004951410922819699
12.0,2.4861428822520182e-05
1329.0,0.00084223096882096726
1161.0,0.00055006452882500056
37.0,3.7457928823814157e-05
52.0,3.8967198821904248e-05
2839.0,0.0011181100688166801
1050.0,0.0004652915288239079
6.0,1.2723199999786772e-05
24.0,2.5806399999384055e-05
7.0,1.2930500000951639e-05
20.0,2.5603999998624616e-05
21.0,2.5738009997278155e-05
210.0,0.00013455520000049681
6699.0,0.0014574578300021734
4.0,1.2483199999913097e-05
17.0,2.5001300003602012e-05
270.0,0.00010332959996506297
6570.0,0.0014150743999683524
3.0,1.236319999997626e-05
30.0,2.6526399999005079e-05
4.0,1.2483199999913097e-05
3.0,1.247564000217416e-05
2594.0,0.00072348998999993697
9.0,1.3083199999597284e-05
24.0,2.5806399999384055e-05
16.0,2.4846399999889357e-05
212.0,0.00011174879999953369
5.0,1.2603199999849934e-05
17.0,2.505532000340871e-05
29.0,2.6501220004471193e-05
25.0,2.5926399999320893e-05
279.0,0.000223025319931347
446.0,0.00022458821993387446
14.0,2.4703419935878657e-05
14422.0,0.0029544159999361774
6.0,1.2723199999786772e-05
41.0,3.7569599999676129e-05
6.0,1.2898115036685809e-05
48.0,3.9554285034881786e-05
106.0,5.3101415029344068e-05
31.0,3.6369600000307756e-05
125.0,6.296240502989825e-05
17.0,2.8385904939698392e-05
5.0,1.4027004825223344e-05
2235.0,0.00057887530475753124
32.0,3.6602504765337329e-05
166.0,6.790050475058429e-05
797.0,0.00025921200464962268
17853.0,0.0037807816646469039
24.0,2.5806399999384055e-05
547.0,0.00026983040000061465
4964.0,0.0009973424000067066
21.0,2.5446399999573543e-05
2839.0,0.00058599360000277656
3.0,1.236319999997626e-05
5.0,1.2603199999849934e-05
655.0,0.00026863040000124627
43.0,3.7809599999549803e-05
2499.0,0.00071718880000504193
88.0,5.0532799999336575e-05
77.0,4.9212800000031365e-05
17.0,2.4966399999826194e-05
2198.0,0.00045525599995488442
2780.0,0.00078612349976547868
3025.0,0.0006943443997671217
831.0,0.00043855557991023808
9.0,1.5354029838432481e-05
1053.0,0.00040872009982817481
1323.0,0.00045262832976611378
2025.0,0.0010341129296820295
783.0,0.00024489062956889462
14.0,2.4669539570698618e-05
47.0,5.9010239477963466e-05
28.0,2.8520389454333994e-05
8525.0,0.0021777951994113032
7.0,1.3572769978154042e-05
715.0,0.00021193279991438274
4809.0,0.001455772579996184
931.0,0.00042779200000175877
1201.0,0.00049945120000294274
110.0,7.4299199999794396e-05
29.0,2.6406399999068242e-05
16.0,2.4846399999889357e-05
822.0,0.00023646079999872782
32.0,3.6489600000244593e-05
603.0,0.00032936640000169604
3.0,1.236319999997626e-05
431.0,0.00013744269994941938
3.0,1.2406399947595403e-05
5040.0,0.0012607839999523307
22.0,2.5566399999510381e-05
3558.0,0.0007164688000054209
1451.0,0.00056442642995868653
403.0,0.00014156119990627047
1027.0,0.00030022809977348075
2813.0,0.00072408959963832231
30.0,2.6526399999005079e-05
20.0,2.5359999997753846e-05
51.0,6.1108269997944831e-05
194.0,7.8849599977948159e-05
15.0,2.8827899842376326e-05
16046.0,0.0035078147297302742
15.0,2.472639999995252e-05
459.0,0.00014698939994661764
38.0,4.9131699946691754e-05
32.0,3.6489600000244593e-05
32.0,3.6565309954994518e-05
11702.0,0.0024295215999512454
232.0,8.9902399998065263e-05
19.0,2.5206399999699869e-05
3392.0,0.00091589589995821896
21.0,2.5446399999573543e-05
12.0,2.4399300002642121e-05
1649.0,0.00060003680000186854
273.0,8.8462399998823216e-05
420.0,0.00014763840000009409
50.0,3.8706599997606617e-05
15.0,2.472639999995252e-05
30.0,2.6526399999005079e-05
294.0,0.00011205382999812663
20.0,2.5326399999636706e-05
6.0,1.2723199999786772e-05
839.0,0.00026392159994537145
34.0,3.7569599999676129e-05
16.0,2.617077394906353e-05
218.0,8.1654143927467615e-05
524.0,0.00018084230992254646
4.0,1.3185409922344959e-05
893.0,0.00053133599991483926
9.0,1.3148779919536224e-05
4.0,1.2536059917023223e-05
177.0,0.00013519260991601278
11692.0,0.0023420486699250453
19.0,2.5206399999699869e-05
531.0,0.00018376800000052818
29.0,3.6969599999991942e-05
23.0,2.5686399999447218e-05
3.0,1.236319999997626e-05
88.0,8.5102400000591771e-05
5.0,1.2603199999849934e-05
18.0,2.5086399999763032e-05
10.0,1.3203199999534121e-05
3.0,1.236319999997626e-05
15.0,2.472639999995252e-05
31.0,3.9882739998331473e-05
560.0,0.00015904160000057566
1865.0,0.00041312959996409049
46.0,7.1582579391549217e-05
363.0,0.00034415577935908992
126.0,0.00015965673935425251
651.0,0.00036351991922556337
5060.0,0.0020066604990323089
22.0,4.3717918931651667e-05
296.0,0.0003259521188792025
5287.0,0.0025640057788169912
1988.0,0.0010896733188037189
20.0,2.5462328804515266e-05
4.0,1.2663618798702814e-05
3297.0,0.0010035647183705976
27.0,2.6170118369917006e-05
17519.0,0.0047075095983666326
710.0,0.0006014152183699828
16.0,2.4846399999889357e-05
45.0,3.8049599999423478e-05
51.0,3.8846829998773202e-05
31.0,3.6565029998936183e-05
752.0,0.00021044946999171366
1.0,1.2145169998367678e-05
4688.0,0.0011820672000002475
7.0,1.2911639998502977e-05
16.0,2.4846399999889357e-05
4.0,1.2694630000087415e-05
15.0,2.4839675002663597e-05
14.0,2.4621175005679063e-05
3.0,1.2482675009861666e-05
2.0,1.2243200000039423e-05
41.0,5.6828299596523024e-05
13193.0,0.0027499697445683147
7384.0,0.0016889903995778166
1491.0,0.0003564928000003853
57.0,4.9812799999715551e-05
94.0,0.00010886389994779755
3576.0,0.001095977899673084
173.0,0.00014302939967603123
49.0,3.8777299675718524e-05
8.0,1.307439968067925e-05
6415.0,0.0015167967996814191
7.0,1.2843199999723609e-05
2.0,1.2243200000039423e-05
51.0,6.0736000000449764e-05
93.0,7.4659199999604908e-05
12.0,2.4366400000142008e-05
48.0,3.840959999923399e-05
112.0,5.341279999782067e-05
7.0,1.2936900001703222e-05
2045.0,0.00062224320000314748
260.0,0.00018364800000059134
47.0,4.9092800000094527e-05
18.0,2.5086399999763032e-05
10.0,1.3203199999534121e-05
42.0,3.7689599999612966e-05
2952.0,0.00064672960000322632
35.0,3.7209599999865617e-05
36.0,3.7569599999676129e-05
877.0,0.00040354560000155359
111.0,5.3292799997883833e-05
1.0,1.2137900000208646e-05
25.0,2.6045240000938108e-05
2568.0,0.00056570720000048702
780.0,0.00049230699984237347
2.0,1.3622499768661811e-05
333.0,0.00030507759976239335
1425.0,0.00076549409675386038
1962.0,0.0008505569867562901
1738.0,0.00069354079975814109
7.0,1.2843199999723609e-05
42.0,4.299828997034183e-05
294.0,0.00011879806996395459
101.0,6.3205089968487727e-05
14.0,2.4606400000015682e-05
50.0,3.8649599999107664e-05
31.0,3.7111829999547652e-05
307.0,0.00027298736987613204
10.0,1.4753077784535051e-05
289.0,0.00026638567776759992
1214.0,0.00073914927763008009
15449.0,0.0033483892493157974
6757.0,0.0020081268773164407
51.0,3.8769599999044502e-05
1.0,1.2123200000102585e-05
2.0,1.2243200000039423e-05
4.0,1.2483199999913097e-05
10.0,1.4866319805406647e-05
3174.0,0.0010617551996745522
37.0,5.6303579564431772e-05
748.0,0.00056261037953020399
1058.0,0.00058396677948557851
1595.0,0.00090168721948602482
19.0,2.5246979483029008e-05
9637.0,0.0023200145194883781
4.0,1.2483199999913097e-05
173.0,0.00014631840000078888
50.0,4.8492800000410341e-05
20.0,2.5326399999636706e-05
5.0,1.2603199999849934e-05
2794.0,0.00083469439991090688
22.0,2.5566399999510381e-05
1546.0,0.00040710079990891046
422.0,0.00026683040000219371
29.0,2.6406399999068242e-05
33.0,3.660960000018143e-05
13.0,2.4486400000078845e-05
14.0,2.4606400000015682e-05
2.0,1.2243200000039423e-05
5.0,1.2822600000905737e-05
1458.0,0.00038337919999920089
92.0,6.313599999918651e-05
167.0,7.6579199998594305e-05
6.0,1.4297409997698907e-05
703.0,0.00025814559991599317
5091.0,0.0011114419899189709
3882.0,0.0012487644996950209
25.0,2.6006399700850835e-05
927.0,0.00052968879968018356
4.0,1.2601799691536186e-05
37.0,6.319652994180025e-05
16.0,2.8783529930187512e-05
19.0,2.9021829601072469e-05
21.0,4.2058929541566314e-05
73.0,0.0001106787294580247
2752.0,0.0014108655993092523
15762.0,0.0036987258993042005
45.0,5.255032930384651e-05
4.0,1.3818859165848352e-05
629.0,0.00045160265913324338
3122.0,0.0015278126290829697
14399.0,0.0041802800980290655
17.0,2.9788009899389678e-05
53.0,8.5638959898881595e-05
7.0,1.3079009893335325e-05
1006.0,0.00039759519986204417
19.0,2.5881509860825602e-05
12809.0,0.0035521744998110449
600.0,0.0003631253298164161
2742.0,0.00097994865981609891
15.0,2.9701379972157937e-05
21.0,2.9193679881300838e-05
1248.0,0.00057985077987843248
19.0,2.5206399999699869e-05
1465.0,0.00047114157988037419
1181.0,0.00046446399988520071
369.0,0.00013575519999986518
8.0,1.2963199999660446e-05
6.0,1.2723199999786772e-05
3.0,1.236319999997626e-05
265.0,0.00018880479999139332
946.0,0.00035766399990433406
38.0,4.3437529684720033e-05
2025.0,0.00091815839959452639
3778.0,0.0012588179195689442
2102.0,0.001176394989572449
3193.0,0.001300793829569713
4.0,1.2483199999913097e-05
766.0,0.00026827040000143576
43.0,3.7809599999549803e-05
293.0,0.0001844880000001492
17.0,2.4966399999826194e-05
1031.0,0.00037989920000103261
25.0,2.5926399999320893e-05
3.0,1.236319999997626e-05
7.0,1.2843199999723609e-05
4.0,1.2596100001927013e-05
23.0,2.5780700006805546e-05
18.0,2.6117710002271366e-05
41.0,4.3552348985231859e-05
46.0,5.8377938982889788e-05
39.0,6.7204158978872996e-05
1891.0,0.00064055969979648353
15.0,2.4843258793705303e-05
11.0,2.424640000020517e-05
75.0,5.1012799999083924e-05
84.0,7.3600619999503181e-05
3.0,1.236319999997626e-05
1066.0,0.00031344959985446508
13.0,2.5807209843797807e-05
19551.0,0.0040760583508372417
1548.0,0.00041626629984170549
6.0,1.2723199999786772e-05
30.0,3.6849600000055105e-05
132.0,0.00012723199999786772
472.0,0.00014712777000069899
16.0,2.9237799527459529e-05
427.0,0.00038226559945941929
4927.0,0.0014649628994158892
348.0,0.0002072484994146695
10371.0,0.0022205311994212273
7.0,1.2843199999723609e-05
403.0,0.00013635519999954937
7.0,1.2843199999723609e-05
771.0,0.00038006154000136405
3.0,1.236319999997626e-05
56.0,5.0172799999526063e-05
26.0,2.604639999925773e-05
343.0,0.00019542500000135909
661.0,0.00028194399998127118
3645.0,0.0014742802692297996
1146.0,0.00077094366912588974
13434.0,0.0033734076990283857
1.0,1.4037668800259695e-05
4611.0,0.0025163926686593285
6625.0,0.0034781970983730481
1404.0,0.001150679468378879
4025.0,0.0017685508683757956
2559.0,0.0012833035683810223
1.0,1.2123200000102585e-05
4368.0,0.00099311359995057913
858.0,0.00029127739986845036
10.0,1.3313249874080668e-05
6487.0,0.0014126487998717963
573.0,0.00025721809987433453
4.0,1.2489800006232343e-05
204.0,9.974559999936794e-05
15.0,2.4756800000247381e-05
14.0,2.4606400000015682e-05
311.0,0.00010026523896522477
15.0,3.3784854924112651e-05
108.0,9.2097838910953911e-05
11378.0,0.0024783117997930759
1697.0,0.00065307793879587628
726.0,0.00024435635479913564
2632.0,0.0010051079787984918
20.0,2.5326399999636706e-05
2893.0,0.00083950080000549931
2250.0,0.00065933280000307626
46.0,3.8169599999360315e-05
20.0,2.5326399999636706e-05
16.0,2.4846399999889357e-05
4.0,1.2483199999913097e-05
5.0,1.2687710000180985e-05
5.0,1.2603199999849934e-05
3159.0,0.0007456352000030364
18.0,3.0284099794997132e-05
3333.0,0.00083646719969587835
2026.0,0.00071726159969842662
1649.0,0.00076034909970301712
20.0,2.5326399999636706e-05
1.0,1.2230000003388142e-05
2414.0,0.00069234240000515257
96.0,9.7465600000568031e-05
3.0,1.236319999997626e-05
9.0,1.3083199999597284e-05
74.0,7.4299199999794396e-05
2575.0,0.00062196250999724256
1330.0,0.00049424389989405348
245.0,0.00019227519997011555
4356.0,0.0010015719999483252
37.0,4.1250659937208667e-05
3.0,1.2566949936454463e-05
3.0,1.3926749717008136e-05
4.0,1.3440199698733224e-05
156.0,0.00012424519951115265
2338.0,0.0010571154994480914
15.0,2.9723999037445381e-05
15.0,2.8551999006642959e-05
72.0,0.00012296469874706339
3181.0,0.002444078378732506
6.0,1.2875398731182486e-05
876.0,0.0007857079987232396
3037.0,0.0024473561486741957
3.0,1.3471198371917126e-05
66.0,9.5990698234960092e-05
502.0,0.00054782859823787611
861.0,0.0009473002982318679
4495.0,0.0024761897981762093
2.0,1.2501798172026568e-05
1230.0,0.001086881298173914
17.0,2.9139198121752585e-05
14926.0,0.0053691491977729822
11881.0,0.0041368418977736354
22.0,3.6369600000307756e-05
1.0,1.2123200000102585e-05
24.0,3.660960000018143e-05
46.0,3.8169599999360315e-05
53.0,6.133600000013395e-05
628.0,0.00017008480000124671
236.0,8.5222400000528609e-05
10.0,1.3203199999534121e-05
251.0,0.00011138879999972318
14.0,2.4606400000015682e-05
50.0,3.8649599999107664e-05
18.0,2.5086399999763032e-05
48.0,3.840959999923399e-05
1120.0,0.00025962719999950146
207.0,0.00016000160000007035
198.0,0.00011221919997983498
35.0,5.4007899963126604e-05
3291.0,0.0011473088995879177
50.0,8.4264099414532723e-05
3452.0,0.0020085395989317689
20.0,2.9798738782282896e-05
2867.0,0.0020753871383858424
19.0,3.0276238311977011e-05
15.0,2.9312038211548597e-05
1083.0,0.00087167393821108163
4796.0,0.0029159590981424621
5.0,1.4298778071131224e-05
50.0,9.6093838044097879e-05
20.0,4.4095877962835317e-05
531.0,0.00043903300771797049
3561.0,0.0021867911377146942
4.0,1.2677907717639769e-05
17350.0,0.0055659628476685263
30.0,3.8588407677009329e-05
50.0,4.9498677678450065e-05
2.0,1.2310977682172819e-05
391.0,0.0002548994776820912
18233.0,0.0061155892976874071
5.0,1.2643849999882661e-05
20.0,2.5326399999636706e-05
1206.0,0.00050065120000231111
1027.0,0.00040294560000186941
124.0,7.4539199999668071e-05
564.0,0.00020705440000123865
5252.0,0.0012901854000051394
50.0,3.9077029998280111e-05
41.0,4.9332799999968202e-05
103.0,7.4969979999783831e-05
95.0,6.2175999999691811e-05
2920.0,0.00084636146000094392
54.0,3.9129599998855014e-05
1.0,1.2123200000102585e-05
10.0,1.3203199999534121e-05
70.0,7.3819200000047047e-05
395.0,0.00020897440000022804
32.0,3.7569599999676129e-05
239.0,0.0001226720000002679
51.0,6.1183199999925719e-05
85.0,5.1006599998792979e-05
4.0,1.2546700000504174e-05
33.0,3.7736470001936695e-05
106.0,7.9811899968529332e-05
65.0,9.7564799887095432e-05
222.0,0.00024778709979367264
3.0,1.437119972225176e-05
2428.0,0.0009175269997219182
43.0,4.9572799999841877e-05
814.0,0.00052383589647875262
4.0,1.3721199426219854e-05
1.0,1.3683799329200497e-05
2639.0,0.0014702431992326126
19.0,2.9211499077197445e-05
18828.0,0.0044830534019915103
1230.0,0.00069082050878299661
9410.0,0.0031902620117874037
3778.0,0.0015089637987877325
1281.0,0.00030416000000199617
5.0,1.2605900000295378e-05
1452.0,0.00043633305992352156
1912.0,0.00066561299980105737
53.0,6.5664899802531096e-05
3256.0,0.00086976799980154063
562.0,0.00016442559996532324
6363.0,0.001362157099973782
48.0,3.8455199974363197e-05
3153.0,0.00086097779998128843
2.0,1.2251200000701346e-05
6216.0,0.0014658143995007755
4216.0,0.0011705750195023512
40.0,4.1878899979419515e-05
12.0,2.9273199584567422e-05
5755.0,0.0013775151993462575
396.0,0.00025530699935272239
10906.0,0.0027172066993521593
5.0,1.2603199999849934e-05
41.0,3.7569599999676129e-05
1336.0,0.00055062979989695116
3362.0,0.0008147231999018345
53.0,3.9174879999048784e-05
216.0,0.00018902607999637944
5.0,1.2603199999849934e-05
47.0,3.8289599999297153e-05
2932.0,0.00060903513000054588
2780.0,0.00091676979977473039
619.0,0.00051304129977336466
5337.0,0.001304387199773771
3.0,1.236319999997626e-05
1008.0,0.00028063360000141202
33.0,3.660960000018143e-05
10.0,1.3203199999534121e-05
103.0,5.2332799998389135e-05
6.0,1.2723199999786772e-05
559.0,0.00029395680000088298
1021.0,0.00045443969999636735
5886.0,0.0012137600000095006
52.0,3.8889599998981339e-05
4.0,1.2483199999913097e-05
2201.0,0.00047280480000400082
981.0,0.00025650720000114369
31.0,3.708959999992878e-05
596.0,0.00032852640000213817
11.0,2.424640000020517e-05
20.0,3.0157399859565004e-05
4756.0,0.0010401136998214877
3283.0,0.00078155839982851916
1117.0,0.00028459359999932765
29.0,3.6849600000055105e-05
30.0,3.7329599999802454e-05
5.0,1.2603199999849934e-05
20.0,2.5326399999636706e-05
2028.0,0.00067349600000210508
49.0,3.8529599999170827e-05
4.0,1.2483199999913097e-05
1.0,1.2123200000102585e-05
10.0,1.3203199999534121e-05
40.0,3.7449599999739291e-05
51.0,6.1096000000260275e-05
6.0,1.2723199999786772e-05
43.0,3.7809599999549803e-05
5504.0,0.0010860880000000961
20.0,2.5326399999636706e-05
23.0,3.6489600000244593e-05
5.0,1.2603199999849934e-05
197.0,7.6699199998531142e-05
2599.0,0.00083628316985495665
18.0,2.544439985507907e-05
14.0,2.4649799859721711e-05
5534.0,0.0011773167998601064
132.0,0.00012191319986154525
615.0,0.0002030358199960336
405.0,0.00013225279995632278
15.0,2.5043939958058203e-05
4150.0,0.0009064087998189585
1725.0,0.0006725658398221146
13.0,2.4486400000078845e-05
17.0,2.4966399999826194e-05
750.0,0.00022037760000070961
11.0,2.424640000020517e-05
2906.0,0.00062404320000220004
359.0,0.00010958880000067062
21.0,2.6641779997005344e-05
36.0,4.8732800000284016e-05
4767.0,0.0010568472196663681
31.0,3.708959999992878e-05
28.0,2.6369139997983737e-05
6191.0,0.0014048300000006897
20.0,2.5326399999636706e-05
97.0,7.4179199999857559e-05
613.0,0.00034863209999658196
1174.0,0.00026911040000099362
32.0,3.6489600000244593e-05
20.0,2.5347900002303803e-05
2673.0,0.00076892160000374687
129.0,6.133600000013395e-05
1.0,1.2123200000102585e-05
1071.0,0.00041458880000222464
50.0,3.8649599999107664e-05
4.0,1.4225099875586622e-05
1497.0,0.00042540959979553428
488.0,0.00034043956979545875
14.0,2.8051489965097431e-05
320.0,0.00018499854992670706
370.0,0.0002213023999289021
11037.0,0.0022542121799371539
2.0,1.2277589937825795e-05
2822.0,0.00082688398994124057
13.0,2.4486400000078845e-05
39.0,3.7329599999802454e-05
1236.0,0.00050977440000399277
21.0,2.5446399999573543e-05
22.0,4.4019499868763745e-05
10.0,1.4980299465117142e-05
5018.0,0.0013438924993236512
6.0,1.2795399328524582e-05
7.0,1.6145699301306493e-05
336.0,0.00034554659917951369
7.0,1.4771349167164161e-05
21.0,2.9950949068213717e-05
18665.0,0.0041854431989380991
3200.0,0.00093523282999719015
42.0,4.9452799999905039e-05
55.0,4.9860699998793834e-05
7.0,1.2843199999723609e-05
4842.0,0.0014520300500018291
30.0,3.7209599999865617e-05
18.0,2.5086399999763032e-05
616.0,0.00038080015989416793
15.0,2.6190089893685098e-05
5.0,1.2689319891512341e-05
2980.0,0.0007782927997783684
1258.0,0.00066226745977515655
52.0,3.8889599998981339e-05
417.0,0.00018435021978424615
6285.0,0.0017329784897821554
261.0,0.00018376800000052818
845.0,0.00038903551978552997
266.0,9.0262399997875775e-05
4306.0,0.00096265280000551456
25.0,2.5926399999320893e-05
148.0,8.6182400000023307e-05
4.0,1.2483199999913097e-05
8.0,1.2963199999660446e-05
40.0,4.8732800000284016e-05
19.0,2.5206399999699869e-05
11.0,2.424640000020517e-05
14.0,2.4606400000015682e-05
40.0,3.7449599999739291e-05
21.0,2.5446399999573543e-05
1326.0,0.00041878880000001395
507.0,0.00029334989999996175
6.0,1.2723199999786772e-05
43.0,3.7809599999549803e-05
1418.0,0.00035901279999905888
22.0,2.5566399999510381e-05
48.0,4.9692799999778714e-05
1310.0,0.00042588625998818408
828.0,0.0004001759999838761
629.0,0.00019002489998598548
6.0,1.2723199999786772e-05
911.0,0.00026034719999912248
885.0,0.00025965804088756705
29.0,2.6743740892953838e-05
608.0,0.00039184799989100405
5233.0,0.0013843865995613047
69.0,4.9572799999841877e-05
6280.0,0.0016425227999994352
40.0,3.7449599999739291e-05
4.0,1.2483199999913097e-05
317.0,0.00011282879999896522
1322.0,0.00045467840000057436
18.0,2.5086399999763032e-05
85.0,5.1492799998831273e-05
5.0,1.2603199999849934e-05
15.0,2.472639999995252e-05
20.0,2.5326399999636706e-05
568.0,0.0001835280000006545
33.0,3.6729600000118268e-05
34.0,3.6729600000118268e-05
1.0,1.2123200000102585e-05
19.0,2.5206399999699869e-05
2083.0,0.00049873120000332172
40.0,3.7449599999739291e-05
52.0,3.8889599998981339e-05
398.0,0.00020035701999110422
2006.0,0.00048895731999154535
675.0,0.00024486919999144874
98.0,5.1732799998704948e-05
20.0,2.5404199998080301e-05
399.0,0.00012641761996023959
1406.0,0.00038804319996432746
6303.0,0.0014100112000099418
18.0,2.5086399999763032e-05
269.0,0.00012927199999679395
768.0,0.00019798395999992557
2641.0,0.00060099680000136324
6.0,1.2723199999786772e-05
459.0,0.00013539520000005467
30.0,2.6526399999005079e-05
398.0,0.00015101869999822881
960.0,0.00028702189986984372
50.0,3.8943299871085912e-05
361.0,0.00026591129986996975
5225.0,0.0012590591998624667
763.0,0.00019923409986510876
4.0,1.2483199999913097e-05
8.0,1.2963199999660446e-05
19.0,2.5206399999699869e-05
999.0,0.00030440000000186984
33.0,3.6658200001316033e-05
6.0,1.273800000056724e-05
42.0,3.7739759999322331e-05
4393.0,0.0011272144000031847
1104.0,0.00029731679999911442
8.0,1.3060600001724154e-05
334.0,0.00011461089996211982
80.0,0.00012336774996835054
1.0,1.2207749964909809e-05
1.0,1.2170149965795574e-05
11.0,2.424640000020517e-05
6324.0,0.0012807167999677738
14.0,2.4606400000015682e-05
49.0,6.1665445799663487e-05
1.0,1.2235345802746878e-05
2446.0,0.00058575360000290289
6.0,1.2723199999786772e-05
719.0,0.00022001760000089909
1998.0,0.00042431200000359048
51.0,3.8950559998252032e-05
321.0,0.00021989760000096226
44.0,3.7929599999486641e-05
2.0,1.4366399956777798e-05
1498.0,0.00041278150993595553
2118.0,0.00053180639989514056
802.0,0.00022190559993506831
2230.0,0.00084638497993516637
1.0,1.2123200000102585e-05
721.0,0.00023538079999929629
45.0,4.9812799999715551e-05
17.0,2.5039100001178483e-05
13.0,2.4486400000078845e-05
2813.0,0.000589353600001008
5.0,1.2603199999849934e-05
27.0,3.6969599999991942e-05
1024.0,0.00030740000000029077
2.0,1.2243200000039423e-05
5.0,1.2603199999849934e-05
17.0,2.8914999950391262e-05
1183.0,0.00031555464989163617
244.0,0.00013700349983691851
398.0,0.00033344497974518994
1218.0,0.000608528399740349
6514.0,0.0014031599997477162
20.0,2.5326399999636706e-05
513.0,0.00015915459995619052
988.0,0.00043412959995303702
943.0,0.00036080663995741169
15.0,2.472639999995252e-05
18.0,2.5086399999763032e-05
34.0,3.6729600000118268e-05
730.0,0.0002213376000002043
18.0,2.5086399999763032e-05
95.0,5.1732799998704948e-05
46.0,3.8169599999360315e-05
13.0,2.4486400000078845e-05
23.0,2.5686399999447218e-05
18.0,2.5086399999763032e-05
4.0,1.2483199999913097e-05
19.0,2.545441999246556e-05
655.0,0.00022482631997067237
1840.0,0.00042753919997595702
475.0,0.00021929760000127807
5.0,1.2603199999849934e-05
11.0,2.6516249981956008e-05
918.0,0.00027353554996678575
13.0,2.4486400000078845e-05
5.0,1.2624049997578268e-05
5.0,1.2722450002611296e-05
14.0,2.9049599887365218e-05
724.0,0.00031557719985886301
432.0,0.00038636719952034326
12605.0,0.0027382778594617907
2.0,1.2339499467106663e-05
5543.0,0.0016390031994679699
2.0,1.2243200000039423e-05
19.0,2.5206399999699869e-05
74.0,5.3409599991338652e-05
922.0,0.00030729912587590391
2199.0,0.00077925162548453386
3220.0,0.0012752385994863058
37.0,3.7553425488168202e-05
11.0,2.4591215485703088e-05
1167.0,0.00038761122536956627
90.0,5.1187915368178238e-05
1.0,1.2123200000102585e-05
3.0,1.2447415379979176e-05
15975.0,0.0038348157193843768
241.0,8.870239999869689e-05
1273.0,0.00043008019999657421
39.0,3.7329599999802454e-05
13.0,2.4486400000078845e-05
4.0,1.3450239776391371e-05
877.0,0.00050332155974297521
65.0,9.5659239540690777e-05
824.0,0.00090120250952208103
53.0,5.3532739506145788e-05
6260.0,0.0019059567994765825
2376.0,0.0013900374392579185
2940.0,0.0014302180792591379
4778.0,0.0020633392992306376
5.0,1.2603199999849934e-05
23.0,2.5686399999447218e-05
5585.0,0.0015725471392411539
3022.0,0.00077035345924114651
98.0,6.133600000013395e-05
27.0,2.6166399999194567e-05
36.0,3.6969599999991942e-05
210.0,0.00015904160000057566
37.0,3.9009599998918176e-05
7.0,1.2927799999618017e-05
31.0,3.6484190000241057e-05
127.0,8.8222399998949541e-05
28.0,2.6286399999131405e-05
24.0,2.5806399999384055e-05
4.0,1.2483199999913097e-05
76.0,6.6874199969868542e-05
1048.0,0.00034662399994722648
2031.0,0.00070082253994585564
1033.0,0.00046845629995151405
31.0,4.2489299937553682e-05
901.0,0.00032013689991505778
3401.0,0.000789283199915225
14.0,2.4606400000015682e-05
3700.0,0.00090047680000582275
874.0,0.00022555309999572337
31.0,4.4290799812385373e-05
2526.0,0.0010125053196143874
3216.0,0.0013355599994591127
31.0,3.7326399993320436e-05
3.0,1.2413489998586158e-05
281.0,0.0002735428898610337
6030.0,0.001816871699715783
22.0,2.5566399999510381e-05
6451.0,0.0015961849996415367
19.0,3.42408896081281e-05
532.0,0.00026746278958134084
31.0,3.7039699576357776e-05
529.0,0.00023026468958087243
2917.0,0.00073387378957878724
35.0,3.6849600000055105e-05
1294.0,0.00029383680000094614
45.0,4.9812799999715551e-05
2.0,1.2243200000039423e-05
296.0,9.7825600000378543e-05
45.0,3.8049599999423478e-05
10.0,1.3203199999534121e-05
21.0,2.5446399999573543e-05
24.0,2.5806399999384055e-05
46.0,4.9932799999652389e-05
120.0,5.4372799997315369e-05
1975.0,0.00055394400000019495
1001.0,0.00032121310000121639
11.0,2.424640000020517e-05
90.0,5.1132799999020762e-05
15.0,2.4781699998976947e-05
10.0,1.3219600001557197e-05
12.0,2.4366400000142008e-05
74.0,5.0265200004284694e-05
3.0,1.2415700003653996e-05
6506.0,0.0012858960000039499
42.0,3.856999999007904e-05
7.0,1.3044099991699198e-05
1006.0,0.0004840431999137973
4180.0,0.00095598869992152835
11.0,3.089677995982143e-05
14.0,2.8118879893623827e-05
17.0,2.8703979792821244e-05
8480.0,0.0020340389377695445
1122.0,0.00052802093777204462
1697.0,0.00041486559983350269
29.0,3.821819982174901e-05
5962.0,0.001560951919725273
16.0,2.4846399999889357e-05
1206.0,0.00055812959965551023
40.0,3.7511259659339657e-05
6485.0,0.0015507858996586243
16.0,2.4846399999889357e-05
3.0,1.236319999997626e-05
18.0,2.5086399999763032e-05
5.0,1.2603199999849934e-05
19.0,2.5206399999699869e-05
32.0,3.8166399992878297e-05
360.0,0.00012032903996850308
1704.0,0.00052711883996647835
9.0,1.3291399993065056e-05
2.0,1.3462499848237997e-05
2274.0,0.00076678879981595394
3171.0,0.00068228959982241655
1222.0,0.00028207360000065407
862.0,0.00022205759999982533
6.0,1.2723199999786772e-05
47.0,3.8289599999297153e-05
92.0,0.00010058909989196785
1677.0,0.00065143591984884175
2977.0,0.00066321599984542345
36.0,3.6969599999991942e-05
3.0,1.236319999997626e-05
2.0,1.2243200000039423e-05
2.0,1.2243200000039423e-05
15.0,2.5024849999555343e-05
480.0,0.00026899040000105678
792.0,0.00025776959988377257
17.0,2.5002279887775813e-05
5608.0,0.001158817699887793
20.0,2.5593879885654758e-05
2172.0,0.00080522487988488045
5.0,1.275498988340118e-05
2330.0,0.00054624288988902592
3159.0,0.00069546240000351034
4.0,1.2483199999913097e-05
1.0,1.2123200000102585e-05
2.0,1.2243200000039423e-05
194.0,8.5942400000149632e-05
29.0,2.6406399999068242e-05
2767.0,0.00079940159998770355
896.0,0.0002613098399912861
8.0,1.2963199999660446e-05
2045.0,0.00047280480000400082
2.0,1.2313900005000988e-05
7.0,1.2872030002997192e-05
6134.0,0.0014550240000121839
126.0,5.5092799996936392e-05
7.0,1.2843199999723609e-05
311.0,0.00010010559999917845
6.0,1.2849549996030163e-05
82.0,9.6340639953451657e-05
3500.0,0.00079469503993134794
518.0,0.00019501384993581006
17.0,2.4966399999826194e-05
37.0,3.7169800003455933e-05
2568.0,0.00057639040000134756
18.0,2.5086399999763032e-05
190.0,7.3339200000299698e-05
743.0,0.00039402479999761653
6.0,1.2723199999786772e-05
11.0,2.424640000020517e-05
1.0,1.2147900002590362e-05
5201.0,0.0010395616999692159
3.0,1.236319999997626e-05
5493.0,0.0011600911999793961
21.0,2.5446399999573543e-05
16.0,2.4846399999889357e-05
49.0,3.8559100000501445e-05
3200.0,0.00064672960000322632
8.0,1.2963199999660446e-05
13.0,2.4486400000078845e-05
4.0,1.2483199999913097e-05
16.0,2.4846399999889357e-05
49.0,3.8529599999170827e-05
27.0,2.6166399999194567e-05
121.0,5.4981729994185713e-05
41.0,3.7569599999676129e-05
5.0,1.2669399996667607e-05
3575.0,0.00074304106995470853
22.0,2.6044129955771211e-05
23.0,4.5902929886709742e-05
2859.0,0.00088801112971781393
3019.0,0.0010033703697156504
436.0,0.00046819089971950056
11.0,2.4416879716993023e-05
73.0,0.00011093059975131325
15.0,2.9516039671717564e-05
12.0,2.8204339421078473e-05
1103.0,0.00077795879930864231
5577.0,0.0017007823991501692
1149.0,0.00082765593875122612
3107.0,0.001395804038689441
16231.0,0.0040716930986861577
10.0,1.3203199999534121e-05
1052.0,0.00059303493869178325
132.0,7.5859199998973281e-05
533.0,0.0001729647999997308
1072.0,0.00041470880000216148
295.0,0.00012291200000014157
49.0,3.8529599999170827e-05
53.0,6.133600000013395e-05
5.0,1.2603199999849934e-05
1.0,1.2123200000102585e-05
8.0,1.2963199999660446e-05
52.0,4.9212800000031365e-05
16.0,2.4846399999889357e-05
868.0,0.00021317439999801735
369.0,0.00024714399999958836
14.0,2.4686360002856844e-05
441.0,0.00018925719992601842
3937.0,0.00097682865992054779
5.0,1.2603199999849934e-05
2.0,1.2243200000039423e-05
595.0,0.00034425818000083375
1662.0,0.00067565698000016106
43.0,3.7809599999549803e-05
48.0,4.0683686997056157e-05
672.0,0.0002213376000002043
1062.0,0.00025614720000133318
40.0,4.9212800000031365e-05
1301.0,0.0005241825000008582
34.0,4.474149992161891e-05
2121.0,0.00066954079977077363
14.0,2.4862999770558503e-05
199.0,0.00024594449934411955
1150.0,0.0008309856393471371
22.0,2.615039934106278e-05
2288.0,0.0012503057993056288
1535.0,0.0010338629993038584
8750.0,0.002313291599309153
20.0,2.5326399999636706e-05
3.0,1.236319999997626e-05
13.0,2.4563000004196311e-05
3.0,1.2373700002843435e-05
3799.0,0.00099049920000382485
105.0,5.2635199998762872e-05
1850.0,0.00048156479999938995
3676.0,0.00075391840000516019
764.0,0.00033075230000534361
15.0,2.472639999995252e-05
19.0,2.9627604849258304e-05
4.0,1.4842254702385205e-05
298.0,0.00024924176469087733
77.0,5.4716864678949761e-05
935.0,0.00060830116450460991
14.0,3.0422864420343032e-05
48.0,7.1494389397797065e-05
7499.0,0.002060086399252814
65.0,5.7511389224718101e-05
28.0,4.3381888959137527e-05
12094.0,0.0030932684039470804
16.0,2.4852088950533258e-05
9.0,1.3127488954545186e-05
6.0,1.2723199999786772e-05
5732.0,0.0014804195889563943
31.0,3.7817299998854637e-05
3.0,1.2601000001000173e-05
2382.0,0.00065861280000345523
496.0,0.00029250690000370838
22.0,3.6369600000307756e-05
10.0,1.3203199999534121e-05
46.0,3.8169599999360315e-05
50.0,6.0976000000323438e-05
531.0,0.00015880160000070198
19.0,2.5206399999699869e-05
277.0,0.00019649120000031495
47.0,3.8289599999297153e-05
424.0,0.00026943960999759042
19.0,2.5206399999699869e-05
554.0,0.00017186249999934233
45.0,3.8049599999423478e-05
39.0,4.9169000002180496e-05
12410.0,0.0024272557000144523
77.0,4.9212800000031365e-05
53.0,6.133600000013395e-05
13.0,2.4486400000078845e-05
21.0,2.5446399999573543e-05
27.0,3.6969599999991942e-05
191.0,7.8609599978074485e-05
4912.0,0.0011432924799879007
8.0,1.2963199999660446e-05
5.0,1.2603199999849934e-05
3.0,1.442297693632355e-05
299.0,0.00025989487668343081
58.0,8.360607648749685e-05
5785.0,0.0016196767994651751
99.0,5.2209599991970279e-05
7017.0,0.0019124913599974924
30.0,2.6526399999005079e-05
1.0,1.2123200000102585e-05
39.0,3.7569599999676129e-05
4.0,1.2572720000658677e-05
19.0,2.5206399999699869e-05
2227.0,0.00071118560000171804
11.0,2.424640000020517e-05
6.0,1.2723199999786772e-05
29.0,3.6412200002278183e-05
2674.0,0.00079760800000161503
2.0,1.2243200000039423e-05
15.0,2.472639999995252e-05
2.0,1.2243200000039423e-05
51.0,6.1096000000260275e-05
24.0,2.5806399999384055e-05
25.0,2.5926399999320893e-05
1.0,1.2123200000102585e-05
19.0,2.5206399999699869e-05
16.0,2.4846399999889357e-05
48.0,6.3839069998516962e-05
20.0,2.9250409813386113e-05
97.0,0.00010739265975900913
2071.0,0.00060324760972929603
5136.0,0.0011311631997352745
16.0,2.4846399999889357e-05
2.0,1.3039785962121186e-05
2.0,1.3995585866233284e-05
3419.0,0.00077037599978901916
4545.0,0.0012686254856983936
1333.0,0.00063949271570318267
17.0,2.4966399999826194e-05
3029.0,0.00088986321570705407
195.0,0.00013599519999973886
4.0,1.2483199999913097e-05
16.0,2.4846399999889357e-05
19.0,2.5206399999699869e-05
45.0,3.8049599999423478e-05
16.0,2.4846399999889357e-05
626.0,0.00029215680000183042
23.0,3.6835719999794847e-05
846.0,0.0003785792000017274
45.0,3.8049599999423478e-05
21.0,2.5456300003057208e-05
3086.0,0.00065645280000459216
109.0,8.6826629999370297e-05
365.0,0.00012459339999804087
1812.0,0.00062272320000289483
19.0,2.5206399999699869e-05
54.0,3.9129599998855014e-05
78.0,4.9692799999778714e-05
945.0,0.00025122399999744083
472.0,0.00024304310000133889
25.0,3.6369600000307756e-05
1099.0,0.00047209725992969354
4061.0,0.00084820015993281039
27.0,2.6166399999194567e-05
1149.0,0.00033044640000112757
103.0,5.2332799998389135e-05
379.0,0.00020705440000123865
19.0,2.5206399999699869e-05
254.0,0.00018292800000097031
1287.0,0.0003186832000008355
1.0,1.222843999859613e-05
317.0,0.00010286559999772571
41.0,3.8321209997471684e-05
606.0,0.00018412800000033869
38.0,4.8838559999264675e-05
97.0,8.5582400000339121e-05
89.0,5.0652799999273412e-05
73.0,4.9452799999905039e-05
32.0,3.6489600000244593e-05
39.0,3.7689599999612966e-05
20.0,2.5326399999636706e-05
30.0,3.6969599999991942e-05
2405.0,0.0007411794999876431
3091.0,0.00073632803974565952
2999.0,0.00079856319974824785
403.0,0.00027085029966533725
4624.0,0.0010403638995648556
39.0,3.7329599999802454e-05
2992.0,0.00089578373992504901
37.0,3.7209199931664827e-05
19.0,2.5206399999699869e-05
5.0,1.2671449930889978e-05
18.0,2.5086399999763032e-05
12.0,2.4445749934765004e-05
486.0,0.00017606239995271444
59.0,3.97295999985392e-05
12.0,2.6927480002880699e-05
243.0,0.0001098966999983908
17012.0,0.0037864781500043243
4.0,1.2483199999913097e-05
43.0,3.7809599999549803e-05
36.0,3.6969599999991942e-05
3.0,1.236319999997626e-05
37.0,3.7569599999676129e-05
2.0,1.2243200000039423e-05
20.0,2.5326399999636706e-05
16.0,2.4846399999889357e-05
36.0,3.6969599999991942e-05
420.0,0.00015844160000089147
7.0,1.2843199999723609e-05
52.0,3.8889599998981339e-05
1.0,1.215479999738811e-05
4883.0,0.00097258659000099001
4.0,1.2483199999913097e-05
4.0,1.2483199999913097e-05
3.0,1.2429290000337545e-05
1656.0,0.00037053599999947728
54.0,3.9178290000885241e-05
10.0,1.3203199999534121e-05
45.0,3.8049599999423478e-05
619.0,0.00015075839999845186
2458.0,0.00058658719998949671
42.0,3.7689599999612966e-05
1290.0,0.00047647769999570322
59.0,3.97295999985392e-05
1062.0,0.00027554239990035256
17.0,2.9928229780873394e-05
5467.0,0.0015443570194249023
2700.0,0.0012839678294263024
4.0,1.2554629424510466e-05
5514.0,0.0018169179994256268
15.0,2.472639999995252e-05
440.0,0.00013731519999904407
94.0,9.7225600000694357e-05
15.0,2.472639999995252e-05
35.0,3.6849600000055105e-05
6.0,1.2723199999786772e-05
5.0,1.2638040000956252e-05
712.0,0.00032744640000270664
23.0,3.7064360000060859e-05
640.0,0.00019421120000151504
17.0,2.4966399999826194e-05
2.0,1.2243200000039423e-05
282.0,0.00011282879999896522
90.0,5.077279999921025e-05
2.0,1.2243200000039423e-05
592.0,0.00028303360000014877
2.0,1.2243200000039423e-05
52.0,3.8889599998981339e-05
21.0,2.5446399999573543e-05
15.0,2.472639999995252e-05
19.0,2.5206399999699869e-05
430.0,0.00028445119995401669
6.0,1.2973069948740701e-05
3995.0,0.00090643742793283799
40.0,5.8678949880430764e-05
32.0,4.2259099847008486e-05
1910.0,0.00060207384980159873
4883.0,0.0013319156695563716
55.0,7.0683719506137166e-05
1270.0,0.00077452791946486244
2.0,1.2560019466478778e-05
3409.0,0.0010971112993893861
2442.0,0.001207303699390927
4.0,1.2681819394178007e-05
10.0,1.3278919394954514e-05
304.0,0.00013491520000030732
3.0,1.2379999997813584e-05
252.0,9.355499996988037e-05
18.0,2.5086399999763032e-05
206.0,8.8579199992278035e-05
6.0,1.2784799996889973e-05
38.0,4.3417699935988097e-05
727.0,0.00026656349993281481
6.0,1.2746199940405489e-05
10.0,1.3203199999534121e-05
16058.0,0.0034418014599457702
29.0,2.6406399999068242e-05
9.0,1.3083199999597284e-05
361.0,0.00023460527999907832
3.0,1.2595000000059642e-05
874.0,0.00026791040000162525
6.0,1.2723199999786772e-05
3.0,1.4639249997339121e-05
944.0,0.00022011715999870063
39.0,4.4521499988903201e-05
2090.0,0.00070107110992934096
6.0,1.2859499933348673e-05
1928.0,0.00052605599991761842
28.0,3.708959999992878e-05
101.0,8.3319579803120547e-05
3918.0,0.0012194092098045672
1212.0,0.00041228209977517416
18.0,2.529917978022489e-05
476.0,0.00017680437977785068
15.0,2.472639999995252e-05
570.0,0.00044630849999949262
721.0,0.00051415151999689712
6.0,1.2723199999786772e-05
32.0,3.6489600000244593e-05
9.0,1.3083199999597284e-05
6.0,1.2723199999786772e-05
4.0,1.2483199999913097e-05
6.0,1.2723199999786772e-05
2.0,1.2243200000039423e-05
6.0,1.2723199999786772e-05
52.0,3.8889599998981339e-05
5.0,1.2603199999849934e-05
5.0,1.2603199999849934e-05
994.0,0.0004879646000008897
77.0,8.5374599998688794e-05
332.0,0.00020681440000136497
326.0,0.00012483199999913097
105.0,6.2175999999691811e-05
16.0,2.4846399999889357e-05
39.0,3.7681079999352107e-05
43.0,4.9572799999841877e-05
105.0,9.8545599999999567e-05
12.0,2.4366400000142008e-05
15.0,2.6056097996329797e-05
47.0,5.8665497916443599e-05
12.0,2.9127197763489932e-05
21.0,4.1507097616966249e-05
3691.0,0.0010181894975394012
144.0,7.3819200000047047e-05
28.0,2.6286399999131405e-05
184.0,0.00013999959998156619
238.0,0.00019014073994982894
10.0,1.3244689955449473e-05
623.0,0.0003456456899526561
17423.0,0.0037186451999593473
5.0,1.2603199999849934e-05
14.0,2.4606400000015682e-05
5.0,1.2651800000540447e-05
3.0,1.2429700007032807e-05
8.0,1.2985040003243853e-05
21.0,4.4554629978765803e-05
47.0,5.8010089942550636e-05
21.0,3.9574989936896898e-05
6107.0,0.0014977615997822102
2690.0,0.00072026790978751976
6.0,1.2723199999786772e-05
31.0,3.7449599999739291e-05
43.0,4.9572799999841877e-05
1433.0,0.00053522080000356631
41.0,4.9332799999968202e-05
15.0,2.472639999995252e-05
69.0,4.0929599997907573e-05
11.0,2.424640000020517e-05
107.0,9.8867000000835148e-05
6.0,1.2723199999786772e-05
6066.0,0.0014524879999811002
542.0,0.0003260924999834991
1083.0,0.00029183649998065775
526.0,0.00017508959992729167
3157.0,0.00068819937996211777
1502.0,0.00055799519993970925
3120.0,0.00097765307994635009
1.0,1.2123200000102585e-05
7.0,1.2843199999723609e-05
66.0,4.0569599998097061e-05
6.0,1.2723199999786772e-05
531.0,0.00034142559987215826
11.0,2.9138839733100497e-05
106.0,0.00013905379971146381
506.0,0.00034189969969244949
5379.0,0.001261598139676634
112.0,5.341279999782067e-05
2742.0,0.0010775914796741226
14.0,2.4606400000015682e-05
7.0,1.2843199999723609e-05
19.0,2.5206399999699869e-05
24.0,2.5806399999384055e-05
20.0,2.9166399709401603e-05
3278.0,0.00088291072961688144
44.0,3.7982799621971708e-05
7.0,1.2843199999723609e-05
26.0,3.6729600000118268e-05
12856.0,0.0025959460000022361
543.0,0.0002546566196384159
25.0,4.2109459933437066e-05
2493.0,0.00082486589984487324
997.0,0.00051298814983824492
3086.0,0.0010458531595349818
6268.0,0.0015901855995390513
1203.0,0.00026851040000130943
31.0,3.6489600000244593e-05
7.0,1.2987899999483687e-05
1437.0,0.0004919589999214935
3146.0,0.00090235839992702793
50.0,3.8649599999107664e-05
104.0,5.2452799998325972e-05
5312.0,0.0010530476100016894
1.0,1.3616659905846262e-05
2071.0,0.00055769759982315925
608.0,0.00041959709982264393
14.0,2.4929159820441527e-05
15.0,2.4899928816823902e-05
694.0,0.00051006355981941809
2789.0,0.00097131095982261328
18.0,2.5106899999904897e-05
2760.0,0.00058599360000277656
6.0,1.3058289997314176e-05
15.0,2.6953050986655569e-05
1138.0,0.00028409159991027444
2965.0,0.00082841279991408001
36.0,3.6969599999991942e-05
1341.0,0.00035277280000234335
9.0,1.3083199999597284e-05
730.0,0.0001997292599977829
145.0,0.00011006880000041797
16.0,2.4846399999889357e-05
105.0,5.2572799998262809e-05
1183.0,0.00036464319997664418
1059.0,0.00029952239997754759
3679.0,0.00073351200000293382
787.0,0.00021281439999820684
216.0,7.6699199998531142e-05
22.0,2.5566399999510381e-05
3186.0,0.00085479711999814079
19.0,3.1067499925319098e-05
1038.0,0.00031294879992471714
16.0,3.1837571923265529e-05
7.0,1.5999151920631505e-05
1.0,1.2236451922609248e-05
2747.0,0.00064885119992430518
47.0,4.9092800000094527e-05
1.0,1.2123200000102585e-05
28.0,2.6286399999131405e-05
3.0,1.236319999997626e-05
17.0,2.4966399999826194e-05
509.0,0.0001466784000005994
657.0,0.00017656479999783592
1606.0,0.00062475099000103285
21.0,2.5454700001148467e-05
130.0,7.3382449976122643e-05
97.0,0.00010862124997412792
6568.0,0.0015870671997870733
13.0,2.4826649785536503e-05
182.0,0.00014743664978800197
5.0,1.2603199999849934e-05
6896.0,0.0017181289997432181
33.0,3.7569599999676129e-05
3778.0,0.00083922884975518031
3278.0,0.00066677600000564219
14.0,2.4606400000015682e-05
124.0,0.00011090879999997583
116.0,5.3892799997568019e-05
38.0,3.7209599999865617e-05
402.0,0.00024510400000066213
5.0,1.2603199999849934e-05
31.0,3.6369600000307756e-05
1284.0,0.00029611679999974605
2.0,1.2243200000039423e-05
7.0,1.291790000279569e-05
1.0,1.2144700011207377e-05
47.0,3.8352600006508197e-05
5.0,1.2624180011577835e-05
6987.0,0.0016236591999947425
440.0,0.00013573144999834419
336.0,0.00011330879999871257
2819.0,0.00056991040000475834
45.0,3.8049599999423478e-05
41.0,3.7666600000818562e-05
1630.0,0.00058815360000163963
13.0,2.4486400000078845e-05
15.0,2.472639999995252e-05
23.0,2.5686399999447218e-05
74.0,4.8852800000220853e-05
147.0,7.3939199999983884e-05
45.0,3.8500729998558469e-05
32.0,3.7449599999739291e-05
4.0,1.2483199999913097e-05
42.0,3.7689599999612966e-05
54.0,3.9129599998855014e-05
13.0,2.4486400000078845e-05
3.0,1.2445370000557787e-05
1105.0,0.0002463040000000305
412.0,0.00012528959995350419
5413.0,0.0013311752999531912
4.0,1.2483199999913097e-05
1234.0,0.00031760320000140396
27.0,2.6467699999033201e-05
1475.0,0.00036353929983290456
3863.0,0.00092667999983642169
363.0,0.00011294879999890206
36.0,3.6969599999991942e-05
30.0,2.6526399999005079e-05
820.0,0.00022572635996431778
2472.0,0.00051897720997073904
31.0,3.6369600000307756e-05
50.0,3.8754900003157289e-05
3425.0,0.00070602560000443404
10.0,1.3203199999534121e-05
101.0,5.302544998708747e-05
581.0,0.00017688959992634423
4777.0,0.00097951094993375953
1.0,1.2123200000102585e-05
620.0,0.00017380479999928866
39.0,3.7329599999802454e-05
3.0,1.236319999997626e-05
1259.0,0.00033068640000100125
2.0,1.2243200000039423e-05
1112.0,0.00024966399999826194
52.0,3.8889599998981339e-05
47.0,7.1707899898187932e-05
16.0,2.7812629891377227e-05
1882.0,0.00048831519981429317
2436.0,0.00062480114981822155
53.0,3.9011500001073784e-05
1615.0,0.00036921600000017207
978.0,0.00023202080000106484
632.0,0.00034364960000066169
741.0,0.00019470959994416503
6069.0,0.0014355201998099698
3749.0,0.00093067149979275676
602.0,0.00047690119978294199
508.0,0.00037337879978438515
3616.0,0.00093157759978845789
13.0,2.4486400000078845e-05
22.0,2.5566399999510381e-05
1.0,1.2190600002126573e-05
2.0,1.2418900001476274e-05
6.0,1.3167369989686151e-05
5651.0,0.0011476767998757076
4.0,1.2569569881382137e-05
19.0,2.5206399999699869e-05
5112.0,0.0012829008998858082
26.0,2.604639999925773e-05
24.0,3.660960000018143e-05
34.0,3.6729600000118268e-05
5.0,1.2603199999849934e-05
34.0,3.6729600000118268e-05
813.0,0.00039238240000094571
22.0,2.5566399999510381e-05
1666.0,0.00040354560000155359
52.0,6.1216000000197113e-05
83.0,5.0595499998307147e-05
1910.0,0.00040330560000167992
4.0,1.2483199999913097e-05
30.0,2.6631400000365346e-05
1849.0,0.00064276960000531069
53.0,3.9009599998918176e-05
5.0,1.2603199999849934e-05
108.0,6.1456000000070787e-05
297.0,9.7705600000441706e-05
673.0,0.00017571009999040044
874.0,0.0002188143999950487
7.0,1.2843199999723609e-05
550.0,0.00017380479999928866
35.0,3.6849600000055105e-05
52.0,6.1216000000197113e-05
1.0,1.2123200000102585e-05
3.0,1.236319999997626e-05
1262.0,0.00029347680000113563
45.0,3.8049599999423478e-05
34.0,3.6969009995724278e-05
2948.0,0.00085117480000107548
630.0,0.00034299200999843293
2256.0,0.00047742410999895846
7.0,1.2843199999723609e-05
31.0,3.6369600000307756e-05
2692.0,0.00056624449999675974
15.0,2.472639999995252e-05
48.0,3.840959999923399e-05
43.0,3.7809599999549803e-05
42.0,3.7689599999612966e-05
850.0,0.00019925119999886221
67.0,4.0689599998033898e-05
5.0,1.2603199999849934e-05
43.0,4.9572799999841877e-05
17.0,2.4966399999826194e-05
446.0,0.00019541120000088341
873.0,0.00021902408199947487
32.0,3.6489600000244593e-05
32.0,3.6489600000244593e-05
37.0,3.708959999992878e-05
5.0,1.2603199999849934e-05
6.0,1.4809099820212168e-05
4306.0,0.00099499689975068861
4704.0,0.0011536191997558731
2.0,1.2243200000039423e-05
33.0,3.660960000018143e-05
1015.0,0.00025266399999668288
53.0,6.133600000013395e-05
3644.0,0.00098521700000464563
114.0,5.3652799997694345e-05
1642.0,0.00038097920000046415
87.0,5.0412799999399738e-05
136.0,6.3975999998744371e-05
16.0,2.4846399999889357e-05
18.0,2.5393099999826418e-05
5.0,1.2783500000557169e-05
2023.0,0.00067301279999587571
903.0,0.00042622810000203515
613.0,0.00016108159999950189
56.0,3.9369599998728688e-05
99.0,5.1852799998641785e-05
11.0,2.424640000020517e-05
214.0,0.00017032480000112038
4.0,1.2483199999913097e-05
1059.0,0.00030168099986194186
32.0,3.6489600000244593e-05
13.0,2.4534000001352751e-05
10.0,1.3228140002707889e-05
5.0,1.5010009947857839e-05
232.0,0.00026150019985937689
24.0,2.9135609852737332e-05
1072.0,0.00072854354964535517
4615.0,0.0015261135993458463
4.0,1.2997509339029989e-05
1028.0,0.00078874810931273132
17809.0,0.0039448704593132433
128.0,9.6993209319773399e-05
5137.0,0.0013581262093209645
5.0,1.2603199999849934e-05
47.0,3.8289599999297153e-05
1195.0,0.00047280480000400082
782.0,0.00035337280000202753
16.0,2.4846399999889357e-05
23.0,2.5686399999447218e-05
150.0,0.00013383520000087579
19.0,2.6406399999068242e-05
12.0,2.4884999999752466e-05
53.0,5.0052799999589226e-05
5.0,1.2603199999849934e-05
47.0,3.8289599999297153e-05
156.0,0.00010970880000060745
3.0,1.236319999997626e-05
17.0,2.4966399999826194e-05
3.0,1.247835000017794e-05
544.0,0.00019204159998320591
18.0,2.5255801487267249e-05
1.0,1.2186101486122425e-05
2933.0,0.001148683179566623
7.0,1.2907901072667372e-05
359.0,0.00038707790081282667
19.0,2.8039000803392611e-05
16.0,2.874920680118187e-05
3975.0,0.0015458490007997927
6.0,1.4195706395936369e-05
20.0,4.3599406286620734e-05
32.0,5.6871336136632422e-05
5251.0,0.0014657630061183369
1023.0,0.00062300583610985782
27.0,2.6395636115283949e-05
34.0,3.7613466112196292e-05
19723.0,0.0045174034301145305
7.0,1.286696611679794e-05
1028.0,0.00046469826610495701
19.0,2.5469296110358641e-05
713.0,0.00023086713611175647
114.0,9.8185600000189055e-05
2266.0,0.00070076889610892756
12.0,2.4366400000142008e-05
85.0,8.5942400000149632e-05
29.0,2.6406399999068242e-05
1.0,1.2123200000102585e-05
17.0,2.4966399999826194e-05
2464.0,0.00060109119994944393
32.0,5.4808339653433791e-05
2996.0,0.00094787443963961771
6582.0,0.0016452704396436868
53.0,3.9009599998918176e-05
92.0,5.1012799999083924e-05
4.0,1.3695225930643318e-05
1219.0,0.00036337279983467141
104.0,5.9143725815946624e-05
45.0,7.0748279937804526e-05
30.0,4.25077797672202e-05
6189.0,0.0017233398736722361
2.0,1.2462179675543084e-05
19.0,2.6308279669429169e-05
4.0,1.4688079040814372e-05
50.0,5.5317058419213083e-05
3857.0,0.0023207988784137434
128.0,0.00017837845813994946
1785.0,0.00097929067804392034
13017.0,0.0041795983980399409
22.0,3.6369600000307756e-05
18399.0,0.0057526234980498359
20.0,2.5326399999636706e-05
711.0,0.0003273264000027698
2519.0,0.00076796160000425218
51.0,3.8769599999044502e-05
9.0,1.3083199999597284e-05
201.0,0.00015928160000044933
173.0,7.6699199998531142e-05
31.0,3.6369600000307756e-05
3.0,1.236319999997626e-05
1152.0,0.00048847419999797914
1295.0,0.00038133920000027466
49.0,3.8529599999170827e-05
18.0,2.5086399999763032e-05
27.0,2.6415899999410186e-05
44.0,4.9692799999778714e-05
70.0,5.4719199975350463e-05
50.0,8.364686978135083e-05
1026.0,0.00045283476973856374
1368.0,0.00069339964574233193
18.0,2.6109169736443505e-05
1045.0,0.00039306016965512391
43.0,3.7857869651825027e-05
23.0,3.6489600000244593e-05
556.0,0.00020042559994637443
15.0,2.4826499955610259e-05
18893.0,0.0038719537159552786
19.0,2.5206399999699869e-05
4.0,1.2483199999913097e-05
819.0,0.00028339359999995928
16.0,2.4846399999889357e-05
5.0,1.2603199999849934e-05
2123.0,0.00052505320000029165
664.0,0.00018580799999945441
264.0,0.00019493120000113606
583.0,0.00025710720000082787
34.0,3.6729600000118268e-05
44.0,4.9692799999778714e-05
17.0,2.4966399999826194e-05
16.0,2.4846399999889357e-05
16.0,2.4846399999889357e-05
30.0,3.7329599999802454e-05
19.0,2.5206399999699869e-05
446.0,0.00021213426999611151
3180.0,0.00075741319999633738
44.0,3.804320000133643e-05
44.0,3.8763950997555696e-05
1539.0,0.0004455551999988927
2.0,1.2655071996103828e-05
1328.0,0.00078700479967652726
2866.0,0.0010899368996417635
1671.0,0.00083742335964420711
4.0,1.3417411447003147e-05
83.0,7.0987471435302041e-05
393.0,0.0003730445714291708
33.0,3.9746411414798288e-05
6.0,1.4831021414529744e-05
17.0,2.8568121377858802e-05
9.0,1.4943021267921353e-05
24.0,4.1048050519743029e-05
822.0,0.00083273462042288138
54.0,8.419865031394913e-05
40.0,6.9774050074133953e-05
12228.0,0.0038189119699920671
37.0,7.0537949688365131e-05
46.0,6.8629519659468841e-05
15547.0,0.0055295446195104958
7.0,1.4859819470691704e-05
5070.0,0.002519695419433976
290.0,0.00023850851933926442
30.0,3.9482219325259749e-05
30.0,2.8400099299830117e-05
1603.0,0.00075155831923012784
12341.0,0.0046080144192346406
9.0,1.3083199999597284e-05
193.0,7.6133919998833122e-05
31.0,3.6468810000522822e-05
127.0,0.00012123200000102585
1930.0,0.00069728594998763604
530.0,0.00018258640999158082
394.0,0.00019829119999936751
20.0,4.2465799855229136e-05
1172.0,0.00034032439985431928
4272.0,0.0009005029898545569
54.0,6.1506899857066699e-05
1.0,1.220490000042318e-05
49.0,4.0765251985819262e-05
27.0,4.2677936720858511e-05
32.0,5.3497636271382376e-05
11.0,4.1629536094767161e-05
7.0,1.5058246067400916e-05
867.0,0.00071364493600878376
3602.0,0.0024397705504921596
8182.0,0.0034695935984720983
96.0,0.00010295784545166775
5937.0,0.003675047998155101
3363.0,0.0022278297351292498
366.0,0.00030124394498742824
16.0,2.7934734986967413e-05
6534.0,0.0037849278249233453
15.0,2.8443934917854463e-05
8627.0,0.0046968035597703128
570.0,0.00038781567476697809
387.0,0.0002577280747599886
3969.0,0.0015620278445225289
4461.0,0.0016849223345276609
8.0,1.2963199999660446e-05
1269.0,0.0005137344000019084
13.0,2.4739899999515202e-05
27.0,4.4618399904328143e-05
17.0,2.9967899852101354e-05
15.0,2.9049699691530151e-05
4313.0,0.0012937378595176963
1081.0,0.00039566559984360872
11220.0,0.002445878699736781
1.0,1.2165199745339805e-05
4.0,1.2483199999913097e-05
6374.0,0.0017086291997479019
88.0,8.6302399999960144e-05
3.0,1.236319999997626e-05
1232.0,0.00048795790000100148
2087.0,0.00052657760000163201
46.0,3.8197599998568421e-05
1.0,1.2123200000102585e-05
38.0,3.7265700002064861e-05
8.0,1.2963199999660446e-05
14.0,2.4721170005514992e-05
43.0,3.8227100003451753e-05
27.0,4.417606990414491e-05
40.0,6.9767269821552347e-05
339.0,0.00038298681954640479
1087.0,0.00077739986936364858
4793.0,0.0014809544693497045
72.0,5.1346339345226255e-05
119.0,0.00012708709934616813
365.0,0.00023947921934630578
49.0,6.0862699351460492e-05
11.0,2.4341859347298822e-05
16144.0,0.0035084012499586592
19.0,3.0328529504020096e-05
8826.0,0.0025510683990921379
4.0,1.3018829082556138e-05
5109.0,0.0019236383990652861
2908.0,0.0017679099990619562
609.0,0.00041701012906170121
2915.0,0.0019116740290601175
43.0,3.7809599999549803e-05
14.0,2.4720399999900167e-05
28.0,2.82930999864206e-05
2944.0,0.00076497599979186148
3246.0,0.0010126333697950685
63.0,8.5046599900051589e-05
18.0,2.8885799780553612e-05
3447.0,0.0011127945997317923
5378.0,0.0017578283993551214
5296.0,0.0018783775992901042
3226.0,0.0012869762992950839
50.0,3.8649599999107664e-05
1167.0,0.00029527680000018819
28.0,3.6849600000055105e-05
36.0,3.7045650002731634e-05
3.0,1.2464250002786059e-05
20.0,2.537615000619553e-05
4.0,1.2493110003175545e-05
3825.0,0.0010167856000029563
222.0,8.6782399999707494e-05
30.0,3.7137600004344407e-05
478.0,0.00017220659993122389
54.0,6.9607999935161757e-05
1.0,1.2123200000102585e-05
6642.0,0.0013658031999359554
53.0,3.9009599998918176e-05
4.0,1.2483199999913097e-05
1435.0,0.00035517280000108009
573.0,0.00025024445987709143
17.0,2.9244059696509339e-05
657.0,0.00054670565918524261
463.0,0.00066741308880491346
309.0,0.00041502148874328348
19.0,3.0352501738439841e-05
1225.0,0.0011608649587000475
6202.0,0.0028641098986801339
17.0,0.00064060293166878779
1469.0,0.00097804020144498516
64.0,0.0001086565013628249
5067.0,0.0035416322983334858
1438.0,0.0012483735010073715
7.0,1.3053001010732146e-05
3057.0,0.0023134179880099914
3414.0,0.0024866680580124534
20.0,3.0418500948314886e-05
382.0,0.000298189300875773
4919.0,0.0029858524377204265
38.0,6.7466100720281474e-05
4.0,1.2545400724484068e-05
13.0,2.4584800722537992e-05
17115.0,0.0062209455977242367
12.0,2.4366400000142008e-05
17.0,2.4966399999826194e-05
8.0,1.2963199999660446e-05
16.0,2.4846399999889357e-05
74.0,7.4299199999794396e-05
115.0,6.0976000000323438e-05
16.0,2.5055159996734133e-05
1742.0,0.00056856889999634674
4.0,1.2530300000923589e-05
15.0,2.8193879967330915e-05
5.0,1.3810289847926427e-05
28.0,4.3282989324655574e-05
6109.0,0.001902867199296665
41.0,5.4695889275979681e-05
6851.0,0.0020470423992595688
2843.0,0.0015289968892635564
31.0,3.6369600000307756e-05
101.0,5.2452799998325972e-05
2232.0,0.00071574880000579988
1312.0,0.00030584000000111189
5.0,1.2603199999849934e-05
39.0,4.8612800000347178e-05
14.0,2.4663153005199945e-05
51.0,4.0035200002286331e-05
46.0,7.2259652923456485e-05
4625.0,0.001162929599893614
53.0,3.9946052896144835e-05
20.0,2.9014472795685364e-05
1360.0,0.00040027293279498721
543.0,0.00039017603279778434
4098.0,0.0010195409527993249
20.0,2.5326399999636706e-05
138.0,0.00011090879999997583
84.0,8.5822400000212795e-05
27.0,2.6166399999194567e-05
9.0,1.3083199999597284e-05
72.0,4.8612800000347178e-05
706.0,0.00036515889999755302
18.0,2.5086399999763032e-05
6.0,1.2944399998549017e-05
2507.0,0.0007423599999334396
34.0,3.6729600000118268e-05
4972.0,0.0012423805999361992
32.0,3.7633399934566825e-05
20.0,2.5372499935949477e-05
3330.0,0.00090412629993763538
104.0,5.2452799998325972e-05
85.0,5.0412799999399738e-05
579.0,0.00017302113999728697
4421.0,0.0011379030999623119
2.0,1.2243200000039423e-05
724.0,0.00028253119995502729
25.0,3.6736799963632549e-05
7308.0,0.0015403479898012939
2605.0,0.0010199599996252307
493.0,0.00037877339962433254
6064.0,0.0017065644696290239
1258.0,0.00029131680000227256
727.0,0.0002434240000015464
1309.0,0.0003311664000007486
12.0,2.4366400000142008e-05
128.0,7.5800899998812454e-05
1.0,1.2123200000102585e-05
45.0,3.8111800003459706e-05
2107.0,0.00066221280000156035
17.0,2.4966399999826194e-05
37.0,4.2706139975701163e-05
37.0,5.6771239794750628e-05
22.0,2.9515939718560702e-05
6260.0,0.001716260799381919
6651.0,0.0015384395993875977
20.0,2.5326399999636706e-05
15.0,2.472639999995252e-05
19.0,2.5467999999584379e-05
6.0,1.2723199999786772e-05
4789.0,0.0012003168000100928
24.0,2.5806399999384055e-05
31.0,3.660960000018143e-05
6.0,1.2723199999786772e-05
54.0,3.9129599998855014e-05
1486.0,0.00055020234988889527
28.0,2.783439988518488e-05
46.0,3.9736913875598745e-05
4.0,1.3615813644118901e-05
14.0,2.9203002631428276e-05
5776.0,0.0012815663995005
54.0,8.2575122292816161e-05
35.0,4.2376392275000896e-05
5750.0,0.0016364975432667794
21.0,2.6502232268743597e-05
2846.0,0.001172657882269057
3.0,1.2422132267042585e-05
1389.0,0.00079066378226433365
20.0,2.5326399999636706e-05
3.0,1.236319999997626e-05
5420.0,0.0015570164222737937
145.0,6.4215999998618045e-05
1.0,1.2123200000102585e-05
5.0,1.2603199999849934e-05
7.0,1.2843199999723609e-05
3.0,1.236319999997626e-05
1113.0,0.00036717600000124584
2987.0,0.00065837280000358156
13.0,2.4486400000078845e-05
44.0,4.978372999930869e-05
169.0,0.00014583840000104153
8.0,1.2963199999660446e-05
48.0,3.840959999923399e-05
91.0,8.6662399999770656e-05
36.0,3.7689599999612966e-05
14.0,2.4606400000015682e-05
22.0,2.5566399999510381e-05
438.0,0.00015482239996389424
3.0,1.3660419814875979e-05
50.0,8.1434859648732427e-05
5668.0,0.0014239459995439852
848.0,0.00063655375954718707
5499.0,0.0015494896195520358
3264.0,0.00070638560000424455
1008.0,0.00045059840000272189
32.0,3.6489600000244593e-05
24.0,2.5901700000163785e-05
12.0,2.5205610000078593e-05
2116.0,0.00067567535000034873
1045.0,0.00044320709999845498
3275.0,0.00096147679981162248
17.0,2.7355408810603166e-05
36.0,3.7188999812531875e-05
4308.0,0.00098319399981572353
7.0,1.2843199999723609e-05
2065.0,0.00048617280000051721
461.0,0.00016012160000000719
1033.0,0.00039358240000031408
10.0,1.3253300003235324e-05
15.0,2.472639999995252e-05
2.0,1.2351300002988452e-05
4091.0,0.00084514080000253067
58.0,5.0412799999399738e-05
381.0,0.00019553120000082025
34.0,3.6729600000118268e-05
997.0,0.00044927840000341668
4.0,1.2483199999913097e-05
12.0,2.4366400000142008e-05
15.0,2.472639999995252e-05
551.0,0.0002578272000004489
5.0,1.2603199999849934e-05
338.0,0.00020933440000003856
44.0,3.7929599999486641e-05
8.0,1.2963199999660446e-05
17.0,2.5005939999767079e-05
10.0,1.3220740002539699e-05
50.0,4.2761339985597502e-05
2830.0,0.00080279406997263436
1789.0,0.00065354573997633558
49.0,3.8529599999170827e-05
10.0,1.3203199999534121e-05
1633.0,0.00053402080000419794
1990.0,0.00066692277993452009
1030.0,0.00028063607993322748
26.0,2.604639999925773e-05
27.0,2.6222200004477614e-05
3965.0,0.00096901280000216694
952.0,0.00042330643800214673
105.0,5.3026038003167741e-05
54.0,3.9129599998855014e-05
3.0,1.236319999997626e-05
64.0,4.0329599998223387e-05
13.0,2.4486400000078845e-05
613.0,0.00018876959992009112
4360.0,0.00090196879992321399
53.0,3.9009599998918176e-05
29.0,2.6406399999068242e-05
36.0,3.6969599999991942e-05
20.0,2.5326399999636706e-05
7.0,1.2843199999723609e-05
1001.0,0.00023545789999790401
42.0,3.7689599999612966e-05
22.0,5.0721179971624508e-05
1175.0,0.00055657079972637469
25.0,2.6921679717961666e-05
6549.0,0.0015045503996748977
2551.0,0.00099001309967827744
400.0,0.00013767519999885458
59.0,3.97295999985392e-05
18.0,2.5086399999763032e-05
509.0,0.00017440479999897285
19.0,2.5206399999699869e-05
16.0,2.4846399999889357e-05
40.0,3.7449600002403827e-05
372.0,0.00026466720002016331
354.0,0.00012119494013429488
3484.0,0.00070242274013088135
15.0,2.4726400001284787e-05
17.0,2.9798000397818214e-05
5110.0,0.00117455360040708
28.0,2.6986940416584559e-05
4218.0,0.00099966620101676895
1012.0,0.00066258664117668786
2677.0,0.0009281010420001401
3.0,1.3762342511380865e-05
10414.0,0.0024026023426144683
18.0,2.5141242617987558e-05
10.0,1.3225342625045045e-05
5635.0,0.001755949342628238
72.0,7.405920000369548e-05
1050.0,0.00025866720001221921
194.0,9.2713430012381082e-05
402.0,0.00024798464031938749
2970.0,0.00066623200033166796
946.0,0.000257768340514275
2805.0,0.00085160580051013568
13.0,2.4486400000967024e-05
369.0,0.00010298560001054113
1402.0,0.00038196220015551674
1.0,1.2123300147770522e-05
4.0,1.2504800160684226e-05
4702.0,0.00095950400016953097
732.0,0.00024402400000855806
7.0,1.2843200001277921e-05
15.0,2.4773840023861737e-05
2971.0,0.00076412160002092833
43.0,3.7809600002880472e-05
43.0,3.7879500024651236e-05
3956.0,0.00079640800003222267
6.0,1.281500001182323e-05
23.0,2.5714600019544065e-05
2885.0,0.00058839360002416186
51.0,3.8769600004151528e-05
122.0,6.3256000005118551e-05
7.0,1.2843200001277921e-05
7.0,1.3807300885737561e-05
5907.0,0.0012922720011605549
152.0,0.00017617031115424453
1200.0,0.00048630491142365173
1084.0,0.00064209341175480716
1790.0,0.00066008471212741782
958.0,0.00040274791265337839
12.0,2.5221712685929987e-05
12479.0,0.0031517043026885183
20.0,3.0362800114591693e-05
49.0,8.6279290289592581e-05
26.0,4.3392390447927198e-05
4142.0,0.0010729328013576733
8491.0,0.0024234093916453148
32.0,3.6498291750675094e-05
2866.0,0.0006739052917494881
108.0,6.0736000001782031e-05
42.0,3.768960000272159e-05
482.0,0.0001784848000161432
20.0,2.5326400002079197e-05
2577.0,0.00057226665002207966
596.0,0.00032852640001035383
40.0,3.7449600002403827e-05
64.0,4.0375380016222095e-05
79.0,5.1031680024848924e-05
1254.0,0.00051925440002698053
2.0,1.2243200000483512e-05
1427.0,0.00040246560001389042
38.0,3.7209600002086063e-05
40.0,3.7449600002403827e-05
1112.0,0.00042971200001851173
6.0,1.2723200001119039e-05
18.0,2.5190310003697647e-05
71.0,7.5139200005125417e-05
11.0,2.424640000064926e-05
6.0,1.2723200001119039e-05
98.0,5.1775380007779148e-05
2780.0,0.00085078400002558396
174.0,8.5462400003066818e-05
215.0,9.7465600003232566e-05
32.0,3.6489600001132771e-05
16.0,2.5167000015091645e-05
1279.0,0.00047400480001424938
1.0,1.2237040015516953e-05
632.0,0.00018894040013783808
873.0,0.00021394819513043117
55.0,3.9249600004787055e-05
126.0,6.1336000002576441e-05
20.0,2.5326400002079197e-05
44.0,3.7929600003039354e-05
7.0,1.2843200001277921e-05
490.0,0.00016488410011827881
88.0,0.00012590508017140678
3000.0,0.00072481150033398833
30.0,4.2462701158818561e-05
2.0,1.22791311629733e-05
2225.0,0.00069661338117610327
6450.0,0.0015280096011895949
2378.0,0.0011589329700205653
1085.0,0.00044087520001756531
839.0,0.00026791040000873068
757.0,0.00022315530003069739
1223.0,0.00036297280002450805
