time,RcpSim1.rcp[0].rcpHost.multiply-by(session-1-Rate:vector)
0.000612057521,9.99992e+10
0.000624297419,9.9986e+10
0.000635337327,8.74463e+09
0.000647337227,5.48698e+07
0.000661977105,6.1136e+07
0.000682318593,8.2511e+07
0.000718388908,1.34946e+08
0.000742401702,2.24786e+08
0.000754408099,3.65083e+08
0.000766414496,5.68163e+08
0.000778420893,8.52207e+08
0.00079042729,1.27564e+09
0.000802433687,1.89448e+09
0.000818291707,2.80804e+09
0.000830414904,4.14966e+09
0.000838961786,6.14261e+09
0.000851084983,8.97071e+09
0.000862806385,1.29233e+10
0.000874845568,1.82337e+10
0.000886916796,2.50042e+10
0.00089876301,3.30513e+10
0.000910760985,4.14485e+10
0.000922742361,4.8591e+10
0.000934612517,5.29021e+10
0.000946959588,5.36638e+10
0.000958959488,5.04708e+10
0.000971199386,4.55931e+10
0.000983679282,4.27337e+10
0.000996879172,4.3928e+10
0.001010650046,4.71714e+10
0.001023687266,5.01447e+10
0.001036123639,5.15578e+10
0.001048123539,5.14221e+10
0.001060363437,4.99076e+10
0.001072363337,4.75566e+10
0.001084843233,4.6312e+10
