time,RcpSim1.rcp[0].rcpHost.multiply-by(session-1-Rate:vector)
0.000612470274,1e+10
0.000626870274,9.98791e+09
0.000629270274,7.47258e+09
0.000643670274,6.17478e+07
0.000655670274,4.58938e+07
0.000672470274,5.38274e+07
0.000704332545,7.39305e+07
0.000728460541,1.22796e+08
0.000753820139,2.03663e+08
0.000764652535,3.09521e+08
0.000776716533,4.74994e+08
0.000788780531,6.90912e+08
0.000800844529,9.97794e+08
0.000812908527,1.36392e+09
0.000828141535,1.96623e+09
0.000836939672,2.72366e+09
0.000849145746,3.48589e+09
0.000862912686,4.33915e+09
0.000876968939,4.84593e+09
0.000888031003,5.35089e+09
0.000902888827,5.31825e+09
0.000914888827,4.89667e+09
0.000929288827,4.32946e+09
0.000943688827,4.11374e+09
0.000958925363,4.3001e+09
0.000973384208,4.76456e+09
0.000987065338,5.14935e+09
0.000999658328,4.99267e+09
0.001014176926,4.99089e+09
0.001028576926,4.89125e+09
0.001040576926,4.71433e+09
0.00105499208,4.83832e+09
0.001070264672,4.88351e+09
0.001082665662,5.06825e+09
0.001094951912,4.80282e+09
0.001109409162,4.8748e+09
0.001124238736,4.87433e+09
0.001136546941,5.03718e+09
0.001151318191,4.99568e+09
0.001163318191,5.08938e+09
0.001177718191,5.01539e+09
0.001189718191,4.71045e+09
0.001204118191,4.8156e+09
0.001219072297,4.85659e+09
0.001231531812,5.05491e+09
0.00124635702,5.01711e+09
0.00125835702,4.81744e+09
0.00127275702,4.66296e+09
0.001287605775,4.64604e+09
0.001300473135,4.83543e+09
0.00131338735,5.08709e+09
0.001328277454,5.05964e+09
0.001340277454,5.14045e+09
0.001354677454,5.06145e+09
0.001366677454,4.71028e+09
0.001381077454,4.46862e+09
0.001395485253,4.72326e+09
0.001408912223,4.67207e+09
0.001424155931,4.89916e+09
0.001436998196,4.82842e+09
0.001451694596,4.80864e+09
0.001464121031,4.96923e+09
0.001479094085,4.95603e+09
0.001491168385,4.86024e+09
0.001505696137,4.8162e+09
0.001518041217,4.70689e+09
0.001532990769,4.72586e+09
0.001545738049,4.96396e+09
0.001558434144,4.81897e+09
0.001573060488,4.88606e+09
0.001585511278,4.72667e+09
0.001600247086,4.78392e+09
0.001612941006,4.9577e+09
0.001627991412,4.96711e+09
0.001640093792,5.0966e+09
0.001654589144,5.00264e+09
0.001666589144,4.746e+09
0.001680989144,4.84095e+09
0.001695924778,4.86406e+09
0.001708319038,5.04972e+09
0.001723121482,5.00783e+09
0.001735121482,5.1023e+09
0.001749521482,5.0241e+09
0.001761521482,4.70561e+09
0.001775921482,4.58406e+09
0.001790772032,4.65219e+09
0.001803860857,4.94675e+09
0.001816757992,4.83685e+09
0.001831466604,4.90767e+09
0.001843871374,4.75908e+09
0.001858542274,4.79759e+09
0.001871149749,4.95528e+09
0.001886157279,4.95866e+09
0.001898265569,5.08718e+09
0.001912785629,5.00432e+09
0.001924785629,4.73515e+09
0.001939185629,4.83868e+09
0.001954172968,4.87007e+09
0.001966573048,5.05502e+09
0.001981357222,5.01272e+09
0.001993357222,5.10195e+09
0.002007757222,5.02092e+09
0.002019757222,4.70648e+09
0.002034157222,4.5868e+09
0.002048988334,4.65461e+09
0.002062069344,4.94476e+09
0.002074959789,4.82637e+09
0.002089671923,4.91198e+09
0.002102103638,4.76285e+09
0.002116761674,4.79919e+09
0.002129359169,4.95299e+09
0.002144361713,4.95932e+09
0.002156475613,5.08509e+09
0.002170993717,5.00108e+09
0.002182993717,4.74383e+09
0.002197393717,4.83955e+09
0.002212367404,4.86997e+09
0.002224765254,5.05072e+09
0.00223954974,5.01249e+09
0.00225154974,5.09967e+09
0.00226594974,4.99954e+09
0.00227794974,4.70995e+09
0.00229234974,4.82186e+09
0.0023072469,4.86195e+09
0.00231969022,4.8347e+09
0.002334499078,4.8145e+09
0.002346909353,4.9841e+09
0.002361864179,4.96764e+09
0.002373902454,4.86616e+09
0.002388396246,4.81866e+09
0.002400726291,4.69498e+09
0.002415668205,4.72902e+09
0.002428447815,4.96399e+09
0.002441135425,4.81247e+09
0.002455759987,4.88946e+09
0.002468227597,4.72677e+09
0.002482953133,4.78629e+09
0.002495646788,4.95664e+09
0.002510689754,4.96686e+09
0.002522794734,5.09467e+09
0.002537290806,5.00315e+09
0.002549290806,4.74845e+09
0.002563690806,4.6323e+09
0.002578684916,4.65537e+09
0.002591637436,4.84653e+09
0.002604525776,5.10158e+09
0.00261938177,5.07924e+09
0.00263138177,5.14251e+09
0.00264578177,5.05603e+09
0.00265778177,4.70385e+09
0.00267218177,4.47545e+09
0.00268658177,4.72339e+09
0.002702479681,4.8646e+09
0.002715182411,5.11717e+09
0.002729983217,5.07431e+09
0.002741983217,4.88834e+09
0.002756383217,4.8726e+09
0.002768383217,4.59824e+09
0.002782948179,4.77337e+09
0.002798606337,4.86289e+09
0.002811176062,5.08088e+09
0.002823514412,4.8474e+09
0.002837914412,4.89425e+09
0.0028525385,4.86924e+09
0.002864797775,5.02237e+09
0.002879584487,4.9817e+09
0.002891584487,4.8109e+09
0.002905984487,4.85323e+09
0.002918455614,4.68026e+09
0.002933291106,4.7672e+09
0.002946110896,4.95901e+09
0.002961214096,4.98595e+09
0.002973313286,5.10769e+09
0.00298775387,5.01263e+09
0.00299975387,4.78425e+09
0.00301415387,4.625e+09
0.003026405727,4.44792e+09
0.003041973297,4.60861e+09
0.003055368676,4.87969e+09
0.003068387791,5.14044e+09
0.003080683651,4.92076e+09
0.003095142823,4.91532e+09
0.003109542823,4.89539e+09
0.003121653585,4.99405e+09
0.003136361283,4.98587e+09
0.003148375573,5.05412e+09
0.003162816385,5.01666e+09
0.003174816385,4.7414e+09
0.003189216385,4.80014e+09
0.003201694546,4.6682e+09
0.003216725077,4.76805e+09
0.003229577987,4.96853e+09
0.003242161757,4.84444e+09
