time,PerHopSim1.flowGenerator3.flowCompletionTime:vector
0.000072342905,7.23429e-05
0.00587254802,0.00321203
0.011955667652,2.77542e-05
0.014704468185,4.62282e-05
0.016978621595,0.0142282
0.024838275405,7.90593e-05
0.029034644978,5.00049e-05
0.030937644263,8.65044e-05
0.03221612538,4.23546e-05
0.033701510346,0.000155394
0.034190433529,7.02261e-05
0.035055151316,0.00015129
0.039143930988,0.000132423
0.042953266814,0.000199445
0.04396755702,0.0420075
0.044423963874,0.00210746
0.046525987214,0.000280832
0.050956803717,0.000221147
0.054195616034,0.000138176
0.056533059425,0.00922565
0.061383623957,0.0174108
0.06199886069,0.00210608
0.062636744912,0.000166136
0.066463656003,6.08154e-05
0.067030454855,0.000132925
0.071812290741,8.57758e-05
0.074783833737,3.24577e-05
0.075710264554,0.000261109
0.07720562565,0.00794563
0.077324752919,0.0506096
0.080511937042,0.000709059
0.086213146973,0.000120553
0.090531938663,0.00546294
0.092759159365,8.17459e-05
0.095522431821,0.00014085
0.097791027252,7.63728e-05
0.099540509937,3.56137e-05
0.106647982609,6.11269e-05
0.110090783513,0.00321987
0.114584201996,0.00866398
0.120666497186,0.00183607
0.122302504877,0.00106369
0.123949052451,0.000111074
0.125792123137,4.15488e-05
0.126672590631,0.00399653
0.126797723271,0.000276983
0.128850381699,0.00267707
0.136021325149,5.20533e-05
0.137739630417,3.50969e-05
0.13828646693,0.000194822
0.143196794997,0.000112314
0.143980645697,4.44618e-05
0.144956149639,0.0172835
0.145723053181,0.0185159
0.147143966985,0.0140296
0.149044569804,5.90421e-05
0.150637678366,0.0137916
0.151643367821,0.0216373
0.151689077903,0.0033323
0.151893425813,0.000749285
0.152882168177,0.00017042
0.154952979099,0.032508
0.155388091665,0.00190517
0.157799428741,0.0109161
0.159267203692,0.000119495
0.162958474511,0.000175776
0.165102087476,6.10607e-05
0.165143866093,0.00949663
0.171295266573,0.000862193
0.172892254226,5.08504e-05
0.176619470328,5.48802e-05
0.17827454296,3.56137e-05
0.182311513894,0.000823238
0.188556213777,0.00166682
0.205700836838,0.00274548
0.205996758447,7.23429e-05
0.206385282121,2.536e-05
0.206997352866,3.1328e-05
0.208885082905,0.00136861
0.212021587457,0.000375925
0.230872598694,0.0012516
0.234534115404,0.000102636
0.234777361,0.00271823
0.23534422646,7.4346e-05
0.240499714624,0.0223087
0.242888437989,7.90593e-05
0.261417452055,6.29399e-05
0.261680852293,0.00175682
0.262685783229,3.4928e-05
0.265551015193,3.4328e-05
0.266620424619,7.90593e-05
0.268533603116,8.30892e-05
0.276122021129,3.78713e-05
0.277654563782,7.66523e-05
0.27924632215,0.00512678
0.284943134855,7.72681e-05
0.28747384804,0.00476695
0.287526313986,3.5328e-05
0.288623033349,3.5328e-05
0.299202025653,9.51787e-05
0.304609850073,2.536e-05
0.307307941539,3.4328e-05
0.314242939819,0.0012101
0.319374144067,0.00604813
0.32349476304,4.4134e-05
0.330182234706,0.0051701
0.330984486622,4.81638e-05
0.337499527182,5.08504e-05
0.34001466385,8.84623e-05
0.341890290201,0.000179806
0.342598554186,3.3328e-05
0.3428112126,0.000151597
0.34752208657,0.000163686
0.348633522866,0.000303388
0.350298846835,3.56137e-05
0.358353614723,0.000350477
0.35880240809,0.00830129
0.375477405967,4.81638e-05
0.386045505505,0.000918611
0.397240418901,4.54772e-05
0.399622847092,3.4928e-05
0.40520253936,0.000101895
0.409316959943,7.23429e-05
0.418326494627,0.00173423
0.420971361324,0.00857516
0.421636500074,8.84623e-05
0.423865175545,7.23429e-05
0.424539994636,0.000112641
0.435504233094,3.3328e-05
0.438164651698,0.00150697
0.438663660183,0.000105925
0.441132193936,3.3328e-05
0.443093993483,0.000660701
0.443978319196,3.56137e-05
0.448948480495,9.38354e-05
0.450762081368,0.00174742
0.465601255073,0.00735428
0.472254454524,3.1328e-05
0.476656639393,0.000182492
0.483648779124,0.000288384
0.484138014423,0.00567115
0.487329409358,0.0063688
0.490782581646,3.56137e-05
0.49216382743,7.90593e-05
0.49488102402,3.56137e-05
0.500614751714,0.000148063
0.501565493392,0.00569073
0.502261591511,0.00346923
0.502295316882,0.000114759
0.50839453921,0.000108612
0.517258512586,3.60743e-05
0.522900696544,0.00111045
0.523541546555,0.000100552
0.528011539275,0.000108331
0.528270762473,0.00032271
0.528897717398,0.00708845
0.530828164041,0.00137533
0.535392343417,0.000475328
0.536849756975,3.90172e-05
0.536919744539,0.00118324
0.543015251016,0.00167526
0.543250462388,0.00490145
0.549174226611,0.000625776
0.549461448384,0.000824413
0.55155895603,0.00137667
0.553958346072,6.15966e-05
0.556351321061,6.02534e-05
0.559455749703,0.00148682
0.563009886424,4.81638e-05
0.565375643991,6.15966e-05
0.578324855748,0.00276064
0.579513629216,0.00578381
0.581631416139,7.50295e-05
0.587619375306,2.7733e-05
0.589205936397,0.0061706
0.592294118953,0.00129184
0.59634694061,0.0114956
0.603442568425,8.98056e-05
0.605144597131,0.000359805
0.605228649288,3.4328e-05
0.606875084893,3.5328e-05
0.609824981991,0.00169906
0.619540962578,3.51127e-05
0.623205270551,0.000135477
0.627130419416,0.0077707
0.627720749298,6.15966e-05
0.638666620532,0.000170403
0.647848057283,0.000116671
0.648664484171,0.000106196
0.649471765265,0.00730827
0.649515956789,6.58759e-05
0.652779438915,0.00148413
0.664400520581,0.0058713
0.664803368671,0.00274082
0.665298629765,0.000163686
0.668894307194,5.21937e-05
0.674146968901,2.536e-05
0.676332736632,0.00157145
0.677687229454,0.000326223
0.684700886379,3.5828e-05
0.696532812776,5.62235e-05
0.701798246703,0.000170403
0.704651165979,9.51787e-05
0.705073562652,2.536e-05
0.711390580657,0.00412503
0.715220356575,0.00100055
0.716152454467,6.15966e-05
0.720903192644,8.44325e-05
0.728993911858,0.00504786
0.730532762117,0.000716848
0.731298544728,0.00186831
0.73258165329,8.30892e-05
0.734097684243,2.536e-05
0.734974525662,4.81638e-05
0.742144142371,0.00638577
0.747004927241,0.00266757
0.750826819989,0.000855477
0.753169043935,0.000128761
0.760009099541,3.62279e-05
0.762791900988,5.14362e-05
0.763932542699,0.000144025
0.771552133928,4.52497e-05
0.782480564234,0.00258025
0.785278621854,0.0267604
0.79088191673,5.93166e-05
0.795584540611,0.00662471
0.804725855711,0.000897119
0.806570921167,8.30892e-05
0.815069235971,3.3328e-05
0.818290396672,4.54772e-05
0.819801641946,0.00141697
0.824465664813,9.11489e-05
0.830293868269,0.00140219
0.832278265687,4.27907e-05
0.840695257073,3.55885e-05
0.845993073054,0.00599891
0.847908971779,0.00102339
0.850041426488,9.38354e-05
0.852614304767,3.5328e-05
0.854916001449,3.7424e-05
0.85623051028,2.536e-05
0.858990480295,6.83131e-05
0.860686167985,3.1328e-05
0.864804900376,3.4928e-05
0.865913454522,3.1328e-05
0.866940148679,9.24921e-05
0.876315782421,4.68205e-05
0.877010860855,3.4928e-05
0.87958651057,7.67973e-05
0.882586198357,0.00347757
0.886165190223,0.000109955
0.887196894516,4.54772e-05
0.888245117606,0.000274931
0.891501243243,9.84604e-05
0.891783042634,4.65713e-05
0.893019827975,8.61596e-05
0.89369063199,9.8088e-05
0.894092941701,0.00608707
0.894338768967,3.64782e-05
0.897117852791,0.000340013
0.897411862657,0.000291298
0.900345898789,0.0123404
0.905641932709,0.000122836
0.911039075071,0.000262506
0.911707968093,0.000103238
0.913602027093,0.00922514
0.91421285251,2.536e-05
0.918545825155,0.00320729
0.918692106204,7.64416e-05
0.918775152358,6.79754e-05
0.919417590351,0.00298391
0.922512020018,0.00107578
0.930417908399,0.00200667
0.9350910778,0.000296671
0.935964064008,6.69698e-05
0.951257873295,7.50295e-05
0.954787281693,0.00289597
0.955379507306,0.000174708
0.956961363452,0.000359806
0.957318533294,0.00301768
0.958148656658,0.00642882
0.960204816007,7.50295e-05
0.960769039574,3.56137e-05
0.961399070864,6.29399e-05
0.962216703888,3.3328e-05
0.969205702749,3.5828e-05
0.975403522243,3.5328e-05
0.980600005549,3.18494e-05
0.983113972471,0.0069068
0.985418977109,3.63637e-05
0.992289702047,0.00328441
0.992413140826,6.66903e-05
0.992473699862,0.007272
0.998156583355,0.00032085
0.999131230571,3.26098e-05
1.000052143138,0.00106217
1.004975149178,0.000142194
1.006319120332,0.000593537
1.008452588907,2.536e-05
1.012636357288,3.5328e-05
1.012698464746,3.4328e-05
1.013028610303,5.08504e-05
1.013241223962,0.000101551
1.021899994193,0.00886665
1.022650790339,0.000154283
1.024058144682,4.95071e-05
1.025746445056,4.27907e-05
1.028787657584,3.4328e-05
1.037066363033,4.68205e-05
1.037238724554,3.56137e-05
1.043343708652,4.93983e-05
1.043676581848,5.80999e-05
1.04508431092,0.00202245
1.045615871535,0.000327151
1.047116436416,0.000106965
1.050888376477,3.51806e-05
1.053887667411,0.000127383
1.058756942344,0.0051022
1.059088485213,0.0153178
1.061015532971,0.000103507
1.06199722772,0.00909777
1.062155566339,0.000164783
1.064002418114,7.34079e-05
1.06463376135,0.000695901
1.065501659021,0.0184266
1.073458431759,6.36067e-05
1.076356143119,0.00716354
1.080970040199,0.00430613
1.082427639627,0.0120608
1.091594346119,0.0243482
1.093207437946,2.536e-05
1.104264496475,0.000569358
1.105686629612,3.4328e-05
1.107717395099,3.1328e-05
1.10931360921,8.7119e-05
1.112208506376,0.00218801
1.117336144533,0.000249656
1.120462739644,0.0014801
1.12140975116,0.000155626
1.123347027012,8.04026e-05
1.127983083231,5.48802e-05
1.130452250733,9.92086e-05
1.137747424028,3.89333e-05
1.139245028713,4.96353e-05
1.139393562674,0.000346554
1.143851101317,0.000105999
1.144519887482,0.000160008
1.145294961868,0.000232474
1.147173918669,6.392e-05
1.150220786642,0.00262592
1.153890873244,0.00204895
1.157181539045,0.00019483
1.158680525687,9.59401e-05
1.163182260084,0.0280269
1.163456044343,0.0116484
1.163757241907,3.5328e-05
1.163792409148,3.3328e-05
1.167645330553,0.00149488
1.172672714021,6.42832e-05
1.18340161908,4.4134e-05
1.184727259337,0.000416223
1.185725583169,3.4328e-05
1.189635394469,4.4134e-05
1.191873862525,3.4928e-05
1.197100983019,0.00139279
1.200466671757,3.60743e-05
1.207890900915,3.3328e-05
1.214595778105,6.15966e-05
1.215152953594,4.81638e-05
1.216971511214,3.4928e-05
1.22891389237,0.00194354
1.233468979063,3.56137e-05
1.234665079957,4.14474e-05
1.242149957645,0.000947945
1.243607387713,0.00697128
1.245674860269,0.000167716
1.247847138813,0.000131167
1.24950999954,0.00106102
1.253346468314,0.00560146
1.254533872974,7.12614e-05
1.257177421929,0.0088158
1.264173527218,5.62235e-05
1.266806053867,3.3328e-05
1.268312610451,0.00117115
1.269872139507,0.00123428
1.272445127233,9.51787e-05
1.280751803541,6.90784e-05
1.280995883269,0.00233092
1.283784116217,0.00397933
1.285337381607,0.00273221
1.286018418158,2.72028e-05
1.291955953789,0.0120405
1.293855984815,0.0129332
1.294972826394,7.50295e-05
1.298392138265,4.54772e-05
1.302413853321,0.00117652
1.306586922833,0.000323537
1.316194977743,0.00142503
1.321023437434,0.000114036
1.324467751893,0.00770488
1.331988013798,0.000360931
1.334119524587,7.82257e-05
1.34077768084,0.0131765
1.34158825984,0.0116064
1.3463650221,2.63027e-05
1.351019433709,0.0055259
1.352481744352,0.000956223
1.35355345179,0.000112165
1.355369544896,7.66735e-05
1.356896688896,0.000149946
1.358410705685,0.00686919
1.359618984847,3.60743e-05
1.362469384362,0.00023488
1.369425754262,3.1328e-05
1.371451649004,0.000126074
1.375279957311,8.04026e-05
1.386600429486,0.00617756
1.388785400597,0.00204025
1.396212635745,0.0057007
1.399494817371,6.42832e-05
1.403536256962,6.83131e-05
1.413430898485,0.000269806
1.420430510952,3.33149e-05
1.423176977116,0.00857381
1.423369416283,3.7424e-05
1.423875704009,6.15966e-05
1.425707322392,3.5328e-05
1.427162978525,3.4328e-05
1.427407486168,3.56137e-05
1.428680923773,0.000157488
1.42912971714,0.000957566
1.435463200475,2.536e-05
1.436341297999,2.536e-05
1.441777190055,8.17459e-05
1.454084149616,0.000155317
1.45441260807,2.59097e-05
1.458686400714,0.00763922
1.460186953184,0.000202994
1.460313896229,6.58475e-05
1.464781969255,0.0163323
1.466413026029,3.62126e-05
1.467157172821,0.0172384
1.467783862105,5.75668e-05
1.468606029249,9.11489e-05
1.473392063381,3.5328e-05
1.483764768924,0.00411702
1.48403470482,0.00618814
1.485318214193,0.000103238
1.490108644549,5.89101e-05
1.490250128406,4.95071e-05
1.491764489606,9.78991e-05
1.498402962202,0.00712441
1.498725908597,0.000175776
1.504906390038,0.00440174
1.513918060522,6.83131e-05
1.516971442966,0.00397592
1.521695826617,0.00301816
1.525983381901,3.1328e-05
1.541274122411,0.000195309
1.541409631661,0.00537666
1.545476786964,0.000125672
1.549724359114,0.00933848
1.560417627547,0.000122044
1.565383714807,6.02534e-05
1.567152847268,0.000313723
1.567432386977,0.00196772
1.568611083787,5.08504e-05
1.569483910718,3.5328e-05
1.572660635071,8.84623e-05
1.576879972556,0.000380443
1.578413858491,8.24237e-05
1.57901296918,2.54523e-05
1.583921261276,0.00797991
1.589350659533,0.000362206
1.592571852196,6.34023e-05
1.592699047171,0.000144991
1.594313647824,8.52096e-05
1.59826827444,0.00403456
1.598664679777,0.0102271
1.601074832615,8.51294e-05
1.602696006391,6.58477e-05
1.604469107964,0.00362365
1.6096186397,0.00441856
1.611058775923,0.00653085
1.616785621823,0.000170403
1.621941249242,0.000118015
1.622553767745,4.01041e-05
1.624742273778,4.14474e-05
1.630754691883,0.000348404
1.631267962835,0.0018898
1.632116598447,0.000289955
1.635894936901,3.3328e-05
1.639498649879,3.3328e-05
1.652963612762,2.536e-05
1.656519171932,7.36862e-05
1.657446352083,3.3328e-05
1.659047874017,0.00077085
1.663691972851,6.96563e-05
1.673599447511,0.000311299
1.674226897518,0.00585652
1.675385078181,2.536e-05
1.682367187623,0.0065698
1.683861988362,0.000147371
1.68592580292,9.12496e-05
1.68615978881,0.00345272
1.69075931418,3.8448e-05
1.693081214381,0.000663148
1.695103225453,5.45875e-05
1.698020298814,9.53351e-05
1.699292193748,0.0228337
1.702896961721,0.00617571
1.702910649121,0.00044458
1.703249974171,0.000122507
1.708557253314,0.0182965
1.715938340592,9.5934e-05
1.716021592149,0.000461726
1.716843059778,5.08504e-05
1.718569225846,0.00101801
1.71864834273,0.000304989
1.721167228648,0.000902492
1.723523795068,0.00136861
1.725703381294,3.4328e-05
1.730345513856,3.19505e-05
1.733408173561,0.00340755
1.738257765835,0.00141294
1.74310779175,0.00195803
1.744457574603,0.00182965
1.745227139187,2.60147e-05
1.746723244876,0.000119188
1.750974354821,9.42468e-05
1.751708894491,0.00716865
1.751934540501,0.00893938
1.753374236592,0.000710402
1.760157041965,8.30892e-05
1.76036724412,8.04026e-05
1.774321528462,6.15966e-05
1.774797641629,6.56265e-05
1.778400396402,4.68205e-05
1.780926084288,7.09996e-05
1.783109609609,3.1328e-05
1.79050648473,6.96563e-05
1.790850504383,9.92086e-05
1.791416533163,5.48802e-05
1.79419863543,3.5328e-05
1.798981183094,0.000361149
1.799448917044,0.00014488
1.800220255328,7.50295e-05
1.802654975807,3.7424e-05
1.812119921468,0.000123104
1.813858130232,0.00149815
1.820093806701,0.00160401
1.820124539581,7.78992e-05
1.821459380598,7.38812e-05
1.821752158759,0.0129686
1.824504494836,7.50295e-05
1.839847180761,2.536e-05
1.842058092672,5.89101e-05
1.860142930711,4.4134e-05
1.863452271065,0.00179443
1.867677060806,3.1328e-05
1.883675171275,0.00396518
1.895195383694,0.00253707
1.896446079112,0.00555205
1.896876117765,0.0131116
1.897521348081,0.0111553
1.899876402248,9.38354e-05
1.899976232015,4.95071e-05
1.910309941709,2.536e-05
1.911455266112,4.68205e-05
1.918004214973,5.08504e-05
1.925003058536,0.00329085
1.925346507014,0.000128761
1.925420250769,0.000138492
1.929753886357,7.03923e-05
1.930194483292,0.000432345
1.930230758399,0.00388944
1.931007312819,0.00546428
1.931287785202,3.4328e-05
1.932089363535,3.1508e-05
1.93268377905,0.00124217
1.934088374987,9.38354e-05
1.941727954364,7.90593e-05
1.944364138293,0.00155533
1.948797342305,2.536e-05
1.949850638,0.000155626
1.952288012761,3.3328e-05
1.95678150393,8.30892e-05
1.959704732544,9.36682e-05
1.961015913598,0.00218667
1.962374138688,0.000463238
1.962708493112,3.4328e-05
1.965280819012,0.00157279
1.967791537655,6.56265e-05
1.970460291435,0.000970999
1.970506249002,3.4328e-05
1.972481534971,4.54772e-05
1.973049001049,3.28897e-05
1.97355279883,5.5027e-05
1.981217995065,7.41968e-05
1.989703481786,0.0167393
1.993615231842,4.23952e-05
1.99679111305,0.00574178
2.000342372236,0.00253107
2.000633635733,0.000624226
2.000691091254,0.00322472
2.00083196981,7.18139e-05
2.001495838421,0.0103453
2.002196395278,0.0102206
2.003720291759,3.60743e-05
2.013549232663,9.51787e-05
2.015379785361,8.30892e-05
2.017470265431,9.625e-05
2.021692171911,0.00480725
2.021926998783,8.44325e-05
2.023262035296,4.54772e-05
2.024571062044,0.000359124
2.028665077806,0.00498697
2.029806842826,0.00460445
2.031458978282,5.35369e-05
2.038733071412,3.56137e-05
2.046065702566,0.00554488
2.048628775667,0.000112641
2.049922264289,0.00014186
2.053836558963,0.00521695
2.056331282247,4.81638e-05
2.068014001017,4.4134e-05
2.068901741963,3.4928e-05
2.072719272177,7.7716e-05
2.080772552469,4.14474e-05
2.083209820545,8.57757e-05
2.084495680444,8.98056e-05
2.086088509893,5.75668e-05
2.08936318006,0.00117652
2.089620500261,2.536e-05
2.100629469681,4.27907e-05
2.111071197836,9.11489e-05
2.117955159074,4.68205e-05
2.122681583179,0.000727865
2.125448985815,3.61631e-05
2.126027647783,0.00322889
2.129660742314,7.23429e-05
2.129776404496,3.5828e-05
2.132100352068,0.000323537
2.132990502455,0.000240253
2.133120265242,4.54772e-05
2.142944383953,5.48802e-05
2.145383453962,3.4928e-05
2.149651599923,0.000162912
2.153909750572,0.00577575
2.154197076325,0.00319422
2.157960229735,6.38875e-05
2.157975142683,0.000111298
2.162616227603,3.5828e-05
2.163624012541,4.27907e-05
2.165496722373,0.000359805
2.166921104195,0.000780253
2.170989318725,0.000118015
2.171547673121,3.5828e-05
2.174523004769,0.000592193
2.175471327147,9.24922e-05
2.177125331285,3.56137e-05
2.179136536043,4.99681e-05
2.181624297086,0.00276008
2.184848201866,6.38252e-05
2.185172185679,3.496e-05
2.190327427763,0.000162703
2.198888831531,2.7482e-05
2.202360417232,0.00416285
2.2040032592,0.00605281
2.204169963184,0.0116553
2.206392427683,0.0285276
2.208277933582,5.35369e-05
2.211452239881,5.62235e-05
2.212254224607,6.83131e-05
2.215772325162,3.4992e-05
2.217401418152,0.00379978
2.226355226223,9.56126e-05
2.227498496901,0.00307189
2.227803693685,0.000108612
2.228899069666,2.536e-05
2.234527157979,0.000734619
2.235457765528,7.7716e-05
2.238309532176,0.00585473
2.245367011379,0.00110167
2.245515615791,0.0109493
2.247052799611,0.00391304
2.250551326931,8.52161e-05
2.253358899702,0.00331906
2.256536596072,3.4928e-05
2.260535120236,3.3328e-05
2.264688886107,0.000570701
2.268787596218,0.00112951
2.273705407847,0.000952193
2.275481325777,0.00145055
2.278687214126,0.000276522
2.285746830775,7.09996e-05
2.294233285471,0.00191936
2.295079308289,0.00109393
2.306860164703,3.1328e-05
2.310242213438,0.000181149
2.313940525505,0.00154861
2.317690515565,0.000105925
2.318664623248,0.00242551
2.321264028248,7.17826e-05
2.32516473773,0.0102381
2.330336868647,5.35369e-05
2.330691958561,4.81638e-05
2.337150774375,5.48802e-05
2.337573641594,0.000471298
2.343676187442,9.53464e-05
2.344177200012,0.000778741
2.355767172462,0.00162652
2.35794992518,0.000160409
2.359657381175,0.00187637
2.361123247784,7.90593e-05
2.363675751186,0.000312791
2.367669889664,0.00166145
2.375553653126,3.3328e-05
2.38410560131,0.000132899
2.385204238004,7.92445e-05
2.389551128631,4.97388e-05
2.392042919504,0.000134408
2.398480851756,0.000456795
2.40224728144,0.000380544
2.403467151568,0.000215652
2.409986910879,0.0158457
2.410013521982,0.00266936
2.411128109617,0.0250413
2.412557474381,9.59664e-05
2.423201684098,0.000598102
2.431521949748,0.00364486
2.433426725644,0.00044562
2.444284295504,8.17694e-05
2.447140077779,0.0122439
2.447962167248,0.000365963
2.448744604418,0.000246415
2.452465664454,0.0457194
2.453079647433,3.64523e-05
2.453882703875,0.000484731
2.457847379847,9.00328e-05
2.462489735281,0.0790111
2.465607646014,0.0601133
2.466373407141,0.000601229
2.470045867125,0.0173637
2.473968107361,0.00394724
2.476924559369,3.34655e-05
2.478641033573,0.000139263
2.482189714495,0.000176356
2.486278599245,0.000511652
2.489958530914,0.00720366
2.49042304862,0.00591917
2.495494982529,0.011763
2.498373502038,0.0044754
2.498544623299,0.000372014
2.50091700524,0.024983
2.501226078154,8.54785e-05
2.501848155176,0.0183381
2.507861902658,0.0951772
2.508796359898,0.000183979
2.509179418258,0.0966091
2.510211823652,0.000246192
2.511301194178,0.00441894
2.515335314418,0.000175776
2.516059333748,4.81638e-05
2.517810400023,0.000149509
2.520022761611,6.10142e-05
2.531448726842,7.47268e-05
2.535892138202,6.842e-05
2.536236018681,6.65381e-05
2.537330762339,0.0210272
2.538324579109,4.81638e-05
2.53942050969,0.000538462
2.547029684768,0.00136995
2.550769400016,0.000139316
2.551205976104,6.06423e-05
2.55239742706,3.37131e-05
2.556271157057,0.00022735
2.558047251502,0.00833202
2.559749703099,0.00632467
2.561689980852,8.30892e-05
2.566923623093,4.4134e-05
2.569247484369,0.00114428
2.573398859033,0.00180383
2.574757790562,5.21937e-05
2.579755317686,5.08504e-05
2.582703874539,8.84623e-05
2.588799944782,3.1328e-05
2.589867208755,4.27907e-05
2.593788505183,0.000193238
2.594608415704,3.4328e-05
2.596272141054,4.74173e-05
2.59715467803,0.000106078
2.598140615763,0.0030865
2.604282473856,9.11489e-05
2.608493718075,0.00263911
2.608918306801,0.00299889
2.612306725616,9.24921e-05
2.612867915203,0.000200024
2.61416015348,6.38807e-05
2.619005512854,0.00646234
2.620333746564,0.00309027
2.623524948186,9.43149e-05
2.624455476867,0.00385695
2.624541911482,3.20344e-05
2.627436031745,0.000272492
2.629105559537,0.0127138
2.630265371247,0.00100458
2.631636813387,3.5328e-05
2.634447459407,8.30892e-05
2.635653057379,6.42832e-05
2.642751339359,3.58486e-05
2.647832953412,0.00756904
2.650758245261,4.4134e-05
2.656085656306,9.11489e-05
2.6568373369,4.81638e-05
2.663054072515,3.84562e-05
2.663423468901,0.00090501
2.665702176907,8.17459e-05
2.666941680646,7.50295e-05
2.672548057825,6.29399e-05
2.674788337047,3.4928e-05
2.6771185492,0.00224577
2.700264783492,0.000445776
2.70042496835,3.3328e-05
2.706510551127,0.00189518
2.709402178208,6.69698e-05
2.712870017463,0.000897119
2.713717710994,8.17459e-05
2.716018493705,0.00170012
2.71607088463,0.000125442
2.7171187858,0.00149104
2.721631565333,9.87219e-05
2.723468508251,0.000174824
2.726115445634,0.00617709
2.727120052504,0.0082701
2.735199839881,0.0017703
2.736433271178,0.00491622
2.736922460323,0.0051677
2.737250364673,0.000473421
2.742995007682,2.536e-05
2.743183460293,3.56137e-05
2.747535945108,0.00123697
2.747573019019,3.4328e-05
2.756085692305,0.000228164
2.756653633746,2.536e-05
2.759670687591,0.000777566
2.772343454018,3.3328e-05
2.783381698503,0.000179806
2.784381962364,8.17459e-05
2.78740621546,0.000163686
2.788708508103,3.5328e-05
2.788832417004,6.29399e-05
2.792303569301,3.1328e-05
2.803433445053,0.00279787
2.806533840671,0.00966607
2.813279579858,0.000111525
2.813632863332,0.000109722
2.817688235703,0.00265629
2.829521353663,0.0221223
2.830739574535,0.00438298
2.852965491965,8.04026e-05
2.857976689694,0.000135939
2.862797732511,0.00033737
2.865841443015,0.000146831
2.86796097528,0.0013984
2.872991538127,0.0172699
2.878967264962,8.44325e-05
2.888614183881,3.4328e-05
2.891263603356,0.00190055
2.893620515862,0.000114239
2.900727436026,0.00453871
2.907696534101,0.0108971
2.922677484033,3.38598e-05
2.927144833983,0.0017149
2.934927063637,3.32231e-05
2.936294806197,0.0434034
2.936784986938,0.00448738
2.93821488629,4.22665e-05
2.940485570055,0.0021562
2.948198669212,0.0402616
2.948322114435,0.000572986
2.951048099057,2.56458e-05
2.951315348388,0.000860681
2.955957823059,0.000267119
2.957424190027,0.000109955
2.958921816035,3.4928e-05
2.961443979776,2.536e-05
2.96536063984,4.95071e-05
2.971747645425,0.0031797
2.975100616638,0.00937458
2.979730650469,0.00029474
2.982387645959,0.00566048
2.98496103935,6.66697e-05
2.986352505767,4.78393e-05
2.987107854481,7.26779e-05
2.98761401779,0.00421722
2.989270683996,0.0140194
2.989673472035,0.0136242
2.991269133576,6.96564e-05
2.991384645973,0.000630614
2.994695983075,0.0135109
2.995899319172,0.00448387
2.999015469274,0.000365179
3.001138441641,0.000891746
3.008121260759,0.000243291
3.013006502472,0.00707715
3.026856763973,0.00300852
3.030361520973,0.0090593
3.031646938305,0.000117258
3.032317350863,0.00415176
3.032431641237,0.00448329
3.038439834422,0.000203874
3.040770443984,0.000579918
3.042198264616,0.0333696
3.048905279125,0.0118324
3.049897971752,6.92765e-05
3.052358866565,0.000942139
3.05403480927,5.24735e-05
3.063786006297,0.00015202
3.066833492045,4.16572e-05
3.075056041409,0.0374029
3.077645834441,0.0051421
3.077909117926,0.00905361
3.081252480047,4.39945e-05
3.082963326121,0.00384831
3.087937106825,0.0031001
3.088899367915,4.81638e-05
3.096632708119,0.000545179
3.09827800078,0.000337481
3.100434113293,0.00250503
3.103916641532,5.35369e-05
3.112768151109,4.95071e-05
3.135236294629,9.51722e-05
3.136195680074,0.000349059
3.136389512686,0.000310268
3.139771900142,0.00013872
3.141417422285,0.00570015
3.145622564817,6.17802e-05
3.146137296945,0.000213685
3.146825026093,0.00588556
3.149994105316,0.000281141
3.15170262509,3.49111e-05
3.153200386165,0.000363452
3.153506782799,0.0302358
3.160563352005,0.0180172
3.16126787231,8.63929e-05
3.165121889502,0.0166567
3.170706056581,3.3856e-05
3.17855178251,0.00883458
3.180088226924,0.000106229
3.183371962478,0.00027279
3.183395221698,0.00323387
3.185000439,0.0181715
3.187066309741,0.00163727
3.190742344624,0.0571288
3.192334166997,0.00760601
3.194530013617,3.1328e-05
3.208298793763,3.56137e-05
3.20844130658,9.51787e-05
3.230659861472,5.21937e-05
3.23072603663,7.36862e-05
3.239722818977,0.000482723
3.240993787578,0.00786029
3.241564434945,0.0088879
3.242867257143,0.000163076
3.244598716943,0.00654607
3.2477924906,7.1152e-05
3.247914446066,0.000894263
3.249777167487,8.04026e-05
3.253939106469,0.000789376
3.256954603014,0.000170122
3.256985641814,0.000102173
3.257170406182,0.00451112
3.260023896538,5.75668e-05
3.262429879899,2.536e-05
3.266371817416,0.000310453
3.269190025179,6.14443e-05
3.269634788697,0.00456159
3.275239182557,5.35369e-05
3.280879631379,0.000162876
3.281845394326,0.00243501
3.288620960514,0.00285966
3.297539196259,0.000187719
3.297604570827,0.000166308
3.302739916203,0.00570765
3.305851106944,3.60743e-05
3.306899405029,4.68205e-05
3.312410186425,0.000103238
3.316423716,3.4503e-05
3.316618519747,0.00772217
3.322951848196,0.000584721
3.328725097261,0.000228955
3.333796312483,0.013738
3.336304738285,0.000147512
3.336855452482,0.0184757
3.336944481486,0.0121774
3.337614875879,0.00197089
3.338958194251,4.68671e-05
3.340334642633,3.84861e-05
3.341520093055,0.00016279
3.343383895213,0.0211961
3.345494336108,0.0114082
3.345609794641,4.54772e-05
3.346406245516,6.15966e-05
3.347827180568,5.35369e-05
3.349011472384,3.56137e-05
3.357791190407,3.7424e-05
3.367398452,0.00333249
3.373106656887,0.000255029
3.38170709726,3.4928e-05
3.385476858794,7.23429e-05
3.405722619515,5.87836e-05
3.407457759467,7.07315e-05
3.408371329077,0.00453853
3.40876213872,0.0102029
3.412542458983,7.7716e-05
3.416928488568,4.96245e-05
3.417048091888,6.86311e-05
3.417261641897,0.00101247
3.425591333953,0.00394503
3.426717542143,0.000163686
3.428528871823,8.57757e-05
3.429570007137,6.02534e-05
3.435940091322,6.96563e-05
3.437833745305,3.3328e-05
3.438600909166,4.95071e-05
3.441261759541,4.54772e-05
3.447097950058,3.3328e-05
3.449055097477,4.42561e-05
3.449449357377,0.000695457
3.451796935798,8.98056e-05
3.45973618171,0.00162383
3.46249819296,9.38354e-05
3.464329047001,3.87608e-05
3.468664497925,3.7424e-05
3.469324679116,0.000178462
3.480296622192,0.000158313
3.487689228937,0.00630115
3.495879334102,3.68326e-05
3.498202908831,0.000190906
3.500139168952,0.000533853
3.500570330947,5.59536e-05
3.50077677677,0.00478783
3.502606013164,0.000106338
3.509020099121,0.000885278
3.513585738113,0.00187964
3.514128771143,0.0064644
3.514797799332,3.41538e-05
3.515631300394,5.2823e-05
3.519007108661,0.00401737
3.520451418367,0.0168306
3.521382228088,7.42433e-05
3.524281062307,3.45301e-05
3.524802415114,3.89585e-05
3.527813652397,0.000191327
3.530114549995,0.000215579
3.530120069985,0.000173179
3.538034901741,0.0364689
3.539232693633,0.000869775
3.541221033089,0.0126569
3.54373880176,6.2815e-05
3.549317877962,0.0577045
3.560598608963,0.00021368
3.562871343035,0.000106297
3.564379306013,9.04686e-05
3.567747245062,0.00711214
3.568091600217,0.00253516
3.569029520403,4.48649e-05
3.569991480233,0.00223425
3.570252462429,0.000413528
3.571225085353,0.0352775
3.571283887976,2.67605e-05
3.5713131343,0.000207222
3.571627430881,0.00381716
3.57266925211,0.000208574
3.575771253108,0.0118535
3.579101179666,0.028911
3.586649731593,0.0353533
3.587305397218,0.00432932
3.591292203682,0.000152565
3.592933695538,6.04962e-05
3.595617352546,0.000500769
3.595778514552,0.00022115
3.597698321235,0.00259399
3.59802862562,0.000131243
3.598666796346,0.0264571
3.598784144815,8.17459e-05
3.603125953561,0.000300701
3.607934104745,3.56137e-05
3.613733500384,5.48802e-05
3.616443615723,2.536e-05
3.62124445875,3.4928e-05
3.625305365655,0.00144249
3.628061765209,5.35369e-05
3.628143124977,5.48802e-05
3.630881108947,5.8309e-05
3.632218636982,8.23785e-05
3.634441102262,0.000199291
3.63576005691,0.000127647
3.637361394005,0.000306088
3.637543326864,0.00140679
3.63899686087,3.34135e-05
3.649286679894,0.000112217
3.653024085532,0.00421588
3.654724564684,0.000200266
3.656803155129,5.32909e-05
3.663001064439,5.98225e-05
3.665871731394,0.000138963
3.6659700072,0.0111332
3.666391610277,2.54659e-05
3.668586477934,0.000223641
3.670553171791,0.0412053
3.672221227792,0.00166695
3.67660316024,0.0477593
3.679673095994,0.000733238
3.686493375863,0.00307222
3.687563940424,0.00526799
3.69305333676,6.15966e-05
3.694100474095,3.5328e-05
3.695385235677,6.83131e-05
3.696878655786,3.1328e-05
3.698841923059,0.000162622
3.701128327572,0.00359712
3.711653277946,2.57644e-05
3.711737847199,0.000203822
3.715360701573,0.00955296
3.715399800073,0.00510407
3.717727325265,0.00205884
3.719215195839,0.00298997
3.719583210825,0.00276596
3.721934059149,0.00310365
3.725798522018,0.000133435
3.726879864955,0.000313696
3.730536418126,0.0177957
3.733621900094,3.92284e-05
3.735286228118,0.00101785
3.73798595415,2.54636e-05
3.739694715591,0.00403703
3.740091120922,0.00802978
3.741351280673,3.4928e-05
3.748430952734,8.7119e-05
3.750420857527,5.75668e-05
3.754791788774,0.00340906
3.755409429588,0.00014891
3.761268656472,0.00070508
3.762335334478,0.00299667
3.762935886837,0.000555925
3.763793646606,8.17459e-05
3.765279360788,0.000731895
3.788587394109,0.00225518
3.788661137864,0.00029176
3.789347694464,4.68205e-05
3.792077013385,4.95071e-05
3.797026549312,7.36862e-05
3.799220441241,0.000143537
3.805112009954,0.00140908
3.805873788262,0.002681
3.807399627651,0.000124731
3.8085745555,6.02534e-05
3.809004711165,4.68205e-05
3.812732002305,2.62478e-05
3.816027011518,0.00334038
3.817677451099,4.14474e-05
3.822367075843,4.68205e-05
3.824646850955,6.83833e-05
3.825670400613,0.00138859
3.826871227546,5.08504e-05
3.82808872461,0.00031682
3.836460720809,0.00158085
3.850434599066,4.81638e-05
3.851268021357,7.50295e-05
3.862872506833,9.51787e-05
3.86801322843,0.00202279
3.874757520214,6.56265e-05
3.878555705509,6.15966e-05
3.881521163135,3.1328e-05
3.88253140444,4.4134e-05
3.888678318736,0.000191745
3.888790909061,0.00421854
3.889144405991,0.00278158
3.890988410382,5.35369e-05
3.897825140679,0.00241173
3.906420945443,0.0140653
3.907158573559,3.3328e-05
3.910135274474,0.00131891
3.914645733629,3.60743e-05
3.915029118567,4.4134e-05
3.931518157158,4.01041e-05
3.935772608419,4.4134e-05
3.937067492779,0.000113985
3.948672537903,4.27907e-05
3.951647058811,4.95071e-05
3.961067975281,3.56137e-05
3.965042725884,8.84623e-05
3.968774600771,6.56265e-05
3.971588680611,0.00122354
3.97288962471,3.1328e-05
3.975901637701,4.01041e-05
3.984726355058,3.4928e-05
3.989722323945,0.00151952
3.990988330244,0.00149632
3.991774071718,4.30353e-05
3.993482199643,0.00252726
3.995096794404,0.004638
3.995278112073,0.00983784
3.995304840912,5.06837e-05
4.006798718566,4.54772e-05
4.008962969681,0.000817865
4.011135821788,4.27907e-05
4.013202091678,0.000216074
4.017134048621,0.00117061
4.017675111689,0.000232043
4.019358045076,0.00210045
4.019907454375,0.000240876
4.02175846636,0.00743423
4.027442464596,3.4328e-05
4.029650053249,5.21937e-05
4.034131623197,8.44325e-05
4.042014366273,0.00014908
4.043221808911,0.000127701
4.043436871038,0.00291187
4.051262073217,0.000331597
4.060483514112,3.67141e-05
4.062621870926,0.00602829
4.067470291653,0.000975029
4.082913614382,3.1328e-05
4.086303060205,8.57757e-05
4.088380933994,3.4328e-05
4.089692469635,3.5328e-05
4.090120097524,6.56265e-05
4.100853511116,0.00312104
4.102453513562,4.58812e-05
4.10722165268,0.000117394
4.107620642389,6.07406e-05
4.112625817837,0.0153371
4.118321092285,0.00780236
4.123857891507,7.63728e-05
4.124718458776,0.000100552
4.124978913656,6.96563e-05
4.12770297338,7.90593e-05
4.129178481389,3.56137e-05
4.131781728109,5.62235e-05
4.140391213784,0.00118324
4.145941973558,5.89101e-05
4.149271316517,4.01041e-05
4.149451192237,3.3328e-05
4.158711408959,0.000133107
4.158759735157,0.000592025
4.165971525523,0.00140622
4.169027571843,6.38015e-05
4.172440620355,0.000582416
4.173330076656,0.00676441
4.175521579853,0.00604394
4.189843520612,0.00262953
4.191642001078,0.00138552
4.192149704685,0.00321948
4.193644824288,8.00861e-05
4.194073167425,0.000374582
4.197584250768,0.000104181
4.202720569008,3.22493e-05
4.204018435406,0.000177885
4.204054815344,0.0143684
4.205623745702,4.24971e-05
4.207204881424,0.00354937
4.207908456283,0.00017528
4.209604809854,0.0138994
4.211268784764,0.000160959
4.211892431704,3.64738e-05
4.215760938019,0.00506595
4.220924598594,0.00556083
4.224668132519,0.000108543
4.225679815558,0.0214407
4.227196382446,0.00489876
4.228486835382,0.0088041
4.228538680155,0.0186341
4.230643546838,8.30892e-05
4.231274581215,6.83131e-05
4.233239018896,3.4328e-05
4.2343562583,5.21937e-05
4.235543316745,4.27907e-05
4.24354638398,3.4328e-05
4.244845700802,3.4328e-05
4.259864649619,0.000143617
4.263945267403,0.00869421
4.264392943873,0.00822216
4.270079526069,0.00110801
4.270297656391,9.78653e-05
4.275765192043,7.90593e-05
4.279802233377,8.84623e-05
4.281321569093,0.000167716
4.28542189974,3.5328e-05
4.287474425929,4.27907e-05
4.291653739838,4.27907e-05
4.293043465722,3.625e-05
4.293105107018,0.00112934
4.299141548984,0.00308801
4.30181672907,9.11489e-05
4.306321564051,7.14423e-05
4.306391551612,0.000198612
4.307385211547,0.000249656
4.308088776299,6.15966e-05
4.310149748198,3.89971e-05
4.315149272689,0.00512533
4.318914469425,0.00495867
4.320581238155,0.00176154
4.321026991723,0.000206671
4.325646104034,3.4928e-05
4.331178042915,0.00282982
4.332468944796,6.60789e-05
4.333805129555,0.00383429
4.341592005636,0.000436139
4.341754996449,3.36815e-05
4.344047292876,0.00249408
4.345158375998,4.85868e-05
4.345226962496,0.000110108
4.345886023447,0.000388015
4.346316877119,0.000382854
4.350880492117,0.00694826
4.353200237681,0.000644453
4.363269769673,0.019371
4.365310637039,0.000194358
4.367025841031,5.8823e-05
4.368209833891,0.0038581
4.369229535786,9.43719e-05
4.372511170923,0.0432821
4.37290996369,0.000232868
4.37578741272,0.0379608
4.376003107853,7.90593e-05
4.388116823471,4.4134e-05
4.389271357045,0.000123388
4.395111474939,0.00145055
4.398945831918,0.00304906
4.400902331071,0.00112548
4.404259376056,5.2894e-05
4.404642348559,0.00227801
4.406268640762,4.81638e-05
4.416941035885,2.5757e-05
4.419675785588,0.00597982
4.43234536088,0.000154794
4.434390118236,0.0102982
4.434559508786,0.016632
4.443126722289,0.0278864
4.448034815582,0.00014085
4.451293372078,0.000961596
4.455682560713,6.96563e-05
4.460715814724,0.00096697
4.461741946125,0.00188375
4.462514415242,4.27907e-05
4.46523911068,0.00107175
4.466639518825,0.00131891
4.477869782576,9.80988e-05
4.483870360329,0.000168118
4.483941054298,2.75023e-05
4.491100723346,4.29874e-05
4.499143279504,0.0292124
4.503092077576,9.40153e-05
4.506208527291,0.0385068
4.507536872137,8.63509e-05
4.508260344336,0.0149369
4.510837961145,0.00421993
4.51484474682,0.00117921
4.517166998738,0.000162824
4.517603396948,0.000165802
4.517959503789,0.00284471
4.520204507237,0.000983089
4.534463529043,3.1328e-05
4.536960445554,0.0016413
4.540196672271,0.00146533
4.540918999365,6.42832e-05
4.545105070015,7.36862e-05
4.553272757193,0.00154995
4.55368984966,3.87608e-05
4.559747547965,0.00175682
4.560290097489,0.00134408
4.563952760585,0.000298014
4.565530918808,0.000199955
4.567781259626,6.96563e-05
4.568926966593,4.95071e-05
4.573474964636,0.000901149
4.575208759668,3.3328e-05
4.57575348374,2.536e-05
4.582490193136,0.000964283
4.585736506011,0.00159025
4.590308469587,6.15966e-05
4.595788051609,8.5872e-05
4.596606980015,0.000235679
4.597798609309,0.00235401
4.598784611056,3.96584e-05
4.599976214378,0.00568562
4.60317502904,3.4928e-05
4.603322044054,4.4134e-05
4.605186334219,6.15966e-05
4.605997764226,5.21937e-05
4.611448257171,6.6086e-05
4.615334519614,0.0087016
4.61584438402,0.00763561
4.617937554716,0.000116671
4.618270931913,4.14474e-05
4.625415922611,5.08504e-05
4.625754632638,4.43636e-05
4.625758232638,4.95673e-05
4.625787092837,3.5328e-05
4.62760834737,5.08504e-05
4.628767881804,0.000416223
4.636191773933,0.000303388
4.641218576716,8.7255e-05
4.641771156085,3.36867e-05
4.645891969592,0.00777204
4.646521599236,8.17459e-05
4.646766489174,8.30892e-05
4.649796063793,7.90593e-05
4.652072749869,3.4328e-05
4.65651969476,0.00257219
4.662132063861,0.000194582
4.664625048065,7.99857e-05
4.664817248835,0.000232597
4.675377576988,6.02534e-05
4.676263566471,6.02534e-05
4.684149698998,0.000741298
4.691382643998,4.81638e-05
4.695081535908,4.4134e-05
4.698533202317,5.35369e-05
4.700957520844,8.30892e-05
4.707376667074,8.22446e-05
4.711814842117,0.00486635
4.715580456771,7.09996e-05
4.724430638413,0.000396074
4.726254756659,0.00137533
4.7297431258,0.00431867
4.730156109075,0.000127418
4.730774530667,7.90593e-05
4.73181111037,8.04026e-05
4.733761359082,0.00167622
4.741708776794,8.30892e-05
4.742659180909,8.17459e-05
4.75339336984,3.4928e-05
4.754036527503,0.00060697
4.754433264819,4.32634e-05
4.760154523944,3.9824e-05
4.761808423209,0.00778128
4.763196262459,7.63728e-05
4.763320443892,3.5328e-05
4.767222658399,4.70006e-05
4.76917324216,0.00512846
4.770725235237,0.00024294
4.776136626855,0.00301098
4.779230202236,0.000223253
4.779678722091,0.00694564
4.784287226977,0.000218853
4.791198614943,0.000146906
4.793973462235,0.000269159
4.800237335707,0.00892607
4.801000489564,0.0171104
4.802072384772,3.73433e-05
4.803682695043,0.00138578
4.806459092288,0.000300162
4.808236392543,0.0319783
4.819521274586,0.00497494
4.82455014566,0.000231137
4.82817633577,0.0127484
4.829674239618,0.0144609
4.829768311519,3.4328e-05
4.83381120526,4.14474e-05
4.834247416908,3.5328e-05
4.839270562981,0.00310413
4.845376624383,0.00123831
4.847101947492,4.68205e-05
4.857063541455,0.000408955
4.857353697143,0.00196994
4.860087246059,0.00958799
4.865025745105,0.000112641
4.878984453006,0.00171679
4.879608617952,0.000109042
4.881449012213,2.73409e-05
4.882926359122,0.00482773
4.884888046765,0.00163823
4.886257248497,0.000710403
4.891756505601,0.0199862
4.892343377203,0.0141935
4.892409341377,0.0159616
4.900304105067,0.0245372
4.902705207109,3.84776e-05
4.911334711685,3.60436e-05
4.914780003601,8.49637e-05
4.915448926545,0.0307466
4.916759705133,7.7716e-05
4.928503810085,0.00745503
4.932202434802,2.64656e-05
4.933201668538,2.62401e-05
4.934906230679,0.00347723
4.940069024614,3.46827e-05
4.940321932813,0.00245113
4.944661272693,0.0034601
4.94681202154,7.50295e-05
4.952172749112,7.7716e-05
4.9678211177,0.000185179
4.971838835095,4.81638e-05
4.977736953411,0.000909254
4.977825695849,0.000253651
4.97877773616,0.00412297
4.979508456579,0.00567329
4.987339867471,0.000100552
4.988618462604,3.5328e-05
4.993315417317,0.00279518
4.999458205137,0.00260521
5.004786978541,0.00992113
5.006856840834,0.00674517
5.010643368793,5.62235e-05
5.013221312373,8.84623e-05
5.015530731223,4.68205e-05
5.017478694392,0.000171268
5.017573678748,0.00122584
5.019875053761,0.00398905
5.027287549284,0.000267119
5.031696676148,0.000801746
5.033311671517,3.4328e-05
5.034835128369,6.96563e-05
5.036363638536,6.69698e-05
5.037155905315,9.11489e-05
5.045075250169,0.000105925
5.046678557921,4.01041e-05
5.054716834557,0.00801921
5.058070572596,0.000102871
5.058363102721,8.19878e-05
5.059143388041,4.23329e-05
5.059753919548,0.000384192
5.06217921421,0.0149021
5.062940120176,4.34214e-05
5.066953047648,0.00958186
5.072692287856,3.5328e-05
5.074698816702,2.536e-05
5.077869021671,5.4252e-05
5.078281409656,0.000396976
5.078789059537,0.0018909
5.079116931893,0.00198013
5.091709985891,2.536e-05
5.095846709792,2.61972e-05
5.096216048631,0.00179292
5.097257285297,9.11489e-05
5.106916432997,4.4134e-05
5.109786543471,0.00174204
5.113872373199,3.50292e-05
5.114040579281,0.00177334
5.115869204414,0.00571903
5.117555479028,0.00161712
5.118904352441,5.08504e-05
5.129873859516,7.09996e-05
5.13809957156,3.56137e-05
5.141206937056,0.000546522
5.154637480935,0.000573387
5.158843935406,3.87608e-05
5.16291298077,3.56137e-05
5.163819242328,5.48802e-05
5.165390023722,5.35369e-05
5.172340953386,3.7424e-05
5.185567646981,0.000117731
5.187195673989,0.00807411
5.198042363968,6.84824e-05
5.19994979384,0.0056656
5.201696767492,0.000117342
5.203840784006,0.00318742
5.205929580407,9.51787e-05
5.21452309895,3.62744e-05
5.218758301451,8.52215e-05
5.219636945378,0.0121725
5.222656675445,3.56137e-05
5.242651825314,0.000119358
5.246200539134,0.000901528
5.247104568662,0.000165518
5.252293670937,0.00010671
5.255400515715,7.40439e-05
5.256098990885,0.0171638
5.259510667582,7.09996e-05
5.261889731866,0.00340368
5.263827903363,0.000343686
5.264003008754,8.17459e-05
5.264233546968,4.68205e-05
5.265278790956,6.83131e-05
5.268459686918,0.00175145
5.269919613466,0.00118861
5.271286392702,7.63728e-05
5.272681230865,2.536e-05
5.274686521948,6.15966e-05
5.279070199352,0.000302044
5.283820203487,5.75668e-05
5.285444024611,3.1328e-05
5.287038590816,0.000901149
5.288576507055,3.3328e-05
5.291637765483,4.81638e-05
5.292814066252,4.81638e-05
5.299723322677,0.000358909
5.30033300436,7.74332e-05
5.301321628661,0.00227633
5.304607676235,3.4328e-05
5.305808320881,0.000118015
5.308967008384,0.00014891
5.310100622978,0.00354187
5.310995985788,3.4328e-05
5.314792425211,8.78248e-05
5.314972561977,0.00335264
5.321428326764,0.00452639
5.32171831354,5.59533e-05
5.323225613913,0.00250197
5.325968461291,0.000337012
5.326820102744,6.8623e-05
5.331905741361,0.00840993
5.334789473389,0.00605232
5.336513238812,0.000134134
5.339048326938,7.90593e-05
5.342650284717,0.000143537
5.347621719561,0.000147074
5.349374509532,7.43425e-05
5.35252867486,0.00602963
5.354380943169,7.90593e-05
5.360799468735,0.000267119
5.368978414913,0.0015648
5.369387947443,0.000111367
5.369762748975,6.63388e-05
5.370081021819,3.39227e-05
5.370887019331,0.00772066
5.37095166459,2.536e-05
5.371834324744,4.81638e-05
5.376233844013,7.23429e-05
5.376619160656,7.63728e-05
5.381762393018,7.74242e-05
5.382948486406,9.30416e-05
5.384663995643,0.00706816
5.38768174086,0.000113985
5.390954255928,0.00163458
5.392227383209,5.18235e-05
5.393154131045,0.00187592
5.397709178165,0.00534256
5.410403903238,5.89101e-05
5.412544488196,0.00156204
5.413993342596,3.56137e-05
5.42402881932,0.000150253
5.427625380489,0.0010704
5.434206926277,3.7424e-05
5.436897614453,0.000914581
5.437796453008,7.50295e-05
5.439281328511,0.00112117
5.440352068362,0.00167
5.445451318036,4.68205e-05
5.447441543171,3.1328e-05
5.449989052603,0.00086488
5.451155019451,8.57757e-05
5.452315031644,4.54772e-05
5.452432266386,9.51787e-05
5.456725678545,7.50295e-05
5.461102338958,0.000107268
5.46203504358,6.42832e-05
5.465673367583,3.60743e-05
5.466211853769,6.15966e-05
5.469650029642,0.000476671
5.477972504897,3.3328e-05
5.483613873333,4.54772e-05
5.490919074466,0.000430999
5.4964083827,3.5828e-05
5.512671760282,0.000108612
5.512785942588,0.00104757
5.516870201871,0.000324632
5.516934790756,0.000139899
5.51862622906,0.000550552
5.51968642421,3.60743e-05
5.523021199118,3.7424e-05
5.530415667251,0.000138164
5.531627512301,3.56137e-05
5.538801695452,0.00209667
5.541409959499,9.24922e-05
5.542362263003,3.56137e-05
5.54905315084,0.00383891
5.551335100558,0.00159563
5.551550302758,4.01041e-05
5.559106973654,0.000141974
5.565542507696,0.000175474
5.569858503108,0.000126823
5.572028860448,0.000219577
5.575511994244,0.0025615
5.575539003194,0.0154663
5.579013493177,0.0246413
5.586083625799,3.60743e-05
5.588126413751,0.000648611
5.59344879013,5.89101e-05
5.596730796115,0.00256682
5.60196578507,4.81638e-05
5.607627998621,0.000352753
5.610406157013,0.00569533
5.610905612817,0.00566617
5.614435237917,0.00182398
5.616366985214,0.000156972
5.616448880847,0.000202699
5.61691568712,0.000880162
5.624212725038,0.000253686
5.625765566145,2.536e-05
5.627663341197,3.56137e-05
5.628787482852,0.00102876
5.630867631314,9.24921e-05
5.632113146632,9.24922e-05
5.633456962309,5.08504e-05
5.633756324462,4.14474e-05
5.639534624141,0.00410488
5.642222191325,0.00140891
5.643015999903,0.00488712
5.650735070806,0.000861973
5.652104013031,0.00262727
5.657577521723,0.0011107
5.661573274098,3.5328e-05
5.663884237202,3.3328e-05
5.664363273379,8.44325e-05
5.665748073714,2.536e-05
5.675179841077,0.000976822
5.677133208047,2.74792e-05
5.677816648959,0.00204107
5.679347887133,5.96412e-05
5.681292409007,0.000306808
5.682957232125,0.00191739
5.684736752741,0.00036562
5.685444824138,0.000532629
5.686114921752,0.000504677
5.686618204084,0.000257966
5.69183978411,0.000273835
5.695912138033,0.00108931
5.696484456049,4.45575e-05
5.696546236681,0.00293581
5.698043924906,0.0273816
5.703846550212,0.000160812
5.710256688772,0.0127957
5.713826999476,0.0246481
5.714577894898,0.000279017
5.715163091992,0.00535932
5.715252146548,0.000596278
5.71541188598,0.000166865
5.724383150505,0.0550545
5.728897426293,0.0595764
5.729814895076,8.51684e-05
5.730745561677,3.37105e-05
5.73088394757,0.000165505
5.732359973955,0.0109339
5.732413106609,3.40985e-05
5.734660984756,3.3478e-05
5.735172333101,4.02728e-05
5.735421155234,6.05999e-05
5.741378471123,0.000171517
5.745859132318,0.00410404
5.746654524973,4.23215e-05
5.747785034989,4.29438e-05
5.750084347439,0.00106997
5.75125940832,0.000494137
5.754024172325,0.0172344
5.754979798198,3.34952e-05
5.760010316957,9.78919e-05
5.762482744092,0.00149393
5.762588201988,3.57573e-05
5.764930588774,0.0021372
5.766917024724,0.000108243
5.767189822528,0.00304287
5.769270880782,0.0121298
5.770558388312,0.039133
5.775314228426,0.000694283
5.778088553823,3.4328e-05
5.782887138297,6.56265e-05
5.786508111538,3.4928e-05
5.792576692999,4.01041e-05
5.79266153686,2.536e-05
5.809713570457,0.00227264
5.810194083494,9.28341e-05
5.813912526322,3.48415e-05
5.81992561506,0.00445413
5.820176739845,0.00507564
5.820178369695,0.000210725
5.820419567938,0.000216074
5.820485280716,0.0126614
5.821344981731,9.51787e-05
5.823396217722,8.98056e-05
5.823796941001,3.1328e-05
5.825352808741,3.4328e-05
5.83998057498,0.000520999
5.843314180317,2.536e-05
5.844943149888,6.02534e-05
5.84505704795,3.3328e-05
5.847669144539,4.54772e-05
5.84852277315,2.536e-05
5.849581700487,7.63728e-05
5.855868689317,0.000106463
5.857150221202,4.14474e-05
5.857377170664,0.000185825
5.857777319358,0.000558711
5.860276783388,0.00016692
5.861137293417,0.000160687
5.865369121359,0.00222996
5.86617454873,0.00515315
5.868032172753,0.00611649
5.868311134557,0.0176568
5.869674393841,0.00023817
5.881952921869,0.0245827
5.883054837608,0.00251349
5.884933565603,0.000134835
5.888365763583,8.59697e-05
5.889714557046,0.00976259
5.890229540015,0.0125587
5.8963044757,4.68205e-05
5.898421065037,7.63728e-05
5.912487190846,0.00520771
5.916234242029,9.24921e-05
5.917752412623,3.1328e-05
5.921343983261,2.65896e-05
5.923831718704,0.000360608
5.936157363328,0.015615
5.937606876986,0.0178971
5.94212009554,3.3328e-05
5.943983052587,6.56265e-05
5.951387872837,0.00306518
5.967009252642,3.57023e-05
5.97402769488,0.00448311
5.974276033472,0.000231361
5.976958563965,0.00166246
5.978994768252,3.22429e-05
5.980271912537,0.0169697
5.990255030851,0.000428931
5.99045252552,2.58105e-05
5.990858301966,0.00458424
5.991344776786,5.53844e-05
5.994891524762,6.83131e-05
5.996276223594,0.000826794
5.999230070924,0.0364032
6.006322695079,5.75668e-05
6.019289135641,4.08012e-05
6.026973067523,0.007631
6.02827063468,0.0010311
6.028693743337,0.000135618
6.031009700077,0.0199583
6.035040013259,0.000134172
6.03569155453,0.00202136
6.035892910218,0.00360624
6.036059340506,6.39751e-05
6.037477958655,0.00174906
6.042605988649,8.84623e-05
6.04324733496,8.44325e-05
6.048129214005,9.6522e-05
6.05574489814,4.4134e-05
6.057352953701,3.56137e-05
6.06159232052,6.29399e-05
6.064658585347,6.42832e-05
6.066125063561,4.19349e-05
6.066271618255,0.0013001
6.07840629152,8.17459e-05
6.088145635045,0.0011604
6.089460249926,3.4328e-05
6.09135912881,8.57757e-05
6.091976083849,5.75668e-05
6.092326228031,7.90593e-05
6.094759150133,0.000276522
6.101179947808,0.000235333
6.101855093795,0.0019643
6.10279373682,0.000163255
6.104802868165,0.00665572
6.106086916347,2.63304e-05
6.107059389253,0.00529116
6.109389242415,4.81638e-05
6.111947667193,5.08504e-05
6.114781218695,3.4328e-05
6.117203898429,0.00136055
6.118101897724,7.36862e-05
6.126981753066,3.256e-05
6.127126159016,0.00354187
6.130936935341,7.7361e-05
6.132393054164,0.000114304
6.134039750354,0.000157015
6.134215688437,0.00461768
6.134548277665,7.7716e-05
6.142206126822,0.000109442
6.148510121951,0.00878202
6.14909826829,3.4928e-05
6.149681034379,4.54772e-05
6.152432722248,0.000726522
6.160201868762,3.56137e-05
6.166800608625,8.98056e-05
6.169073870336,2.536e-05
6.172810134698,0.0016104
6.181060066835,0.00151369
6.182990390835,3.56137e-05
6.187782381036,3.77745e-05
6.193186298489,0.000158818
6.194920206447,0.00506509
6.195605000691,5.57604e-05
6.200319925351,0.0035536
6.203389463851,0.0191154
6.206070814451,0.0014801
6.21271956293,4.14474e-05
6.213182860575,4.01041e-05
6.216313956609,0.00152712
6.216586211946,5.89101e-05
6.223007171063,5.08504e-05
6.22352376596,0.000265776
6.225931370975,4.4134e-05
6.235144887233,0.000847417
6.237465537699,2.536e-05
6.243311177331,6.69698e-05
6.249877039492,6.96563e-05
6.251607059952,4.81638e-05
6.258050119075,6.56265e-05
6.266865649646,0.00123246
6.268396053318,8.25076e-05
6.268401079697,3.8443e-05
6.26978073262,0.00801385
6.271780792139,0.000179806
6.273721999666,3.5828e-05
6.28030427776,7.50295e-05
6.283435476218,2.536e-05
6.298197697991,5.89101e-05
6.298951052368,3.5328e-05
6.299276752525,7.23429e-05
6.303131470731,0.000574731
6.306893801538,0.00146533
6.32878963708,6.96563e-05
6.337084247895,8.47589e-05
6.338890794761,0.000162796
6.340352254678,0.00363842
6.340818167417,0.000139507
6.341735280304,5.08504e-05
6.346256874113,6.37654e-05
6.355464235189,3.68618e-05
6.355489487725,0.000738314
6.355529912797,0.00822858
6.356397387311,0.00478636
6.360189461125,5.00607e-05
6.363876774088,0.00669397
6.369674693545,0.00618345
6.373278462134,0.000322355
6.37942020886,0.0262959
6.383719002112,0.000129181
6.385140450452,0.0344802
6.389186420335,0.000132004
6.407345311688,0.00022695
6.407502081664,0.000382391
6.410104085697,0.000541681
6.412746492983,0.0670347
6.414244164509,0.00032188
6.416177213462,0.00800604
6.418235002126,0.0138761
6.421182054491,0.000117396
6.421884269401,0.000240253
6.422775131259,4.76546e-05
6.431828632393,0.0259258
6.432020527529,0.0149598
6.433737243836,0.081315
6.435255264927,0.00927416
6.436004078161,3.4928e-05
6.43630113855,4.68205e-05
6.441834397382,4.81638e-05
6.442588678413,4.95071e-05
6.443365320354,6.83131e-05
6.443608442347,5.62235e-05
6.447183627781,0.00128264
6.447611052709,0.000123388
6.447873968105,5.48802e-05
6.449919794724,4.4134e-05
6.452512956382,8.98056e-05
6.453261462901,0.000715775
6.456239938769,4.30296e-05
6.458355473211,4.34554e-05
6.458612001903,3.47221e-05
6.460664898736,0.00523541
6.461781107009,4.22374e-05
6.463229303436,8.64367e-05
6.465519022456,8.63331e-05
6.468296900714,0.000150642
6.468477632633,0.00013438
6.468630846231,0.00757151
6.470027281341,0.000294424
6.470428754147,4.14996e-05
6.475605766898,0.000165701
6.479514552842,0.00333588
6.486459293963,0.0295776
6.486473530265,3.44359e-05
6.488421853004,6.42832e-05
6.496473692331,3.41755e-05
6.497641912253,0.00383202
6.505185506199,0.0022454
6.508917010901,0.000131285
6.509564610378,0.00432715
6.510538884866,7.38849e-05
6.512522856325,0.0111506
6.519755193904,8.7119e-05
6.53376489879,9.6522e-05
6.535456792575,9.24922e-05
6.535615251162,0.00103934
6.551249114326,0.000116671
6.565260989953,0.000134134
6.56656311878,4.68205e-05
6.576569480305,0.000110943
6.578154617026,0.000174432
6.578367041718,0.00286613
6.585908562102,0.0135309
6.586173163319,0.00115083
6.589400109382,8.76413e-05
6.596307382015,0.00738115
6.600275058859,0.00315087
6.602545553896,3.34078e-05
6.606537243401,0.0106581
6.607810361931,5.62235e-05
6.611168106347,8.57757e-05
6.61461592355,3.82523e-05
6.615976831624,0.00425264
6.618402015433,0.000123149
6.619168972493,0.0014571
6.623500604409,0.00148145
6.62780109919,3.56137e-05
6.632604528245,8.44325e-05
6.646697673185,0.000138164
6.649128807756,4.4134e-05
6.653185463884,0.000664731
6.653319532089,3.1328e-05
6.65682340374,8.49451e-05
6.657379354106,9.03418e-05
6.65912748734,3.14962e-05
6.660365134632,0.000160615
6.663441135613,0.00181163
6.666734561083,0.0104656
6.668044131929,9.00106e-05
6.668654119467,0.00142842
6.669579609465,0.00641989
6.674163271869,7.63728e-05
6.690830303735,0.000844731
6.692061957434,0.00184709
6.699038042367,3.60743e-05
6.701181665614,0.000105925
6.70272994678,6.15966e-05
6.706366569788,3.1328e-05
6.708610026304,0.00173801
6.716097246064,3.5328e-05
6.717816389906,3.1328e-05
6.718963366645,4.14474e-05
6.719982002524,0.000445776
6.732674314142,5.75668e-05
6.736756071257,0.00149488
6.73932869654,3.3328e-05
6.74220810655,0.0022404
6.748346329247,0.000275179
6.748379774507,0.000136514
6.753972821029,9.24921e-05
6.758166007558,0.00102473
6.75940909247,0.00032891
6.760757889263,3.60743e-05
6.76365915891,7.63728e-05
6.767847435041,0.000327567
6.771998586248,0.00363204
6.774948162118,0.000136472
6.775272030169,0.00437558
6.782214270721,0.00402159
6.782304522773,2.536e-05
6.783666543178,7.50295e-05
6.7880397644,7.37888e-05
6.788801373871,0.00382262
6.7989966595,0.00060697
6.805341285568,9.17689e-05
6.805526833968,0.0048018
6.806307392692,0.0041456
6.808213322577,3.77219e-05
6.809666551816,3.42173e-05
6.816013591703,0.00786439
6.821173696155,7.7716e-05
6.823197680087,4.54772e-05
6.824163336865,9.38354e-05
6.825668474889,3.3328e-05
6.82594154073,3.3328e-05
6.839299494014,7.36862e-05
6.840503052339,8.17459e-05
6.846892678836,0.00352995
6.847454503323,5.08504e-05
6.862638699394,3.4328e-05
6.871934507649,9.24922e-05
6.873966639296,8.44325e-05
6.88031517988,7.09996e-05
6.882062577916,3.5328e-05
6.886732197318,0.00312114
6.889884713751,0.000165151
6.891735452152,6.1733e-05
6.895197051705,3.31537e-05
6.895637015361,0.000139677
6.895932037675,0.012551
6.896697683454,0.00521539
6.904787919753,8.7119e-05
6.905468191998,6.15966e-05
6.905863682474,4.54772e-05
6.911192967543,6.96563e-05
6.926624837263,0.00141645
6.927589139532,0.0160932
6.939366355431,0.000262637
6.939865314926,3.67665e-05
6.940797696961,0.00574972
6.945057366681,0.000345287
6.951893336434,0.000383388
6.953292840828,0.0373879
6.954190335938,0.0361268
6.956528609782,0.000146792
6.966624067468,0.00495742
6.968494617812,0.000233927
6.96948964032,0.0285792
6.971239977258,4.70926e-05
6.97198789319,0.006049
6.973535298232,0.0441123
6.97437864236,0.0177359
6.978861057821,0.000356696
6.988306364532,0.0697617
6.989822537575,0.00453407
6.989865283364,0.0365749
6.992067708064,0.00448721
6.992140388652,0.0620022
6.994615384712,0.0354426
6.994626274262,0.000768441
6.995353133659,0.012876
6.998840297094,0.00023891
7.000757615011,8.98056e-05
7.002303226089,0.0012101
7.005421116479,2.536e-05
7.005552257225,4.68205e-05
7.017575582949,8.44325e-05
7.019532979873,7.18539e-05
7.019681899968,0.000293816
7.022034679258,0.00246876
7.022414386347,3.37503e-05
7.022742175111,0.00112202
7.024418941159,0.000115328
7.025608357908,3.5328e-05
7.03245527968,0.00169906
7.040598262504,0.000307715
7.041667347186,0.000646026
7.043682239699,0.00345574
7.044250752051,0.000170923
7.044997585409,0.00100844
7.046415233666,6.91557e-05
7.048047459357,0.00284891
7.04865821777,9.6522e-05
7.050983088496,5.08504e-05
7.059502560927,0.000110252
7.061618970814,0.000171737
7.064195738663,0.0082053
7.065734864065,0.00332035
7.066134000873,3.52421e-05
7.067048346812,0.000162673
7.068431616225,0.013176
7.072820096252,0.00447719
7.074885141936,3.4328e-05
7.078947498319,4.27907e-05
7.081381170381,5.21937e-05
7.084741107503,0.0025198
7.095917012714,0.000381298
7.101907065837,0.00429294
7.101988589178,0.000193329
7.102239894402,0.000897916
7.102704924264,3.4328e-05
7.106215194175,0.000201298
7.106717288948,6.83131e-05
7.107169846162,9.51787e-05
7.108449445961,3.3328e-05
7.109780587224,0.000381298
7.114429045091,9.24922e-05
7.123637875334,5.58488e-05
7.12480381299,0.00333232
7.127897226114,4.95071e-05
7.13203463958,0.00131488
7.13699989041,0.00012026
7.137918663993,0.00413426
7.148220332636,0.000154283
7.148777513076,5.48802e-05
7.149001614925,3.5328e-05
7.150690032657,6.68755e-05
7.150971364605,0.000566502
7.152367660722,0.000550552
7.152682579506,0.000197268
7.163052661646,0.00114428
7.169031579333,4.54772e-05
7.173411888379,0.00439983
7.177192406389,3.5328e-05
7.187927044081,6.56265e-05
7.1923088071,3.60743e-05
7.19287806404,8.44325e-05
7.196356514199,0.000605763
7.196430388337,0.00353236
7.199879803253,0.000100875
7.201430121071,0.000165361
7.203184025708,0.00759744
7.205453929334,0.0086608
7.206932610534,0.00074533
7.209709176639,0.000370203
7.21194990953,0.0134134
7.213431365028,7.23429e-05
7.220238086966,0.000202641
7.225188132135,0.000190552
7.227639003191,0.00031682
7.228164081168,0.000124731
7.230177868685,3.3328e-05
7.230970931719,5.08504e-05
7.236780604704,0.0013713
7.242013957402,0.00175279
7.243893597754,0.000160291
7.248534640595,0.000182341
7.25106669706,0.0077759
7.256536813454,4.81638e-05
7.258106550622,4.14474e-05
7.267400443676,0.000527716
7.273909896947,0.00139413
7.275564008388,0.000640552
7.276488183788,2.536e-05
7.280697582164,7.63728e-05
7.282589505364,5.62235e-05
7.284003290161,7.63728e-05
7.28873740706,5.30181e-05
7.289387387335,0.000461304
7.290248425598,0.00123562
7.291614687707,0.00639635
7.298006849832,0.00571548
7.300935069962,0.00779649
7.307414389226,0.000237567
7.309279402568,3.3328e-05
7.313424452259,0.0025104
7.314560732866,0.00134069
7.319055554272,0.00395174
7.329704764084,5.62235e-05
7.339605590738,5.48802e-05
7.367183541972,3.9824e-05
7.367628588588,3.52934e-05
7.367917101428,0.00504635
7.369135207744,0.0011107
7.369163912731,3.3328e-05
7.376423894088,7.7716e-05
7.376736363454,9.51787e-05
7.377079283736,3.5328e-05
7.379276364993,0.000350996
7.385557693146,0.00708428
7.398083298244,0.00897831
7.398367272528,3.1328e-05
7.401269274681,4.65724e-05
7.401302968052,6.05131e-05
7.404565388826,0.00318339
7.409319162157,0.00171115
7.410735525453,0.000610999
7.41261375184,2.536e-05
7.422373657062,0.000529059
7.428380856464,5.21937e-05
7.443967355664,0.00330294
7.459164738603,2.536e-05
7.473941189787,0.00648921
7.481420766888,0.000130933
7.481772707157,0.000326239
7.482472793084,3.45886e-05
7.485466397792,7.72657e-05
7.49351131977,0.00022252
7.497385179583,7.85721e-05
7.502790026755,0.000223823
7.508475470471,0.0320594
7.508714549315,0.0126149
7.513003701806,0.00324786
7.516844105226,8.04026e-05
7.518106280924,0.000403691
7.518381399462,0.001473
7.524674823616,0.00677351
7.529449809039,4.81638e-05
7.535051555136,8.7119e-05
7.536944727135,5.21937e-05
7.540428404286,0.000103898
7.544346449446,0.00706771
7.544578761057,6.83131e-05
7.54598634422,3.7392e-05
7.547607602297,0.00530351
7.548192979229,0.000179806
7.552733930953,4.5807e-05
7.552926975004,0.00177726
7.558809354563,0.00968181
7.559859324132,3.4328e-05
7.562175557765,7.50295e-05
7.572191521563,0.000245684
7.572862844667,0.00420329
7.577579955976,0.00898669
7.57766688708,0.0152701
7.57884201569,0.00360481
7.583415087876,3.5328e-05
7.585286772109,0.00138204
7.59016060419,5.35369e-05
7.605406578864,3.4328e-05
7.605997361592,8.44325e-05
7.611413569783,8.57757e-05
7.614080069913,0.000871596
7.619517331411,7.90593e-05
7.622529079634,0.000484731
7.624803784433,0.000722492
7.625143110842,5.08504e-05
7.625441887109,7.90593e-05
7.628282136602,6.02534e-05
7.63380101257,0.00095891
7.645397584691,3.5328e-05
7.657622280014,0.000788313
7.657799801687,9.24922e-05
7.659311168145,0.000899805
7.663924253051,0.000259059
7.668440400475,0.00033697
7.686244828385,4.27907e-05
7.70033049191,3.56137e-05
7.709781877688,0.00290589
7.713552473093,4.2413e-05
7.722078036826,0.0032781
7.722780828582,0.00463473
7.731771889375,0.000107238
7.732134719165,0.00161021
7.732250047153,0.0104568
7.733621383438,0.0323234
7.735051597542,5.2539e-05
7.735118729705,0.00221269
7.736415963218,0.000302044
7.744265342079,6.83131e-05
7.753398671154,0.00115503
7.753915838372,5.48802e-05
7.755144686214,0.000105925
7.765312254733,0.00106234
7.766161175921,0.00277083
7.768103073643,0.000300701
7.769125267691,5.62235e-05
7.774377293724,0.00145727
7.776836325045,8.57757e-05
7.777206824413,7.50295e-05
7.777237923606,3.1328e-05
7.777666551696,3.4928e-05
7.778278275356,7.50295e-05
7.787262427509,3.5328e-05
7.792285006778,0.000103859
7.796281274278,7.46573e-05
7.797389034095,0.00975952
7.800882382422,0.00616543
7.807027741533,0.00472154
7.807802952671,0.0114161
7.811031921412,5.35369e-05
7.816632210243,0.000202641
7.819351659985,0.000760104
7.823838793008,0.000840701
7.826535275143,0.000268462
7.832297989159,8.84623e-05
7.833018918744,4.27907e-05
7.834496181504,3.4328e-05
7.838571554603,3.60743e-05
7.838992045499,4.54772e-05
7.83908048702,5.08504e-05
7.847973174133,8.17459e-05
7.848278537274,0.000107268
7.855303537879,4.27907e-05
7.863662193353,5.89101e-05
7.865572196479,3.1328e-05
7.866456693577,8.7119e-05
7.872485556656,0.00118324
7.877364503197,0.00226065
7.879126610934,0.0055176
7.88022938874,0.00259125
7.884025179175,5.75668e-05
7.884791337309,0.000122044
7.8905399642,0.00298458
7.890641444684,3.87608e-05
7.894799877057,7.50295e-05
7.896689317591,0.000928014
7.907608070686,0.00355413
7.909368875829,0.00166548
7.915238494558,0.000612343
7.915721643334,7.7716e-05
7.923546996929,0.000174432
7.927816501152,0.00250503
7.930367193446,4.27907e-05
7.932770216481,6.83131e-05
7.932927794395,9.84193e-05
7.939247147854,0.00635077
7.939696395257,3.4454e-05
7.94057882309,7.95595e-05
7.940968206389,0.000152019
7.949657228972,0.010389
7.950700791407,0.000180869
7.954712116048,0.0134019
7.95797758674,0.0146189
7.958439118657,0.0121959
7.959603102643,0.0159992
7.965179254164,0.00178234
7.972146024143,0.000799059
7.972885956734,9.11489e-05
7.981129281086,3.91614e-05
7.982186686863,0.00474271
7.983637572231,0.00686802
7.992872289519,8.7119e-05
8.005733971281,0.00519669
8.007555437494,0.00439306
8.008538835107,4.14474e-05
8.021399867503,0.0016507
8.022425824344,0.000125388
8.024032110815,4.59072e-05
8.024967172961,0.0041501
8.025053117541,0.00133175
8.029941062208,5.89101e-05
8.032037718591,8.44325e-05
8.034940747341,3.56137e-05
8.048146118754,3.4328e-05
8.053995280785,0.000623089
8.058006187014,0.00437994
8.074489097752,3.35639e-05
8.075370319112,0.00312546
8.078699012577,0.00240294
8.085626678177,0.00286503
8.089924701762,0.000405477
8.090393201613,6.29399e-05
8.099256263294,0.000599803
8.10052286821,9.64304e-05
8.105034925321,0.000274591
8.105467462606,6.66376e-05
8.106528401995,0.0076432
8.107083400585,0.0145325
8.109699454389,0.00012275
8.112276120256,0.0105562
8.112935774426,0.0150081
8.125508462884,0.00339428
8.13283242241,0.000146685
8.134613466498,0.000808554
8.135297016309,0.00391821
8.148327727544,0.000299514
8.152330944899,8.72183e-05
8.153810708627,6.05253e-05
8.154416322197,4.65071e-05
8.157234537424,0.0108947
8.158672824217,0.00788213
8.158783422409,0.000192064
8.160394862539,0.000143532
8.168398119547,5.34292e-05
8.176268559887,0.0121707
8.176624666844,0.048441
8.187831202835,0.000262462
8.188239285021,0.000213388
8.18878459637,0.00143206
8.189735109032,0.0521474
8.193073141755,0.0135144
8.195253034288,4.81638e-05
8.209216633121,0.00560892
8.220446473745,5.83424e-05
8.222271658139,9.15735e-05
8.228296560748,0.000197268
8.228348194839,4.85007e-05
8.232637619751,0.000252582
8.235039630293,0.0190949
8.237879554173,0.0213643
8.238396912532,0.0384002
8.23941609121,3.4928e-05
8.239645105363,0.000143537
8.239940708375,7.7716e-05
8.243923061296,4.01055e-05
8.244699895831,0.00166413
8.245116547606,8.7119e-05
8.249410164072,0.000159656
8.254995440395,7.36862e-05
8.259876011155,5.62235e-05
8.264826217467,4.81638e-05
8.265650348538,3.4928e-05
8.26800960987,0.000906522
8.272079593805,2.6075e-05
8.27223535067,0.00570976
8.27295252698,0.000811746
8.274190226352,0.000351436
8.27611914875,0.00256531
8.286769329775,4.01041e-05
8.294123244257,6.96563e-05
8.301646381423,0.000935795
8.304441759847,9.859e-05
8.306173082827,6.11358e-05
8.310994093944,0.00960797
8.315018296223,0.000158086
8.322004679116,0.012175
8.322671982596,3.5328e-05
8.336647044594,4.95071e-05
8.344347284753,4.01041e-05
8.353932840741,0.00257622
8.366474523272,0.00421906
8.371067655444,4.68205e-05
8.377194418565,0.000178462
8.383154184194,3.3328e-05
8.388142563965,5.35369e-05
8.389592969992,3.56137e-05
8.389845448561,2.536e-05
8.393324229547,3.4328e-05
8.402198147039,4.54772e-05
8.406415036873,5.75668e-05
8.411093350462,3.56137e-05
8.412953510793,7.36862e-05
8.422395281646,4.27907e-05
8.426485728209,0.000968313
8.431448666896,0.00440309
8.439182308284,3.5328e-05
8.449932206716,0.00326584
8.450738118983,0.00542516
8.454811847244,0.000922641
8.462604211936,4.81638e-05
8.464890232679,8.44325e-05
8.47979352689,3.5328e-05
8.491530606317,0.00254533
8.497667639221,0.000155373
8.506106143091,0.000155106
8.507157901691,0.0151465
8.510766163435,6.29399e-05
8.515406329016,4.4134e-05
8.518448250917,4.95071e-05
8.52278962943,4.95071e-05
8.525041779803,0.000150394
8.530514284695,0.000279296
8.530935802001,2.59692e-05
8.531571272917,0.000111298
8.534626049455,0.00504062
8.536328864877,2.70479e-05
8.537104773817,0.000309665
8.537223109329,0.000217086
8.538667275755,0.0143317
8.544309913479,0.00015883
8.544744500433,0.000102079
8.545430099673,7.95389e-05
8.545672819663,0.00908868
8.553751356427,0.00212934
8.553814433196,0.0290679
8.55838658866,8.04026e-05
8.561392440464,4.14474e-05
8.56911705302,3.5328e-05
8.570215398885,3.5328e-05
8.570588707865,3.87608e-05
8.5798867355,0.00138237
8.581595359489,0.00351232
8.588100456895,0.00131488
8.600270167395,0.000844731
8.607225197743,0.000189209
8.621282030853,4.68205e-05
8.621697110536,4.68205e-05
8.622055722729,5.89101e-05
8.62344201634,0.000370552
8.628602824792,0.00207249
8.629713293359,0.000478014
8.631916627411,8.82604e-05
8.63226859242,0.000232194
8.632977932373,0.00216518
8.633773187838,3.3328e-05
8.640324300616,5.08504e-05
8.645128146969,0.00420131
8.647783655139,0.000139347
8.647980948959,0.00012288
8.658904527421,0.00339294
8.659848543592,0.00227018
8.663235103337,0.0185798
8.66427880475,4.68205e-05
8.666485105238,0.000356939
8.669851314906,0.00383202
8.681762425367,0.000124831
8.690902090908,0.010402
8.699519767528,4.27907e-05
8.702340166398,6.56265e-05
8.703188940013,3.4928e-05
8.704104586544,3.5328e-05
8.709084879021,8.7119e-05
8.714481729593,4.68205e-05
8.718299671284,0.00014488
8.721706407924,3.4328e-05
8.723647350874,2.536e-05
8.724865031129,5.21937e-05
8.727897844539,0.000150253
8.729518429304,0.00129339
8.730067331159,3.5328e-05
8.733464581482,7.63728e-05
8.733612390706,0.000361149
8.735083525724,0.000722492
8.741120473107,2.59445e-05
8.748856102834,0.00224609
8.755592799961,0.00906302
8.758038756669,0.000223461
8.760370821001,3.57839e-05
8.763293506427,0.0241205
8.763592447235,6.65864e-05
8.764144985652,0.000383271
8.765642636153,4.95071e-05
8.767229131455,0.011258
8.774569309068,3.4328e-05
8.777383115272,4.01041e-05
8.778394037081,6.15966e-05
8.789985416803,0.00221853
8.79140789597,0.00412486
8.793625769183,3.6192e-05
8.806656658319,0.00017524
8.814223062159,0.0108029
8.815011575779,9.55048e-05
8.815074846925,0.0220225
8.816677704765,6.56265e-05
8.819206642488,0.00163861
8.821853936802,7.23429e-05
8.822151406068,0.000122044
8.822668287042,0.000341
8.841958880437,0.000995987
8.843672877558,0.0027668
8.845625844958,8.7119e-05
8.856640942143,6.29399e-05
8.858510950482,0.000187865
8.862839697768,0.00419085
8.866081316285,7.16655e-05
8.866304116913,0.0017459
8.869997666408,3.4928e-05
8.870060975333,3.3328e-05
8.871166592723,0.000107268
8.878451809476,3.56137e-05
8.883848987511,6.29399e-05
8.890257135831,4.95071e-05
8.891083465375,0.00023488
8.894048994931,0.000161
8.906563386759,6.94238e-05
8.907926844595,0.000111854
8.913404727151,5.53742e-05
8.914308724622,0.0084059
8.920561564299,6.83131e-05
8.928374699812,0.00764174
8.932689737915,0.0017313
8.935130839811,0.00102834
8.935439769369,3.82698e-05
8.941446924506,0.00839784
8.941880416618,6.83131e-05
8.962269488978,0.000417567
8.965586842569,0.000840701
8.977816993524,4.81638e-05
8.983365898692,6.96563e-05
8.989416888593,3.4328e-05
8.992441523052,3.56137e-05
8.994512138661,5.35369e-05
8.995030741726,8.04026e-05
8.997971626726,0.000631149
8.998061337033,5.75668e-05
9.000783142089,3.4328e-05
9.00400201448,4.4134e-05
9.006914398249,0.000154283
9.008585024298,0.000163396
9.010324601649,9.84585e-05
9.011160098437,0.00170315
9.012360544633,0.00037818
9.015055281632,0.00732157
9.016247403669,7.36862e-05
9.017589104368,0.00136266
9.022724033014,9.11489e-05
9.023824195736,0.000115328
9.034815322776,0.000131447
9.03581746716,0.000925328
9.039856834669,6.83131e-05
9.044780155412,0.00195548
9.049562994781,0.00950818
9.049886894932,5.86848e-05
9.052557324192,0.00242309
9.053262683782,9.38976e-05
9.05407742342,4.14474e-05
9.05589668718,0.00953361
9.056687810956,0.0100185
9.058253837284,2.59892e-05
9.061856067352,0.00014032
9.062933692817,8.69553e-05
9.064696827997,0.0109614
9.065938028399,0.00120772
9.073649673078,0.000190717
9.074213794592,0.00132082
9.076725194009,3.46726e-05
9.078749612784,0.0181495
9.079730352673,0.00211486
9.080961998986,4.4134e-05
9.085105435339,0.000157947
9.088293045938,9.26553e-05
9.092383342693,3.68724e-05
9.094837488744,0.0123337
9.10553286116,0.000109663
9.106173438393,0.000275401
9.106335975695,0.000447202
9.107238493098,0.000152456
9.110837285102,0.00547335
9.11611018239,5.89101e-05
9.135540830696,3.1328e-05
9.136021590883,0.000135477
9.143290718549,5.75668e-05
9.144827470122,0.000107268
9.155816706541,0.000443089
9.159974374901,6.83131e-05
9.16321311238,0.000729208
9.169906317959,0.000893089
9.170338978433,0.000405477
9.177063530501,0.000765477
9.177151119204,8.30892e-05
9.179442025435,0.000828611
9.184224529433,3.5828e-05
9.186064201321,0.00014488
9.195123859852,3.3328e-05
9.204090810802,6.15966e-05
9.20740276874,8.98056e-05
9.209276577883,0.000298014
9.213593457741,0.000645925
9.227626212338,0.00678876
9.229223185944,0.00102204
9.229954059587,0.000198612
9.232339860111,0.00156607
9.234120696715,0.000302247
9.23439604424,0.00013095
9.238045744429,0.000918688
9.240183939632,0.00273047
9.246284968668,6.12626e-05
9.247368033531,3.27003e-05
9.24824058791,0.0174032
9.248710084942,3.5828e-05
9.25079279602,3.32759e-05
9.251775700439,0.00152443
9.254219757902,9.38354e-05
9.254539661025,3.87608e-05
9.255305266014,2.536e-05
9.257916462752,7.4615e-05
9.258143283234,7.1465e-05
9.259134691466,0.000181149
9.260241618014,3.6192e-05
9.264094909525,0.00305593
9.266052031868,0.00205619
9.267834727925,3.42939e-05
9.270005310947,0.000183894
9.271188880118,0.0147699
9.277203467936,0.000126074
9.283522541015,0.000170813
9.283818337042,0.00319413
9.284198829331,0.00338823
9.286385456046,0.000558611
9.292240370991,0.00157413
9.294462560373,3.72226e-05
9.297013429257,3.52653e-05
9.298927314527,0.00656409
9.302602763422,7.41058e-05
9.303565865343,0.00150143
9.30481775441,9.11489e-05
9.310648427049,8.22635e-05
9.311915110929,0.00578247
9.314482768959,0.00150294
9.320138513196,0.000383046
9.323612211046,0.00552725
9.326423915383,7.50295e-05
9.332944622482,0.003513
9.334205790395,0.00537531
9.336346821419,0.000788551
9.33779904719,0.00663812
9.341267692774,0.00251949
9.345340377793,5.88308e-05
9.348258132495,0.000122874
9.351685239929,4.25381e-05
9.352753796275,0.00756432
9.354244162815,4.2928e-05
9.354567286375,0.00023207
9.358161320335,2.84507e-05
9.359121853661,5.30125e-05
9.364366311917,0.0256559
9.366440494022,0.000103129
9.368203467796,4.8239e-05
9.37238278811,0.000101857
9.374469912847,0.000234125
9.381891468346,0.00045986
9.382516317743,0.00447962
9.38754764984,0.0140356
9.389655413758,0.000155925
9.390463886291,0.000201877
9.391748190224,0.00015294
9.392600015339,0.0408548
9.39763077383,0.000170829
9.401747806867,0.0369119
9.402641332036,0.000215173
9.403452739264,0.0236891
9.405681188248,6.93383e-05
9.408660583508,3.38578e-05
9.410186254084,0.000667127
9.413206091853,0.00353267
9.414611977621,0.0711704
9.417846966323,0.0085153
9.423787481449,0.00178369
9.426674332323,3.1328e-05
9.427068330632,2.536e-05
9.431980737874,8.17459e-05
9.43336142858,3.1328e-05
9.433933101898,4.95071e-05
9.445071245423,0.000801746
9.445590714073,3.1328e-05
9.447415823774,0.000902492
9.451793320809,0.0040901
9.461254899314,0.00334458
9.464643649365,0.00155667
9.466857968726,7.36862e-05
9.470419980086,5.62235e-05
9.471133157077,3.87608e-05
9.481468764099,0.00301413
9.481890416003,8.71913e-05
9.483128865398,0.00415307
9.495593562959,3.1328e-05
9.49578772396,5.35369e-05
9.497804690914,3.4928e-05
9.508720123758,0.00807941
9.510158722314,0.0050305
9.515954176541,0.00186565
9.518256538129,0.000165397
9.520656816077,0.000146644
9.522185048903,0.00015596
9.532395040819,0.000347887
9.532443399024,0.000430031
9.533425097579,0.000231392
9.53354817697,0.000208379
9.539040894831,0.00496415
9.540289050932,0.0170867
9.542559215062,0.0170109
9.5429562347,0.00048037
9.543667929466,0.0300669
9.545146913473,0.000136209
9.545462696279,0.0237736
9.552597596889,4.54772e-05
9.570913553881,0.000241597
9.577016326605,0.00127592
9.586498430864,0.000208962
9.590934846794,0.00355761
9.591083673774,0.00432914
9.592523370661,8.98056e-05
9.597435584783,0.000415183
9.600808200949,3.4328e-05
9.603600799119,7.13451e-05
9.603816742984,8.27362e-05
9.606299916542,0.000236009
9.610614825757,0.000214376
9.612139108229,0.00477694
9.617235369188,0.000119358
9.618895155245,0.0351864
9.620800469516,0.0066684
9.625881696673,0.0124669
9.632896322912,0.000541507
9.636259372735,6.76521e-05
9.638033356617,0.000138952
9.639759612744,0.0134946
9.647015722325,3.69392e-05
9.656836047471,0.00054323
9.657795348952,4.79618e-05
9.658024409465,0.0143783
9.658103024879,0.000225824
9.663738922797,0.0210121
9.666576978774,2.74132e-05
9.667809214789,0.0662108
9.670562723618,0.00019517
9.672590795005,0.000260355
9.674937956242,0.0316564
9.678295805587,4.06245e-05
9.679218752615,0.000254826
9.680960704741,0.0363272
9.683505287696,0.000127748
9.684846021302,0.0413387
9.685295540316,0.0414172
9.686217175752,0.0161875
9.68724607231,3.56137e-05
9.687549182358,6.15966e-05
9.692905806766,0.00196858
9.699318610189,0.00873902
9.699982029671,0.000147315
9.703365727558,0.0126653
9.7036066414,4.01041e-05
9.709712291485,4.95071e-05
9.710114598096,0.000179806
9.715112168395,9.11489e-05
9.715968220301,8.04026e-05
9.721231876544,0.000514283
9.723651168299,3.70386e-05
9.72804891451,0.000122726
9.730578284409,0.00697514
9.732205566166,0.0014398
9.733798807307,7.7716e-05
9.737331751637,0.0032116
9.744069578623,0.00214772
9.74677739168,0.00332599
9.747601672062,2.536e-05
9.75416269867,0.00424727
9.764006457715,0.000105925
9.764194448644,0.00227516
9.767561979062,0.000133313
9.772556442101,0.00755846
9.781833205886,6.96563e-05
9.788179956586,3.4928e-05
9.793924000816,0.00503846
9.794744902207,4.54772e-05
9.79546674562,3.4928e-05
9.797626335045,0.000217016
9.799978423611,7.40573e-05
9.800467404221,0.00013308
9.806479749793,0.00048428
9.806929660215,0.00102992
9.814720392009,0.0180313
9.816002053174,7.40199e-05
9.817715137484,0.0151772
9.81877543342,0.00305886
9.820541968769,0.014562
9.822583896517,0.00352806
9.824597341408,0.000142549
9.826257496384,0.0161813
9.826353012791,0.00122384
9.828968327256,0.0057483
9.83277207999,6.15966e-05
9.839406921212,4.4134e-05
9.845837966555,0.000142194
9.85335729999,6.02534e-05
9.864819518771,4.42369e-05
9.865186235089,0.000141721
9.87083487695,0.0141191
9.875453372595,7.90593e-05
9.886867307787,3.5328e-05
9.888143302771,3.4328e-05
9.891766585802,4.70328e-05
9.89945553772,5.53678e-05
9.900356848625,0.00894859
9.9115794284,4.14474e-05
9.912338782731,0.000191895
9.913831195566,0.000441745
9.914296146934,0.00174448
9.914736021196,0.000129717
9.915593172895,0.00294723
9.918945981729,0.00426407
9.921153583653,6.83131e-05
9.923400821094,0.00347874
9.927107336095,8.84623e-05
9.927603187863,0.000416223
9.934809925145,8.57757e-05
9.937058102607,3.1328e-05
9.938557459901,4.27907e-05
9.939374463358,9.38354e-05
9.945624018832,0.000510253
9.952058778217,3.97386e-05
9.954987272005,0.00354473
9.960271482885,2.6415e-05
9.960537570733,0.000114638
9.961124722452,0.00339405
9.967699548071,6.93889e-05
9.972058332605,7.13359e-05
9.972934052059,6.29399e-05
9.974278747443,0.0192777
9.974445367569,3.60743e-05
9.977503759443,3.3328e-05
9.978083809857,2.58254e-05
9.982512550177,0.00465143
9.98561391703,0.000151808
9.987397225055,3.51705e-05
9.991109086979,0.00930877
9.993069219375,3.3328e-05
9.994400360637,4.81638e-05
9.995488061248,4.95071e-05
9.997055697997,6.29399e-05
9.997869925069,0.000490104
10.002851083027,0.000515626
10.00428255357,5.08504e-05
10.006074973422,4.95071e-05
10.006384478071,4.81638e-05
10.013671990105,5.75668e-05
10.014390663124,0.000189209
10.014856982461,8.84623e-05
10.015257959812,6.56265e-05
10.016915339674,4.81638e-05
10.021683091608,0.00094279
10.027786973285,8.7119e-05
10.031667219604,8.98056e-05
10.034806052008,0.000116671
10.039874416947,0.000441746
10.04387485785,2.536e-05
10.050574516338,6.15966e-05
10.056854841195,5.89101e-05
10.056903558229,5.08504e-05
10.059452074673,5.08504e-05
10.063042076852,3.5328e-05
10.063493005528,3.60743e-05
10.06680164707,6.04497e-05
10.071315078834,0.00196465
10.072825960653,0.00452944
10.074922968716,0.009518
10.082994000817,6.98277e-05
10.089834451766,0.00818183
10.092770592008,0.00666386
10.094621477772,0.000134674
10.094794697339,0.0137198
10.103014086215,0.000223835
10.104192852228,9.81111e-05
10.105847914329,0.0121841
10.106287536656,0.000114887
10.107865862194,0.0118472
10.109117403997,4.95071e-05
10.117898494038,0.00327876
10.120948001971,0.000128761
10.127921382288,5.58303e-05
10.133502418194,0.00018341
10.133993384616,0.00243339
10.137241417377,0.0100115
10.13947654335,0.000308761
10.141629043303,4.01041e-05
10.146990166411,6.83131e-05
10.164532696034,7.1195e-05
10.166351180083,0.000152789
10.167812503255,0.000257483
10.169300997667,0.0078026
10.17434499314,0.00221858
10.178025420116,0.0010283
10.180996626287,0.000211001
10.182890098415,0.0125827
10.184735658611,0.00168595
10.187348344733,0.000110679
10.203158402755,0.0176846
10.203561530958,0.0253262
