time,CharnySim1.flowGenerator3.flowCompletionTime:vector
0.000072342905,7.23429e-05
0.00587254802,0.00321203
0.01195437547,2.6462e-05
0.014704356905,4.6117e-05
0.016941728836,0.0141913
0.02483872724,7.95112e-05
0.029035013801,5.03737e-05
0.030936981798,8.58419e-05
0.032216074254,4.23035e-05
0.033700886208,0.00015477
0.034189895249,6.96878e-05
0.035054355588,0.000150494
0.03914197014,0.000130462
0.042951712783,0.00019789
0.043647475999,0.0416874
0.04425052083,0.00193402
0.046525298565,0.000280144
0.050954679478,0.000219023
0.054196748865,0.000139309
0.056512937815,0.00920553
0.06123474429,0.0172619
0.061939102098,0.00204632
0.062636103657,0.000165495
0.066463116944,6.02763e-05
0.067031325703,0.000133796
0.071814499502,8.79845e-05
0.074783490007,3.2114e-05
0.075709508788,0.000260353
0.076856341675,0.0501412
0.077029736477,0.00776975
0.080511937042,0.000709059
0.086213146973,0.000120553
0.090519849107,0.00545085
0.092759159365,8.17459e-05
0.095522431821,0.00014085
0.097791027252,7.63728e-05
0.099540509937,3.56137e-05
0.106647982609,6.11269e-05
0.110090783504,0.00321987
0.114560022884,0.0086398
0.120666497186,0.00183607
0.122302504877,0.00106369
0.123949052451,0.000111074
0.125792123137,4.15488e-05
0.126625919823,0.00394986
0.126772675505,0.000251935
0.128780345775,0.00260703
0.136019032973,4.97611e-05
0.137740189578,3.5656e-05
0.138287177381,0.000195532
0.143195499349,0.000111018
0.143981476378,4.52925e-05
0.14485301913,0.0171804
0.145614623929,0.0184075
0.14705336496,0.013939
0.149044464132,5.89364e-05
0.150520032893,0.0136739
0.151478786182,0.0214727
0.151608521816,0.00325174
0.151830170018,0.000686029
0.152883017693,0.00017127
0.154618568138,0.0321736
0.155267517347,0.00178459
0.157425731289,0.0105424
0.159267209945,0.000119501
0.162958474511,0.000175776
0.164883275399,0.00923604
0.165083817454,4.27907e-05
0.171295266573,0.000862193
0.172892254226,5.08504e-05
0.176619470328,5.48802e-05
0.17827454296,3.56137e-05
0.182311513894,0.000823238
0.188556213777,0.00166682
0.205700836838,0.00274548
0.205996758447,7.23429e-05
0.206385282121,2.536e-05
0.206997352866,3.1328e-05
0.208885082905,0.00136861
0.212021587457,0.000375925
0.230872598694,0.0012516
0.234534115395,0.000102636
0.234765239438,0.00270611
0.235344729247,7.48487e-05
0.240453202497,0.0222622
0.242888437989,7.90593e-05
0.261417452055,6.29399e-05
0.261675320378,0.00175129
0.262685783229,3.4928e-05
0.265551015193,3.4328e-05
0.266620424619,7.90593e-05
0.268533603116,8.30892e-05
0.276122021129,3.78713e-05
0.277654563773,7.66523e-05
0.279222143038,0.0051026
0.284943134855,7.72681e-05
0.287461758484,0.00475486
0.287526313986,3.5328e-05
0.288623033349,3.5328e-05
0.299202025653,9.51787e-05
0.304609850073,2.536e-05
0.307307941539,3.4328e-05
0.314242939819,0.0012101
0.319362054511,0.00603604
0.32349476304,4.4134e-05
0.330182234706,0.0051701
0.330984486622,4.81638e-05
0.337499527182,5.08504e-05
0.34001466385,8.84623e-05
0.341890290201,0.000179806
0.342598554186,3.3328e-05
0.3428112126,0.000151597
0.34752208657,0.000163686
0.348633522866,0.000303388
0.350298846835,3.56137e-05
0.358353614723,0.000350477
0.358790318534,0.00828921
0.375477405967,4.81638e-05
0.386045505505,0.000918611
0.397240418901,4.54772e-05
0.399622847092,3.4928e-05
0.40520253936,0.000101895
0.409316959943,7.23429e-05
0.418326494627,0.00173423
0.420959271768,0.00856307
0.421636500074,8.84623e-05
0.423865175545,7.23429e-05
0.424539994636,0.000112641
0.435504233094,3.3328e-05
0.438164651698,0.00150697
0.438663660183,0.000105925
0.441132193936,3.3328e-05
0.443093993483,0.000660701
0.443978319196,3.56137e-05
0.448948480495,9.38354e-05
0.450762081368,0.00174742
0.465601255073,0.00735428
0.472254454524,3.1328e-05
0.476656639393,0.000182492
0.483648779124,0.000288384
0.484125475929,0.00565861
0.487306201246,0.0063456
0.490782581646,3.56137e-05
0.49216382743,7.90593e-05
0.49488102402,3.56137e-05
0.500614751714,0.000148063
0.501554849325,0.00568009
0.502213612043,0.00342125
0.502268139074,8.75814e-05
0.50839453921,0.000108612
0.517258512586,3.60743e-05
0.522900696544,0.00111045
0.523541546555,0.000100552
0.528011539275,0.000108331
0.528262898426,0.000314846
0.52885257412,0.0070433
0.530828164041,0.00137533
0.535392343417,0.000475328
0.53684718814,3.64484e-05
0.536907654983,0.00117115
0.543015251016,0.00167526
0.543238372832,0.00488936
0.549174226611,0.000625776
0.549449405248,0.00081237
0.55155895603,0.00137667
0.553958346072,6.15966e-05
0.556351321061,6.02534e-05
0.559455749703,0.00148682
0.563009886424,4.81638e-05
0.565375643991,6.15966e-05
0.578324855748,0.00276064
0.57950153966,0.00577172
0.581631416139,7.50295e-05
0.587619375306,2.7733e-05
0.58919378284,0.00615845
0.592294086935,0.00129181
0.596311983225,0.0114607
0.603442568425,8.98056e-05
0.605144597131,0.000359805
0.605228649288,3.4328e-05
0.606875084893,3.5328e-05
0.609824981991,0.00169906
0.619540962578,3.51127e-05
0.623205270551,0.000135477
0.627106240304,0.00774652
0.627720749298,6.15966e-05
0.638666620532,0.000170403
0.647848057283,0.000116671
0.648664484162,0.000106196
0.649447586153,0.00728409
0.649495558167,4.54772e-05
0.652779438915,0.00148413
0.664400520581,0.0058713
0.664791279115,0.00272873
0.665298629765,0.000163686
0.668894307194,5.21937e-05
0.674146968901,2.536e-05
0.676332736632,0.00157145
0.677687229454,0.000326223
0.684700886379,3.5828e-05
0.696532812776,5.62235e-05
0.701798246703,0.000170403
0.704651165979,9.51787e-05
0.705073562652,2.536e-05
0.711390580657,0.00412503
0.715220356575,0.00100055
0.716152454467,6.15966e-05
0.720903192644,8.44325e-05
0.728993911858,0.00504786
0.730532762117,0.000716848
0.731286455172,0.00185622
0.73258165329,8.30892e-05
0.734097684243,2.536e-05
0.734974525662,4.81638e-05
0.742144142371,0.00638577
0.747004927241,0.00266757
0.750826819989,0.000855477
0.753169043935,0.000128761
0.760009099541,3.62279e-05
0.762791900979,5.14362e-05
0.763932389385,0.000143872
0.771549580605,4.26963e-05
0.782481657554,0.00258135
0.785224609444,0.0267063
0.79088191673,5.93166e-05
0.795572451055,0.00661262
0.804725855711,0.000897119
0.806570921167,8.30892e-05
0.815069235971,3.3328e-05
0.818290396672,4.54772e-05
0.819801641946,0.00141697
0.824465664813,9.11489e-05
0.830293868269,0.00140219
0.832278265687,4.27907e-05
0.840695257073,3.55885e-05
0.845980983498,0.00598682
0.847908971779,0.00102339
0.850041426488,9.38354e-05
0.852614304767,3.5328e-05
0.854916001449,3.7424e-05
0.85623051028,2.536e-05
0.858990480295,6.83131e-05
0.860686167985,3.1328e-05
0.864804900376,3.4928e-05
0.865913454522,3.1328e-05
0.866940148679,9.24921e-05
0.876315782421,4.68205e-05
0.877010860855,3.4928e-05
0.87958651057,7.67973e-05
0.882574108801,0.00346548
0.886165190223,0.000109955
0.887196894516,4.54772e-05
0.888245117606,0.000274931
0.891500963126,9.81803e-05
0.89178218663,4.57153e-05
0.893021750723,8.80824e-05
0.893691351984,9.8808e-05
0.894040242472,0.00603437
0.894342201048,3.99103e-05
0.897117703965,0.000339864
0.897411862657,0.000291298
0.900264815309,0.0122594
0.905641932709,0.000122836
0.911039243901,0.000262674
0.911708030037,0.0001033
0.913571300396,0.00919441
0.91421285251,2.536e-05
0.918545825155,0.00320729
0.918692106195,7.64416e-05
0.918772803461,6.56265e-05
0.919393411239,0.00295973
0.922512020018,0.00107578
0.930417908399,0.00200667
0.9350910778,0.000296671
0.935964064008,6.69698e-05
0.951257873295,7.50295e-05
0.954787281693,0.00289597
0.955381156386,0.000176357
0.956961895351,0.000360337
0.957281532822,0.00298068
0.958096912062,0.00637708
0.960204816007,7.50295e-05
0.960769039574,3.56137e-05
0.961399070864,6.29399e-05
0.962216703888,3.3328e-05
0.969205702749,3.5828e-05
0.975403522243,3.5328e-05
0.980600005549,3.18494e-05
0.983101882915,0.00689471
0.985418970656,3.63573e-05
0.992289702038,0.00328441
0.992413140808,6.66903e-05
0.99243808791,0.00723639
0.998156583355,0.00032085
0.999131230571,3.26098e-05
1.000040053582,0.00105008
1.004975149178,0.000142194
1.006319120332,0.000593537
1.008452588907,2.536e-05
1.012636357288,3.5328e-05
1.012698464746,3.4328e-05
1.013028610303,5.08504e-05
1.013241223962,0.000101551
1.021887904637,0.00885456
1.022650790339,0.000154283
1.024058144682,4.95071e-05
1.025746445056,4.27907e-05
1.028787657584,3.4328e-05
1.037066363033,4.68205e-05
1.037238724554,3.56137e-05
1.043343708652,4.93983e-05
1.043676581839,5.80999e-05
1.045035952696,0.00197409
1.045615919855,0.000327199
1.047116484727,0.000107013
1.050889051781,3.58559e-05
1.053888174004,0.00012789
1.058747893463,0.00509316
1.058896661439,0.015126
1.06101487503,0.000102849
1.061900041302,0.00900058
1.062143038753,0.000152256
1.064002142693,7.31325e-05
1.064626600429,0.00068874
1.065351836422,0.0182768
1.073458431759,6.36067e-05
1.076351631227,0.00715902
1.080969676979,0.00430577
1.082397412053,0.0120306
1.091553124154,0.0243069
1.093207437946,2.536e-05
1.104264496475,0.000569358
1.105686629612,3.4328e-05
1.107717395099,3.1328e-05
1.10931360921,8.7119e-05
1.112208506376,0.00218801
1.117336144533,0.000249656
1.120462739644,0.0014801
1.12140975116,0.000155626
1.123347027012,8.04026e-05
1.127983083231,5.48802e-05
1.130452250733,9.92086e-05
1.137747424028,3.89333e-05
1.139245028704,4.96353e-05
1.139382195857,0.000335187
1.143851270131,0.000106168
1.144520056287,0.000160177
1.145295130664,0.000232643
1.147173040321,6.30417e-05
1.150220950425,0.00262609
1.153892064567,0.00205014
1.157181603447,0.000194895
1.158680090035,9.55044e-05
1.16296650768,0.0278112
1.163321108849,0.0115135
1.163757241907,3.5328e-05
1.163792409148,3.3328e-05
1.167645330553,0.00149488
1.172672714021,6.42832e-05
1.18340161908,4.4134e-05
1.184727259337,0.000416223
1.185725583169,3.4328e-05
1.189635394469,4.4134e-05
1.191873862525,3.4928e-05
1.197100983019,0.00139279
1.200466671757,3.60743e-05
1.207890900915,3.3328e-05
1.214595778105,6.15966e-05
1.215152953594,4.81638e-05
1.216971511214,3.4928e-05
1.22891389237,0.00194354
1.233468979063,3.56137e-05
1.234665079957,4.14474e-05
1.242149957645,0.000947945
1.243595298157,0.00695919
1.245674860269,0.000167716
1.247847138813,0.000131167
1.249509999531,0.00106102
1.253309823535,0.00556481
1.254533611182,7.09996e-05
1.257130094869,0.00876847
1.264173527218,5.62235e-05
1.266806053867,3.3328e-05
1.268312610451,0.00117115
1.269872139507,0.00123428
1.272445127233,9.51787e-05
1.280751803541,6.90784e-05
1.280977898548,0.00231294
1.283762685951,0.0039579
1.285320197306,0.00271503
1.286017399886,2.61845e-05
1.291901917966,0.0119865
1.293790717158,0.0128679
1.294972826394,7.50295e-05
1.298392138265,4.54772e-05
1.302413853321,0.00117652
1.306586922833,0.000323537
1.316194977743,0.00142503
1.321023437434,0.000114036
1.324455662337,0.00769279
1.331988013798,0.000360931
1.334119355755,7.80569e-05
1.340752680365,0.0131515
1.341546703909,0.0115649
1.3463650221,2.63027e-05
1.351007344153,0.00551381
1.352481744352,0.000956223
1.353553451781,0.000112165
1.355369544878,7.66735e-05
1.356896688869,0.000149946
1.358362347461,0.00682083
1.359618984847,3.60743e-05
1.362469384362,0.00023488
1.369425754262,3.1328e-05
1.371451649004,0.000126074
1.375279957311,8.04026e-05
1.386600429486,0.00617756
1.388785400597,0.00204025
1.396212635745,0.0057007
1.399494817371,6.42832e-05
1.403536256962,6.83131e-05
1.413430898485,0.000269806
1.420430510952,3.33149e-05
1.42316488756,0.00856172
1.423369416283,3.7424e-05
1.423875704009,6.15966e-05
1.425707322392,3.5328e-05
1.427162978525,3.4328e-05
1.427407486168,3.56137e-05
1.428680923773,0.000157488
1.429117627584,0.000945477
1.435463200475,2.536e-05
1.436341297999,2.536e-05
1.441777190055,8.17459e-05
1.454084149616,0.000155317
1.454412862634,2.61643e-05
1.458665407285,0.00761823
1.460187398568,0.000203439
1.460313921901,6.58732e-05
1.464729042827,0.0162794
1.466414726173,3.79127e-05
1.467078301527,0.0171595
1.467783862105,5.75668e-05
1.468606029249,9.11489e-05
1.473392063381,3.5328e-05
1.483764768924,0.00411702
1.484022615264,0.00617605
1.485318214193,0.000103238
1.490108644549,5.89101e-05
1.490250128406,4.95071e-05
1.491764489606,9.78991e-05
1.498390872646,0.00711232
1.498725908597,0.000175776
1.504906390038,0.00440174
1.513918060522,6.83131e-05
1.51695935341,0.00396383
1.521695826617,0.00301816
1.525983381901,3.1328e-05
1.541274122411,0.000195309
1.541402243602,0.00536927
1.545476284151,0.000125169
1.549691474209,0.0093056
1.560417627547,0.000122044
1.565383714807,6.02534e-05
1.567152847268,0.000313723
1.567420297421,0.00195563
1.568611083787,5.08504e-05
1.569483910718,3.5328e-05
1.572660635071,8.84623e-05
1.576879972556,0.000380443
1.578413858482,8.24237e-05
1.579012969162,2.54522e-05
1.583884992608,0.00794364
1.589350659533,0.000362206
1.592571852187,6.34023e-05
1.592685894445,0.000131838
1.59431293039,8.44922e-05
1.598259497305,0.00402578
1.598608718893,0.0101712
1.601074832615,8.51294e-05
1.602696175221,6.60165e-05
1.604450470823,0.00360501
1.6096186397,0.00441856
1.611046686367,0.00651876
1.616785621823,0.000170403
1.621941249242,0.000118015
1.622553767745,4.01041e-05
1.624742273778,4.14474e-05
1.630754691883,0.000348404
1.631255873279,0.00187772
1.632116598447,0.000289955
1.635894936901,3.3328e-05
1.639498649879,3.3328e-05
1.652963612762,2.536e-05
1.656519171932,7.36862e-05
1.657446352083,3.3328e-05
1.659047874017,0.00077085
1.663691972851,6.96563e-05
1.673599447511,0.000311299
1.674214807962,0.00584443
1.675385078181,2.536e-05
1.682367187623,0.0065698
1.683861988353,0.000147371
1.685925300102,9.07468e-05
1.686136889106,0.00342982
1.690756760729,3.58945e-05
1.693080940565,0.000662875
1.695102251007,5.36131e-05
1.698020693074,9.57293e-05
1.699107139194,0.0226487
1.702777826458,0.00605657
1.702873396723,0.000407328
1.703250696909,0.000123229
1.708430364158,0.0181696
1.715938340592,9.5934e-05
1.716009502593,0.000449637
1.716843059778,5.08504e-05
1.718569225846,0.00101801
1.718642860933,0.000299507
1.721167228648,0.000902492
1.723523795068,0.00136861
1.725703381294,3.4328e-05
1.730345513856,3.19505e-05
1.733396084005,0.00339546
1.738257765835,0.00141294
1.74310779175,0.00195803
1.744445536153,0.00181761
1.745227222275,2.60978e-05
1.74672249394,0.000118437
1.750974157662,9.40496e-05
1.751677863061,0.00713762
1.751871438974,0.00887628
1.753374236592,0.000710402
1.760157041965,8.30892e-05
1.76036724412,8.04026e-05
1.774321528462,6.15966e-05
1.774797641629,6.56265e-05
1.778400396402,4.68205e-05
1.780926084288,7.09996e-05
1.783109609609,3.1328e-05
1.79050648473,6.96563e-05
1.790850504383,9.92086e-05
1.791416533163,5.48802e-05
1.79419863543,3.5328e-05
1.798981183094,0.000361149
1.799448917044,0.00014488
1.800220255328,7.50295e-05
1.802654975807,3.7424e-05
1.812119921468,0.000123104
1.813857961393,0.00149798
1.820093642376,0.00160384
1.820123326531,7.66862e-05
1.821459262844,7.37634e-05
1.821696966393,0.0129134
1.824504494836,7.50295e-05
1.839847180761,2.536e-05
1.842058092672,5.89101e-05
1.860142930711,4.4134e-05
1.863452271065,0.00179443
1.867677060806,3.1328e-05
1.883675171275,0.00396518
1.895195383694,0.00253707
1.896433760553,0.00553973
1.896853975443,0.0130895
1.897487979476,0.011122
1.899876402248,9.38354e-05
1.899976232015,4.95071e-05
1.910309941709,2.536e-05
1.911455266112,4.68205e-05
1.918004214973,5.08504e-05
1.925003058536,0.00329085
1.925346507014,0.000128761
1.925408161213,0.000126403
1.929753886357,7.03923e-05
1.930196233631,0.000434095
1.930221246881,0.00387993
1.930981484769,0.00543845
1.931287785202,3.4328e-05
1.932089363535,3.1508e-05
1.932671689494,0.00123008
1.934088374987,9.38354e-05
1.941727954364,7.90593e-05
1.944364138293,0.00155533
1.948797342305,2.536e-05
1.949850638,0.000155626
1.952288012761,3.3328e-05
1.95678150393,8.30892e-05
1.959704732544,9.36682e-05
1.961003824042,0.00217458
1.962374138688,0.000463238
1.962708493112,3.4328e-05
1.965280819012,0.00157279
1.967791537655,6.56265e-05
1.970460291435,0.000970999
1.970506249002,3.4328e-05
1.972481534971,4.54772e-05
1.973049001049,3.28897e-05
1.973552798821,5.5027e-05
1.981217995047,7.41968e-05
1.989672755089,0.0167086
1.993615231842,4.23952e-05
1.99677871138,0.00572938
2.000341895262,0.00253059
2.000619452256,0.000610043
2.000670792391,0.00320442
2.000831003711,7.08478e-05
2.001427564865,0.010277
2.002116344283,0.0101406
2.003720291759,3.60743e-05
2.013549232663,9.51787e-05
2.015379785361,8.30892e-05
2.017470265431,9.625e-05
2.021680082355,0.00479516
2.021926998783,8.44325e-05
2.023262035296,4.54772e-05
2.024571062044,0.000359124
2.028640898694,0.00496279
2.029782663705,0.00458027
2.031458978282,5.35369e-05
2.038733071412,3.56137e-05
2.046065702566,0.00554488
2.048628775667,0.000112641
2.049922213182,0.000141809
2.053815015319,0.0051954
2.056331282247,4.81638e-05
2.068014001017,4.4134e-05
2.068901741963,3.4928e-05
2.072719272177,7.7716e-05
2.080772552469,4.14474e-05
2.083209820545,8.57757e-05
2.084495680444,8.98056e-05
2.086088509893,5.75668e-05
2.08936318006,0.00117652
2.089620500261,2.536e-05
2.100629469681,4.27907e-05
2.111071197836,9.11489e-05
2.117955159074,4.68205e-05
2.122681583179,0.000727865
2.125448985815,3.61631e-05
2.126015558227,0.0032168
2.129660742314,7.23429e-05
2.129776404496,3.5828e-05
2.132100352068,0.000323537
2.132990502455,0.000240253
2.133120265242,4.54772e-05
2.142944383953,5.48802e-05
2.145383453962,3.4928e-05
2.149651599923,0.000162912
2.15388557146,0.00575158
2.154172897204,0.00317004
2.157960229735,6.38875e-05
2.157975142683,0.000111298
2.162616227603,3.5828e-05
2.163624012541,4.27907e-05
2.165496722373,0.000359805
2.166921104195,0.000780253
2.170989318725,0.000118015
2.171547673121,3.5828e-05
2.174523004769,0.000592193
2.175471327147,9.24922e-05
2.177125331285,3.56137e-05
2.179136536043,4.99681e-05
2.181617574214,0.00275336
2.184848176306,6.37996e-05
2.185170553679,3.3328e-05
2.190327258898,0.000162534
2.198888532278,2.71828e-05
2.202348798444,0.00415123
2.20399177725,0.00604133
2.20414028948,0.0116256
2.206292372135,0.0284276
2.208277933582,5.35369e-05
2.211452239881,5.62235e-05
2.212254224607,6.83131e-05
2.215772325162,3.4992e-05
2.217389328596,0.00378769
2.226355226223,9.56126e-05
2.227486407345,0.0030598
2.227803693685,0.000108612
2.228899069666,2.536e-05
2.234527157979,0.000734619
2.235457765528,7.7716e-05
2.238272951397,0.00581815
2.245366639089,0.0011013
2.245432481833,0.0108661
2.24699620654,0.00385645
2.250551326931,8.52161e-05
2.253346810146,0.00330697
2.256536596072,3.4928e-05
2.260535120236,3.3328e-05
2.264688886107,0.000570701
2.268787596218,0.00112951
2.273705407847,0.000952193
2.275481325777,0.00145055
2.278687214126,0.000276522
2.285746830775,7.09996e-05
2.294233285471,0.00191936
2.295067269836,0.00108189
2.306860164703,3.1328e-05
2.310242213438,0.000181149
2.313940525505,0.00154861
2.317690515565,0.000105925
2.318652221581,0.00241311
2.321263426931,7.11813e-05
2.325128188958,0.0102016
2.330336868647,5.35369e-05
2.330691958561,4.81638e-05
2.337150774375,5.48802e-05
2.337561552038,0.000459208
2.343676187442,9.53464e-05
2.344165110456,0.000766651
2.355767172462,0.00162652
2.35794992518,0.000160409
2.359645291619,0.00186428
2.361123247784,7.90593e-05
2.363675751186,0.000312791
2.367669889664,0.00166145
2.375553653126,3.3328e-05
2.38410560131,0.000132899
2.385204237995,7.92445e-05
2.389551128613,4.97388e-05
2.392042979924,0.000134468
2.398479910994,0.000455854
2.402247589146,0.000380851
2.403465681375,0.000214182
2.409916257396,0.0157751
2.41000080497,0.00265664
2.411003703055,0.0249169
2.412557512217,9.60043e-05
2.423202466527,0.000598884
2.431522146392,0.00364506
2.433427027121,0.000445921
2.444284631609,8.21055e-05
2.447135873581,0.0122397
2.447960322096,0.000364118
2.448741917353,0.000243728
2.45229861323,0.0455523
2.453079914409,3.67193e-05
2.453886263233,0.00048829
2.457847516437,9.01694e-05
2.462005121846,0.0785265
2.465337780149,0.0598435
2.466372751854,0.000600574
2.469887805774,0.0172057
2.473956298889,0.00393543
2.476924251909,3.3158e-05
2.478640187609,0.000138417
2.482189142199,0.000175784
2.486277245334,0.000510299
2.489946320647,0.00719145
2.490403995246,0.00590012
2.495473459868,0.0117414
2.498354609824,0.0044565
2.498537127535,0.000364518
2.500820163333,0.0248861
2.501226194435,8.55948e-05
2.501771561022,0.0182615
2.507358108205,0.0946734
2.508575632307,0.0960053
2.50874323707,0.000130857
2.510211276643,0.000245645
2.510919154788,0.0040369
2.515335314418,0.000175776
2.516059333748,4.81638e-05
2.517810400023,0.000149509
2.520022761602,6.10142e-05
2.531448726824,7.47268e-05
2.535892138175,6.842e-05
2.536236018645,6.65381e-05
2.537270314559,0.0209668
2.538324579109,4.81638e-05
2.53942050969,0.000538462
2.547029684768,0.00136995
2.550769400016,0.000139316
2.551205976095,6.06423e-05
2.552397427042,3.37131e-05
2.55627115703,0.00022735
2.557966714779,0.00825149
2.559692639056,0.00626761
2.561689980852,8.30892e-05
2.566923623093,4.4134e-05
2.569247484369,0.00114428
2.573398859033,0.00180383
2.574757790562,5.21937e-05
2.579755317686,5.08504e-05
2.582703874539,8.84623e-05
2.588799944782,3.1328e-05
2.589867208755,4.27907e-05
2.593788505183,0.000193238
2.594608415704,3.4328e-05
2.596272141054,4.74173e-05
2.597154678021,0.000106078
2.598116436651,0.00306232
2.604282473856,9.11489e-05
2.608493718075,0.00263911
2.60891276483,0.00299335
2.612306725616,9.24921e-05
2.612867915203,0.000200024
2.614160153471,6.38807e-05
2.618952955956,0.00640978
2.62030536877,0.0030619
2.6235247767,9.41434e-05
2.6244477776,0.00384925
2.62454229746,3.24204e-05
2.627436276724,0.000272737
2.629020144219,0.0126284
2.630265371247,0.00100458
2.631636813387,3.5328e-05
2.634447459407,8.30892e-05
2.635653057379,6.42832e-05
2.642751339359,3.58486e-05
2.647820863856,0.00755695
2.650758245261,4.4134e-05
2.656085656306,9.11489e-05
2.6568373369,4.81638e-05
2.663054072515,3.84562e-05
2.663411379345,0.00089292
2.665702176907,8.17459e-05
2.666941680646,7.50295e-05
2.672548057825,6.29399e-05
2.674788337047,3.4928e-05
2.6771185492,0.00224577
2.700264783492,0.000445776
2.70042496835,3.3328e-05
2.706510551127,0.00189518
2.709402178208,6.69698e-05
2.712870017463,0.000897119
2.713717710994,8.17459e-05
2.716018493705,0.00170012
2.716060749705,0.000115307
2.717096115118,0.00146837
2.721631565333,9.87219e-05
2.723468616911,0.000174933
2.726089299017,0.00615095
2.727080616321,0.00823066
2.735199839881,0.0017703
2.736420931986,0.00490388
2.736876031297,0.00512127
2.737214513067,0.000437569
2.742995007682,2.536e-05
2.743183460293,3.56137e-05
2.747535945108,0.00123697
2.747573019019,3.4328e-05
2.756085692305,0.000228164
2.756653633746,2.536e-05
2.759670687591,0.000777566
2.772343454018,3.3328e-05
2.783381698503,0.000179806
2.784381962364,8.17459e-05
2.78740621546,0.000163686
2.788708508103,3.5328e-05
2.788832417004,6.29399e-05
2.792303569301,3.1328e-05
2.803433445053,0.00279787
2.806521751115,0.00965398
2.813279579858,0.000111525
2.813632694493,0.000109553
2.817688066855,0.00265612
2.829462080332,0.0220631
2.830697727765,0.00434113
2.852965491965,8.04026e-05
2.857976689694,0.000135939
2.862797563672,0.000337201
2.865841274167,0.000146662
2.867960975262,0.0013984
2.872955269459,0.0172336
2.878967264962,8.44325e-05
2.888614183881,3.4328e-05
2.891263603356,0.00190055
2.893620515862,0.000114239
2.900727436017,0.00453871
2.9076837729,0.0108843
2.922677484009,3.38598e-05
2.927144560295,0.00171463
2.934925889168,3.20486e-05
2.93613159856,0.0432402
2.936714526044,0.00441692
2.93821100601,3.83863e-05
2.940485210483,0.00215584
2.947959093889,0.040022
2.948190113022,0.000440984
2.951048099057,2.56458e-05
2.951303258832,0.000848592
2.955957823059,0.000267119
2.957424190027,0.000109955
2.958921816035,3.4928e-05
2.961443979776,2.536e-05
2.96536063984,4.95071e-05
2.971747645425,0.0031797
2.975088527082,0.00936249
2.979730650469,0.00029474
2.982372869839,0.00564571
2.984962487455,6.81178e-05
2.986351213573,4.65471e-05
2.987108551668,7.33751e-05
2.987580044172,0.00418325
2.989205560292,0.0139543
2.989602194895,0.0135529
2.991269549709,7.00725e-05
2.991377066241,0.000623034
2.994516262216,0.0133312
2.995800303946,0.00438485
2.999015469274,0.000365179
3.001138441641,0.000891746
3.008121260759,0.000243291
3.01298232336,0.00705297
3.026855657188,0.00300742
3.030336727758,0.00903451
3.031646403473,0.000116723
3.032287757391,0.00412217
3.032389789382,0.00444143
3.038439414668,0.000203455
3.040770043322,0.000579517
3.041936060544,0.0331074
3.048787876003,0.011715
3.049898016333,6.9321e-05
3.052358742303,0.000942014
3.054032304102,4.99683e-05
3.063785882022,0.000151896
3.066830967761,3.91329e-05
3.074498422533,0.0368453
3.07744860707,0.00494487
3.077695745599,0.00884024
3.081250080047,4.15945e-05
3.082951236565,0.00383622
3.087937106825,0.0031001
3.088899367915,4.81638e-05
3.096632708119,0.000545179
3.09827800078,0.000337481
3.100422023737,0.00249294
3.103916641532,5.35369e-05
3.112768151109,4.95071e-05
3.135236294629,9.51722e-05
3.136197499803,0.000350879
3.136384661462,0.000305416
3.139773570944,0.00014039
3.141388340852,0.00567107
3.145622886515,6.21019e-05
3.146138024915,0.000214413
3.146785211921,0.00584575
3.149993975018,0.00028101
3.151700583635,3.28696e-05
3.153203020528,0.000366086
3.153350753401,0.0300798
3.160477733819,0.0179315
3.161267839198,8.63598e-05
3.165029815915,0.0165646
3.170705076636,3.28761e-05
3.178540454772,0.00882325
3.180088942061,0.000106944
3.183371797379,0.000272625
3.183392069371,0.00323072
3.184917566091,0.0180887
3.187066335676,0.00163729
3.190358449863,0.0567449
3.192104660221,0.00737651
3.194530013617,3.1328e-05
3.208298793763,3.56137e-05
3.20844130658,9.51787e-05
3.230659861472,5.21937e-05
3.230716582542,6.42321e-05
3.239722818977,0.000482723
3.24098100215,0.0078475
3.241540174057,0.00886363
3.24286669163,0.00016251
3.244552623087,0.00649998
3.2477924906,7.1152e-05
3.24790235651,0.000882174
3.249777167487,8.04026e-05
3.253939106469,0.000789376
3.256954603014,0.000170122
3.256984795014,0.000101326
3.257132845352,0.00447356
3.260023896538,5.75668e-05
3.262429879899,2.536e-05
3.266371817416,0.000310453
3.26919002517,6.14443e-05
3.269610609585,0.00453742
3.275239182557,5.35369e-05
3.280879631379,0.000162876
3.28183330477,0.00242292
3.288620960514,0.00285966
3.297539196259,0.000187719
3.297592701209,0.000154438
3.302715788197,0.00568352
3.305851106944,3.60743e-05
3.306899405029,4.68205e-05
3.312410186425,0.000103238
3.316423715991,3.4503e-05
3.316594340635,0.00769799
3.322951848196,0.000584721
3.328725490353,0.000229348
3.333768176478,0.0137099
3.336304133264,0.000146907
3.336800668494,0.0184209
3.336891897857,0.0121248
3.337578604183,0.00193462
3.338957277654,4.59505e-05
3.340333706937,3.75504e-05
3.341520516987,0.000163214
3.343265664941,0.0210779
3.345373419259,0.0112873
3.345609794641,4.54772e-05
3.346406245516,6.15966e-05
3.347827180568,5.35369e-05
3.349011472384,3.56137e-05
3.357791190407,3.7424e-05
3.367398452,0.00333249
3.373106656887,0.000255029
3.38170709726,3.4928e-05
3.385476858794,7.23429e-05
3.405722619515,5.87836e-05
3.407457785017,7.07571e-05
3.408355152248,0.00452236
3.408738099198,0.0101789
3.412542458983,7.7716e-05
3.416928488568,4.96245e-05
3.417048091879,6.86311e-05
3.417237462785,0.000988293
3.425591333953,0.00394503
3.426717542143,0.000163686
3.428528871823,8.57757e-05
3.429570007137,6.02534e-05
3.435940091322,6.96563e-05
3.437833745305,3.3328e-05
3.438600909166,4.95071e-05
3.441261759541,4.54772e-05
3.447097950058,3.3328e-05
3.449052697477,4.18561e-05
3.449437267821,0.000683368
3.451796935798,8.98056e-05
3.45973618171,0.00162383
3.46249819296,9.38354e-05
3.464329047001,3.87608e-05
3.468664497925,3.7424e-05
3.469324679116,0.000178462
3.480296622192,0.000158313
3.487689228937,0.00630115
3.495878251834,3.57504e-05
3.498202908822,0.000190906
3.500138405293,0.000533089
3.500568739536,5.43621e-05
3.500748255692,0.00475931
3.502605745665,0.00010607
3.509022683337,0.000887862
3.513586495334,0.0018804
3.514112196437,0.00644782
3.514795620672,3.19752e-05
3.515631034208,5.25568e-05
3.519001802125,0.00401207
3.520404999837,0.0167842
3.52138280538,7.48206e-05
3.52428167135,3.51392e-05
3.52479989221,3.64356e-05
3.527814111708,0.000191786
3.530115032103,0.000216061
3.53012054852,0.000173658
3.537785516153,0.0362195
3.539232375694,0.000869457
3.541125669678,0.0125615
3.5437386965,6.27098e-05
3.548996498806,0.0573831
3.560599643271,0.000214714
3.562871999182,0.000106953
3.564379646943,9.08096e-05
3.567730236024,0.00709513
3.568077898342,0.00252146
3.569031013032,4.63576e-05
3.569976119007,0.00221889
3.57000260104,0.0340551
3.570210010401,0.000371076
3.571283627875,2.65004e-05
3.571287291875,0.00018138
3.571350844709,0.00354057
3.572667718125,0.00020704
3.57535922219,0.0114415
3.57865478164,0.0284646
3.585989483334,0.034693
3.587072281114,0.00409621
3.59129147553,0.000151837
3.592934377289,6.11779e-05
3.595617961206,0.000501378
3.595765632826,0.000208268
3.597679891217,0.00257556
3.598027639181,0.000130256
3.598235816048,0.0260261
3.598784144815,8.17459e-05
3.603125953561,0.000300701
3.607934104745,3.56137e-05
3.613733500384,5.48802e-05
3.616443615723,2.536e-05
3.62124445875,3.4928e-05
3.625305365655,0.00144249
3.628061765209,5.35369e-05
3.628143124977,5.48802e-05
3.630881108947,5.8309e-05
3.632218041995,8.17835e-05
3.634442207328,0.000200396
3.635758742872,0.000126333
3.63736023891,0.000304933
3.63753091518,0.00139438
3.638996485004,3.30376e-05
3.64928652027,0.000112057
3.653020313013,0.00421211
3.654723179513,0.000198881
3.656802556705,5.26925e-05
3.662999867325,5.86254e-05
3.665871231347,0.000138463
3.665946534502,0.0111098
3.66639195083,2.58065e-05
3.668586172398,0.000223335
3.670385019692,0.0410371
3.672222128653,0.00166785
3.676418681581,0.0475749
3.679673095994,0.000733238
3.686493375863,0.00307222
3.687551850868,0.0052559
3.69305333676,6.15966e-05
3.694100474095,3.5328e-05
3.695385235677,6.83131e-05
3.696878655786,3.1328e-05
3.698841923059,0.000162622
3.701116238016,0.00358503
3.711653277946,2.57644e-05
3.711725496632,0.000191472
3.715334367021,0.00952662
3.715362575971,0.00506685
3.717728891855,0.0020604
3.719204728734,0.0029795
3.719560394344,0.00274315
3.721904110741,0.0030737
3.72579798254,0.000132895
3.726879325468,0.000313156
3.730420356292,0.0176797
3.733619331259,3.66596e-05
3.735286228109,0.00101785
3.737986122971,2.56324e-05
3.739682794862,0.00402511
3.740049479124,0.00798814
3.741351280673,3.4928e-05
3.748430952734,8.7119e-05
3.750420857527,5.75668e-05
3.754791788774,0.00340906
3.755409429588,0.00014891
3.761268656472,0.00070508
3.762323244922,0.00298458
3.762935886837,0.000555925
3.763793646606,8.17459e-05
3.765279360788,0.000731895
3.788587394109,0.00225518
3.788649048308,0.00027967
3.789347694464,4.68205e-05
3.792077013385,4.95071e-05
3.797026549312,7.36862e-05
3.799220441241,0.000143537
3.805112009954,0.00140908
3.805861698706,0.00266891
3.807399627651,0.000124731
3.8085745555,6.02534e-05
3.809004711165,4.68205e-05
3.812732002305,2.62478e-05
3.816014921962,0.00332829
3.817677451099,4.14474e-05
3.822367075843,4.68205e-05
3.824646850955,6.83833e-05
3.825658311057,0.0013765
3.826871227546,5.08504e-05
3.82808872461,0.00031682
3.836460720809,0.00158085
3.850434599066,4.81638e-05
3.851268021357,7.50295e-05
3.862872506833,9.51787e-05
3.86801322843,0.00202279
3.874757520214,6.56265e-05
3.878555705509,6.15966e-05
3.881521163135,3.1328e-05
3.88253140444,4.4134e-05
3.888678318736,0.000191745
3.888780089713,0.00420772
3.889121258052,0.00275843
3.890988410382,5.35369e-05
3.897825140679,0.00241173
3.906408855887,0.0140532
3.907158573559,3.3328e-05
3.910135274474,0.00131891
3.914645733629,3.60743e-05
3.915029118567,4.4134e-05
3.931518157158,4.01041e-05
3.935772608419,4.4134e-05
3.937067492779,0.000113985
3.948672537903,4.27907e-05
3.951647058811,4.95071e-05
3.961067975281,3.56137e-05
3.965042725884,8.84623e-05
3.968774600771,6.56265e-05
3.971588680611,0.00122354
3.97288962471,3.1328e-05
3.975901637701,4.01041e-05
3.984726355058,3.4928e-05
3.989722323945,0.00151952
3.99096741085,0.0014754
3.991774980139,4.39438e-05
3.993455179475,0.00250024
3.995061017345,0.00460222
3.995223920568,0.00978365
3.995291581245,3.7424e-05
4.006798718566,4.54772e-05
4.008962969681,0.000817865
4.011135821788,4.27907e-05
4.013202091678,0.000216074
4.017134048621,0.00117061
4.01767511168,0.000232043
4.019350017366,0.00209242
4.019907454353,0.000240876
4.021712794707,0.00738856
4.027442464596,3.4328e-05
4.029650053249,5.21937e-05
4.034131623197,8.44325e-05
4.042014366273,0.00014908
4.043221808902,0.000127701
4.043412691926,0.0028877
4.051262073217,0.000331597
4.060483514112,3.67141e-05
4.06260978137,0.0060162
4.067470291653,0.000975029
4.082913614382,3.1328e-05
4.086303060205,8.57757e-05
4.088380933994,3.4328e-05
4.089692469635,3.5328e-05
4.090120097524,6.56265e-05
4.100853511116,0.00312104
4.102449913553,4.22812e-05
4.107221652662,0.000117394
4.107620642362,6.07406e-05
4.112529101389,0.0152404
4.118260695572,0.00774196
4.123857891507,7.63728e-05
4.124718458776,0.000100552
4.124978913656,6.96563e-05
4.12770297338,7.90593e-05
4.129178481389,3.56137e-05
4.131781728109,5.62235e-05
4.140391213784,0.00118324
4.145941973558,5.89101e-05
4.149271316517,4.01041e-05
4.149451192237,3.3328e-05
4.158711408959,0.000133107
4.158753187572,0.000585477
4.165971525523,0.00140622
4.169027571843,6.38015e-05
4.172440620355,0.000582416
4.173297825915,0.00673216
4.175487520499,0.00600988
4.189843520612,0.00262953
4.191640011702,0.00138353
4.19212407815,0.00319386
4.193644190148,7.9452e-05
4.194074040846,0.000375455
4.197582416613,0.000102346
4.202720580828,3.22612e-05
4.203825883191,0.0141394
4.203979498567,0.000138949
4.205624330064,4.30814e-05
4.207065745919,0.00341023
4.207909550627,0.000176375
4.209422902768,0.0137175
4.211269436395,0.00016161
4.211893757481,3.77996e-05
4.215729888161,0.0050349
4.220905878751,0.00554211
4.224667562404,0.000107973
4.22504239987,0.0208033
4.227023318076,0.00472569
4.228292273217,0.00860954
4.228321994287,0.0184174
4.230643546838,8.30892e-05
4.231274581215,6.83131e-05
4.233239018896,3.4328e-05
4.2343562583,5.21937e-05
4.235543316745,4.27907e-05
4.24354638398,3.4328e-05
4.244845700802,3.4328e-05
4.259864649619,0.000143617
4.263934597786,0.00868354
4.264369795934,0.00819901
4.270079526069,0.00110801
4.270297656391,9.78653e-05
4.275765192043,7.90593e-05
4.279802233377,8.84623e-05
4.281321569093,0.000167716
4.28542189974,3.5328e-05
4.287474425929,4.27907e-05
4.291653739838,4.27907e-05
4.293043465722,3.625e-05
4.293093017462,0.00111725
4.299141548984,0.00308801
4.30181672907,9.11489e-05
4.306321564051,7.14423e-05
4.306379462056,0.000186522
4.307385211547,0.000249656
4.308088776299,6.15966e-05
4.310149748198,3.89971e-05
4.315125093577,0.00510115
4.318868721113,0.00491292
4.320543734839,0.00172404
4.321026991723,0.000206671
4.325646104034,3.4928e-05
4.331178042915,0.00282982
4.332468658229,6.57923e-05
4.333785731232,0.00381489
4.341591098509,0.000435232
4.341752769643,3.14547e-05
4.344010071692,0.00245686
4.345160033771,5.02446e-05
4.345224085348,0.000107231
4.345888139488,0.000390131
4.346317949878,0.000383927
4.350822760527,0.00689053
4.353200203273,0.000644419
4.36319305683,0.0192943
4.365310263526,0.000193984
4.367025369014,5.8351e-05
4.368191332501,0.0038396
4.369229416964,9.42531e-05
4.372298252951,0.0430692
4.372909289632,0.000232194
4.375595987263,0.0377694
4.376003107853,7.90593e-05
4.388116823471,4.4134e-05
4.389271357045,0.000123388
4.395111474939,0.00145055
4.398945831918,0.00304906
4.400902331071,0.00112548
4.404259376056,5.2894e-05
4.404630259003,0.00226592
4.406268640762,4.81638e-05
4.416941035885,2.5757e-05
4.419656387393,0.00596042
4.4323453572,0.00015479
4.434377744885,0.0102859
4.434514135562,0.0165867
4.443066649596,0.0278263
4.448034815582,0.00014085
4.451293372078,0.000961596
4.455682560713,6.96563e-05
4.460715814724,0.00096697
4.461729856569,0.00187166
4.462514415242,4.27907e-05
4.46523911068,0.00107175
4.466639518825,0.00131891
4.477869782576,9.80988e-05
4.483869055493,0.000166813
4.483940472206,2.69202e-05
4.49109974973,4.20138e-05
4.499081826263,0.0291509
4.503092956513,9.48942e-05
4.506121872867,0.0384201
4.507536716177,8.61949e-05
4.508111243534,0.0147878
4.510754101876,0.00413607
4.51484474682,0.00117921
4.517166998738,0.000162824
4.517603396939,0.000165802
4.517935324677,0.00282053
4.520204507237,0.000983089
4.534463529043,3.1328e-05
4.536960445554,0.0016413
4.540196672271,0.00146533
4.540918999365,6.42832e-05
4.545105070015,7.36862e-05
4.553272757193,0.00154995
4.55368984966,3.87608e-05
4.559747547965,0.00175682
4.560278007933,0.00133199
4.563952760585,0.000298014
4.565530918808,0.000199955
4.567781259626,6.96563e-05
4.568926966593,4.95071e-05
4.573474964636,0.000901149
4.575208759668,3.3328e-05
4.57575348374,2.536e-05
4.582490193136,0.000964283
4.585736506011,0.00159025
4.590308469587,6.15966e-05
4.595788051609,8.5872e-05
4.5966071233,0.000235822
4.597772730156,0.00232813
4.598783216656,3.8264e-05
4.599923826314,0.00563323
4.60317502904,3.4928e-05
4.603322044054,4.4134e-05
4.605186334219,6.15966e-05
4.605997764226,5.21937e-05
4.611448257171,6.6086e-05
4.615322764039,0.00868984
4.615821096491,0.00761233
4.617937554716,0.000116671
4.618270931913,4.14474e-05
4.625415922611,5.08504e-05
4.625752232638,4.19636e-05
4.625758232638,4.95673e-05
4.625787092837,3.5328e-05
4.62760834737,5.08504e-05
4.628767881804,0.000416223
4.636191773933,0.000303388
4.641218576716,8.7255e-05
4.641771156076,3.36867e-05
4.64586779048,0.00774786
4.646521599236,8.17459e-05
4.646766489174,8.30892e-05
4.649796063793,7.90593e-05
4.652072749869,3.4328e-05
4.65651969476,0.00257219
4.662132063861,0.000194582
4.664625048065,7.99857e-05
4.664805159279,0.000220507
4.675377576988,6.02534e-05
4.676263566471,6.02534e-05
4.684149698998,0.000741298
4.691382643998,4.81638e-05
4.695081535908,4.4134e-05
4.698533202317,5.35369e-05
4.700957520844,8.30892e-05
4.707376667074,8.22446e-05
4.711802752561,0.00485426
4.715580456771,7.09996e-05
4.724430638413,0.000396074
4.726254756659,0.00137533
4.729731036244,0.00430658
4.730156109075,0.000127418
4.730774530667,7.90593e-05
4.73181111037,8.04026e-05
4.733761359082,0.00167622
4.741708776794,8.30892e-05
4.742659180909,8.17459e-05
4.75339336984,3.4928e-05
4.754036527503,0.00060697
4.754432013712,4.20123e-05
4.760153323944,3.8624e-05
4.761772144529,0.007745
4.763196262459,7.63728e-05
4.763320443892,3.5328e-05
4.767222658399,4.70006e-05
4.769161152604,0.00511637
4.770725235237,0.00024294
4.776136626855,0.00301098
4.779230202227,0.000223253
4.779642924232,0.00690985
4.784288251662,0.000219878
4.791197932033,0.000146223
4.793972232155,0.000267929
4.800228039475,0.00891678
4.800961106125,0.017071
4.802071873714,3.68323e-05
4.803682183976,0.00138527
4.806458581212,0.000299651
4.808113642705,0.0318556
4.819521274586,0.00497494
4.824551174072,0.000232166
4.828151450272,0.0127235
4.829634577995,0.0144213
4.829768311519,3.4328e-05
4.83381120526,4.14474e-05
4.834247416908,3.5328e-05
4.839270562981,0.00310413
4.845376624383,0.00123831
4.847101947492,4.68205e-05
4.857063541455,0.000408955
4.857341601136,0.00195785
4.860064410237,0.00956516
4.865025745105,0.000112641
4.878984453006,0.00171679
4.879606504514,0.000106929
4.881449287312,2.7616e-05
4.882910160426,0.00481153
4.884889375301,0.00163956
4.886257793023,0.000710947
4.891707551328,0.0199373
4.892293661739,0.0141438
4.892340180424,0.0158925
4.900214678196,0.0244478
4.902701776019,3.50466e-05
4.911332543752,3.38757e-05
4.914780642108,8.56023e-05
4.915327495125,0.0306252
4.916759705133,7.7716e-05
4.928503810085,0.00745503
4.932202434802,2.64656e-05
4.933201668529,2.62401e-05
4.934882051567,0.00345305
4.940069024614,3.46827e-05
4.940309843257,0.00243904
4.944661272693,0.0034601
4.94681202154,7.50295e-05
4.952172749112,7.7716e-05
4.9678211177,0.000185179
4.971838835095,4.81638e-05
4.977736953411,0.000909254
4.977814695017,0.00024265
4.978754101887,0.00409934
4.979475502419,0.00564034
4.987339867471,0.000100552
4.988618462604,3.5328e-05
4.993315417317,0.00279518
4.999458205137,0.00260521
5.004762799429,0.00989695
5.006832661713,0.006721
5.010643368793,5.62235e-05
5.013221312373,8.84623e-05
5.015530731223,4.68205e-05
5.017478694392,0.000171268
5.017565644597,0.00121781
5.019860108805,0.00397411
5.027287549284,0.000267119
5.031696676148,0.000801746
5.033311671517,3.4328e-05
5.034835128369,6.96563e-05
5.036363638536,6.69698e-05
5.037155905315,9.11489e-05
5.045075250169,0.000105925
5.046678557921,4.01041e-05
5.054716834557,0.00801921
5.05807062369,0.000102922
5.058363831907,8.2717e-05
5.059143397245,4.23421e-05
5.0597543045,0.000384577
5.062108023754,0.0148309
5.062935322789,3.8624e-05
5.06687518817,0.009504
5.072692287856,3.5328e-05
5.074698816702,2.536e-05
5.077869021671,5.4252e-05
5.078281724531,0.000397291
5.078769715061,0.00187156
5.079085361025,0.00194856
5.091709985891,2.536e-05
5.095846709792,2.61972e-05
5.096203959075,0.00178083
5.097257285297,9.11489e-05
5.106916432997,4.4134e-05
5.109786543471,0.00174204
5.113872373199,3.50292e-05
5.114028540831,0.0017613
5.115845194143,0.00569502
5.117555479028,0.00161712
5.118904352441,5.08504e-05
5.129873859516,7.09996e-05
5.13809957156,3.56137e-05
5.141206937056,0.000546522
5.154637480935,0.000573387
5.158843935406,3.87608e-05
5.16291298077,3.56137e-05
5.163819242328,5.48802e-05
5.165390023722,5.35369e-05
5.172340953386,3.7424e-05
5.185567646981,0.000117731
5.187183584433,0.00806202
5.198042363968,6.84824e-05
5.199937704284,0.00565351
5.201696767492,0.000117342
5.20382869445,0.00317533
5.205929580407,9.51787e-05
5.214522016682,3.51921e-05
5.218758301442,8.52215e-05
5.219612766266,0.0121483
5.222656675445,3.56137e-05
5.242651825314,0.000119358
5.246200539125,0.000901528
5.247104568644,0.000165518
5.25229367091,0.00010671
5.255400515679,7.40439e-05
5.256038543105,0.0171033
5.259510667582,7.09996e-05
5.26187764231,0.0033916
5.263827903363,0.000343686
5.264003008754,8.17459e-05
5.264233546968,4.68205e-05
5.265278790956,6.83131e-05
5.268459686918,0.00175145
5.269919613466,0.00118861
5.271286392702,7.63728e-05
5.272681230865,2.536e-05
5.274686521948,6.15966e-05
5.279070199352,0.000302044
5.283820203487,5.75668e-05
5.285444024611,3.1328e-05
5.287038590816,0.000901149
5.288576507055,3.3328e-05
5.291637765483,4.81638e-05
5.292814066252,4.81638e-05
5.299723322677,0.000358909
5.300333004351,7.74332e-05
5.301297449549,0.00225215
5.304607676235,3.4328e-05
5.305808320881,0.000118015
5.308967008384,0.00014891
5.310088533422,0.00352978
5.310995985788,3.4328e-05
5.314792425211,8.78248e-05
5.314967020006,0.0033471
5.321428326764,0.00452639
5.321718313531,5.59533e-05
5.323201434801,0.00247779
5.325968461291,0.000337012
5.326820102735,6.8623e-05
5.331857383137,0.00836157
5.334753255806,0.0060161
5.336513238812,0.000134134
5.339048326938,7.90593e-05
5.342650284717,0.000143537
5.347621719561,0.000147074
5.349374509523,7.43425e-05
5.352511043333,0.006012
5.354380943169,7.90593e-05
5.360799468735,0.000267119
5.368978414913,0.0015648
5.369387947434,0.000111367
5.369762580127,6.61699e-05
5.370080852962,3.37538e-05
5.370845208692,0.00767885
5.37095166459,2.536e-05
5.371834324744,4.81638e-05
5.376233844013,7.23429e-05
5.376619160656,7.63728e-05
5.381762393018,7.74242e-05
5.382948486397,9.30416e-05
5.384639816531,0.00704398
5.38768174086,0.000113985
5.390954255928,0.00163458
5.392227383209,5.18235e-05
5.39314086704,0.00186266
5.397690709854,0.00532409
5.410403903238,5.89101e-05
5.412544488196,0.00156204
5.413993342596,3.56137e-05
5.42402881932,0.000150253
5.427625380489,0.0010704
5.434206926277,3.7424e-05
5.436897614453,0.000914581
5.437796453008,7.50295e-05
5.439281328511,0.00112117
5.440339978806,0.00165791
5.445451318036,4.68205e-05
5.447441543171,3.1328e-05
5.449989052603,0.00086488
5.451155019451,8.57757e-05
5.452315031644,4.54772e-05
5.452432266386,9.51787e-05
5.456725678545,7.50295e-05
5.461102338958,0.000107268
5.46203504358,6.42832e-05
5.465673367583,3.60743e-05
5.466211853769,6.15966e-05
5.469650029642,0.000476671
5.477972504897,3.3328e-05
5.483613873333,4.54772e-05
5.490919074466,0.000430999
5.4964083827,3.5828e-05
5.512671760282,0.000108612
5.512773853032,0.00103548
5.516870201871,0.000324632
5.5169227012,0.00012781
5.51862622906,0.000550552
5.51968642421,3.60743e-05
5.523021199118,3.7424e-05
5.530415667251,0.000138164
5.531627512301,3.56137e-05
5.538801695452,0.00209667
5.541409959499,9.24922e-05
5.542362263003,3.56137e-05
5.54905315084,0.00383891
5.551335100558,0.00159563
5.551550302758,4.01041e-05
5.559106973654,0.000141974
5.565542507687,0.000175474
5.569858388129,0.000126708
5.572028911546,0.000219628
5.575487547678,0.0154149
5.575511726778,0.00256124
5.578948968051,0.0245767
5.586083625799,3.60743e-05
5.588126413751,0.000648611
5.59344879013,5.89101e-05
5.596730796115,0.00256682
5.60196578507,4.81638e-05
5.607627998621,0.000352753
5.610397648365,0.00568682
5.610890633239,0.00565119
5.614435237917,0.00182398
5.616366985214,0.000156972
5.616440919659,0.000194738
5.616893717322,0.000858192
5.624212725038,0.000253686
5.625765566145,2.536e-05
5.627663341197,3.56137e-05
5.628787482852,0.00102876
5.630867631314,9.24921e-05
5.632113146632,9.24922e-05
5.633456962309,5.08504e-05
5.633756324462,4.14474e-05
5.639534624141,0.00410488
5.642222202732,0.00140892
5.642991871894,0.00486299
5.650735070806,0.000861973
5.652091923475,0.00261518
5.657577521723,0.0011107
5.661573274098,3.5328e-05
5.663884237202,3.3328e-05
5.664363273379,8.44325e-05
5.665748073714,2.536e-05
5.675179841077,0.000976822
5.677131364708,2.56359e-05
5.677810075822,0.0020345
5.679346207368,5.79615e-05
5.681292481654,0.00030688
5.682948818361,0.00190898
5.684735137124,0.000364005
5.685443058634,0.000530864
5.686113993354,0.000503749
5.686617647984,0.00025741
5.691840887928,0.000274939
5.695912794693,0.00108996
5.696482327756,4.24292e-05
5.69652662411,0.0029162
5.697836896847,0.0271746
5.703847376271,0.000161638
5.71019541931,0.0127344
5.713710294682,0.0245314
5.714577750082,0.000278872
5.715071206985,0.00526744
5.715218264639,0.000562396
5.715412461389,0.00016744
5.724086930378,0.0547583
5.728589781806,0.0592687
5.729814174683,8.4448e-05
5.730747979718,3.61286e-05
5.730872302023,0.00015386
5.731834236081,0.0104082
5.732413264147,3.4256e-05
5.734661751064,3.42443e-05
5.735173888647,4.18283e-05
5.735421348393,6.07931e-05
5.741377460449,0.000170506
5.745859026118,0.00410394
5.746655086726,4.28833e-05
5.747785825885,4.37347e-05
5.750084326976,0.00106995
5.75125905664,0.000493786
5.753956650023,0.0171669
5.754979840764,3.35378e-05
5.760010359514,9.79344e-05
5.762481666181,0.00149285
5.762588100446,3.56557e-05
5.7649315633,0.00213818
5.766918129631,0.000109348
5.767168234899,0.00302128
5.769204483849,0.0120634
5.770081790941,0.0386564
5.775314228426,0.000694283
5.778088553823,3.4328e-05
5.782887138297,6.56265e-05
5.786508111538,3.4928e-05
5.792576692999,4.01041e-05
5.79266153686,2.536e-05
5.809713570457,0.00227264
5.810194134588,9.28852e-05
5.813912577407,3.48926e-05
5.819927034379,0.00445555
5.820157159359,0.00505606
5.820180138459,0.000212494
5.820371018566,0.0125471
5.820405749545,0.000202256
5.821344981731,9.51787e-05
5.823396217722,8.98056e-05
5.823796941001,3.1328e-05
5.825352808741,3.4328e-05
5.83998057498,0.000520999
5.843314180317,2.536e-05
5.844943149888,6.02534e-05
5.84505704795,3.3328e-05
5.847669144539,4.54772e-05
5.84852277315,2.536e-05
5.849581700487,7.63728e-05
5.855868689317,0.000106463
5.8571473978,3.8624e-05
5.857377001812,0.000185656
5.857777819458,0.000559211
5.860276476477,0.000166613
5.861137097789,0.000160491
5.865368049154,0.00222889
5.866161474174,0.00514008
5.868008555392,0.00609287
5.868202946543,0.0175486
5.869673790213,0.000237567
5.881514328727,0.0241441
5.882931603931,0.00239026
5.884934127501,0.000135397
5.888366054442,8.62605e-05
5.889558160999,0.00960619
5.890063041029,0.0123922
5.8963044757,4.68205e-05
5.898421065037,7.63728e-05
5.912487190846,0.00520771
5.916234242029,9.24921e-05
5.917752412623,3.1328e-05
5.921343983261,2.65896e-05
5.923831797984,0.000360687
5.936138538013,0.0155962
5.937574618832,0.0178649
5.94212009554,3.3328e-05
5.943983052587,6.56265e-05
5.951387872837,0.00306518
5.967009252642,3.57023e-05
5.97402707434,0.00448249
5.974276867615,0.000232195
5.976959000134,0.00166289
5.97899692634,3.44009e-05
5.980224661905,0.0169224
5.990254827117,0.000428728
5.990453235222,2.65202e-05
5.990834918423,0.00456085
5.991344649692,5.52573e-05
5.994892683521,6.94718e-05
5.996276096482,0.000826667
5.999103675201,0.0362768
6.006322695079,5.75668e-05
6.019289135641,4.08012e-05
6.026973067523,0.007631
6.028270634662,0.0010311
6.02869374331,0.000135618
6.030961341853,0.0199099
6.035040013259,0.000134172
6.035679581341,0.00200939
6.035844663277,0.00355799
6.036059314921,6.39495e-05
6.03742960042,0.0017007
6.042605988649,8.84623e-05
6.04324733496,8.44325e-05
6.048129214005,9.6522e-05
6.05574489814,4.4134e-05
6.057352953701,3.56137e-05
6.06159232052,6.29399e-05
6.064658585347,6.42832e-05
6.066121256273,3.81276e-05
6.066259528699,0.00128801
6.07840629152,8.17459e-05
6.088145635045,0.0011604
6.089460249926,3.4328e-05
6.09135912881,8.57757e-05
6.091976083849,5.75668e-05
6.092326228031,7.90593e-05
6.094759150133,0.000276522
6.101179947808,0.000235333
6.101836978572,0.00194619
6.102793826372,0.000163344
6.104763974312,0.00661682
6.106086977691,2.63918e-05
6.106999002853,0.00523078
6.109389242415,4.81638e-05
6.111947667193,5.08504e-05
6.114781218695,3.4328e-05
6.117203898429,0.00136055
6.118101897724,7.36862e-05
6.126981753066,3.256e-05
6.12711406946,0.00352978
6.130936935341,7.7361e-05
6.132393054155,0.000114304
6.134039750336,0.000157015
6.13418496174,0.00458695
6.134548277665,7.7716e-05
6.142206126822,0.000109442
6.148503574366,0.00877547
6.14909826829,3.4928e-05
6.149681034379,4.54772e-05
6.152432722248,0.000726522
6.160201868762,3.56137e-05
6.166800608625,8.98056e-05
6.169073870336,2.536e-05
6.172810134698,0.0016104
6.181060066835,0.00151369
6.182990390835,3.56137e-05
6.187782381036,3.77745e-05
6.19318629848,0.000158818
6.19490883963,0.00505372
6.195605156727,5.59165e-05
6.200319320314,0.00355299
6.203329754353,0.0190557
6.206070814451,0.0014801
6.21271956293,4.14474e-05
6.213182860575,4.01041e-05
6.216313956609,0.00152712
6.216586211946,5.89101e-05
6.223007171063,5.08504e-05
6.22352376596,0.000265776
6.225931370975,4.4134e-05
6.235144887233,0.000847417
6.237465537699,2.536e-05
6.243311177331,6.69698e-05
6.249877039492,6.96563e-05
6.251607059952,4.81638e-05
6.258050119075,6.56265e-05
6.266865649646,0.00123246
6.268397285309,8.37396e-05
6.268399685309,3.70486e-05
6.269752574762,0.0079857
6.271780792139,0.000179806
6.273721999666,3.5828e-05
6.28030427776,7.50295e-05
6.283435476218,2.536e-05
6.298197697991,5.89101e-05
6.298951052368,3.5328e-05
6.299276752525,7.23429e-05
6.303131470731,0.000574731
6.306893801538,0.00146533
6.32878963708,6.96563e-05
6.337084247895,8.47589e-05
6.338890794752,0.000162796
6.340328075566,0.00361424
6.340818167417,0.000139507
6.341735280304,5.08504e-05
6.346256874113,6.37654e-05
6.35546423518,3.68618e-05
6.355483639834,0.000732466
6.355518043502,0.00821671
6.356367534639,0.00475651
6.360189607508,5.02071e-05
6.363871135395,0.00668833
6.369668011032,0.00617676
6.373280619861,0.000324513
6.379380012203,0.0262557
6.383717489509,0.000127669
6.385065827412,0.0344056
6.389185541056,0.000131125
6.407345358496,0.000226997
6.407492753823,0.000373063
6.410107286214,0.000544881
6.412397053427,0.0666852
6.414243557889,0.000321273
6.416078658431,0.00790749
6.41807874989,0.0137199
6.421182536553,0.000117878
6.421884887023,0.000240871
6.422775228121,4.77515e-05
6.431577317925,0.0256745
6.431857560029,0.0147969
6.433407763041,0.0809856
6.435019677097,0.00903857
6.436004078161,3.4928e-05
6.43630113855,4.68205e-05
6.441834397382,4.81638e-05
6.442588678413,4.95071e-05
6.443365320354,6.83131e-05
6.443608442347,5.62235e-05
6.447183627781,0.00128264
6.447611052709,0.000123388
6.447873968105,5.48802e-05
6.449919794724,4.4134e-05
6.452512956382,8.98056e-05
6.453261462901,0.000715775
6.456237538769,4.06296e-05
6.458355473202,4.34554e-05
6.458611003212,3.37234e-05
6.460614955325,0.00518546
6.461780762853,4.18932e-05
6.463228848001,8.59813e-05
6.465520644762,8.79554e-05
6.46829755216,0.000151294
6.468478109607,0.000134857
6.468578913294,0.00751958
6.470027866812,0.00029501
6.470426516207,3.92616e-05
6.475606183517,0.000166117
6.479514969452,0.0033363
6.486297173321,0.0294155
6.4864734224,3.4328e-05
6.488421853004,6.42832e-05
6.496473692331,3.41755e-05
6.497629822697,0.00381993
6.505185506199,0.0022454
6.508917010892,0.000131285
6.509556578974,0.00431912
6.51053955649,7.45566e-05
6.512477881864,0.0111056
6.519755193904,8.7119e-05
6.53376489879,9.6522e-05
6.535456792575,9.24922e-05
6.535603161606,0.00102725
6.551249114326,0.000116671
6.565260989953,0.000134134
6.56656311878,4.68205e-05
6.576569480305,0.000110943
6.578156531289,0.000176347
6.578347083158,0.00284618
6.585839642364,0.013462
6.586126910548,0.00110458
6.589400109382,8.76413e-05
6.596283202903,0.00735697
6.600275109935,0.00315092
6.602545604963,3.34589e-05
6.606488936271,0.0106098
6.607810361931,5.62235e-05
6.611168106347,8.57757e-05
6.61461592355,3.82523e-05
6.615964742068,0.00424055
6.618402015433,0.000123149
6.619156882937,0.00144501
6.623500604409,0.00148145
6.62780109919,3.56137e-05
6.632604528245,8.44325e-05
6.646697673185,0.000138164
6.649128807756,4.4134e-05
6.653185463884,0.000664731
6.653319532089,3.1328e-05
6.65682340374,8.49451e-05
6.657379354097,9.03418e-05
6.659127487322,3.14962e-05
6.660365134605,0.000160615
6.663440966747,0.00181146
6.66663901909,0.0103701
6.668043926965,8.98056e-05
6.668640316888,0.00141462
6.669491342928,0.00633162
6.674163271869,7.63728e-05
6.690830303735,0.000844731
6.692049867878,0.001835
6.699038042367,3.60743e-05
6.701181665614,0.000105925
6.70272994678,6.15966e-05
6.706366569788,3.1328e-05
6.708610026304,0.00173801
6.716097246064,3.5328e-05
6.717816389906,3.1328e-05
6.718963366645,4.14474e-05
6.719982002524,0.000445776
6.732674314142,5.75668e-05
6.736756071257,0.00149488
6.73932869654,3.3328e-05
6.74220810655,0.0022404
6.748346329247,0.000275179
6.748374343812,0.000131083
6.753972821029,9.24921e-05
6.758166007558,0.00102473
6.75940909247,0.00032891
6.760757889263,3.60743e-05
6.76365915891,7.63728e-05
6.767847435041,0.000327567
6.771998586248,0.00363204
6.774948162109,0.000136472
6.775247851057,0.0043514
6.782214270721,0.00402159
6.782304522773,2.536e-05
6.783666543178,7.50295e-05
6.7880397644,7.37888e-05
6.788789284315,0.00381053
6.7989966595,0.00060697
6.805341285568,9.17689e-05
6.805514400301,0.00478936
6.806284244753,0.00412245
6.808213322577,3.77219e-05
6.809666551807,3.42173e-05
6.815989412591,0.00784021
6.821173696155,7.7716e-05
6.823197680087,4.54772e-05
6.824163336865,9.38354e-05
6.825668474889,3.3328e-05
6.82594154073,3.3328e-05
6.839299494014,7.36862e-05
6.840503052339,8.17459e-05
6.846892678836,0.00352995
6.847454503323,5.08504e-05
6.862638699394,3.4328e-05
6.871934507649,9.24922e-05
6.873966639296,8.44325e-05
6.88031517988,7.09996e-05
6.882062577916,3.5328e-05
6.886732197318,0.00312114
6.889884713742,0.000165151
6.891735452134,6.1733e-05
6.895195628999,3.1731e-05
6.895636279825,0.000138942
6.895853754791,0.0124727
6.896630315659,0.00514802
6.904787919753,8.7119e-05
6.905468191998,6.15966e-05
6.905863682474,4.54772e-05
6.911192967543,6.96563e-05
6.926624837263,0.00141645
6.92758222992,0.0160863
6.939368370352,0.000264652
6.939864086861,3.55384e-05
6.940778063163,0.00573009
6.945057982732,0.000345903
6.951894818632,0.000384871
6.953212467567,0.0373076
6.954120744342,0.0360572
6.956528040859,0.000146224
6.966625650424,0.004959
6.968493202081,0.000232512
6.969413462563,0.028503
6.971240562488,4.76778e-05
6.971940798423,0.0060019
6.97343309565,0.0440101
6.974319669144,0.0176769
6.978862245549,0.000357884
6.98803427095,0.0694896
6.989667629418,0.0363773
6.989756063678,0.0044676
6.991935509153,0.0617973
6.991971529689,0.00439103
6.994351099986,0.0351784
6.994539550005,0.000681717
6.995179200841,0.012702
6.998840297094,0.00023891
7.000757615011,8.98056e-05
7.002303226089,0.0012101
7.005421116479,2.536e-05
7.005552257225,4.68205e-05
7.017575582949,8.44325e-05
7.019532979873,7.18539e-05
7.019657720856,0.000269637
7.021988122609,0.0024222
7.02241504202,3.4406e-05
7.022698449188,0.00107829
7.024418941159,0.000115328
7.025608357908,3.5328e-05
7.03245527968,0.00169906
7.040598262504,0.000307715
7.041667347177,0.000646026
7.043658060587,0.00343156
7.044250752051,0.000170923
7.044991037824,0.00100189
7.046415233666,6.91557e-05
7.048035369801,0.00283682
7.04865821777,9.6522e-05
7.050983088496,5.08504e-05
7.059502560927,0.000110252
7.0616179203,0.000170686
7.064163801962,0.00817336
7.065715628375,0.00330112
7.066133220565,3.44617e-05
7.067049177247,0.000163504
7.068334835916,0.0130793
7.072764804291,0.00442189
7.074885141936,3.4328e-05
7.078947498319,4.27907e-05
7.081381170381,5.21937e-05
7.084741107503,0.0025198
7.095917012714,0.000381298
7.101907065837,0.00429294
7.10198172948,0.000186469
7.102223631715,0.000881653
7.102704924264,3.4328e-05
7.106215194175,0.000201298
7.106717288948,6.83131e-05
7.107169846162,9.51787e-05
7.108449445961,3.3328e-05
7.109780587224,0.000381298
7.114429045091,9.24922e-05
7.123637875334,5.58488e-05
7.124791723434,0.00332023
7.127897226114,4.95071e-05
7.13203463958,0.00131488
7.13699989041,0.00012026
7.137906574437,0.00412217
7.148220332636,0.000154283
7.148777513076,5.48802e-05
7.149001614925,3.5328e-05
7.150690032657,6.68755e-05
7.150959275049,0.000554413
7.152367660722,0.000550552
7.152682579506,0.000197268
7.163052661646,0.00114428
7.169031579333,4.54772e-05
7.17340646414,0.00439441
7.177192406389,3.5328e-05
7.187927044081,6.56265e-05
7.1923088071,3.60743e-05
7.19287806404,8.44325e-05
7.196356514199,0.000605763
7.196418763268,0.00352073
7.199881728732,0.000102801
7.201431390317,0.00016663
7.203086289837,0.00749971
7.205392395486,0.00859927
7.206933036531,0.000745756
7.209708182518,0.000369209
7.21185596803,0.0133194
7.213431365028,7.23429e-05
7.220238086966,0.000202641
7.225188132135,0.000190552
7.227639003191,0.00031682
7.228164081168,0.000124731
7.230177868685,3.3328e-05
7.230970931719,5.08504e-05
7.236780604704,0.0013713
7.242013957402,0.00175279
7.243893597754,0.000160291
7.248534640586,0.000182341
7.251042517948,0.00775172
7.256536813454,4.81638e-05
7.258106550622,4.14474e-05
7.267400443676,0.000527716
7.273909896947,0.00139413
7.275564008388,0.000640552
7.276488183788,2.536e-05
7.280697582164,7.63728e-05
7.282589505364,5.62235e-05
7.284003290161,7.63728e-05
7.28873740706,5.30181e-05
7.289387387326,0.000461304
7.290240124224,0.00122732
7.291587321985,0.00636899
7.298006849832,0.00571548
7.300922980406,0.0077844
7.307414389226,0.000237567
7.309279402568,3.3328e-05
7.313424452259,0.0025104
7.31454864331,0.00132861
7.319055554272,0.00395174
7.329704764084,5.62235e-05
7.339605590738,5.48802e-05
7.367182341972,3.8624e-05
7.367628588579,3.52934e-05
7.367892922316,0.00502217
7.369135207744,0.0011107
7.369163912731,3.3328e-05
7.376423894088,7.7716e-05
7.376736363454,9.51787e-05
7.377079283736,3.5328e-05
7.379276364993,0.000350996
7.38554560359,0.00707219
7.398083298244,0.00897831
7.398367272528,3.1328e-05
7.401269274681,4.65724e-05
7.401302968052,6.05131e-05
7.404565388826,0.00318339
7.409319162157,0.00171115
7.410735525453,0.000610999
7.41261375184,2.536e-05
7.422373657062,0.000529059
7.428380856464,5.21937e-05
7.443967355664,0.00330294
7.459164738603,2.536e-05
7.473941189787,0.00648921
7.481420766888,0.000130933
7.481772707153,0.000326239
7.482472329069,3.41246e-05
7.485466397768,7.72657e-05
7.493511150902,0.000222352
7.497384931427,7.83239e-05
7.502790103368,0.0002239
7.508330164046,0.0319141
7.508613571215,0.0125139
7.513003701806,0.00324786
7.516844105226,8.04026e-05
7.518106280924,0.000403691
7.51836863827,0.00146023
7.524652522601,0.00675121
7.529449809039,4.81638e-05
7.535051555136,8.7119e-05
7.536944727135,5.21937e-05
7.540428404286,0.000103898
7.544322270334,0.00704353
7.544578761057,6.83131e-05
7.54598634422,3.7392e-05
7.547558120745,0.00525403
7.548192979229,0.000179806
7.552733930953,4.5807e-05
7.552919612495,0.00176989
7.558788390379,0.00966084
7.559859324132,3.4328e-05
7.562175557765,7.50295e-05
7.572191521563,0.000245684
7.572849867234,0.00419031
7.577546880394,0.00895362
7.577618494123,0.0152218
7.578793755474,0.00355655
7.583415087876,3.5328e-05
7.585286772109,0.00138204
7.59016060419,5.35369e-05
7.605406578864,3.4328e-05
7.605997361592,8.44325e-05
7.611413569783,8.57757e-05
7.614080069913,0.000871596
7.619517331411,7.90593e-05
7.622529079634,0.000484731
7.624803784433,0.000722492
7.625143110842,5.08504e-05
7.625441887109,7.90593e-05
7.628282136602,6.02534e-05
7.63380101257,0.00095891
7.645397584691,3.5328e-05
7.657622280014,0.000788313
7.657799801687,9.24922e-05
7.659311168145,0.000899805
7.663924253051,0.000259059
7.668440400475,0.00033697
7.686244828385,4.27907e-05
7.70033049191,3.56137e-05
7.709781877688,0.00290589
7.713548665796,3.86057e-05
7.722078036808,0.0032781
7.72277108791,0.00462499
7.731770576136,0.000105925
7.732126550801,0.00160204
7.732203283097,0.0104101
7.733472829027,0.0321748
7.734994646864,0.00208861
7.73503781942,3.87608e-05
7.736415963218,0.000302044
7.744265342079,6.83131e-05
7.753398671154,0.00115503
7.753915838372,5.48802e-05
7.755144686214,0.000105925
7.765312254733,0.00106234
7.766149086365,0.00275874
7.768103073643,0.000300701
7.769125267691,5.62235e-05
7.774377293724,0.00145727
7.776836325045,8.57757e-05
7.777206824413,7.50295e-05
7.777237923606,3.1328e-05
7.777666551696,3.4928e-05
7.778278275356,7.50295e-05
7.787262427509,3.5328e-05
7.792285006778,0.000103859
7.796281274269,7.46573e-05
7.797341347528,0.00971183
7.800847651434,0.0061307
7.807027961445,0.00472176
7.807748097971,0.0113613
7.811031921412,5.35369e-05
7.816632210243,0.000202641
7.819351659985,0.000760104
7.823838793008,0.000840701
7.826535275143,0.000268462
7.832297989159,8.84623e-05
7.833018918744,4.27907e-05
7.834496181504,3.4328e-05
7.838571554603,3.60743e-05
7.838992045499,4.54772e-05
7.83908048702,5.08504e-05
7.847973174133,8.17459e-05
7.848278537274,0.000107268
7.855303537879,4.27907e-05
7.863662193353,5.89101e-05
7.865572196479,3.1328e-05
7.866456693577,8.7119e-05
7.872485556656,0.00118324
7.877364503197,0.00226065
7.879102431822,0.00549342
7.88021075159,0.00257261
7.884025179175,5.75668e-05
7.884791337309,0.000122044
7.8905399642,0.00298458
7.890641444684,3.87608e-05
7.894799877057,7.50295e-05
7.896689317591,0.000928014
7.907608070686,0.00355413
7.909368875829,0.00166548
7.915238494558,0.000612343
7.915721643334,7.7716e-05
7.923546996929,0.000174432
7.927816501152,0.00250503
7.930367193446,4.27907e-05
7.932770216481,6.83131e-05
7.932927794395,9.84193e-05
7.93924053364,0.00634416
7.939696395257,3.4454e-05
7.940578823081,7.95595e-05
7.940968206371,0.000152019
7.949475853686,0.0102076
7.950700094195,0.000180172
7.954658359141,0.0133481
7.957918313409,0.0145597
7.958364474218,0.0121213
7.959518354325,0.0159144
7.965179254164,0.00178234
7.972146024143,0.000799059
7.972885956734,9.11489e-05
7.981126849086,3.67294e-05
7.982174285196,0.00473031
7.983614787509,0.00684523
7.992872289519,8.7119e-05
8.005733971281,0.00519669
8.007543347938,0.00438097
8.008538835107,4.14474e-05
8.021399867503,0.0016507
8.022425824335,0.000125388
8.024032110797,4.59072e-05
8.02490641952,0.00408935
8.025005790472,0.00128442
8.029941062208,5.89101e-05
8.032037718591,8.44325e-05
8.034940747341,3.56137e-05
8.048146118754,3.4328e-05
8.053995280785,0.000623089
8.057994097458,0.00436785
8.074489097752,3.35639e-05
8.075358229556,0.00311337
8.078699012577,0.00240294
8.085626678177,0.00286503
8.089924701762,0.000405477
8.090393201613,6.29399e-05
8.099256263294,0.000599803
8.10052253054,9.60927e-05
8.105034756487,0.000274423
8.105467580457,6.67554e-05
8.106498127137,0.00761292
8.107027746625,0.0144768
8.109698748801,0.000122044
8.112215867007,0.010496
8.112855164886,0.0149275
8.125508462884,0.00339428
8.13283242241,0.000146685
8.134613838922,0.000808926
8.135277252133,0.00389845
8.148328640957,0.000300427
8.1523309296,8.7203e-05
8.153809436314,5.9253e-05
8.154418080691,4.82656e-05
8.157203888159,0.0108641
8.158627469277,0.00783678
8.158763549545,0.000172191
8.160394464002,0.000143134
8.168397631586,5.29413e-05
8.176259922916,0.0121621
8.176490604455,0.048307
8.187831556972,0.000262816
8.188242568278,0.000216671
8.188763776534,0.00141124
8.189466478941,0.0518788
8.19291614098,0.0133574
8.195253034288,4.81638e-05
8.209216633121,0.00560892
8.220446473736,5.83424e-05
8.222271690135,9.16055e-05
8.228297353526,0.000198061
8.228349503722,4.98096e-05
8.23263652839,0.00025149
8.235008702762,0.019064
8.237828419965,0.0213132
8.238322891403,0.0383262
8.23941609121,3.4928e-05
8.239645105363,0.000143537
8.239940708375,7.7716e-05
8.243923061296,4.01055e-05
8.244687806275,0.00165204
8.245116547606,8.7119e-05
8.249410164072,0.000159656
8.254995440395,7.36862e-05
8.259876011155,5.62235e-05
8.264826217467,4.81638e-05
8.265650348538,3.4928e-05
8.26800960987,0.000906522
8.272079762635,2.62438e-05
8.272198235205,0.00567265
8.272922974718,0.000782193
8.274190226352,0.000351436
8.276107059194,0.00255322
8.286769329775,4.01041e-05
8.294123244257,6.96563e-05
8.301646381423,0.000935795
8.304441759838,9.85899e-05
8.306173251648,6.13046e-05
8.310933598889,0.00954748
8.315018328169,0.000158118
8.32194963645,0.0121199
8.322671982596,3.5328e-05
8.336647044594,4.95071e-05
8.344347284753,4.01041e-05
8.353932840741,0.00257622
8.366474523272,0.00421906
8.371067655444,4.68205e-05
8.377194418565,0.000178462
8.383154184194,3.3328e-05
8.388142563965,5.35369e-05
8.389592969992,3.56137e-05
8.389845448561,2.536e-05
8.393324229547,3.4328e-05
8.402198147039,4.54772e-05
8.406415036873,5.75668e-05
8.411093350462,3.56137e-05
8.412953510793,7.36862e-05
8.422395281646,4.27907e-05
8.426485728209,0.000968313
8.431448666896,0.00440309
8.439182308284,3.5328e-05
8.449932206716,0.00326584
8.450726029427,0.00541307
8.454811847244,0.000922641
8.462604211936,4.81638e-05
8.464890232679,8.44325e-05
8.47979352689,3.5328e-05
8.491530606317,0.00254533
8.497667639221,0.000155373
8.506106143082,0.000155106
8.507133722579,0.0151223
8.510766163435,6.29399e-05
8.515406329016,4.4134e-05
8.518448250917,4.95071e-05
8.52278962943,4.95071e-05
8.525041779803,0.000150394
8.530514115863,0.000279127
8.530936657881,2.68251e-05
8.531572005363,0.000112031
8.53458929985,0.00500387
8.536329167554,2.73506e-05
8.53710658467,0.000311476
8.537217204721,0.000211181
8.538538969973,0.0142034
8.544310588344,0.000159505
8.544744554757,0.000102134
8.545429428498,7.88677e-05
8.54557738037,0.00899324
8.553545710291,0.0287991
8.553666360285,0.00204435
8.55838658866,8.04026e-05
8.561392440464,4.14474e-05
8.56911705302,3.5328e-05
8.570215398885,3.5328e-05
8.570588707865,3.87608e-05
8.5798867355,0.00138237
8.581583269933,0.00350023
8.588100456895,0.00131488
8.600270167395,0.000844731
8.607225197743,0.000189209
8.621282030853,4.68205e-05
8.621697110536,4.68205e-05
8.622055722729,5.89101e-05
8.62344201634,0.000370552
8.628602824792,0.00207249
8.629713293359,0.000478014
8.631916627411,8.82604e-05
8.63226859242,0.000232194
8.632953753261,0.002141
8.633773187838,3.3328e-05
8.640324300616,5.08504e-05
8.645128146969,0.00420131
8.64778365513,0.000139347
8.647980948941,0.00012288
8.658906765012,0.00339518
8.659835307881,0.00225694
8.663180165534,0.0185249
8.66427880475,4.68205e-05
8.666485105238,0.000356939
8.66983922535,0.00381993
8.681762425367,0.000124831
8.690895543323,0.0103955
8.699519767528,4.27907e-05
8.702340166398,6.56265e-05
8.703188940013,3.4928e-05
8.704104586544,3.5328e-05
8.709084879021,8.7119e-05
8.714481729593,4.68205e-05
8.718299671284,0.00014488
8.721706407924,3.4328e-05
8.723647350874,2.536e-05
8.724865031129,5.21937e-05
8.727897844539,0.000150253
8.729518429304,0.00129339
8.730067331159,3.5328e-05
8.733464581482,7.63728e-05
8.73360030115,0.000349059
8.735083525724,0.000722492
8.741120473107,2.59445e-05
8.748856102825,0.00224609
8.755584918296,0.00905514
8.758038816965,0.000223521
8.760370881299,3.58442e-05
8.763211346316,0.0240383
8.763591487355,6.56265e-05
8.764144733789,0.000383019
8.765643668799,5.05397e-05
8.7671373675,0.0111662
8.774569309068,3.4328e-05
8.777383115272,4.01041e-05
8.778394037081,6.15966e-05
8.789985416803,0.00221853
8.791395806414,0.00411277
8.793625769183,3.6192e-05
8.80665665831,0.00017524
8.8142110046,0.0107908
8.815011406924,9.53359e-05
8.815027663156,0.0219753
8.816677704765,6.56265e-05
8.819206642488,0.00163861
8.821853936802,7.23429e-05
8.822151406068,0.000122044
8.822668287042,0.000341
8.841958880437,0.000995987
8.843660788002,0.00275471
8.845625844958,8.7119e-05
8.856640942143,6.29399e-05
8.858510950482,0.000187865
8.862839697768,0.00419085
8.866081316285,7.16655e-05
8.866292027357,0.00173382
8.869997666408,3.4928e-05
8.870060975333,3.3328e-05
8.871166592723,0.000107268
8.878451809476,3.56137e-05
8.883848987511,6.29399e-05
8.890257135831,4.95071e-05
8.891083465375,0.00023488
8.894048994931,0.000161
8.906563386759,6.94238e-05
8.907926844586,0.000111854
8.913404727133,5.53742e-05
8.914272455954,0.00836963
8.920561564299,6.83131e-05
8.928374699812,0.00764174
8.932689737915,0.0017313
8.935130839811,0.00102834
8.93543976936,3.82698e-05
8.941422745394,0.00837366
8.941880416618,6.83131e-05
8.962269488978,0.000417567
8.965586842569,0.000840701
8.977816993524,4.81638e-05
8.983365898692,6.96563e-05
8.989416888593,3.4328e-05
8.992441523052,3.56137e-05
8.994512138661,5.35369e-05
8.995030741726,8.04026e-05
8.997971626726,0.000631149
8.998061337033,5.75668e-05
9.000783142089,3.4328e-05
9.00400201448,4.4134e-05
9.006914398249,0.000154283
9.008585024298,0.000163396
9.01032460164,9.84585e-05
9.011152254963,0.00169531
9.012359704138,0.00037734
9.015010138336,0.00727642
9.016247403669,7.36862e-05
9.017577065915,0.00135062
9.022724033014,9.11489e-05
9.023824195736,0.000115328
9.034815322776,0.000131447
9.03581746716,0.000925328
9.039856834669,6.83131e-05
9.044780155412,0.00195548
9.049526726122,0.00947191
9.049886557258,5.83472e-05
9.05255853853,0.0024243
9.053263475911,9.46898e-05
9.054078438455,4.24624e-05
9.055801683036,0.0094386
9.056588821612,0.00991956
9.058254225325,2.63772e-05
9.061854016928,0.00013827
9.062933660081,8.69225e-05
9.064483999927,0.0107486
9.065937744701,0.00120744
9.073649508161,0.000190552
9.074201590173,0.00130862
9.076725548739,3.50273e-05
9.078403016476,0.0178029
9.079553964531,0.00193847
9.080961998986,4.4134e-05
9.085105435339,0.000157947
9.088293045929,9.26553e-05
9.092382260407,3.57901e-05
9.094801220076,0.0122974
9.10553286116,0.000109663
9.106173607223,0.00027557
9.106324080519,0.000435307
9.107238830751,0.000152793
9.11079463769,0.0054307
9.11611018239,5.89101e-05
9.135540830696,3.1328e-05
9.136021590883,0.000135477
9.143290718549,5.75668e-05
9.144827470122,0.000107268
9.155816706541,0.000443089
9.159974374901,6.83131e-05
9.16321311238,0.000729208
9.169906317959,0.000893089
9.170338978433,0.000405477
9.177063530501,0.000765477
9.177151119204,8.30892e-05
9.179442025435,0.000828611
9.184224529433,3.5828e-05
9.186064201321,0.00014488
9.195123859852,3.3328e-05
9.204090810802,6.15966e-05
9.20740276874,8.98056e-05
9.209276577883,0.000298014
9.213593457741,0.000645925
9.227626212338,0.00678876
9.229223185944,0.00102204
9.229954059587,0.000198612
9.232339860111,0.00156607
9.234120747809,0.000302299
9.234396095325,0.000131001
9.238045795505,0.000918739
9.240175931007,0.00272246
9.246285019731,6.13137e-05
9.24736822142,3.28882e-05
9.248158867527,0.0173215
9.248710084942,3.5828e-05
9.25079279602,3.32759e-05
9.251763610883,0.00151234
9.254219757902,9.38354e-05
9.254539661025,3.87608e-05
9.255305266014,2.536e-05
9.257916462752,7.4615e-05
9.258143283225,7.1465e-05
9.259134691466,0.000181149
9.260241618014,3.6192e-05
9.264094909525,0.00305593
9.266039993382,0.00204415
9.267834843465,3.44094e-05
9.270005479725,0.000184063
9.271092332511,0.0146733
9.277203467936,0.000126074
9.283522541015,0.000170813
9.283806247492,0.00318204
9.284175541802,0.00336494
9.286385456046,0.000558611
9.292240370991,0.00157413
9.294462560373,3.72226e-05
9.297013429248,3.52653e-05
9.298903135415,0.00653991
9.302602763422,7.41058e-05
9.303559317758,0.00149488
9.30481775441,9.11489e-05
9.310648427049,8.22635e-05
9.311903021373,0.00577038
9.314482768959,0.00150294
9.320138513196,0.000383046
9.32360012149,0.00551516
9.326423915383,7.50295e-05
9.332944622482,0.003513
9.334192396009,0.00536192
9.336347719429,0.000789449
9.337764825454,0.0066039
9.341267692774,0.00251949
9.345340377784,5.88308e-05
9.34825765798,0.0001224
9.351685190015,4.24881e-05
9.35270928379,0.0075198
9.354242982144,4.17473e-05
9.354566742834,0.000231527
9.358159720085,2.68505e-05
9.359122548572,5.37074e-05
9.364231615331,0.0255212
9.366438868024,0.000101503
9.368202663049,4.74343e-05
9.372383240912,0.00010231
9.37447020326,0.000234415
9.381891726756,0.000460119
9.382510228211,0.00447353
9.387516384965,0.0140043
9.389655029241,0.00015554
9.390465698313,0.000203689
9.391749749444,0.000154499
9.392286667498,0.0405415
9.39763080898,0.000170865
9.40158526628,0.0367494
9.402641701298,0.000215542
9.403276316893,0.0235127
9.405680162981,6.83131e-05
9.408660609179,3.38835e-05
9.410187676278,0.000668549
9.413195392497,0.00352197
9.414039726769,0.0705981
9.417547013143,0.00821535
9.423787481449,0.00178369
9.426674332323,3.1328e-05
9.427068330632,2.536e-05
9.431980737874,8.17459e-05
9.43336142858,3.1328e-05
9.433933101898,4.95071e-05
9.445071245423,0.000801746
9.445590714073,3.1328e-05
9.447415823774,0.000902492
9.451793320809,0.0040901
9.461254899314,0.00334458
9.464643649365,0.00155667
9.466857968726,7.36862e-05
9.470419980086,5.62235e-05
9.471133157077,3.87608e-05
9.481468764099,0.00301413
9.481890415994,8.71913e-05
9.483104686286,0.00412889
9.495593562959,3.1328e-05
9.49578772396,5.35369e-05
9.497804690914,3.4928e-05
9.508720123758,0.00807941
9.510152174729,0.00502395
9.515954176541,0.00186565
9.51825653812,0.000165397
9.520656816059,0.000146644
9.522185048876,0.00015596
9.532398274821,0.000351121
9.532434190522,0.000420823
9.533425279286,0.000231574
9.533539648943,0.000199851
9.539038974565,0.00496223
9.540233962069,0.0170316
9.542483146733,0.0169349
9.542928881216,0.000453016
9.543516940167,0.0299159
9.54514618219,0.000135477
9.545324772759,0.0236356
9.552597596889,4.54772e-05
9.570913553881,0.000241597
9.577016326605,0.00127592
9.586498430864,0.000208962
9.590934846785,0.00355761
9.591076311256,0.00432178
9.592524090242,9.05252e-05
9.597436307493,0.000415906
9.60080952659,3.56536e-05
9.603600302715,7.08487e-05
9.603816886219,8.28794e-05
9.60629979244,0.000235885
9.610615676082,0.000215226
9.612131355091,0.00476919
9.617236277668,0.000120266
9.618520482236,0.0348117
9.620690891633,0.00655882
9.625756221822,0.0123414
9.632896597504,0.000541782
9.636258361594,6.6641e-05
9.638033036219,0.000138632
9.639730383447,0.0134653
9.647016290991,3.75079e-05
9.656835213162,0.000542395
9.65779629805,4.89109e-05
9.65801385982,0.0143678
9.658094523952,0.000217323
9.663701625698,0.0209748
9.666577677457,2.81119e-05
9.666775108118,0.0651767
9.670562139147,0.000194585
9.672593085037,0.000262645
9.674607150439,0.0313256
9.678295088122,3.9907e-05
9.679217971026,0.000254044
9.680601242103,0.0359677
9.683505658898,0.000128119
9.684491507317,0.0409842
9.684904932962,0.0410266
9.685881394875,0.0158517
9.68724607231,3.56137e-05
9.687549182358,6.15966e-05
9.692905806766,0.00196858
9.699307064534,0.00872748
9.699981230272,0.000146516
9.703336719211,0.0126363
9.7036066414,4.01041e-05
9.709712291485,4.95071e-05
9.710114598096,0.000179806
9.715112168395,9.11489e-05
9.715968220301,8.04026e-05
9.721231876544,0.000514283
9.723649057714,3.4928e-05
9.728048914501,0.000122726
9.730559647268,0.0069565
9.732205566166,0.0014398
9.733798807307,7.7716e-05
9.737331751637,0.0032116
9.744069578623,0.00214772
9.746765353227,0.00331395
9.747601672062,2.536e-05
9.75416269867,0.00424727
9.764006457715,0.000105925
9.764182359088,0.00226307
9.767561979062,0.000133313
9.772544352545,0.00754637
9.781833205886,6.96563e-05
9.788179956586,3.4928e-05
9.793924000816,0.00503846
9.794744902207,4.54772e-05
9.79546674562,3.4928e-05
9.797626335045,0.000217016
9.799978423602,7.40573e-05
9.800467235373,0.000132911
9.806479516936,0.000484047
9.806920570962,0.00102083
9.814585040554,0.017896
9.816001357699,7.33244e-05
9.81762735127,0.0150894
9.818732704622,0.00301613
9.820418499693,0.0144386
9.822531178967,0.00347534
9.824598186333,0.000143393
9.825943955472,0.0158678
9.826238917593,0.00110974
9.828840264426,0.00562024
9.83277207999,6.15966e-05
9.839406921212,4.4134e-05
9.845837966555,0.000142194
9.85335729999,6.02534e-05
9.864815208802,3.99269e-05
9.865186066246,0.000141553
9.870811872287,0.014096
9.875453372595,7.90593e-05
9.886867307787,3.5328e-05
9.888143302771,3.4328e-05
9.891766585802,4.70328e-05
9.899455537711,5.53678e-05
9.900332669513,0.00892441
9.9115794284,4.14474e-05
9.912338782731,0.000191895
9.913831195566,0.000441745
9.914283713267,0.00173205
9.914737430847,0.000131126
9.915537897428,0.00289195
9.918904307921,0.0042224
9.921153583653,6.83131e-05
9.923388731538,0.00346665
9.927107336095,8.84623e-05
9.927603187863,0.000416223
9.934809925145,8.57757e-05
9.937058102607,3.1328e-05
9.938557459901,4.27907e-05
9.939374463358,9.38354e-05
9.945624018832,0.000510253
9.952057409382,3.83698e-05
9.954975182449,0.00353264
9.960271482885,2.6415e-05
9.96053806077,0.000115128
9.961102415118,0.00337175
9.96769925241,6.90932e-05
9.97205835813,7.13614e-05
9.972936180816,6.50687e-05
9.974213974175,0.0192129
9.974445367569,3.60743e-05
9.977503759443,3.3328e-05
9.978083809857,2.58254e-05
9.982488371065,0.00462725
9.985613917003,0.000151808
9.987397225019,3.51705e-05
9.991060728746,0.00926041
9.993069219375,3.3328e-05
9.994400360637,4.81638e-05
9.995488061248,4.95071e-05
9.997055697997,6.29399e-05
9.997869925069,0.000490104
10.002851083027,0.000515626
10.00428255357,5.08504e-05
10.006074973422,4.95071e-05
10.006384478071,4.81638e-05
10.013671990105,5.75668e-05
10.014390663124,0.000189209
10.014856982461,8.84623e-05
10.015257959812,6.56265e-05
10.016915339674,4.81638e-05
10.021683091608,0.00094279
10.027786973285,8.7119e-05
10.031667219604,8.98056e-05
10.034806052008,0.000116671
10.039874416947,0.000441746
10.04387485785,2.536e-05
10.050574516338,6.15966e-05
10.056854841195,5.89101e-05
10.056903558229,5.08504e-05
10.059452074673,5.08504e-05
10.063042076852,3.5328e-05
10.063493005528,3.60743e-05
10.06680164707,6.04497e-05
10.071315078825,0.00196465
10.072814542736,0.00451802
10.074888546145,0.00948358
10.082994000817,6.98277e-05
10.089821181318,0.00816856
10.09275902806,0.0066523
10.094623008973,0.000136205
10.094715605979,0.0136407
10.103015161982,0.000224911
10.104192606451,9.78653e-05
10.10570676443,0.0120429
10.106286900345,0.000114251
10.107752558936,0.0117339
10.109117403997,4.95071e-05
10.117898494038,0.00327876
10.120948001971,0.000128761
10.127921382288,5.58303e-05
10.133502418185,0.00018341
10.133984481675,0.00242449
10.137208532472,0.00997861
10.13947654335,0.000308761
10.141629043303,4.01041e-05
10.146990166411,6.83131e-05
10.164532696034,7.1195e-05
10.166351180074,0.000152789
10.167812503237,0.000257483
10.169264728999,0.00776633
10.17434499314,0.00221858
10.178025420107,0.0010283
10.180996626269,0.000211001
10.182830373383,0.012523
10.184736406856,0.00168669
10.187347724139,0.000110058
10.203144425986,0.0176706
10.203479406261,0.0252441
