time,CharnySim1.flowGenerator3.flowSynId:vector
0.000357994651,0
0.005762541558,2
0.01217049521,4
0.015000277366,5
0.015900212695,3
0.02511522221,6
0.029350381504,8
0.031213756294,9
0.032531441794,10
0.033933984536,11
0.034494783278,12
0.035323881437,13
0.03753376531,1
0.039378926738,14
0.043130904986,16
0.043855568205,15
0.046724497762,18
0.051172657307,20
0.054430268949,21
0.055865738963,19
0.059341067215,17
0.061593055681,22
0.062854628067,23
0.066756854421,24
0.067274609027,25
0.067300233781,7
0.07208122543,27
0.07313403875,26
0.075052704034,28
0.07580844982,29
0.080661591433,30
0.086462544697,32
0.090280919147,31
0.093035950749,33
0.095741530139,34
0.098072905568,35
0.099849081359,36
0.106940241042,38
0.109996850926,39
0.114146288836,37
0.120706792122,40
0.122417748188,41
0.124195281741,44
0.126100063109,45
0.126401599099,43
0.126970376929,47
0.128498047676,46
0.136300924617,52
0.138041429912,54
0.138533221912,55
0.142569253912,49
0.143106449166,48
0.14343604768,56
0.144287370093,57
0.145358600321,51
0.147798085947,53
0.14799767502,50
0.14935952255,60
0.150109545056,42
0.150419986916,59
0.151719094158,61
0.153084484252,62
0.153295579987,58
0.154348913615,63
0.159539201797,65
0.163185147181,66
0.163576157033,64
0.165393783335,67
0.171430061634,68
0.173196731826,69
0.1769207007,70
0.178583114382,71
0.182450108022,72
0.188612932183,73
0.205652888209,74
0.206282410193,75
0.206601282117,76
0.207267352861,77
0.208970737901,78
0.212203567408,79
0.231006064805,81
0.234707270185,82
0.234787574164,83
0.235636545467,84
0.238830218033,80
0.243167779825,85
0.261708629498,87
0.261784632704,86
0.262988183221,88
0.265848015186,89
0.266899766455,90
0.268809114639,91
0.27642183268,93
0.277934143534,94
0.279142212918,92
0.285221259663,96
0.28730510114,95
0.287832313977,97
0.28892903334,98
0.299465910733,99
0.304825850069,100
0.307604941532,101
0.314282078876,102
0.31906473209,103
0.32380395706,104
0.329899013352,105
0.331290984129,106
0.337804004782,107
0.340285029498,108
0.342091300522,109
0.34288655418,110
0.343019680752,111
0.347724661031,112
0.348822541447,113
0.350607418257,114
0.358064914365,115
0.358391231445,116
0.375783903474,117
0.386174826076,118
0.397548769637,119
0.399925247084,120
0.40545990323,121
0.409602611689,122
0.418378355822,124
0.420406371294,123
0.421906865722,125
0.424150827291,126
0.424786863002,127
0.435792233088,128
0.438236881159,129
0.438917095979,130
0.44142019393,131
0.443248340294,132
0.444286890618,133
0.44921366535,134
0.450931537396,135
0.465106092749,136
0.472524454519,137
0.476857389024,138
0.483453208293,139
0.483719905112,141
0.486802132309,140
0.491091153068,142
0.492443169266,143
0.495189595442,144
0.500861938994,147
0.500866738994,145
0.50185330516,146
0.502538356197,148
0.508645350842,149
0.517570432982,150
0.522953845663,151
0.523799049158,153
0.52827408202,154
0.528494488986,155
0.528573617018,152
0.530913167312,156
0.535564677838,157
0.536995489548,158
0.537152499827,159
0.542864737975,160
0.543070939633,161
0.549310579392,162
0.549708013214,163
0.551643828956,164
0.554253791705,165
0.556647951243,166
0.559529934339,167
0.563316383931,168
0.565671089624,169
0.578294061984,171
0.57923529371,170
0.581914556742,172
0.5878576443,175
0.58860954311,173
0.592423124604,176
0.595423888014,174
0.603711641829,177
0.605328141222,178
0.605526094899,179
0.607181084884,180
0.609878572117,181
0.619829447055,183
0.623429039145,184
0.626743981835,182
0.628016194931,185
0.638868543268,186
0.648109116766,188
0.64893871068,189
0.649080803358,187
0.649803908903,190
0.652853884241,191
0.663665389435,192
0.664472546037,193
0.665501204226,194
0.66919772723,195
0.674362968897,196
0.676398709533,197
0.67787403217,198
0.685011386368,199
0.69683291724,200
0.702000169439,201
0.704915051059,202
0.705289562648,203
0.711208767713,204
0.715341726101,205
0.7164479001,206
0.721177421492,207
0.728722551899,208
0.730721226457,210
0.731423042645,209
0.732857164813,211
0.734313684239,212
0.735281023169,213
0.741742958792,214
0.746964538622,215
0.750962266775,216
0.753400072637,217
0.760308754478,219
0.763097068254,220
0.764148629822,221
0.771858124514,222
0.782483609672,223
0.783321442368,218
0.791175810161,225
0.795247626163,224
0.804857261802,226
0.80684643269,227
0.815357235965,228
0.818598747408,229
0.819918958934,230
0.824733443893,231
0.83037626464,232
0.832588231568,233
0.840981398689,235
0.845728859931,234
0.84802812544,236
0.850306611343,237
0.852920304758,238
0.855227905436,239
0.856446510276,240
0.859279858851,241
0.86095616798,242
0.865107300368,243
0.866183454517,244
0.867206631575,245
0.876623231057,246
0.877313260847,247
0.879869107484,249
0.882543596958,248
0.886414688327,250
0.887505245252,251
0.888382975,252
0.891779694998,255
0.892118685594,256
0.893336223316,257
0.893756538998,254
0.893948255198,258
0.894640353107,259
0.897358551569,260
0.89767744914,261
0.89978247478,253
0.905890502886,263
0.911225391314,264
0.91198778303,265
0.913103873934,262
0.914428852506,266
0.918280414075,267
0.918986925933,269
0.919061883404,270
0.919368001249,268
0.922626090224,271
0.93044164952,272
0.935280748106,273
0.9362546722,274
0.951541013898,275
0.954612838827,277
0.955623269573,279
0.957131455529,278
0.957169855529,280
0.957842248705,276
0.96048795661,281
0.961077610996,282
0.961693320976,283
0.962504703882,284
0.969516202738,285
0.975709522234,286
0.980871459522,288
0.982760602024,287
0.985721987264,290
0.99182304854,289
0.992168711089,291
0.992700278517,292
0.998343907451,293
0.999399948778,295
1.000265903786,294
1.005192919885,296
1.006479984393,297
1.008668588903,298
1.012942357279,299
1.012995464739,300
1.013334095296,301
1.013496863466,303
1.02140602404,302
1.022856598015,304
1.024363649786,305
1.026056410937,306
1.029084657577,307
1.037373811669,308
1.037547295976,309
1.043642795938,311
1.043970696204,312
1.045288100368,310
1.045804008165,314
1.047373892517,315
1.051174857087,317
1.054153065661,320
1.057546681661,313
1.058228800431,319
1.061013675641,318
1.061267547975,321
1.062396356616,322
1.063796507896,316
1.06428227532,323
1.064589161572,324
1.073749210665,328
1.075803496923,326
1.080786285242,329
1.081472379875,327
1.089532417168,325
1.093423437942,330
1.104427706746,331
1.105983629605,332
1.107987395094,333
1.109585264974,334
1.112214650922,335
1.117530376914,336
1.120537576005,337
1.121614228138,338
1.123625095227,339
1.128284313603,340
1.130712227299,341
1.138045982361,343
1.139570060111,345
1.139589260111,344
1.144109197181,346
1.144742126945,347
1.145486418047,348
1.147464151687,349
1.150188586789,350
1.153932176463,352
1.157379570983,353
1.158970068445,354
1.160193361618,342
1.161625881219,351
1.164063241898,355
1.164080409142,356
1.167718733119,357
1.172965758781,358
1.1837108131,359
1.184905328938,360
1.186022583162,361
1.189944588489,362
1.192176262517,363
1.197184291805,364
1.200778592153,365
1.208178900909,366
1.214891223738,367
1.215459451101,368
1.217273911206,369
1.228943759706,370
1.233777550485,371
1.234975729785,372
1.24232543136,374
1.243191995018,373
1.245877043695,375
1.248077620651,376
1.249676186341,379
1.253106871554,377
1.254818882368,380
1.256702558218,378
1.264473631682,381
1.267094053861,382
1.268417426162,383
1.269970829003,384
1.272709012313,385
1.280657761006,386
1.281068454176,389
1.283279560108,387
1.285132552492,391
1.28625236877,392
1.290877485965,388
1.292754012489,390
1.295255966997,393
1.298700489001,394
1.302518147652,395
1.306773986239,396
1.316275158249,397
1.32127613395,399
1.323999186572,398
1.332184139254,402
1.334401724393,403
1.339484246216,400
1.34054676304,401
1.346581508422,405
1.350798874786,404
1.352553433085,406
1.35379995008,408
1.355659330556,409
1.357142413416,410
1.35819192211,407
1.359930905243,411
1.362665050538,412
1.369695754257,413
1.3716853238,414
1.375558025526,415
1.386219449382,416
1.388805883093,417
1.395877928116,418
1.399787862131,419
1.403825635518,420
1.413623175691,421
1.420699929742,423
1.422661848524,422
1.42368132027,424
1.424171149642,425
1.426013322383,426
1.427459978518,427
1.42771605759,428
1.42888652669,430
1.429298893608,429
1.435679200471,431
1.436557297995,432
1.442053981439,433
1.454319921975,437
1.454665905975,438
1.458114830607,436
1.460396772377,439
1.460599463275,440
1.463161147374,434
1.465583078826,435
1.46671414147,441
1.468082823285,442
1.468873808329,443
1.473698063372,444
1.483584911784,446
1.483678320948,445
1.485574269859,447
1.49040644707,448
1.49055563351,449
1.492043716496,451
1.498000578268,450
1.498927309953,452
1.504697726024,453
1.514219264917,455
1.516886548267,454
1.521621417953,456
1.526253381896,457
1.540629963986,458
1.54144383072,460
1.545734968554,461
1.548829361336,459
1.560655267287,462
1.565680344989,463
1.567370797597,465
1.567604213875,464
1.568915561387,466
1.569789910709,467
1.572931000719,468
1.577079233228,470
1.578687895449,471
1.579230749462,472
1.583599703274,469
1.589554964961,474
1.592865199941,475
1.592912493213,476
1.594626978752,477
1.597902220354,473
1.598100933289,478
1.601362026025,480
1.60298470752,481
1.604493873641,479
1.609409942548,483
1.61074176141,482
1.616987544559,484
1.622182848376,485
1.622864991617,486
1.625052923606,487
1.630962649315,489
1.631379429127,488
1.632306920478,490
1.636182936895,491
1.639786649873,492
1.653179612758,493
1.656803570488,494
1.657734352077,495
1.659191532538,496
1.663980115071,497
1.673787314533,499
1.673924374329,498
1.675601078177,500
1.681828063728,501
1.684141126836,504
1.686025014836,503
1.686190362898,505
1.691055127612,507
1.693257909498,508
1.695396809381,509
1.695513870836,502
1.69828151025,511
1.701636424216,510
1.702982487212,512
1.703524657558,513
1.706177683226,506
1.716160640517,514
1.716199366259,515
1.717147537378,516
1.718607433084,517
1.71887205665,518
1.721298113359,519
1.723609450064,520
1.726000381287,521
1.73061489598,523
1.733394351839,522
1.738339119446,524
1.742947690885,525
1.744387346557,526
1.745445824979,529
1.747011760069,530
1.751235777337,531
1.751253971407,527
1.751260049035,528
1.753523760638,532
1.760432553488,533
1.76064644686,534
1.774616974095,535
1.775089472145,536
1.778707845038,537
1.781212984076,538
1.783379609604,539
1.79079462695,540
1.791110480949,541
1.791717763535,542
1.794504635421,543
1.79916459684,544
1.79966403149,545
1.800503395931,546
1.802966879794,547
1.812356793411,549
1.813931157133,550
1.820151118333,551
1.820399608891,552
1.820964967731,548
1.821740511643,553
1.824787635439,554
1.840063180757,555
1.842355895193,556
1.860452124731,557
1.863496606696,558
1.867947060801,559
1.883508869386,560
1.895145473841,561
1.895166083047,564
1.895865317317,563
1.896428317341,562
1.900141587103,565
1.900281951931,566
1.910525941705,567
1.911762714748,568
1.918308692573,569
1.924902189837,570
1.925587574542,571
1.925640822451,572
1.929921692272,574
1.93003568037,575
1.930368754648,576
1.930907361566,573
1.931584785195,577
1.932361517908,579
1.932887318098,578
1.934353559842,580
1.9420072962,581
1.944431675334,582
1.949013342301,583
1.950055114978,584
1.952576012755,585
1.957057015453,586
1.959969380216,588
1.961093721988,587
1.962547646214,589
1.963005493105,590
1.965346661568,591
1.968083368171,592
1.970584528551,593
1.970803248995,594
1.972789885707,595
1.973318893234,597
1.973848332238,598
1.981516408106,599
1.988564862326,596
1.99390900697,603
1.996409140746,600
2.000292741317,605
2.000523894421,604
2.000618790421,601
2.000687242314,606
2.001121727031,607
2.001558371771,602
2.004032212155,608
2.013813117743,609
2.015655296884,610
2.017759176172,612
2.021514633102,611
2.022201227631,613
2.023570386032,614
2.024784535586,616
2.028355122392,615
2.0295619979,617
2.03176131478,618
2.039041642834,619
2.045746114957,620
2.048879002926,621
2.050151416592,623
2.053761178644,622
2.056637779754,624
2.068323195037,625
2.069204141955,626
2.072999884097,627
2.081083202297,628
2.083482764081,629
2.084764753848,630
2.086387471073,631
2.089467474391,632
2.089836500257,633
2.100939435562,634
2.111338976916,635
2.11826260771,636
2.12282941274,637
2.125735221938,639
2.126031161946,638
2.12994639406,640
2.130086904485,641
2.132287415474,642
2.133185647251,643
2.133428615978,644
2.143245614325,645
2.145685853954,646
2.149892271488,648
2.153479366846,647
2.154045781288,649
2.158222563823,650
2.158249670237,651
2.162926727592,652
2.163933978422,653
2.165680266464,654
2.167063850301,655
2.171230917859,656
2.17185817311,657
2.174683999175,658
2.175737810043,659
2.177433902707,660
2.179461087074,663
2.18160260043,662
2.185137876896,664
2.185458841866,665
2.190561304076,666
2.19914856416,670
2.202219410342,669
2.203005119853,667
2.20352599341,668
2.204326996056,661
2.20858027008,671
2.211752344345,672
2.212543603163,673
2.216069902964,675
2.21734953569,674
2.226633989268,677
2.227490407936,676
2.228054505317,678
2.229115069662,679
2.234719617863,681
2.235741106646,683
2.237794667224,680
2.243380456323,682
2.245185632121,685
2.246179889623,684
2.250822908721,687
2.253331679013,686
2.256838996064,688
2.26082312023,689
2.264851966033,690
2.268896452624,691
2.273831469793,692
2.275559029728,693
2.278878839607,694
2.286033730563,695
2.294168463897,696
2.295190943027,697
2.307130164698,698
2.310443093414,699
2.314008714271,700
2.31796001308,703
2.318685617325,702
2.321560146494,704
2.324571891298,701
2.330639205145,705
2.330998456068,706
2.337449722123,707
2.337833668757,708
2.343939404676,710
2.344390565858,709
2.355827801218,711
2.358204923695,713
2.359792013671,712
2.36140258962,714
2.363863857352,715
2.36772712945,716
2.37584165312,717
2.384373322016,719
2.385482303486,720
2.389846588878,722
2.3922999462,723
2.398673697603,725
2.402459972078,726
2.403702475738,727
2.406716978135,721
2.407213212288,724
2.409207480446,730
2.412818116816,731
2.423367155778,734
2.43138758602,735
2.43362677114,736
2.444552195134,738
2.445541419094,729
2.445994043833,737
2.448133080538,739
2.448944737571,740
2.448960337571,718
2.453377626042,742
2.454027317835,743
2.454707253835,728
2.458106725337,744
2.464625871774,741
2.466441738567,745
2.473797884757,746
2.477227410201,748
2.478886865983,749
2.482391403857,750
2.486520721965,755
2.489414497965,751
2.489837505965,733
2.490070657965,754
2.492473217965,732
2.493095165557,753
2.495122244369,747
2.496023595323,756
2.496198564958,752
2.498531384565,757
2.50149192759,758
2.508993736707,760
2.509866001197,759
2.510325513788,761
2.515536715774,762
2.516365831255,763
2.51805705667,765
2.520314638674,766
2.531729251556,767
2.535642495638,764
2.536177987357,768
2.536523308545,769
2.538631076616,770
2.539586717896,771
2.547115209419,772
2.551003220666,774
2.551499224276,775
2.552687185464,776
2.556476599356,778
2.557593259794,773
2.559363179243,777
2.561965492375,779
2.567232817113,780
2.56935490698,781
2.573442282249,782
2.575061210598,783
2.580059795286,784
2.582974240187,785
2.589069944777,786
2.590177174636,787
2.593988212054,788
2.594905415697,789
2.596573866282,791
2.597407159776,792
2.598218563544,790
2.604550252936,793
2.608405438232,794
2.608938344264,795
2.612573208512,796
2.613102728469,798
2.614450245815,799
2.618172561463,797
2.619981953463,801
2.623813642843,803
2.624342550248,802
2.624812157552,804
2.627594561897,805
2.628135009635,800
2.630386349738,806
2.631942813378,807
2.63472297093,808
2.635946102139,809
2.643048762944,811
2.64741532288,810
2.651067439281,812
2.656353435386,813
2.657143834407,814
2.663350723928,816
2.663656319092,815
2.665978968291,817
2.667224821249,818
2.672842307937,819
2.675090737039,820
2.677239139971,821
2.700439985503,822
2.700712968344,823
2.706545110883,824
2.7096927864,825
2.713001423554,826
2.713994502378,827
2.715932136822,828
2.716302851574,830
2.717266949794,829
2.721938359164,833
2.723702391154,834
2.725763192165,832
2.726633252292,831
2.73524677521,837
2.736206073578,835
2.736698008861,836
2.737350616622,838
2.743211007678,839
2.743492031715,840
2.747634373914,841
2.747870019012,842
2.756282010206,843
2.756869633742,844
2.759813694387,845
2.772631454012,846
2.783582708824,847
2.784658753748,848
2.787608789921,849
2.789014508094,850
2.789126667116,851
2.792573569296,852
2.803393039893,854
2.805864054209,853
2.813562788121,856
2.813880899127,857
2.817650629522,858
2.826362028718,855
2.829091727688,859
2.85324356018,860
2.858210488323,862
2.863033390425,863
2.866106202269,864
2.868075628939,865
2.871799005821,861
2.87924149381,866
2.888911183874,867
2.891297641732,868
2.893897827929,870
2.900444256983,871
2.906829225519,872
2.922946747861,874
2.92719932319,875
2.929842660767,869
2.935195481428,877
2.935434707769,876
2.938514488927,878
2.940500746932,879
2.943372977278,873
2.948271858446,880
2.951266095096,882
2.951556049426,881
2.956150360955,883
2.957673688131,884
2.959224216027,885
2.961659979772,886
2.965666144944,887
2.971658457923,889
2.974468848207,888
2.979940498787,893
2.981903628257,892
2.985256165723,896
2.986663091643,897
2.987415147579,898
2.987464379579,895
2.987805652467,890
2.988315831588,891
2.991551986463,899
2.991559186463,900
2.991621782471,894
2.994324835395,901
2.999198491985,902
3.001270369112,903
3.008321569391,905
3.012302944783,904
3.026791561297,908
3.029045380281,907
3.031761956281,910
3.031884889601,911
3.031906199672,909
3.036011981875,906
3.038607317961,914
3.040844488027,915
3.046113434604,912
3.05018402473,916
3.052501820474,917
3.054332276731,918
3.064030488406,919
3.067134714072,920
3.067380846909,913
3.072978283925,921
3.074908045639,922
3.081552732998,924
3.082901730648,923
3.087854747116,925
3.089205865422,926
3.0967982646,927
3.098513889182,929
3.10049194627,928
3.10421897803,930
3.113073656213,931
3.135522821174,934
3.136446727364,936
3.136642551364,937
3.140005540397,938
3.140989458411,935
3.145910891236,941
3.146221876929,939
3.146351668929,942
3.146986100412,932
3.150175269748,944
3.151984490612,945
3.153356792324,946
3.156970020375,940
3.161535744549,947
3.162213689691,943
3.170986730248,950
3.17790128291,949
3.178810012612,933
3.180339169082,951
3.181177403568,948
3.181900682694,952
3.183457947356,953
3.186640912591,955
3.189395462789,954
3.194800013612,956
3.208607365185,957
3.20870519166,958
3.230963281508,959
3.231008678402,960
3.239898000289,964
3.240229442743,962
3.240677639603,961
3.243084507613,965
3.243913123199,963
3.248031726393,966
3.248077137385,967
3.250055235702,968
3.254127872579,970
3.256887514093,969
3.257143996916,971
3.2572387969,972
3.260322857718,973
3.262645879895,974
3.266603226322,976
3.269481987484,977
3.269542793918,975
3.275541519055,978
3.28108535655,980
3.281924759198,979
3.28856193256,981
3.297747540754,983
3.297814804754,984
3.30248437877,982
3.30616302734,985
3.307206853665,986
3.312675754579,988
3.316130234691,987
3.316710540951,989
3.323139733174,993
3.328946376532,995
3.332286362754,991
3.333823070794,990
3.334742931985,994
3.336549000293,998
3.337202708554,997
3.339278962146,999
3.340559060724,992
3.340628596719,1000
3.34172678251,1001
3.3432781629,996
3.345918145377,1002
3.346701691149,1003
3.348129517066,1004
3.349320043806,1005
3.358103094394,1006
3.367293542606,1007
3.373300367888,1008
3.382009497252,1009
3.38576251054,1010
3.406017645247,1013
3.407757887294,1014
3.407826000299,1011
3.408145607264,1012
3.412823070903,1015
3.417229321427,1017
3.417334902997,1018
3.417426078357,1016
3.425426987239,1019
3.426920116604,1020
3.428801815359,1021
3.429866637319,1022
3.436228233542,1023
3.438121745299,1024
3.43890641427,1025
3.441570110277,1026
3.447385950052,1027
3.449361634823,1029
3.449692637515,1028
3.452066009202,1030
3.459797071156,1031
3.462763377815,1032
3.464640705067,1033
3.468976401912,1034
3.469525819782,1035
3.480499737095,1036
3.487296257093,1037
3.496182769299,1039
3.498398290886,1041
3.500346188737,1042
3.5005719519,1040
3.500861123919,1043
3.502856088662,1045
3.509167878804,1048
3.513635574086,1049
3.513674006086,1047
3.515115520525,1050
3.515917237438,1052
3.518812954828,1051
3.519048342649,1046
3.521670624472,1053
3.524568548277,1054
3.525120581907,1055
3.528000518826,1056
3.530327678041,1058
3.530370910041,1059
3.532939888106,1044
3.537949947087,1057
3.539242606579,1061
3.541479337397,1038
3.544026853845,1062
3.550479194559,1060
3.560755593907,1065
3.563118440559,1067
3.564696070399,1069
3.565201814399,1066
3.566059478399,1063
3.567052710399,1070
3.569304202295,1071
3.569349930295,1073
3.570247251196,1072
3.570325347196,1074
3.570877571194,1068
3.57146266015,1075
3.571498988165,1076
3.572900553753,1078
3.573206745753,1064
3.585992023126,1079
3.58815349158,1077
3.591498466736,1080
3.593225955919,1081
3.59569041272,1083
3.595917988298,1084
3.596718738652,1082
3.598255710849,1085
3.599060936199,1086
3.603315232832,1087
3.608242676167,1088
3.614034730756,1089
3.616659615719,1090
3.621546858742,1091
3.625383851676,1092
3.628364101707,1093
3.628444355349,1094
3.631201118325,1097
3.632522655848,1098
3.634636756137,1099
3.636029763653,1100
3.637606652007,1102
3.637660748007,1101
3.639306519201,1103
3.64955837936,1105
3.652816988803,1104
3.654916422575,1106
3.65709189343,1108
3.66328763079,1109
3.665108909366,1107
3.666127414246,1110
3.666630965789,1111
3.666961527698,1096
3.668723927869,1112
3.672310800095,1113
3.672608047205,1095
3.679820404175,1114
3.686423153021,1116
3.687319859289,1115
3.693348782393,1117
3.694406474086,1118
3.695674614233,1119
3.697148655781,1120
3.699066486289,1122
3.701095988123,1121
3.711921517369,1126
3.711947949369,1125
3.713646287929,1123
3.714583893961,1124
3.717682946457,1128
3.719078821467,1129
3.719427320957,1130
3.721721467111,1131
3.72603671959,1132
3.727119166722,1133
3.728687017882,1127
3.733924903829,1135
3.735433493804,1136
3.738203599274,1138
3.739576392135,1137
3.73980792628,1134
3.741653680665,1139
3.748702608498,1140
3.750719818707,1141
3.754679449715,1142
3.755620557172,1143
3.761460611587,1145
3.762355194351,1144
3.763100400558,1146
3.76407043799,1147
3.765426799314,1148
3.788502115675,1149
3.788869719297,1150
3.7896551431,1151
3.792382518489,1152
3.797310947868,1153
3.799436883965,1154
3.805225836133,1156
3.805908480953,1155
3.807634624631,1157
3.808871185682,1158
3.809312159801,1159
3.812947383956,1161
3.816019707046,1160
3.817988100927,1162
3.822674524479,1163
3.82493431021,1165
3.82583550628,1164
3.827175705146,1166
3.828276439741,1167
3.836525781295,1168
3.850741096573,1169
3.85155116196,1170
3.863136391913,1171
3.868035405411,1172
3.87504935073,1173
3.878851151142,1174
3.88179116313,1175
3.88284059846,1176
3.888362753846,1177
3.88885511658,1179
3.889100162744,1178
3.89129074688,1180
3.897819551316,1182
3.905318244362,1181
3.907446573553,1183
3.910225752235,1184
3.914957654025,1185
3.915338312587,1186
3.93182938103,1187
3.936081802439,1188
3.937313045001,1189
3.948982503784,1190
3.951952563915,1191
3.961376546703,1192
3.965313091532,1193
3.969066431287,1194
3.971688418991,1195
3.973159624705,1196
3.976212861573,1197
3.98502875505,1198
3.989778707301,1200
3.991012015369,1201
3.992087038071,1204
3.993457005249,1203
3.99432547328,1199
3.994678309521,1202
3.995603485232,1205
4.007107069302,1206
4.009102066127,1207
4.011445787669,1208
4.013399582684,1209
4.017248827538,1211
4.017910378582,1213
4.019397934892,1212
4.020094619648,1214
4.02145377466,1210
4.027739464589,1215
4.029953473285,1216
4.034405852045,1217
4.042269917073,1219
4.043355742403,1218
4.043453435675,1220
4.051448354553,1221
4.060789244037,1223
4.062353746109,1222
4.067594137734,1224
4.083183614377,1225
4.086576003741,1226
4.088677933987,1227
4.089998469626,1228
4.09041192804,1229
4.100768617197,1231
4.102755394505,1232
4.107463990019,1233
4.107913960215,1234
4.110738875953,1230
4.116941813281,1235
4.124139769823,1236
4.124977129652,1237
4.125267055876,1238
4.127982315216,1239
4.129487052811,1240
4.132081832573,1241
4.14049485639,1242
4.146239776079,1243
4.149582540389,1244
4.149739192231,1245
4.158868256489,1246
4.158937299847,1247
4.166053530859,1248
4.169318974953,1250
4.172640649431,1252
4.172673049431,1249
4.174991901115,1251
4.189555849228,1253
4.191750278936,1254
4.191767078936,1256
4.193930110126,1257
4.194290522642,1258
4.197863361052,1260
4.202154825736,1255
4.202990923722,1261
4.204254306444,1263
4.205963442444,1265
4.206649988634,1259
4.206857227295,1262
4.208131828756,1266
4.211541194912,1269
4.212212634518,1270
4.215393015152,1268
4.218003215429,1264
4.219553739881,1271
4.223757356357,1267
4.224928251863,1274
4.225382131621,1272
4.225430570078,1273
4.230919058361,1275
4.231563959771,1276
4.233536018889,1277
4.234659678336,1278
4.235853282626,1279
4.243843383973,1280
4.245142700795,1281
4.260098989462,1284
4.2631970096,1282
4.263836197227,1283
4.270190467995,1285
4.270558937277,1286
4.276044533879,1287
4.280072599025,1288
4.281523752519,1289
4.285727899731,1290
4.28778439181,1291
4.291963705719,1292
4.293191086418,1293
4.293339309637,1294
4.29906036238,1295
4.30208450815,1296
4.306563858563,1297
4.306604783041,1298
4.307579443928,1299
4.308384221932,1300
4.310448416329,1302
4.314673046823,1301
4.318438024269,1303
4.320577197834,1304
4.321225395144,1305
4.325948504026,1306
4.330823545476,1307
4.332777291544,1310
4.333567462274,1309
4.341780731475,1312
4.342024611793,1314
4.344079312097,1313
4.345460585625,1317
4.345482281625,1318
4.346138291706,1319
4.346544467706,1320
4.350339490578,1316
4.353386913462,1321
4.361616670878,1315
4.365514975998,1323
4.367329884778,1324
4.367488940025,1308
4.367901851927,1322
4.369489840877,1325
4.371598577971,1311
4.373036885466,1326
4.376282449689,1327
4.388426017491,1328
4.389507675715,1329
4.39518917889,1330
4.398868425319,1331
4.401011578512,1332
4.404557208856,1334
4.404685851606,1333
4.406575138269,1335
4.417158860194,1338
4.418907510802,1336
4.43239663354,1339
4.432548671726,1341
4.433307646457,1340
4.440603621947,1337
4.4482539139,1342
4.451418521609,1343
4.455970702933,1344
4.460829526127,1345
4.461863140182,1346
4.462824381123,1347
4.465353571921,1348
4.466729996586,1349
4.478128173927,1352
4.484085894007,1353
4.484156398157,1354
4.491396820564,1355
4.495427020691,1351
4.501337978455,1350
4.503353183895,1357
4.504051274095,1356
4.50780515313,1359
4.510002055097,1358
4.514948780461,1360
4.51738157487,1362
4.517839793736,1363
4.518075528462,1361
4.520327571248,1364
4.534733529038,1365
4.537019640515,1366
4.540272942427,1367
4.541212044125,1368
4.545389468571,1369
4.553340815614,1370
4.554001507726,1371
4.559708201435,1372
4.560426233127,1373
4.564142300546,1374
4.565729973954,1375
4.568069401846,1376
4.569232471697,1377
4.573605979692,1378
4.575496759662,1379
4.575969483736,1380
4.582615081977,1381
4.585800654082,1382
4.59060391522,1383
4.596078193587,1386
4.596844501272,1387
4.597825028318,1385
4.59909284252,1388
4.599811978558,1384
4.603477429032,1389
4.603631238074,1390
4.605481779852,1391
4.606301184262,1392
4.611748159483,1395
4.614483581741,1393
4.615223705767,1394
4.618180472308,1396
4.618581581741,1397
4.625720400211,1398
4.626055250487,1400
4.626061421915,1399
4.626093092828,1401
4.62791282497,1402
4.628945951405,1403
4.636380792514,1404
4.641512277526,1406
4.642040652724,1407
4.645532086324,1405
4.64679839062,1408
4.647042000697,1409
4.650075405629,1410
4.652369749862,1411
4.656488560636,1412
4.662331640387,1413
4.664903232479,1414
4.665112941457,1415
4.67567420717,1416
4.676560196653,1417
4.684296225109,1418
4.691689141505,1419
4.695390729928,1420
4.698835538815,1421
4.701233032367,1422
4.707651935419,1424
4.711637632823,1423
4.715867356559,1425
4.724610663189,1426
4.726262099044,1427
4.729580702366,1428
4.730388461079,1429
4.731053872503,1430
4.732089178585,1431
4.733817165073,1432
4.741984288317,1433
4.742935972293,1434
4.75369634472,1435
4.754361298592,1436
4.754737126512,1438
4.760457203726,1439
4.76162282028,1437
4.763478140775,1440
4.763626443883,1441
4.767533179932,1443
4.768987427902,1442
4.770920119343,1444
4.776078437737,1446
4.778900496591,1445
4.779372632297,1448
4.784502146883,1450
4.791430253157,1451
4.794173065823,1453
4.799539686294,1449
4.799554641043,1452
4.802367213087,1454
4.803766685818,1455
4.805365321238,1447
4.806523977513,1456
4.819020462934,1457
4.824768325534,1460
4.82708411188,1459
4.828534481739,1458
4.830065311512,1461
4.834121855088,1462
4.834553416899,1463
4.839187812237,1464
4.845474922844,1465
4.847409396128,1466
4.857267771852,1469
4.857408089774,1468
4.859464096416,1467
4.865272613471,1470
4.879030744968,1474
4.879898424968,1477
4.881704520968,1478
4.882608200968,1475
4.884956843742,1479
4.886441153604,1481
4.887747289576,1471
4.890097115644,1473
4.890380553612,1476
4.897403974556,1472
4.902998302333,1482
4.911494658438,1480
4.911620752278,1483
4.915051150454,1484
4.917040317053,1485
4.927998871886,1486
4.932418732805,1488
4.933418163915,1489
4.934984018009,1487
4.940280845919,1490
4.940366022238,1491
4.944543980524,1492
4.947095162143,1493
4.952453361032,1494
4.968021606641,1495
4.972145332602,1496
4.977857959174,1499
4.978032509554,1500
4.978614114058,1498
4.979251442491,1497
4.987598538347,1501
4.988924462595,1502
4.993262645923,1503
4.999426832185,1505
5.003648688199,1504
5.006098825157,1506
5.010943473257,1507
5.013491678021,1508
5.015838179859,1509
5.017659377244,1511
5.017670209244,1512
5.019762290482,1510
5.02748008718,1513
5.031837336734,1514
5.03360867151,1515
5.035123270589,1516
5.036654246728,1517
5.037423684395,1518
5.045328685965,1519
5.046989781793,1520
5.054320865526,1521
5.058377695654,1524
5.058641919654,1525
5.059468613967,1526
5.059935364411,1527
5.060349161453,1522
5.063241697331,1528
5.065631198129,1523
5.072998287847,1529
5.074914816698,1530
5.078163183005,1533
5.078491407194,1534
5.078906511871,1531
5.079318186746,1532
5.091925985887,1535
5.096064206529,1537
5.096366772209,1536
5.097525064377,1538
5.107225627017,1539
5.109835962557,1540
5.114077419354,1542
5.11415978735,1543
5.115655652526,1541
5.117617020199,1544
5.119208830041,1545
5.130160759304,1546
5.138408142982,1547
5.141372363192,1548
5.154800300171,1549
5.159155593472,1550
5.163221552192,1551
5.1641204727,1552
5.16569236022,1553
5.172652857373,1554
5.185809643565,1556
5.186690225813,1555
5.198328218083,1558
5.199699881027,1557
5.201937954014,1560
5.20381056892,1559
5.206193465487,1561
5.214824719198,1563
5.218727743788,1562
5.219029190511,1564
5.222965246867,1565
5.242890792009,1567
5.246331642706,1568
5.247323593108,1569
5.252562375834,1570
5.254899804738,1566
5.25568148402,1571
5.259795292811,1573
5.261860364137,1572
5.264013011594,1574
5.264279800138,1575
5.264540995604,1576
5.265568169512,1577
5.268508193589,1578
5.270022734692,1579
5.271568271018,1580
5.272897230861,1581
5.274981967581,1582
5.279259348278,1583
5.284119164667,1584
5.285714024606,1585
5.287169605872,1586
5.288864507049,1587
5.29194426299,1588
5.293120563759,1589
5.299925031473,1591
5.300631602163,1592
5.301466213823,1590
5.304904676228,1593
5.306049920015,1594
5.309183476345,1596
5.310019184501,1595
5.311292985781,1597
5.314820818665,1598
5.315060928347,1599
5.320904586026,1600
5.322014021521,1602
5.323079326454,1601
5.326164912193,1604
5.327122341103,1605
5.331091346807,1603
5.334179262211,1606
5.336738969419,1607
5.339327668774,1608
5.342866727441,1609
5.347880079675,1611
5.349659889563,1612
5.352288287393,1610
5.354660285005,1613
5.360992006631,1614
5.369068564878,1616
5.369634898756,1617
5.370050906688,1618
5.370370244734,1619
5.370671367989,1615
5.371167664586,1620
5.372140822251,1621
5.376519495759,1622
5.376901038972,1623
5.382061685728,1625
5.383214074206,1626
5.384344515558,1624
5.387927293082,1627
5.391014102614,1628
5.39252626131,1630
5.39315868257,1629
5.39740888779,1631
5.410701705759,1632
5.412611373512,1633
5.414301914018,1634
5.424238617332,1635
5.427739972075,1636
5.434518830264,1637
5.437027326059,1638
5.438079593611,1639
5.439304889757,1640
5.440430707149,1641
5.445758766672,1642
5.447711543166,1643
5.450123586974,1644
5.451427962987,1645
5.45262338238,1646
5.452696151466,1647
5.457008819148,1648
5.461354463154,1649
5.46232808834,1650
5.465985287979,1651
5.466507299402,1652
5.469822233718,1653
5.478260504891,1654
5.483922224069,1655
5.491095710272,1656
5.496718882689,1657
5.512874852419,1658
5.512920754182,1659
5.517035550143,1660
5.51715436523,1661
5.518791264161,1662
5.519998344606,1663
5.523333103105,1664
5.530637419651,1665
5.531936083723,1666
5.538816703458,1667
5.541676442395,1668
5.542670834425,1669
5.548899101381,1670
5.551398727249,1671
5.55186152663,1672
5.559360652445,1674
5.565757728469,1676
5.570095504124,1677
5.572221263516,1678
5.573672098029,1675
5.574901850477,1679
5.576992697517,1673
5.586395546195,1680
5.588281933667,1681
5.593746592651,1682
5.596700183371,1683
5.602272282577,1684
5.607836838566,1687
5.60997248401,1685
5.610579985074,1686
5.614476705958,1688
5.616617276551,1690
5.616648508551,1691
5.617151928535,1689
5.624406566384,1692
5.625981566141,1693
5.627971912619,1694
5.628920636661,1695
5.63113411421,1696
5.632379629528,1697
5.633761439909,1698
5.63406697429,1699
5.639061457143,1700
5.642331579135,1702
5.642672123687,1701
5.650903520253,1704
5.652149984415,1703
5.657688202959,1705
5.661879274089,1706
5.664172237196,1707
5.664637502227,1708
5.66596407371,1709
5.675351166304,1713
5.677385057602,1715
5.677902365884,1714
5.679645025634,1716
5.68152372726,1717
5.68299046326,1718
5.684970156913,1719
5.685609949599,1720
5.686336174986,1721
5.686856466936,1722
5.692063650936,1724
5.694534866936,1712
5.695902703753,1726
5.696096095753,1725
5.696769699082,1727
5.70405041999,1729
5.709017903232,1728
5.710171617558,1723
5.713750279204,1730
5.714733437656,1731
5.71529459638,1732
5.715606298015,1733
5.71847635173,1711
5.720509791874,1710
5.727136518893,1734
5.730085837281,1735
5.731033179157,1736
5.731077216994,1737
5.732701298707,1739
5.734948881793,1740
5.735474054145,1741
5.735714215869,1742
5.741585897869,1744
5.745689918005,1745
5.746957640704,1746
5.748096632912,1747
5.750225950233,1748
5.751466752853,1749
5.752656759036,1743
5.755267805509,1750
5.760315287291,1752
5.762611663901,1753
5.762875363815,1754
5.764888836961,1755
5.765326525623,1738
5.766529248297,1756
5.767163503945,1757
5.767425481689,1751
5.775465316612,1758
5.778385553816,1759
5.783178968813,1760
5.78681051153,1761
5.792877536856,1763
5.792887916871,1762
5.809613177709,1764
5.810459874581,1766
5.814199332633,1767
5.818574876303,1765
5.819412048534,1769
5.819462255949,1768
5.820326419056,1770
5.820563495149,1771
5.821608866811,1772
5.823665291126,1773
5.824066940996,1774
5.825649808734,1775
5.840148477671,1776
5.843530180313,1777
5.84523978007,1778
5.845345047944,1779
5.847977495275,1780
5.848738773146,1781
5.849863578803,1782
5.856124657195,1784
5.857455036357,1785
5.857560828357,1786
5.857996007293,1787
5.860497318737,1789
5.861382661777,1790
5.865399037279,1793
5.865657161941,1783
5.865857536043,1791
5.867089263083,1792
5.869865983717,1794
5.877122488223,1788
5.882704458586,1797
5.885193691492,1798
5.886879583794,1795
5.887815747318,1796
5.888633621883,1799
5.896611924336,1800
5.898702943353,1801
5.912200319832,1802
5.916500724925,1803
5.918022412618,1804
5.921560677119,1807
5.924058807336,1808
5.934893836282,1806
5.936190467004,1805
5.942408095534,1809
5.944274883103,1810
5.951308902098,1811
5.96729529197,1814
5.973812375844,1815
5.974530018494,1816
5.977039783666,1817
5.978907237175,1813
5.979265738859,1818
5.990451939321,1820
5.990664317479,1819
5.990670399033,1821
5.991640466845,1822
5.995178665375,1823
5.996422937285,1812
5.996427737285,1824
6.006621656259,1825
6.019587051322,1827
6.026491989901,1828
6.028391842445,1829
6.028920258051,1830
6.029535204677,1826
6.035290455318,1833
6.035617095784,1831
6.035705758472,1832
6.036355938578,1835
6.03752639787,1834
6.042876354297,1836
6.043521563808,1837
6.048391797768,1838
6.05605409216,1839
6.057661525123,1840
6.061886570632,1841
6.064951630107,1842
6.066337138807,1843
6.066427966141,1844
6.078683082904,1845
6.088251493516,1846
6.089757249919,1847
6.091632072346,1848
6.092275045029,1849
6.092605569867,1850
6.094950775614,1851
6.101411516852,1854
6.101894887282,1853
6.103028471248,1856
6.104184233149,1852
6.106303143241,1857
6.106696086289,1855
6.109695739922,1858
6.112252144793,1859
6.115078218688,1860
6.117290335495,1861
6.11838629628,1862
6.126978038796,1863
6.127250521061,1864
6.131216013066,1866
6.13265921349,1867
6.134044556878,1865
6.134242193873,1868
6.134828889585,1869
6.14245454894,1871
6.147942040531,1870
6.149400668282,1872
6.149989385115,1873
6.152580682154,1874
6.160510440184,1875
6.167069682029,1876
6.169289870332,1877
6.172872327594,1878
6.181131644571,1879
6.183298962257,1880
6.188077796558,1882
6.193400082334,1884
6.19469373654,1883
6.195901289444,1885
6.200194209457,1886
6.202132469715,1881
6.206145650812,1887
6.213030212758,1888
6.213494084447,1889
6.216384230895,1890
6.216884014467,1891
6.223311648663,1892
6.223716434201,1893
6.226240564995,1894
6.235281116089,1895
6.237681537695,1896
6.243601785523,1897
6.250165181712,1898
6.251913557459,1899
6.258341949591,1900
6.267001260476,1902
6.268669933354,1903
6.268694165171,1904
6.269428357126,1901
6.27198180246,1905
6.274032499655,1906
6.280587418363,1907
6.283651476214,1908
6.298495500512,1909
6.299257052359,1910
6.299562404271,1911
6.303294159622,1912
6.306970071694,1913
6.3290777793,1914
6.337361478336,1916
6.339103117184,1917
6.34039138452,1915
6.341038592938,1918
6.342039757904,1919
6.346563198914,1921
6.354039914122,1922
6.355579758034,1927
6.355736014034,1928
6.355973148132,1924
6.360478115666,1930
6.363348608777,1929
6.369236096272,1931
6.373469116173,1932
6.376709474039,1926
6.381707170948,1923
6.383977675549,1933
6.389412337077,1934
6.402083488543,1920
6.407540581625,1937
6.407678709625,1938
6.410224500855,1940
6.414440541198,1941
6.414779877244,1939
6.414787109244,1935
6.416009468789,1925
6.421431124949,1943
6.421566991557,1936
6.422042000845,1944
6.423069905615,1945
6.423754995637,1942
6.429708415699,1946
6.436306478153,1947
6.436608587186,1948
6.442140894889,1949
6.442894183517,1950
6.44365469891,1951
6.443908546811,1952
6.447277624857,1953
6.447847371379,1954
6.448175198477,1955
6.450228988744,1956
6.452782029786,1957
6.453526873887,1958
6.456541470807,1960
6.458664387641,1962
6.458932328081,1963
6.460382740493,1959
6.462078689891,1965
6.463533741103,1966
6.465811529645,1967
6.468076138023,1964
6.468503836384,1968
6.468700796671,1969
6.470217497527,1970
6.470731729979,1971
6.475833009093,1972
6.479409073765,1973
6.484459715597,1961
6.486770422393,1974
6.488714897764,1975
6.496760907597,1977
6.497586901511,1976
6.505221800973,1979
6.509160497545,1981
6.509399839327,1980
6.510820785795,1982
6.511873599115,1978
6.520026849668,1983
6.534027482553,1984
6.535708914986,1985
6.535721037784,1986
6.551492031918,1987
6.56548672056,1988
6.566870567416,1989
6.57685065848,1992
6.578290378236,1991
6.578354010236,1993
6.584539617794,1990
6.585870129658,1994
6.589685387338,1996
6.595704057196,1995
6.60019607949,1998
6.602815278086,1999
6.60568568743,1997
6.608110466395,2000
6.611441049883,2001
6.614910520527,2003
6.615882067001,2002
6.618638520575,2005
6.619300745907,2004
6.623575310425,2006
6.628109670612,2007
6.632878757093,2008
6.646919425585,2009
6.649438001776,2010
6.65333941966,2011
6.653589532084,2012
6.657095691786,2014
6.657646802098,2015
6.659397588113,2016
6.660579477446,2017
6.663417911596,2018
6.666030963469,2013
6.668313361968,2021
6.668762201942,2020
6.669065775135,2019
6.674445150185,2022
6.690934043735,2023
6.692173668569,2024
6.699349962763,2025
6.70143510141,2026
6.703025392413,2027
6.706636569783,2028
6.708659836425,2029
6.716403246055,2030
6.718086389901,2031
6.719274016473,2032
6.720157204535,2033
6.732973275322,2034
6.736829473823,2035
6.739616696534,2036
6.742209167641,2037
6.748515947775,2038
6.748601860795,2039
6.754239303925,2040
6.758285030874,2041
6.759595634496,2042
6.761069809659,2043
6.763941037226,2044
6.768034107412,2045
6.771566683659,2046
6.774786549559,2047
6.775170160916,2048
6.782042494342,2049
6.782520522769,2050
6.783949683781,2051
6.788321551156,2053
6.788730294398,2052
6.799156220111,2054
6.805103698018,2055
6.805604783742,2057
6.806201349502,2056
6.808509633441,2059
6.809954387115,2060
6.815665672263,2058
6.821454308075,2061
6.823506030823,2062
6.82442852172,2063
6.825956474883,2064
6.826229540724,2065
6.83958389257,2066
6.840779843723,2067
6.846768608727,2068
6.847758980923,2069
6.862935699387,2070
6.872200990545,2071
6.874240868144,2072
6.880602079668,2073
6.882368577907,2074
6.886647433854,2076
6.890095674272,2077
6.892055110124,2079
6.894413147015,2075
6.895466693114,2080
6.8958656833,2081
6.896047673552,2078
6.905059575517,2082
6.905763637631,2083
6.90617203321,2084
6.911481109763,2085
6.924385750524,2086
6.9264991119,2090
6.939568678277,2094
6.94016181446,2095
6.94039383046,2093
6.945248783763,2097
6.946999507893,2087
6.948110575813,2088
6.951993472329,2098
6.956748381012,2100
6.96191351926,2096
6.964229481062,2091
6.965454149474,2103
6.96868237253,2105
6.970480935276,2104
6.970923238885,2101
6.971541454212,2106
6.975611447296,2089
6.979002851109,2107
6.979748079169,2092
6.980577681279,2099
6.982311007325,2102
6.986512231901,2108
6.986792758557,2109
6.98864055918,2110
6.994322341357,2111
6.999035572235,2112
7.001026688415,2113
7.002404261795,2114
7.005637116475,2115
7.005859705861,2116
7.017849811797,2117
7.019816193846,2119
7.01983803747,2118
7.021976463462,2120
7.022704547984,2122
7.022923692608,2121
7.024663176429,2123
7.025914357899,2124
7.032508869806,2125
7.040811864987,2127
7.041841009737,2128
7.043717233509,2126
7.044458324427,2130
7.045215376671,2129
7.046701474107,2132
7.048071924113,2131
7.048920801533,2133
7.051287566096,2134
7.05977635126,2137
7.061850349044,2138
7.06335636982,2136
7.065343200044,2139
7.066422107072,2140
7.067257338032,2141
7.067618881922,2135
7.072554185102,2142
7.075182141929,2143
7.0792574642,2144
7.081684590417,2145
7.084715056834,2146
7.096098471285,2147
7.101455455538,2148
7.10205737741,2149
7.102154394394,2150
7.103001924257,2151
7.106414118976,2152
7.107006667504,2153
7.107433731242,2154
7.108737445955,2155
7.109962045795,2156
7.114695527987,2157
7.123934908525,2159
7.124786374137,2158
7.128202731218,2160
7.132125508376,2161
7.137237816705,2163
7.137795511578,2162
7.148426140312,2164
7.149078743448,2165
7.149307614916,2166
7.150977021377,2168
7.151216241412,2167
7.152532695823,2169
7.152881895342,2170
7.163160084257,2171
7.169339930069,2172
7.173306993454,2173
7.17749840638,2174
7.188218874597,2175
7.192620727496,2176
7.193152685687,2177
7.196075895853,2178
7.196461058996,2180
7.200176744621,2183
7.201676856621,2184
7.202036424015,2179
7.204513627353,2181
7.207092239932,2185
7.209892860856,2186
7.210743846596,2182
7.213717016774,2187
7.220436881422,2188
7.225388099696,2189
7.227826718322,2190
7.228399078148,2191
7.230465868679,2192
7.231275409319,2193
7.23686599901,2194
7.242062333728,2195
7.24411174121,2197
7.248772609114,2198
7.250721206366,2196
7.256843310961,2199
7.25841720045,2200
7.267567694642,2201
7.273993075388,2202
7.275720310374,2203
7.276704183784,2204
7.28097946048,2205
7.282889609828,2206
7.284285168477,2207
7.289035334695,2209
7.289572022857,2210
7.290411976319,2211
7.291421359643,2208
7.297498752903,2212
7.300352514725,2213
7.307609794712,2214
7.309567402562,2215
7.313319260031,2216
7.314552977478,2217
7.318890555833,2218
7.330004868548,2219
7.33990682111,2220
7.367485919853,2222
7.367724045094,2221
7.367925220608,2223
7.36924588898,2224
7.369451912725,2225
7.376704506008,2226
7.377000248534,2227
7.377385283727,2228
7.379472158715,2230
7.385165115323,2229
7.397430548815,2231
7.398637272523,2232
7.401576530247,2233
7.401595211475,2234
7.404542929803,2235
7.409371579178,2236
7.410894695029,2237
7.412829751836,2238
7.422540777683,2239
7.4286842765,2240
7.44386531386,2241
7.459380738599,2242
7.473529969643,2243
7.481660711416,2245
7.482035743522,2246
7.482761369056,2247
7.485744787587,2248
7.4937071168,2249
7.49766066395,2251
7.502993850923,2252
7.504509416289,2244
7.506320958678,2250
7.512907004147,2253
7.517122173441,2254
7.518298492234,2256
7.518538606818,2255
7.524338087514,2257
7.529756306546,2258
7.5353232109,2259
7.537248147171,2260
7.540696661081,2262
7.543507096991,2261
7.544865729881,2264
7.546281303376,2265
7.547157982965,2263
7.54839398955,2266
7.552957724699,2268
7.553030721615,2269
7.558209979813,2267
7.560156324125,2270
7.562458698368,2271
7.572413979738,2275
7.572723037504,2274
7.575047057384,2272
7.576019773316,2273
7.577605767828,2276
7.583721087867,2277
7.585371123655,2278
7.590462940688,2279
7.605703578857,2280
7.60627159044,2281
7.611686513319,2282
7.614213952559,2283
7.619796673247,2284
7.62270050164,2285
7.624952135374,2286
7.625447588442,2287
7.625721228945,2288
7.628578766784,2289
7.633926422791,2290
7.645703584682,2291
7.65776424405,2292
7.658066284583,2293
7.659442313546,2294
7.664117573017,2295
7.668626160431,2296
7.686554794266,2297
7.700639063332,2298
7.709724270253,2300
7.713855292447,2301
7.721944268347,2303
7.722424681525,2302
7.729275239733,2299
7.730126735147,2304
7.731232819404,2305
7.732018479107,2306
7.734754506811,2307
7.735349477486,2308
7.736605112144,2309
7.744554720635,2310
7.753505051005,2311
7.754217068744,2312
7.75539812201,2313
7.76546899094,2315
7.766164288442,2314
7.768292352914,2316
7.769425372155,2317
7.77445434595,2318
7.777109268581,2319
7.777489965016,2320
7.777507923601,2321
7.777968951688,2322
7.778561415959,2323
7.7875684275,2324
7.792539005557,2326
7.795725242944,2325
7.796560161192,2328
7.799465849579,2327
7.805668401975,2329
7.806349287865,2330
7.81133425791,2331
7.816831004699,2332
7.819496361266,2333
7.823975673589,2334
7.826727682694,2335
7.832568354807,2336
7.833328884625,2337
7.834793181497,2338
7.838883474999,2339
7.839300396235,2340
7.83938496462,2341
7.848249965517,2342
7.84853066147,2343
7.85561350376,2344
7.863959995874,2345
7.865842196474,2346
7.866728349341,2347
7.872589199262,2348
7.877376182854,2350
7.878501644534,2349
7.879939233654,2351
7.884324140355,2352
7.885028977049,2353
7.890468814161,2354
7.89095310275,2355
7.89508301766,2356
7.896817725747,2357
7.907481654367,2358
7.90942572458,2359
7.915397533789,2360
7.916002255254,2361
7.92374852863,2362
7.927791884278,2363
7.930677159327,2364
7.933059595037,2365
7.933189755689,2366
7.938986456793,2367
7.939985443731,2369
7.940866805149,2370
7.941176140953,2371
7.948650467151,2368
7.950911066415,2376
7.953139249994,2372
7.956397323247,2373
7.957004170047,2375
7.95807573796,2374
7.9652247629,2377
7.972286945419,2378
7.973153735814,2379
7.981424739485,2382
7.981991337953,2381
7.983278104823,2380
7.993143945283,2383
8.005185214647,2384
8.007199877061,2385
8.008849484935,2386
8.021352085242,2387
8.022684184812,2389
8.024375961408,2391
8.024619658656,2388
8.025024249424,2390
8.030238864729,2392
8.032311947439,2393
8.035249318763,2394
8.048443118747,2395
8.054083132702,2396
8.057804156986,2397
8.074777417704,2399
8.07538386984,2398
8.078684301923,2400
8.085567128843,2401
8.090103814123,2402
8.090687451725,2403
8.099431495464,2406
8.100794426908,2408
8.104168554906,2404
8.105220822966,2410
8.105462214964,2407
8.105745232098,2411
8.10993673212,2412
8.11079591077,2409
8.111338206549,2405
8.12539755762,2413
8.133063198271,2416
8.134790565121,2417
8.135146617469,2415
8.148536214032,2420
8.152614667798,2422
8.154113391304,2423
8.154727188365,2424
8.156174886433,2419
8.157961798349,2421
8.158994124253,2425
8.160628352949,2426
8.168688664153,2428
8.169232271785,2414
8.173321889791,2427
8.17926430363,2418
8.187116524888,2429
8.187933471502,2431
8.188109651884,2430
8.188383891982,2432
8.195559531795,2433
8.208895245098,2435
8.220732940504,2438
8.222552940072,2439
8.228509969516,2440
8.22863710551,2441
8.232850246757,2442
8.233315302567,2436
8.233771263594,2434
8.235011594582,2437
8.239718491202,2443
8.239862470836,2444
8.240221320295,2445
8.244225766211,2447
8.244856306023,2446
8.24538820337,2448
8.249613135692,2449
8.255279838951,2450
8.260176115619,2451
8.265132714974,2452
8.26595274853,2453
8.268143933721,2455
8.271914593365,2454
8.272294878801,2456
8.273161998677,2457
8.274408001722,2459
8.276165220342,2458
8.287080553647,2460
8.294411386477,2461
8.301687584797,2462
8.304701065147,2464
8.306465713539,2465
8.309978511719,2463
8.315225630227,2467
8.320669289845,2466
8.322977982587,2468
8.336952549698,2469
8.344658508625,2470
8.353901315582,2471
8.366283586178,2472
8.37137510408,2473
8.377395559231,2474
8.383442184188,2475
8.388444900463,2476
8.389901541414,2477
8.390061448557,2478
8.39362122954,2479
8.402506497775,2480
8.406713998053,2481
8.411401921884,2482
8.413237909349,2483
8.422705247527,2484
8.426610226015,2485
8.431239872537,2486
8.439488308275,2487
8.449847095737,2489
8.450505501845,2488
8.45494077678,2490
8.462910709443,2491
8.465164461527,2492
8.480099526881,2493
8.491502079093,2494
8.497880716431,2496
8.505872784663,2495
8.506309916251,2497
8.511060413547,2498
8.515715523036,2499
8.518753756021,2500
8.523095134534,2501
8.525302845392,2504
8.530735226803,2506
8.531188401894,2507
8.531850574033,2508
8.534337491494,2505
8.536557039797,2509
8.536731652208,2502
8.537199564832,2511
8.537374924832,2512
8.544380860383,2510
8.544509462524,2513
8.544998849854,2514
8.545703391489,2515
8.550538292089,2503
8.552813069974,2516
8.558664656875,2517
8.561703090292,2518
8.569423053011,2519
8.570521398876,2520
8.570900365931,2521
8.579987939553,2523
8.581560453911,2522
8.588191325691,2524
8.600406656941,2525
8.607425295649,2526
8.621589479489,2527
8.622004559172,2528
8.62235352525,2529
8.623624517671,2530
8.628620179008,2531
8.62988536709,2532
8.632187052466,2534
8.632521495155,2535
8.633169382764,2533
8.634061187832,2536
8.640628778216,2537
8.644739049537,2538
8.648003743919,2540
8.648216755543,2541
8.658678736315,2542
8.659782480653,2543
8.661626694111,2539
8.664586253386,2544
8.666669963056,2546
8.669768406468,2545
8.682012430357,2548
8.690170748723,2547
8.699829733409,2549
8.702631996914,2550
8.703491340005,2551
8.704410586535,2552
8.709356534785,2553
8.714789178229,2554
8.71851478573,2555
8.722003407917,2556
8.72386335087,2557
8.725168451165,2558
8.728107642551,2559
8.72961138362,2560
8.73037333115,2561
8.733759327909,2563
8.733773727909,2562
8.735231876665,2564
8.741338084814,2566
8.748888085868,2568
8.754931698476,2567
8.758261963489,2570
8.759831535216,2565
8.760658712111,2571
8.763881048483,2572
8.764354193883,2573
8.765189821523,2569
8.765942457037,2574
8.774866309061,2575
8.777694339144,2576
8.778689482714,2577
8.790025382513,2579
8.791295388493,2578
8.793921048673,2581
8.806867735166,2583
8.812915383168,2580
8.81328166284,2582
8.815272954517,2584
8.816969535281,2585
8.819266098139,2586
8.822139588548,2587
8.822389045808,2588
8.822853655963,2589
8.842102480555,2591
8.843704278711,2590
8.845897500722,2592
8.856935192255,2593
8.858711178733,2594
8.862707259339,2595
8.866324658974,2596
8.866364762494,2597
8.8703000664,2598
8.870348975327,2599
8.871418716919,2600
8.878760380898,2601
8.884143237623,2602
8.890562640935,2603
8.891279131551,2604
8.894251830082,2605
8.90684900782,2607
8.908173353244,2608
8.913701894846,2609
8.913946893656,2606
8.920850942855,2610
8.927929237962,2611
8.932740199761,2612
8.935253365113,2614
8.935739511905,2615
8.941019221125,2613
8.942169795174,2616
8.962447428234,2617
8.96572372315,2618
8.978123491031,2619
8.983654040912,2620
8.989713888586,2621
8.992750094474,2622
8.994814475159,2623
8.995308809941,2624
8.998128853375,2625
8.998360485349,2626
9.001080142082,2627
9.0043112085,2628
9.007120205925,2629
9.008799686812,2631
9.010613634926,2633
9.011249999944,2632
9.012577532509,2634
9.014789874577,2630
9.016532049373,2635
9.017772897885,2636
9.022991812094,2637
9.024068431006,2638
9.035043703336,2639
9.036066218875,2640
9.040146213225,2641
9.044845822695,2643
9.047738330841,2642
9.050176832953,2646
9.052545169767,2647
9.053555620108,2648
9.054030035263,2644
9.054401032909,2650
9.054880955862,2645
9.058471063811,2651
9.061197700737,2649
9.062091509895,2653
9.063201432605,2654
9.066067313221,2655
9.073885892159,2657
9.074347150658,2656
9.075390170099,2652
9.077021849416,2658
9.079223804625,2659
9.081271193006,2660
9.085344121392,2662
9.088563591306,2663
9.092684089782,2664
9.094072693898,2661
9.105789583698,2666
9.106430695026,2668
9.106527959026,2667
9.107481733422,2669
9.110702401136,2665
9.116407984911,2670
9.135810830691,2671
9.136245995879,2672
9.143589679729,2673
9.145079594318,2674
9.155992169242,2675
9.160263753457,2676
9.163360811596,2677
9.170038115085,2678
9.170638141854,2679
9.177207710402,2680
9.177426872088,2681
9.179580079121,2682
9.184535029422,2683
9.186279315767,2684
9.195411859846,2685
9.204386256435,2686
9.207671842144,2687
9.209466117844,2688
9.213749238347,2689
9.227185925259,2690
9.22934246995,2691
9.230153245078,2692
9.232366490735,2693
9.234318246212,2695
9.234623422075,2696
9.238197653076,2697
9.240172618246,2698
9.246590882274,2699
9.247180376954,2694
9.247636661211,2700
9.249020584931,2701
9.251063262549,2703
9.251945666511,2702
9.254484942757,2704
9.254851319091,2705
9.25552126601,2706
9.258198328292,2708
9.258427524989,2709
9.259376642464,2710
9.260544120582,2711
9.264001029084,2712
9.266073262126,2713
9.268122458828,2714
9.270218077538,2715
9.270622345956,2707
9.277437142732,2716
9.283607395809,2717
9.283710888555,2719
9.284174428419,2718
9.286549715201,2720
9.292306083202,2721
9.294768622049,2723
9.297310707211,2724
9.298705569047,2722
9.302884007778,2726
9.30372002203,2725
9.30508553349,2727
9.310923686285,2729
9.311649006345,2728
9.314555389455,2730
9.320321913123,2732
9.323353890767,2731
9.326707055986,2733
9.332759508147,2735
9.333686960817,2734
9.336506485333,2737
9.337271795127,2736
9.341258557295,2739
9.345646693553,2742
9.348517113303,2743
9.351971907425,2741
9.351975507425,2744
9.35455028467,2746
9.35471370867,2747
9.358380751598,2748
9.359435161196,2749
9.360900876342,2738
9.366698597032,2751
9.368511823139,2752
9.372638053255,2753
9.374728071011,2755
9.382076999011,2758
9.382262239401,2756
9.384920206074,2745
9.385971323054,2754
9.389863241693,2759
9.390663104017,2760
9.391988914324,2761
9.396734934413,2750
9.397854824726,2762
9.399149552526,2757
9.402785821291,2763
9.404534839071,2740
9.405966119073,2764
9.40894805369,2765
9.410150148307,2767
9.412045469554,2768
9.415493324026,2766
9.42383285984,2769
9.426944332318,2770
9.427284330628,2771
9.432257529258,2772
9.433631428575,2773
9.434238607002,2774
9.445211906009,2775
9.445860714068,2776
9.447546708485,2777
9.451614896835,2778
9.461148816815,2779
9.464711056061,2780
9.467142367282,2781
9.47072008455,2782
9.471444815143,2783
9.481292241845,2784
9.482159854894,2786
9.483020025069,2785
9.495863562954,2787
9.496090060458,2788
9.498107090906,2789
9.507665564272,2790
9.50952298838,2791
9.516031306775,2793
9.518489940373,2794
9.520891751683,2795
9.522441817617,2797
9.532600119247,2801
9.532619351247,2800
9.533665445487,2802
9.533789237487,2803
9.538732565487,2798
9.538776528635,2804
9.540003304233,2792
9.540727577615,2799
9.542619579609,2796
9.542878997467,2805
9.545369175761,2806
9.552905947625,2807
9.571108568332,2808
9.577110975406,2809
9.586701693727,2811
9.590832728981,2813
9.590863992981,2812
9.592791164443,2814
9.597621029047,2815
9.601109682355,2816
9.603894416011,2818
9.604089437379,2819
9.606554106127,2820
9.610836153519,2822
9.611905605577,2821
9.61235524652,2810
9.617485374533,2825
9.619291582531,2824
9.623568049867,2823
9.633082389277,2827
9.636543038747,2828
9.638281758271,2829
9.638695584029,2826
9.64171544754,2817
9.647321531771,2836
9.654819326674,2833
9.656912991576,2837
9.657105247576,2830
9.658107280376,2838
9.658261104376,2839
9.666792539329,2840
9.66704070508,2831
9.670749098101,2842
9.671893878475,2835
9.672740084979,2843
9.674934987213,2832
9.675549473185,2834
9.678366965051,2841
9.678576509086,2844
9.679321826349,2845
9.683732867963,2846
9.687554643732,2847
9.687844627991,2848
9.69297301471,2851
9.698571588606,2849
9.700245568393,2852
9.702408752167,2850
9.703917865272,2853
9.710017796589,2854
9.710315608417,2855
9.715379947475,2856
9.716246288516,2857
9.72140043096,2858
9.723956224205,2860
9.728286211979,2861
9.730277841509,2859
9.732284312877,2862
9.734079419227,2863
9.737238573293,2864
9.743917247016,2865
9.746624379422,2866
9.747817672058,2867
9.753969024331,2868
9.764136494406,2869
9.764258690304,2870
9.76782133473,2872
9.77209601969,2871
9.782121348106,2873
9.788482356578,2874
9.793653553272,2875
9.795053252943,2876
9.795769145612,2877
9.797794995815,2879
9.800259537879,2880
9.800721710667,2881
9.806677267471,2885
9.807021634519,2883
9.811734944039,2878
9.815141410229,2882
9.816314357776,2888
9.817942857526,2884
9.818190391948,2887
9.822006750772,2889
9.822403364634,2886
9.824830620964,2891
9.826106735242,2892
9.827614394188,2890
9.833067525623,2893
9.839716115232,2894
9.846055737262,2895
9.853653930172,2896
9.865129988638,2898
9.865404038922,2899
9.869825181068,2897
9.875732714431,2900
9.887173307778,2901
9.888440302764,2902
9.892068039108,2904
9.899751971536,2905
9.899838103072,2903
9.911890078228,2906
9.912538619947,2907
9.914023620482,2910
9.914342718828,2908
9.91499867747,2911
9.915664078631,2909
9.918840300824,2912
9.921439560207,2914
9.923363109941,2913
9.927377701743,2915
9.927895945171,2916
9.935082868681,2917
9.937328102602,2918
9.938867425782,2919
9.939639648213,2920
9.945792964283,2921
9.952361889922,2923
9.954955134502,2922
9.960488329139,2926
9.960780183825,2927
9.961109359643,2925
9.967998166152,2928
9.972342249166,2929
9.97292874907,2924
9.973224440103,2930
9.974757287965,2931
9.977791759437,2932
9.978301392976,2934
9.982084108904,2933
9.985849173122,2936
9.987695478578,2937
9.99041486871,2935
9.993357219369,2938
9.994706858144,2939
9.995793566352,2940
9.997349948109,2941
9.998040825695,2942
10.003019507098,2943
10.00458703117,2944
10.006380478526,2945
10.006690975578,2946
10.013970951285,2947
10.01459076103,2948
10.015127348109,2949
10.015549790328,2950
10.017221837181,2951
10.021810065969,2952
10.028058629049,2953
10.031936293008,2954
10.0350489696,2955
10.040050009993,2956
10.044090857846,2957
10.050869961971,2958
10.057152643716,2959
10.057208035829,2960
10.059756552273,2961
10.063348076843,2962
10.063804925924,2963
10.067105445616,2965
10.07137795433,2967
10.072634948818,2966
10.074354550509,2964
10.083275979799,2970
10.08901107648,2969
10.092144493608,2971
10.093261228586,2968
10.094845179226,2973
10.103222240924,2975
10.103766917666,2972
10.10446006841,2976
10.10637286551,2974
10.106530578163,2977
10.109422909101,2978
10.117798798444,2979
10.121179030673,2980
10.128218407605,2982
10.133735793593,2984
10.134037877702,2983
10.136682272105,2981
10.139665040551,2985
10.141940267175,2986
10.147279544967,2987
10.16481693733,2989
10.16660552751,2990
10.16799280733,2991
10.168942092802,2988
10.174378005829,2993
10.178151820837,2994
10.181223686535,2996
10.181304150535,2992
10.184831077779,2997
10.187613679903,2999
10.199833741691,2995
10.200833185739,2998
