time,IdealSim1.flowGenerator3.flowCompletionTime:vector
0.000163231998,0.000163232
0.005624870332,0.00296436
0.012049670332,0.000121757
0.014797670331,0.00013943
0.015636470329,0.0128861
0.024929270329,0.000170054
0.029128070329,0.00014343
0.031027670327,0.00017653
0.032310470325,0.0001367
0.033782870323,0.000236754
0.034282070322,0.000161863
0.03513767032,0.000233809
0.036878870319,0.0349188
0.039195207892,0.0001837
0.042992007891,0.000238186
0.043730007889,0.0014135
0.046593207888,0.000348053
0.051030807887,0.000295152
0.054279686321,0.000222246
0.05569088632,0.00838348
0.05915288632,0.01518
0.061423318318,0.00153053
0.062716918317,0.00024631
0.066403318316,0.0396881
0.066539672594,0.000136832
0.067066761682,0.000169232
0.071884423244,0.000157908
0.072934423244,0.00367443
0.074873808037,0.000122432
0.075639987738,0.000190832
0.080534909993,0.000732032
0.086297833027,0.000205239
0.090091033026,0.00502203
0.092849045477,0.000171632
0.095606013481,0.000224432
0.097881486496,0.000166832
0.099633328225,0.000128432
0.106739851786,0.000152996
0.109846651785,0.00297574
0.113841451784,0.00792123
0.1205692557,0.00173883
0.122287651116,0.00104883
0.124036223981,0.000198246
0.12588662398,0.00013605
0.126240623979,0.00356456
0.126826255977,0.000305515
0.128353855976,0.00218054
0.136113586873,0.000144315
0.137836786872,0.000132253
0.138365986871,0.000274342
0.142547986871,0.0148754
0.143159986871,0.0159528
0.143272088278,0.000187607
0.144073218869,0.000137035
0.145318818869,0.0122045
0.147805218868,0.0109591
0.147961218867,0.0179552
0.149126450865,0.000140923
0.150124570529,0.0276796
0.150312970528,0.00195619
0.151565770528,0.00042163
0.152920570528,0.000208823
0.153072970528,0.00618963
0.154222154547,0.000739232
0.159354070731,0.000206362
0.163039270731,0.000256572
0.163306870731,0.00765963
0.165177858773,0.000136832
0.171301905262,0.000868832
0.172985435847,0.000144032
0.1767122221,0.000147632
0.178367361248,0.000128432
0.18232230779,0.000834032
0.188477025949,0.00158763
0.205506592761,0.00255123
0.20608764754,0.000163232
0.206481154119,0.000121232
0.207088456864,0.000122432
0.208837703903,0.00132123
0.212080094592,0.000434432
0.230836633095,0.00121564
0.234549433095,0.00249031
0.234621111685,0.000189632
0.235435033095,0.000165153
0.238363033095,0.020172
0.242978610667,0.000169232
0.261510464476,0.000155952
0.261636464476,0.00171243
0.262776887227,0.000126032
0.265641519191,0.000124832
0.266710597297,0.000169232
0.268623345945,0.000172832
0.276215974928,0.000131825
0.277744774927,0.000166863
0.278881174926,0.00476163
0.285033731846,0.000167865
0.287103731846,0.00439683
0.287618217984,0.000127232
0.288714937347,0.000127232
0.299290478935,0.000183632
0.304705722071,0.000121232
0.307398445537,0.000124832
0.314188467882,0.00115563
0.318841243658,0.00551523
0.323588661076,0.000138032
0.329729364814,0.00471723
0.331077954809,0.000141632
0.337592708803,0.000144032
0.340103833547,0.000177632
0.341969716654,0.000259232
0.342688858184,0.000123632
0.342908047996,0.000248432
0.347603232419,0.000244832
0.348699767283,0.000369632
0.350391665123,0.000128432
0.357852345389,0.00735123
0.358269569949,0.000266432
0.375570874154,0.000141632
0.386046126308,0.000919232
0.397334173654,0.000139232
0.39971395109,0.000126032
0.405290276227,0.000189632
0.409407849036,0.000163232
0.418240237208,0.00164798
0.420195037208,0.00779883
0.421725669771,0.000177632
0.423956064638,0.000163232
0.424626585239,0.000199232
0.435594537092,0.000123632
0.438102514547,0.00144483
0.438750967201,0.000193232
0.441222497934,0.000123632
0.443122124622,0.000688832
0.444071137484,0.000128432
0.44903707706,0.000182432
0.45068509656,0.00167043
0.464915407023,0.00666843
0.472345558522,0.000122432
0.47673577928,0.000261632
0.483282498839,0.00481563
0.483637837986,0.000277443
0.486575437985,0.00561483
0.490875399934,0.000128432
0.492254000108,0.000169232
0.494973842308,0.000128432
0.500696394168,0.000229705
0.500758794168,0.00488403
0.501711996969,0.00291963
0.502341389636,0.000160832
0.508481559662,0.000195632
0.51735327032,0.000130832
0.522882275595,0.00109203
0.523629704176,0.000188709
0.528097304176,0.000194096
0.528292904175,0.00648363
0.528358484172,0.000410432
0.530780068624,0.00132723
0.53544024761,0.000523232
0.536864538568,0.00112803
0.536943971773,0.000133232
0.542677448465,0.00432843
0.542866418037,0.00152643
0.54920368292,0.000655232
0.549505867624,0.000868832
0.55151071733,0.00132843
0.554050381429,0.000153632
0.556443499701,0.000152432
0.559395761797,0.00142683
0.563103354611,0.000141632
0.565467679348,0.000153632
0.578129046792,0.00256483
0.579035046791,0.00530523
0.581722018666,0.000165632
0.587712967178,0.000121325
0.588485767177,0.00545043
0.592254136096,0.00125186
0.595140136095,0.0102888
0.603531594839,0.000178832
0.605204823662,0.000420032
0.605322753286,0.000128432
0.606966988891,0.000127232
0.609742355371,0.00161643
0.619632153559,0.000126304
0.623289753559,0.00021996
0.626481753558,0.00712203
0.627812784655,0.000153632
0.638747049966,0.000250832
0.64793432641,0.00020294
0.648751526409,0.000193238
0.648873926408,0.00671043
0.64958931292,0.000139232
0.652719737575,0.00142443
0.663503256105,0.00497403
0.664275378808,0.00221283
0.665379775614,0.000244832
0.668987345532,0.000145232
0.674242840899,0.000121232
0.676263721897,0.00150243
0.67775103806,0.000390032
0.684794690377,0.000129632
0.696625421265,0.000148832
0.701878676137,0.000250832
0.704739619261,0.000183632
0.70516943465,0.000121232
0.711049184939,0.00378363
0.715212237115,0.000992432
0.716244489824,0.000153632
0.72099279219,0.000174032
0.728554080719,0.00460803
0.730554664175,0.00073875
0.731237464174,0.00180723
0.732671396119,0.000172832
0.734193556241,0.000121232
0.735067993849,0.000141632
0.741561601364,0.00580323
0.746818993578,0.00248163
0.750834175093,0.000862832
0.753253915142,0.000213632
0.76010230088,0.000129429
0.76288390088,0.000143436
0.764015500879,0.000226983
0.771642700879,0.000135817
0.782304700879,0.00240439
0.782733100878,0.0242148
0.790973464037,0.000150864
0.795018664037,0.00605883
0.804728769042,0.000900032
0.806660663996,0.000172832
0.815159539969,0.000123632
0.818384151425,0.000139232
0.819749104756,0.00136443
0.824554547944,0.000180032
0.830242907192,0.00135123
0.832372307006,0.000136832
0.840786197533,0.000126529
0.845493797532,0.00549963
0.847898416508,0.00101283
0.850130023053,0.000182432
0.852706208765,0.000127232
0.855010609447,0.000132032
0.856326382278,0.000121232
0.859081799237,0.000159632
0.860777271983,0.000122432
0.864896004374,0.000126032
0.86600455852,0.000122432
0.867028888527,0.000181232
0.876409393891,0.000140432
0.877101964853,0.000126032
0.879677465008,0.000167752
0.882353465007,0.00324483
0.886252067392,0.000196832
0.887290649269,0.000139232
0.888306219025,0.000336032
0.891589880818,0.000187098
0.891876680817,0.00014021
0.893110280815,0.000176612
0.893610680814,0.00560481
0.893763080812,0.000170537
0.894433880811,0.00013159
0.89718068081,0.000402841
0.897498712808,0.000378148
0.899445080807,0.0114396
0.905726923292,0.000207827
0.911110123291,0.000333554
0.911796523291,0.000191794
0.912841723291,0.00846483
0.914308724508,0.000121232
0.918188571063,0.00285003
0.918783309351,0.000167645
0.918882909349,0.000175732
0.919192509348,0.00275883
0.92249587671,0.00105963
0.930302469972,0.00189123
0.935158038632,0.000363632
0.936055526233,0.000158432
0.951348475822,0.000165632
0.954452265633,0.00256096
0.955460265632,0.000255466
0.957003465631,0.00270262
0.9570215899,0.000420032
0.957666021898,0.00594619
0.960295418534,0.000165632
0.960861857862,0.000128432
0.961490962938,0.000154832
0.962307007886,0.000123632
0.969299506747,0.000129632
0.975495426241,0.000127232
0.980692806476,0.00012465
0.982515606475,0.00630843
0.985513728464,0.000131115
0.991525728463,0.00632403
0.991842126045,0.00283683
0.992485682534,0.000139232
0.998220965093,0.000385232
0.999222801476,0.000124181
1.000077201476,0.00108723
1.005058587555,0.000225632
1.006354415621,0.000628832
1.008548460905,0.000121232
1.012728261286,0.000127232
1.012792568744,0.000128432
1.013121791924,0.000144032
1.013328223922,0.00018855
1.021136623921,0.00810328
1.022732939169,0.000236432
1.024151469586,0.000142832
1.025840486375,0.000136832
1.028878161582,0.000124832
1.037159974503,0.000140432
1.037331542842,0.000128432
1.043435090238,0.00014078
1.043768690237,0.000150208
1.045067090236,0.00200523
1.045679932125,0.000391212
1.047202732125,0.000193261
1.050982732125,0.000129536
1.053973132125,0.000212848
1.056471564123,0.0127009
1.057893104731,0.00423837
1.060621904731,0.00772245
1.061079104731,0.000167079
1.062225104731,0.000234322
1.063301504731,0.0162264
1.064073042236,0.000144032
1.06441309253,0.000475232
1.073552221177,0.000157396
1.075651021177,0.00645841
1.080610621177,0.00394672
1.081255021177,0.0108882
1.089219421177,0.0219732
1.093303309944,0.000121232
1.104302370858,0.000607232
1.10577713361,0.000124832
1.107808499097,0.000122432
1.10940292219,0.000176432
1.112073724744,0.00205323
1.11740812027,0.000321632
1.120403468153,0.00142083
1.121491756707,0.000237632
1.123437056407,0.000170432
1.128075835003,0.000147632
1.130540274166,0.000187232
1.137839787873,0.000131297
1.139338587873,0.000143194
1.139481387873,0.000434379
1.143939387873,0.000194286
1.144601787873,0.000241909
1.145368587873,0.0003061
1.147265787873,0.000155789
1.150040187873,0.00244533
1.153770987873,0.00192906
1.157259387872,0.000272679
1.158767787871,0.000183202
1.159236987871,0.0240816
1.160980458494,0.00917283
1.163849145905,0.000127232
1.163885113146,0.000126032
1.167584482949,0.00143403
1.172764462812,0.000156032
1.183495517116,0.000138032
1.184781467982,0.000470432
1.185816087167,0.000124832
1.189729292505,0.000138032
1.191964966523,0.000126032
1.197051024923,0.00134283
1.200561429491,0.000130832
1.207981204913,0.000123632
1.214687813462,0.000153632
1.215246421781,0.000141632
1.217062615212,0.000126032
1.228805188244,0.00183483
1.233561797351,0.000128432
1.234759264559,0.000135632
1.242146543792,0.000944531
1.243002143792,0.00636603
1.245755576269,0.000248432
1.247933203539,0.000217232
1.249495840901,0.00104686
1.2528894409,0.00514443
1.254625653751,0.000163042
1.25641965375,0.00805803
1.264266135707,0.000148832
1.266896357865,0.000123632
1.26828629405,0.00114483
1.269839088805,0.00120123
1.272533580515,0.000183632
1.280582591288,0.00191763
1.280834421982,0.000151697
1.283170821982,0.00336603
1.285017842789,0.00241267
1.286113442789,0.000122227
1.290701042789,0.0107856
1.29250880593,0.011586
1.295063428921,0.000165632
1.298485893018,0.000139232
1.302386963788,0.00114963
1.306651018005,0.000387632
1.316141580855,0.00137163
1.32111050693,0.000201106
1.323785306929,0.00702243
1.332047214034,0.000420131
1.334209614033,0.000168315
1.339272414031,0.0116712
1.34028624704,0.0103044
1.346460762638,0.000122043
1.350567162638,0.00507363
1.352483152893,0.000957632
1.353640351126,0.000199064
1.355460751126,0.00016788
1.356978751126,0.000232009
1.357938751126,0.00639723
1.359713742581,0.000130832
1.362542936212,0.000308432
1.36951685826,0.000122432
1.371536806777,0.000211232
1.375369986706,0.000170432
1.386040097344,0.00561723
1.388666380095,0.00192123
1.395703169068,0.00519123
1.399586566162,0.000156032
1.403627575904,0.000159632
1.413500724977,0.000339632
1.420521596918,0.000124401
1.422400796918,0.00779763
1.423464024281,0.000132032
1.423967739366,0.000153632
1.42579922639,0.000127232
1.427253482523,0.000124832
1.427500304456,0.000128432
1.428762582672,0.000239147
1.429169382672,0.000997232
1.435559072473,0.000121232
1.436437169997,0.000121232
1.441867076167,0.000171632
1.454166513121,0.000237681
1.45451091312,0.000124215
1.458010113118,0.00696293
1.460264913118,0.000280954
1.460410113117,0.000162064
1.463110113117,0.0146604
1.465402145115,0.0154834
1.466502845476,0.000126032
1.467876327311,0.000150032
1.46869491238,0.000180032
1.473483967379,0.000127232
1.483424193708,0.00377645
1.483480593707,0.00563403
1.485405807777,0.000190832
1.490200966472,0.000151232
1.49034345331,0.000142832
1.491853384338,0.000186794
1.497784984337,0.00650643
1.498805764899,0.000255632
1.504535478022,0.00403083
1.514009551629,0.000159804
1.516687951629,0.00369243
1.521472496091,0.00279483
1.526074485899,0.000122432
1.540462201506,0.00442923
1.541301033504,0.00022222
1.545562233504,0.000211119
1.548517833504,0.00813196
1.560503215169,0.000207632
1.565475893447,0.000152432
1.567218325445,0.000379201
1.567369525445,0.00190485
1.568704265408,0.000144032
1.569575814716,0.000127232
1.572749804768,0.000177632
1.576938580812,0.000439052
1.578503380812,0.000171946
1.579109380812,0.000121864
1.583288980812,0.00734763
1.589410790173,0.000422337
1.592663990172,0.00015554
1.59280322217,0.000249166
1.59440522217,0.000176784
1.59761762217,0.00918006
1.597850547464,0.00361683
1.601164694405,0.000174991
1.602788294405,0.000158136
1.604264294404,0.00341883
1.6092463587,0.00404628
1.6105015587,0.00597363
1.616866051257,0.000250832
1.622027266713,0.000204032
1.62264809563,0.000134432
1.62483645838,0.000135632
1.630815789893,0.000409502
1.631206989893,0.00182883
1.632184275694,0.000357632
1.635985240899,0.000123632
1.639588953877,0.000123632
1.65305948476,0.000121232
1.656609917742,0.000164432
1.657536656081,0.000123632
1.65906425595,0.000787232
1.66378314851,0.000160832
1.673664809891,0.000376662
1.67369960989,0.00532923
1.675480950179,0.000121232
1.681697814656,0.00590043
1.683944082976,0.000229466
1.685884482975,0.00317742
1.686011682975,0.00017713
1.690853682975,0.000132817
1.693108482975,0.000690417
1.694898882975,0.0184404
1.695186829305,0.000138191
1.698093229305,0.000168266
1.701483229305,0.00476198
1.702838029305,0.00037196
1.703336029305,0.000208562
1.705625629304,0.0153648
1.716026697965,0.000184291
1.716078297965,0.000518432
1.716936241399,0.000144032
1.718478843634,0.000927632
1.718673386068,0.000330032
1.721169568847,0.000904832
1.723476416066,0.00132123
1.725793885292,0.000124832
1.730437459781,0.000123896
1.73318305978,0.00318243
1.738205658494,0.00136083
1.742822591465,0.00167283
1.744150757835,0.00152283
1.745323195771,0.000122071
1.746808795771,0.000204739
1.750894795771,0.00789963
1.751047877519,0.000167769
1.751068277519,0.00652803
1.75339706626,0.000733232
1.760246784794,0.000172832
1.760457273515,0.000170432
1.774413563819,0.000153632
1.774889247137,0.000157232
1.778494007872,0.000140432
1.781017116664,0.000162032
1.783200713607,0.000122432
1.790597660389,0.000160832
1.790938527816,0.000187232
1.791509284935,0.000147632
1.794290539428,0.000127232
1.799041266342,0.000421232
1.799532068855,0.000228032
1.800310857855,0.000165632
1.802749583805,0.000132032
1.812204769665,0.000207952
1.813797169665,0.00143719
1.820015569664,0.00152577
1.820199169664,0.000152529
1.820595169664,0.0118116
1.821528331443,0.000142832
1.824595097363,0.000165632
1.839943052759,0.000121232
1.842150414595,0.000151232
1.860236828747,0.000138032
1.863359471352,0.00170163
1.867768164804,0.000122432
1.883350826234,0.00364083
1.894934155251,0.0111696
1.895022061321,0.00236375
1.895681630938,0.0047876
1.896242030937,0.00987603
1.899964998813,0.000182432
1.900088630811,0.000161906
1.910405813707,0.000121232
1.911548877582,0.000140432
1.918097396594,0.000144032
1.924750641561,0.00303843
1.925431378209,0.000213632
1.925527790653,0.000246032
1.929765862558,0.00342455
1.929844326103,0.000160832
1.930152758101,0.00039062
1.930633990099,0.00509096
1.9313782892,0.000124832
1.932182037466,0.000124182
1.932689637465,0.00124803
1.934176971552,0.000182432
1.941818127042,0.000169232
1.944296842954,0.00148803
1.948893214303,0.000121232
1.949932643547,0.000237632
1.952378316759,0.000123632
1.956871246759,0.000172832
1.959792875208,0.000181811
1.960923275207,0.00209403
1.962423332428,0.000512432
1.96279899711,0.000124832
1.965211660994,0.00150363
1.967883143163,0.000157232
1.970455324201,0.000966032
1.970596753,0.000124832
1.972575289724,0.000139232
1.97314062184,0.000124511
1.97364342184,0.00014565
1.98130902184,0.000165224
1.988139421839,0.0151752
1.993709763328,0.000136927
1.996242963328,0.00519363
2.000117795326,0.00230649
2.000394995325,0.00292863
2.000402195324,0.00925162
2.000572595323,0.000563186
2.000908595323,0.000148439
2.001300995323,0.00932523
2.003815049493,0.000130832
2.013637685945,0.000183632
2.01546952819,0.000172832
2.017558157222,0.000184142
2.021320157221,0.00443523
2.022016598329,0.000174032
2.023355790049,0.000139232
2.02463094193,0.000419003
2.02815054193,0.00447243
2.02932682182,0.00412443
2.031551873337,0.000146432
2.0388258897,0.000128432
2.045572856717,0.00505203
2.04871536627,0.000199232
2.050005398268,0.000224994
2.053451798267,0.00483219
2.056424750434,0.000141632
2.068107899053,0.000138032
2.068992845961,0.000126032
2.072809588138,0.000168032
2.080866737071,0.000135632
2.083299276808,0.000175232
2.084584706858,0.000178832
2.086180975099,0.000150032
2.089336290527,0.00114963
2.089716372259,0.000121232
2.100723511,0.000136832
2.111160080967,0.000180032
2.118048770544,0.000140432
2.122702550168,0.000748832
2.125539590642,0.000126768
2.125822790642,0.00302403
2.129751631407,0.000163232
2.129875263405,0.000134687
2.13216444724,0.000387632
2.133063481173,0.000313232
2.133214019995,0.000139232
2.143037135725,0.000147632
2.14547455796,0.000126032
2.149732427744,0.00024374
2.153175227743,0.00504123
2.15373289134,0.00273003
2.15805227655,0.000155934
2.15806067655,0.000196832
2.162710031601,0.000129632
2.16371805386,0.000136832
2.165556948904,0.000420032
2.166936483147,0.000795632
2.171075336196,0.000204032
2.171641477119,0.000129632
2.174558443341,0.000627632
2.175560066995,0.000181232
2.177218149573,0.000128432
2.179230410164,0.000143842
2.181457610164,0.00259339
2.184940010163,0.000155633
2.185264010162,0.000126784
2.19040841016,0.000243685
2.198983610159,0.000122261
2.202031610156,0.00383404
2.202828410156,0.0103137
2.203314410156,0.00536396
2.203744010156,0.0258792
2.208370828637,0.000146432
2.21154484837,0.000148832
2.212345543549,0.000159632
2.215866065736,0.000128733
2.217136865735,0.00353523
2.226443835014,0.000184221
2.227312635014,0.00288603
2.227890714137,0.000195632
2.228994941664,0.000121232
2.234547635251,0.000755097
2.235549635251,0.000169586
2.237673635249,0.00521883
2.243115193621,0.00854883
2.245027392451,0.000762051
2.24587579245,0.00273603
2.250641073747,0.000174963
2.253146673747,0.00310683
2.25662770007,0.000126032
2.260625424234,0.000123632
2.264726617207,0.000608432
2.26876572159,0.00110763
2.273702446575,0.000949232
2.275425206512,0.00139443
2.278756324203,0.000345632
2.285837863151,0.000162032
2.294031160359,0.00171723
2.29496341512,0.000978032
2.306951268701,0.000122432
2.310321496608,0.000260432
2.313873946581,0.00148203
2.317777828986,0.000193238
2.318532628984,0.00229351
2.321355028984,0.000162783
2.324283028984,0.00935643
2.330429763702,0.000146432
2.330785426748,0.000141632
2.33724712614,0.000151232
2.337661575609,0.000559232
2.34376449104,0.00018365
2.34423489104,0.000836432
2.355692283124,0.00155163
2.358031841131,0.000242325
2.35959544113,0.00181443
2.361213420462,0.000169232
2.363740992622,0.000378032
2.367591274968,0.00158283
2.375643957124,0.000123632
2.384190251314,0.000217549
2.385294251313,0.000169258
2.389644251311,0.000142861
2.392127051309,0.00021854
2.398530251307,0.000506194
2.402304849863,0.000438112
2.403540849861,0.00028935
2.406573249859,0.0204864
2.407130081858,0.0129889
2.409040481857,0.00169632
2.412647681856,0.000186174
2.423237713854,0.000634131
2.431232113852,0.00335502
2.433478513852,0.000497408
2.444376913852,0.000174388
2.445226513851,0.0384802
2.445844513851,0.0109483
2.447969713851,0.00037351
2.448491713849,0.0650131
2.448749745847,0.000251556
2.453172945847,0.000129751
2.453861745844,0.000463773
2.453979345843,0.048485
2.457920145843,0.000162799
2.464343745842,0.0116616
2.466279345841,0.000507168
2.473635345839,0.00361448
2.477019345838,0.000128252
2.478724577836,0.000222807
2.482270577836,0.00025722
2.486320577835,0.000553631
2.48883937783,0.0761547
2.48918257783,0.00642771
2.48973337783,0.0052295
2.491337777829,0.0787674
2.492715409828,0.00898338
2.494579009827,0.018645
2.495634537347,0.0121245
2.495729337347,0.00183123
2.498349041781,0.000176432
2.501275031603,0.000134432
2.508827482183,0.000215102
2.509704682183,0.00282243
2.510185263584,0.000219632
2.51541517072,0.000255632
2.516152801935,0.000141632
2.517893574112,0.000232683
2.520114774111,0.000153027
2.531538774109,0.000164774
2.535234774108,0.0189312
2.535964150191,0.000140432
2.536308712562,0.000139232
2.538418047296,0.000141632
2.539461679582,0.000579632
2.546982162483,0.00132243
2.550852860478,0.000222777
2.551298060477,0.000152727
2.552490860476,0.000127146
2.556346460475,0.000302653
2.557145660474,0.00743043
2.558972660934,0.00554763
2.561779723681,0.000172832
2.567017521129,0.000138032
2.569224033628,0.00112083
2.573305056339,0.00171003
2.5748508289,0.000145232
2.579848499307,0.000144032
2.582793044236,0.000177632
2.58889104878,0.000122432
2.589961250074,0.000136832
2.593866498806,0.000271232
2.594698919702,0.000124832
2.59636574657,0.000141023
2.597242946569,0.000194347
2.597995346568,0.00294123
2.604371356987,0.000180032
2.60830864052,0.00245403
2.608734672518,0.00281525
2.612395465464,0.000181232
2.612945203857,0.000277313
2.614252003856,0.000155731
2.617808803854,0.00526563
2.619761105478,0.00251763
2.623614622612,0.000183989
2.62417022261,0.00357169
2.624634622609,0.000124746
2.627506222607,0.000342683
2.627737822606,0.011346
2.630256821938,0.000996032
2.631728717385,0.000127232
2.634537202236,0.000172832
2.63574480617,0.000156032
2.642843948898,0.000128458
2.647166348898,0.00690243
2.650852143297,0.000138032
2.656174539437,0.000180032
2.656930805087,0.000141632
2.66314489135,0.000129275
2.663467691349,0.000949232
2.665792063019,0.000171632
2.667032283173,0.000165632
2.672639949899,0.000154832
2.674879441045,0.000126032
2.676980673043,0.0021079
2.700315839911,0.000496832
2.700515272348,0.000123632
2.706407005189,0.00179163
2.709493640433,0.000158432
2.712872930794,0.000900032
2.713807597106,0.000171632
2.715789603784,0.00147123
2.716126972883,0.00018153
2.717005372881,0.00137763
2.721719188842,0.000186345
2.72354918884,0.000255504
2.725607188838,0.00566884
2.726430388838,0.00758043
2.735109880264,0.00168034
2.736012280263,0.00449523
2.736459992422,0.00470523
2.737226975612,0.000450032
2.74309087968,0.000121232
2.743276278581,0.000128432
2.74750260784,0.00120363
2.747663523017,0.000124832
2.75615996057,0.000302432
2.756749505744,0.000121232
2.759686353109,0.000793232
2.772433758016,0.000123632
2.783461124956,0.000259232
2.784471848476,0.000171632
2.787487361309,0.000244832
2.788800412101,0.000127232
2.788939644099,0.000170167
2.792394673299,0.000122432
2.803233801529,0.00259822
2.805642201528,0.00877443
2.813366650057,0.000198596
2.813719450057,0.000196309
2.817503050055,0.0024711
2.825989450053,0.0185904
2.828945031162,0.00258843
2.85305552136,0.000170432
2.858060480701,0.00021973
2.862860480701,0.000400118
2.865924080701,0.000229469
2.867911280701,0.00134871
2.871418880701,0.0156972
2.879056864508,0.000174032
2.888704687879,0.000124832
2.891159484286,0.00179643
2.893707476365,0.0002012
2.900311076365,0.00412235
2.906625476364,0.00982605
2.922769076364,0.000125452
2.927061476362,0.00163154
2.929243076362,0.0363516
2.935018724482,0.000124884
2.93524312448,0.00294552
2.938306724479,0.000134105
2.940353924478,0.00202455
2.942571524477,0.0346344
2.948148760832,0.000399632
2.951144699176,0.000122246
2.951360699175,0.000906032
2.956027936117,0.000337232
2.957511067196,0.000196832
2.959012920033,0.000126032
2.961539851774,0.000121232
2.965453964744,0.000142832
2.971507669767,0.00293972
2.974242469767,0.00851643
2.979798081585,0.000362172
2.981752879712,0.00502572
2.985052881583,0.000158512
2.986444913581,0.000140247
2.98719851358,0.000163337
2.98731131358,0.00391451
2.987646113579,0.0123949
2.988190945577,0.0121417
2.991361345577,0.000161868
2.991423664433,0.000669632
2.991487345575,0.0103023
2.994080577573,0.00266513
2.999075122673,0.000424832
3.001141928104,0.000895232
3.008193786027,0.000315817
3.012129786026,0.00620043
3.026634279041,0.00278604
3.02883747904,0.00753526
3.031615588162,0.00345
3.031733188162,0.000203507
3.031743988162,0.00379563
3.03562122016,0.0267926
3.038476912661,0.000240953
3.04068371266,0.000493186
3.04591931266,0.00884643
3.049989153212,0.000160458
3.052356753211,0.000940025
3.05412555321,0.000143217
3.063868353208,0.000234367
3.066646353207,0.0289932
3.066919066887,0.000127232
3.072816742423,0.00396123
3.074682964612,0.00217923
3.081344646678,0.000136161
3.082692246678,0.00357723
3.087705036036,0.00286803
3.088992836102,0.000141632
3.096673161596,0.000585632
3.098340716742,0.000400197
3.100308716742,0.00237963
3.104009536587,0.000146432
3.112861476013,0.000142832
3.13532377885,0.000182656
3.136252578848,0.000405958
3.136467196011,0.000387951
3.139856178846,0.000222998
3.140867778845,0.0051505
3.145713378844,0.000152594
3.14607337884,0.00513391
3.146209010838,0.000285399
3.146780178837,0.0235092
3.150017810836,0.000304846
3.151796210836,0.000128497
3.153201410835,0.000364476
3.156831410834,0.0142852
3.161359010833,0.000177531
3.161969810831,0.0135046
3.170799410831,0.00012721
3.177730610827,0.00801341
3.178169810826,0.0445562
3.180152242829,0.000170245
3.180273442828,0.0134445
3.181273074826,0.00111173
3.183275604572,0.000176432
3.186511385831,0.00108234
3.189174185831,0.00444603
3.194621117615,0.000122432
3.208391612051,0.000128432
3.208552444049,0.000206316
3.23075289981,0.000145232
3.230828782427,0.000176432
3.239769771835,0.000529675
3.240012171834,0.00687867
3.240453771833,0.00777723
3.242948603832,0.000244423
3.243551003832,0.00549836
3.247884214765,0.000162876
3.247914214765,0.000894032
3.249867196882,0.000170432
3.253952920691,0.00080319
3.256710520691,0.00405123
3.256963312518,0.000178832
3.257050300921,0.000166832
3.260116361744,0.000150032
3.262525751897,0.000121232
3.266437625854,0.000376261
3.269261225854,0.00418803
3.26928101288,0.000152432
3.275332077612,0.000146432
3.280960817388,0.000244062
3.281724017388,0.00231363
3.288414537382,0.00265323
3.297617901124,0.000266424
3.297693501124,0.000255238
3.302290733122,0.00525846
3.305945864678,0.000130832
3.306993016499,0.000140432
3.312498780925,0.000191833
3.315911580925,0.00701523
3.316512844955,0.000123632
3.322989011856,0.000621885
3.328797397321,0.000301255
3.332162197319,0.0121039
3.333592597319,0.0152128
3.334524997318,0.00975793
3.336351397316,0.000194171
3.337078597316,0.00143462
3.339051397316,0.00014007
3.340392997315,0.0182052
3.340429029312,0.000132873
3.341560629311,0.000203326
3.34300302931,0.00891687
3.345703549394,0.000139232
3.346498280873,0.000153632
3.347920075623,0.000146432
3.349104290672,0.000128432
3.357885798405,0.000132032
3.367141593252,0.00307563
3.373178059492,0.000326432
3.381798201258,0.000126032
3.385567747887,0.000163232
3.405814460247,0.000150624
3.407536460246,0.00897723
3.40754785992,0.000160832
3.407853891918,0.00402109
3.412632774944,0.000168032
3.417019601669,0.000140738
3.417152801669,0.000173341
3.417329201669,0.00108003
3.425269138157,0.00362283
3.426798687992,0.000244832
3.428618328086,0.000175232
3.429662185777,0.000152432
3.436031266981,0.000160832
3.437924049303,0.000123632
3.43869423407,0.000142832
3.441355514294,0.000139232
3.447188254056,0.000123632
3.449147531969,0.000136691
3.449513531968,0.000759632
3.451885962212,0.000178832
3.459661578938,0.00154923
3.462586789525,0.000182432
3.464423518169,0.000133232
3.468759105923,0.000132032
3.469404248852,0.000258032
3.480378341173,0.000240032
3.487115714759,0.00572763
3.495974230495,0.000131729
3.498281830495,0.000269828
3.500181430494,0.000576114
3.500401030493,0.00441209
3.500653030492,0.000138653
3.502694230491,0.000194555
3.509026630488,0.000891809
3.513487030486,0.00178094
3.513563830485,0.00589946
3.514892230485,0.000128585
3.515725030485,0.000146553
3.518696230484,0.0037065
3.518865430483,0.0152446
3.521473030482,0.000165046
3.524377030481,0.000130498
3.52489663048,0.000133174
3.527893030479,0.000270705
3.530189830478,0.00029086
3.530200630477,0.00025374
3.532810630477,0.0312447
3.537764230477,0.0092001
3.539050630476,0.000687712
3.540896230475,0.0492828
3.543819570294,0.000143584
3.549884370293,0.0139368
3.56063264447,0.000247716
3.562945044468,0.000179998
3.564459444468,0.000170607
3.565113476466,0.00447837
3.565388276466,0.0151981
3.566783673918,0.00122723
3.569118873917,0.000134218
3.569141673916,0.00138445
3.570120905914,0.00231063
3.570176166884,0.000337232
3.570605798882,0.00668803
3.571282598882,0.000176687
3.57137859888,0.000121471
3.572479030878,0.0211826
3.572652710569,0.000192032
3.58584057124,0.0028645
3.58754097124,0.0153312
3.591317270785,0.000177632
3.593010031357,0.000136832
3.595517163342,0.00040058
3.595782363341,0.000224999
3.59657916334,0.00147483
3.59806541489,0.000168032
3.598874030927,0.000171632
3.603192484544,0.000367232
3.608026923033,0.000128432
3.613826252156,0.000147632
3.616539487721,0.000121232
3.621335562748,0.000126032
3.625250106088,0.00138723
3.628154660264,0.000146432
3.628262276749,0.000174032
3.630973848119,0.000151048
3.632308248117,0.00017199
3.634519848116,0.000278037
3.635845848114,0.000213438
3.637427448113,0.000372142
3.637498248111,0.00136171
3.639089480109,0.000126033
3.649373480108,0.000199017
3.652695034912,0.00388683
3.654802312106,0.000278014
3.656895112104,0.000145248
3.663093112103,0.00015187
3.664887112102,0.0100503
3.665929912101,0.000197144
3.6664891121,0.000122968
3.666547912099,0.0372
3.668602312099,0.000239475
3.671985112099,0.0431413
3.672123913144,0.00156963
3.679693489851,0.000753632
3.686264378559,0.00284322
3.687143978559,0.00484803
3.693145372117,0.000153632
3.694192378093,0.000127232
3.695476554619,0.000159632
3.696969759784,0.000122432
3.698923242005,0.000243941
3.700884042005,0.00335283
3.711748977833,0.000121464
3.711822056944,0.000288032
3.713436209831,0.00762846
3.714444209829,0.00414848
3.717528712811,0.00186022
3.718882478341,0.00265725
3.719274910339,0.00245766
3.721565710339,0.0027353
3.725883144808,0.000218058
3.726945144807,0.000378976
3.728310744805,0.0155701
3.733716168448,0.000133497
3.735276168448,0.00100779
3.738081768447,0.000121278
3.739388568445,0.00373088
3.739459368444,0.00739803
3.741442384671,0.000126032
3.748520265714,0.000176432
3.750513322733,0.000150032
3.754526762895,0.00314403
3.75549215155,0.000231632
3.761292296209,0.00072872
3.762153896209,0.00281523
3.76297519405,0.000595232
3.763883532718,0.000171632
3.765299897928,0.000752432
3.788361448257,0.00202923
3.788620210109,0.000250832
3.789441305934,0.000140432
3.792170338289,0.000142832
3.797117295122,0.000164432
3.799303736335,0.000226832
3.805061221237,0.00135829
3.805727221236,0.00253443
3.807484928707,0.000210032
3.80866673414,0.000152432
3.809098322635,0.000140432
3.812827061888,0.000121307
3.815807861887,0.00312123
3.817771635701,0.000135632
3.822460687313,0.000140432
3.824739041168,0.000160574
3.825661841167,0.00138003
3.826964409167,0.000144032
3.828153536197,0.000381632
3.836390703093,0.00151083
3.850528067253,0.000141632
3.851358623884,0.000165632
3.862960960115,0.000183632
3.867896070607,0.00190563
3.874849125722,0.000157232
3.878647740866,0.000153632
3.881612267133,0.000122432
3.882625302476,0.000138032
3.88819520126,0.00362283
3.888706461222,0.000219887
3.888848061221,0.00248523
3.891081305437,0.000146432
3.89766685462,0.00225344
3.90506005462,0.0127044
3.907248877557,0.000123632
3.910093196943,0.00127683
3.914740491363,0.000130832
3.915123016603,0.000138032
3.931612485043,0.000134432
3.935866506455,0.000138032
3.937153940099,0.000200432
3.948766579222,0.000136832
3.951740383715,0.000142832
3.961160793569,0.000128432
3.965131895581,0.000177632
3.968866206279,0.000157232
3.971556776173,0.00119163
3.972980728708,0.000122432
3.975995965586,0.000134432
3.984817459056,0.000126032
3.989599500415,0.0013967
3.990815100413,0.00132309
3.991867500413,0.000136464
3.993319500411,0.00236456
3.99412830041,0.00868803
3.994476332409,0.00401754
3.995386189243,0.000132032
4.006892473319,0.000139232
4.008974336709,0.000829232
4.011229863107,0.000136832
4.01327764949,0.000291632
4.017108263364,0.00114483
4.017749063363,0.000305995
4.019262263361,0.00200467
4.01997986336,0.000313285
4.021218263358,0.00689403
4.027532968594,0.000124832
4.029743091587,0.000145232
4.034221222743,0.000174032
4.042097028585,0.000231742
4.043198628585,0.00267363
4.043306540023,0.000212432
4.051325308691,0.000394832
4.060578812013,0.000132012
4.062120812012,0.00552723
4.06746489457,0.000969632
4.08300471838,0.000122432
4.086392516468,0.000175232
4.088471437992,0.000124832
4.089784373633,0.000127232
4.090211703032,0.000157232
4.100618774541,0.0028863
4.102545974541,0.000138342
4.10730757454,0.000203316
4.107713174538,0.000153273
4.110324374536,0.0130356
4.11663636495,0.00611763
4.123948350751,0.000166832
4.124806338926,0.000188432
4.125070089315,0.000160832
4.127793146058,0.000169232
4.129271299677,0.000128432
4.131874336598,0.000148832
4.140363607836,0.00115563
4.146034295481,0.000151232
4.149365644402,0.000134432
4.149541496235,0.000123632
4.158759342509,0.000591632
4.158795533638,0.000217232
4.165920134597,0.00135483
4.169119297295,0.000155527
4.172461297294,0.00589563
4.172476236176,0.000618032
4.17475167469,0.00527403
4.18944002196,0.00222603
4.191589453868,0.00265923
4.191591853868,0.00133537
4.193735085866,0.000170348
4.194143817713,0.000445232
4.197669917864,0.000189848
4.201675517862,0.0119891
4.202813069864,0.00012475
4.204064669862,0.00022412
4.20571706986,0.000135821
4.205863469858,0.010158
4.206521101858,0.00286559
4.207944301858,0.000211126
4.211349901857,0.000242076
4.211987810847,0.000131853
4.215281810845,0.00458682
4.217037410845,0.0127983
4.219099010844,0.00373524
4.222539410843,0.0126348
4.224724059047,0.000164469
4.224823659046,0.00514093
4.224940059045,0.00264243
4.230733289667,0.000172832
4.231365900157,0.000159632
4.233329522894,0.000124832
4.234449296638,0.000145232
4.235637358064,0.000136832
4.243636887978,0.000124832
4.2449362048,0.000124832
4.259947888934,0.000226857
4.263055888933,0.00780483
4.263590415696,0.00741963
4.270059943969,0.00108843
4.270385823107,0.000186032
4.275855364721,0.000169232
4.279891403074,0.000177632
4.281402285093,0.000248432
4.285513803738,0.000127232
4.287568467248,0.000136832
4.291747781157,0.000136832
4.293060601206,0.00108483
4.29313564772,0.000128432
4.298910767742,0.00285723
4.301905612201,0.000180032
4.306412572071,0.00016245
4.30649057207,0.000297632
4.307457187284,0.000321632
4.308180811656,0.000153632
4.310242379631,0.000131629
4.31437637963,0.00435243
4.318125829325,0.00417003
4.320440929336,0.00162123
4.321103552516,0.000283232
4.325737208032,0.000126032
4.330750651552,0.00240243
4.332561525603,0.00015866
4.333417125602,0.00344629
4.341641925601,0.000486059
4.341849525598,0.000128211
4.343870446096,0.00231723
4.345252757596,0.000142968
4.345317557593,0.000200703
4.345945157593,0.000447149
4.346375957591,0.000441935
4.350278357591,0.00634613
4.353230357591,0.000674573
4.36137475759,0.017476
4.365386357589,0.000270079
4.366930757588,0.0377017
4.367111957588,0.00014494
4.367665157587,0.00331343
4.369298357586,0.000163194
4.371190757584,0.0333641
4.372890727971,0.000213632
4.376093280531,0.000169232
4.388210721507,0.000138032
4.389356801384,0.000208832
4.395055355674,0.00139443
4.398719205883,0.00282243
4.400880886292,0.00110403
4.404352766938,0.000146285
4.404537566937,0.00217323
4.406362108949,0.000141632
4.417036794744,0.000121516
4.418707194743,0.00501123
4.43216514557,0.0142377
4.432399145568,0.000208578
4.433065145566,0.00897326
4.440233945565,0.0249936
4.448118397242,0.000224432
4.451289407825,0.000957632
4.455773736372,0.000160832
4.460708877033,0.000960032
4.461673832332,0.00181563
4.462608456561,0.000136832
4.465223397221,0.00105603
4.466597441294,0.00127683
4.477958170653,0.000186487
4.483950970652,0.000248729
4.484034784014,0.000121232
4.491195216012,0.00013748
4.495038816012,0.0251079
4.50087204801,0.0331703
4.50316112105,0.000163059
4.503522321048,0.0101988
4.507608066543,0.000157545
4.509807666542,0.00318963
4.514817570721,0.00115203
4.517248425468,0.000244251
4.517684025467,0.00024643
4.517836425465,0.00272163
4.520198250456,0.000976832
4.534554633041,0.000122432
4.536883980103,0.00156483
4.540138976893,0.00140763
4.541010748156,0.000156032
4.545195815825,0.000164432
4.553206034986,0.00148323
4.553784320828,0.000133232
4.559566359891,0.00157563
4.560185647454,0.00123963
4.564019578134,0.000364832
4.565608196016,0.000277232
4.567872435285,0.000160832
4.569020291497,0.000142832
4.573477448118,0.000903632
4.575299063666,0.000123632
4.575849355738,0.000121232
4.582485942317,0.000960032
4.585665485314,0.00151923
4.590400504944,0.000153632
4.595878228613,0.000176049
4.596679828613,0.000308528
4.597698628613,0.00225403
4.598878228613,0.000133276
4.599600628612,0.00531003
4.603266133038,0.000126032
4.60341594209,0.000138032
4.605278369576,0.000153632
4.606090802564,0.000145232
4.611540956085,0.000158785
4.614370556083,0.00773763
4.615028401049,0.00681963
4.61802371547,0.000202832
4.618365116515,0.000135632
4.625509104232,0.000144032
4.625846697353,0.000136428
4.625859897352,0.000151232
4.625890996835,0.000139232
4.627701528991,0.000144032
4.628822090449,0.000470432
4.63625801835,0.000369632
4.641308360474,0.000177039
4.641861560474,0.000124091
4.645246760474,0.00712683
4.646611485348,0.000171632
4.646856232003,0.000172832
4.649886236471,0.000169232
4.652163253867,0.000124832
4.65634393419,0.00239643
4.662209914201,0.000272432
4.664716694403,0.000171632
4.664929084289,0.000344432
4.675469755628,0.000152432
4.676355745111,0.000152432
4.684169233157,0.000760832
4.691476112185,0.000141632
4.695175433944,0.000138032
4.698626097372,0.000146432
4.701047263673,0.000172832
4.707466922981,0.0001725
4.71143652298,0.00448803
4.715671489147,0.000162032
4.724486996303,0.000452432
4.726157460946,0.00127803
4.729367684397,0.00394323
4.730241123565,0.000212432
4.730864703345,0.000169232
4.731901139765,0.000170432
4.733681168273,0.00159603
4.741798519623,0.000172832
4.742749067021,0.000171632
4.753484473838,0.000126032
4.754097705836,0.000668148
4.754523979941,0.000133979
4.76024797994,0.00013328
4.761175579938,0.00714843
4.763286721703,0.000166832
4.763412753701,0.000127638
4.767317214018,0.000141556
4.768768014018,0.00472323
4.770797927389,0.000315632
4.775914309827,0.00278866
4.778680309826,0.00594723
4.779246087846,0.000239139
4.784364087845,0.000295714
4.791283287843,0.000231579
4.794042087842,0.000337784
4.79931008784,0.01542
4.79940608784,0.00809482
4.802163719838,0.000128678
4.803633719837,0.00133681
4.804770119835,0.0285121
4.806402561839,0.000243632
4.818949171036,0.00440283
4.824624922262,0.000305914
4.826885722262,0.0114578
4.828251322261,0.013038
4.829858815517,0.000124832
4.833905389862,0.000135632
4.834339320906,0.000127232
4.839038062343,0.00287163
4.845343143832,0.00120483
4.847195558962,0.000140432
4.857118486528,0.0004639
4.857270886527,0.00188713
4.859234086526,0.00873483
4.865112335708,0.000199232
4.87885869026,0.00159103
4.879693890257,0.000194315
4.881543090256,0.000121419
4.882525890256,0.00442726
4.884787755943,0.00153794
4.886281755941,0.00073491
4.887748155939,0.0159779
4.890188987937,0.0137413
4.890327122252,0.0121773
4.897263019935,0.0214961
4.902796187936,0.000129458
4.911056987935,0.0263547
4.911422300044,0.000123632
4.914842671854,0.000147632
4.916850021094,0.000168032
4.92780721581,0.00675843
4.932297834999,0.000121866
4.933297434998,0.000122007
4.934711034996,0.00328203
4.940136436529,0.00226563
4.940162773961,0.000128432
4.94439080206,0.00318963
4.946902624067,0.000165632
4.952263065073,0.000168032
4.967899971021,0.000264032
4.971932303282,0.000141632
4.977715996192,0.000888297
4.97789359619,0.000321552
4.97848519619,0.00383043
4.97908999619,0.00525483
4.987427747621,0.000188432
4.988710366602,0.000127232
4.993115871769,0.00259563
4.999278282805,0.00242528
5.003349882804,0.00848403
5.005754097914,0.00564243
5.010735977282,0.000148832
5.01331048207,0.000177632
5.015624342693,0.000140432
5.017516834848,0.001169
5.017558834847,0.000251408
5.019608434846,0.00372243
5.027357662342,0.000337232
5.031709762572,0.000814832
5.033402175515,0.000124832
5.034926304028,0.000160832
5.036455100761,0.000158432
5.037244788446,0.000180032
5.045162557187,0.000193232
5.046772885806,0.000134432
5.053973258662,0.00727563
5.058157555083,0.000189853
5.058452755081,0.00017164
5.05923755508,0.0001365
5.059647955079,0.0123708
5.059797621228,0.000427893
5.063032821227,0.000136122
5.065150821225,0.00777963
5.072784191854,0.000127232
5.0747946887,0.000121232
5.077961391013,0.000146621
5.078356065606,0.000471632
5.078715023011,0.00181686
5.079070031396,0.00193323
5.091805857889,0.000121232
5.095942361017,0.000121848
5.096161961017,0.00173883
5.097346168428,0.000180032
5.107010331033,0.000138032
5.109699331795,0.00165483
5.113935005608,0.00166777
5.113966205606,0.000128862
5.115413437604,0.00526326
5.117481592671,0.00154323
5.118997534062,0.000144032
5.129964891892,0.000162032
5.138192389848,0.000128432
5.14124724725,0.000586832
5.154674925469,0.000610832
5.158938406574,0.000133232
5.163005799058,0.000128432
5.1639119941,0.000147632
5.165482918777,0.000146432
5.172435561384,0.000132032
5.185653195035,0.000203279
5.186473995034,0.00735243
5.198133821323,0.00015994
5.199485021322,0.00520083
5.201782599772,0.000203174
5.203641399771,0.00298803
5.206018033689,0.000183632
5.214617709986,0.000130885
5.218436109985,0.0109716
5.218820711911,0.000147632
5.222749493733,0.000128432
5.24273805305,0.000205586
5.246203653049,0.000904642
5.247185253047,0.000246203
5.252381253045,0.000194292
5.254494453043,0.0155592
5.25546930382,0.000142832
5.259602079087,0.000162411
5.261668479086,0.00318243
5.26388984929,0.000405632
5.264092894866,0.000171632
5.264327158438,0.000140432
5.265370109898,0.000159632
5.268371472261,0.00166323
5.269891434386,0.00116043
5.271376851946,0.000166832
5.272777102863,0.000121232
5.274778557305,0.000153632
5.279136587052,0.000368432
5.283912668693,0.000150032
5.285535128609,0.000122432
5.287041074298,0.000903632
5.288666811053,0.000123632
5.29173123367,0.000141632
5.292907534439,0.000141632
5.299783327843,0.000418914
5.300422927842,0.000167357
5.30125812784,0.00221283
5.304698180233,0.000124832
5.305894338352,0.000204032
5.309049980853,0.000231883
5.309861180852,0.00330243
5.311086489786,0.000124832
5.314669153947,0.00304923
5.314853432372,0.000148832
5.32074436929,0.00384243
5.321810001288,0.000147641
5.322782001287,0.00205836
5.326031440377,0.000399991
5.326912240376,0.000160761
5.330724640374,0.00722883
5.33380838829,0.00507123
5.336597536887,0.000218432
5.339138499616,0.000169232
5.342733579811,0.000226832
5.347705072587,0.000230427
5.349465472586,0.000165306
5.352067072585,0.00556803
5.354471115847,0.000169232
5.360869581793,0.000337232
5.368910792004,0.00149718
5.369474792003,0.000198211
5.369853992001,0.000157582
5.370173191999,0.000126093
5.370327991997,0.00716163
5.371047536588,0.000121232
5.371927792931,0.000141632
5.376324733106,0.000163232
5.3767096199,0.000166832
5.381852266794,0.000167298
5.383037866794,0.000182422
5.384090266794,0.00649443
5.38776818818,0.000200432
5.390878506892,0.00155883
5.39231863971,0.00014308
5.393023039709,0.00174483
5.397202671707,0.00483605
5.410496225161,0.000151232
5.412476476442,0.00149403
5.414086160884,0.000128432
5.424111397999,0.000232832
5.427609810313,0.00105483
5.434301534275,0.000132032
5.436898665105,0.000915632
5.437887055535,0.000165632
5.439212593481,0.00105243
5.440261303198,0.00157923
5.445544929506,0.000140432
5.447532647169,0.000122432
5.449995404726,0.000871232
5.451244475714,0.000175232
5.452408786397,0.000139232
5.452556418395,0.000219331
5.456816281072,0.000165632
5.461189502693,0.000194432
5.462126792371,0.000156032
5.465768125317,0.000130832
5.466303889126,0.000153632
5.469697790552,0.000524432
5.478062808895,0.000123632
5.483707628086,0.000139232
5.490971706998,0.000483632
5.496502186698,0.000129632
5.512751208177,0.00101283
5.512758780703,0.000195632
5.516912801855,0.000367232
5.517033723461,0.000238832
5.518666109405,0.000590432
5.519781181944,0.000130832
5.523115807116,0.000132032
5.530499535477,0.000222032
5.531720330589,0.000128432
5.538676657064,0.00197163
5.541498699347,0.000181232
5.542455081291,0.000128432
5.548742274401,0.00352803
5.551263506729,0.00152403
5.551644630643,0.000134432
5.559190264241,0.000225264
5.56562226424,0.00025523
5.569944664238,0.000212984
5.572104664236,0.00029538
5.573430664235,0.013358
5.574741064233,0.00179057
5.576680264232,0.022308
5.586178383533,0.000130832
5.588155834437,0.000678032
5.593541112053,0.000151232
5.596555608677,0.00239163
5.602059253257,0.000141632
5.6076892616,0.000414016
5.609873261599,0.00516243
5.610413871881,0.00517443
5.614339285978,0.00172803
5.616447157481,0.000237144
5.61654075748,0.000294576
5.616983557479,0.000948032
5.624284270926,0.000325232
5.625861438143,0.000121232
5.627756159485,0.000128432
5.628776354449,0.00101763
5.630956371162,0.000181232
5.63220188648,0.000181232
5.63355014393,0.000144032
5.633850509064,0.000135632
5.638914577157,0.00348483
5.642171712031,0.00135843
5.642387712029,0.00425883
5.650741577529,0.00086848
5.651961977528,0.00248523
5.657557653057,0.00109083
5.661665178096,0.000127232
5.6639745412,0.000123632
5.664452872925,0.000174032
5.665843945712,0.000121232
5.675174688678,0.00097167
5.677228257477,0.000122529
5.677712720676,0.00193714
5.679439520675,0.000151275
5.681359520673,0.000373919
5.682866752671,0.00182691
5.684795152671,0.00042402
5.685486352671,0.000574158
5.68616075267,0.000550508
5.68668995267,0.000329715
5.691911152668,0.000345204
5.694175552666,0.0235132
5.695739152666,0.000916322
5.695968384664,0.00235796
5.696570816662,0.000130918
5.703929216662,0.000243479
5.708825216661,0.0113642
5.709989184663,0.0208103
5.713596448658,0.00379268
5.714591248658,0.000292371
5.715170848658,0.00051498
5.715493648658,0.000248628
5.718227248657,0.0488986
5.720294880655,0.0509738
5.726958085453,0.00553203
5.729877358681,0.000147632
5.730835483161,0.000123632
5.73095007421,0.000231632
5.732505418307,0.00012641
5.734754218306,0.000126712
5.735265418304,0.000133358
5.735513818302,0.000153263
5.7414586183,0.000251664
5.745520618298,0.00376553
5.746748218297,0.000136015
5.747878618296,0.000136527
5.750068618295,0.00105424
5.751304618294,0.000539347
5.752453018293,0.0156632
5.755072618292,0.000126315
5.76009941829,0.000186993
5.762421418288,0.0014326
5.762681818286,0.000129374
5.763763018284,0.0323376
5.764440741007,0.00164736
5.766022341006,0.00187539
5.766635541005,0.00949443
5.766948013486,0.000139232
5.77533877749,0.000718832
5.778179057821,0.000124832
5.782978743805,0.000157232
5.786599215536,0.000126032
5.792671020884,0.000134432
5.792757408858,0.000121232
5.809531361303,0.00209043
5.810282724943,0.000181476
5.814003924941,0.00012624
5.818071924939,0.010248
5.819097130264,0.00362565
5.819213530263,0.00411243
5.820144076272,0.000176432
5.820409925679,0.000206432
5.821433435013,0.000183632
5.823485244136,0.000178832
5.823888044999,0.000122432
5.825443312739,0.000124832
5.840023607551,0.000564032
5.843410052315,0.000121232
5.845035328528,0.000152432
5.845149751948,0.000126032
5.847762899292,0.000139232
5.848618645148,0.000121232
5.849672159731,0.000166832
5.855956002341,0.000193777
5.85724480234,0.000136029
5.857477634338,0.000286288
5.857848466336,0.000629858
5.860358866336,0.000249003
5.861218066335,0.00024146
5.865214066333,0.0145597
5.865228498331,0.00208934
5.865636498331,0.0046151
5.866825081174,0.00490939
5.869747081173,0.000310858
5.876734681171,0.0193644
5.882564442352,0.00202309
5.885017242351,0.000218512
5.88665164235,0.00898083
5.887534801351,0.00758283
5.8884190259,0.000139232
5.89639808717,0.000140432
5.898511524281,0.000166832
5.91203030903,0.00475083
5.916322981877,0.000181232
5.917843516621,0.000122432
5.921438993333,0.0001216
5.923891793332,0.000420683
5.934644993331,0.0141027
5.93589059333,0.0161808
5.942210399538,0.000123632
5.944074658095,0.000157232
5.951159527406,0.00283683
5.967102517782,0.000128967
5.973648517781,0.00410394
5.97435171778,0.000307045
5.976880117779,0.00158401
5.978663317778,0.0153611
5.979086917777,0.000124392
5.990309317775,0.000483218
5.990480917773,0.00420685
5.990548117772,0.000121403
5.99143494977,0.000145557
5.994983349769,0.000160138
5.995452549767,0.0326257
5.995929461738,0.000480032
6.006415160285,0.000150032
6.01937942432,0.00013109
6.026269856318,0.00692779
6.028259456318,0.00101992
6.028777856318,0.000219731
6.029135456317,0.0180841
6.035124701062,0.000218859
6.035512301061,0.00322563
6.03559982732,0.00192963
6.03615133222,0.000155967
6.037347732219,0.00161883
6.042695158346,0.000177632
6.043336934506,0.000174032
6.048217524004,0.000184832
6.055838796176,0.000138032
6.057445771989,0.000128432
6.061684212594,0.000154832
6.064750334138,0.000156032
6.066203946663,0.00123243
6.066218760693,0.000135632
6.078496177632,0.000171632
6.088120464908,0.00113523
6.089550753924,0.000124832
6.091448585073,0.000175232
6.092068549055,0.000150032
6.092416400709,0.000169232
6.09482826021,0.000345632
6.10125518401,0.000310569
6.101753184009,0.00186239
6.102875184008,0.000244702
6.104022384006,0.00587523
6.106181856761,0.000121271
6.10639305676,0.00462483
6.109482710602,0.000141632
6.112040848814,0.000144032
6.114871722693,0.000124832
6.117157379125,0.00131403
6.118192643534,0.000164432
6.126824316936,0.00324003
6.127071625064,0.000122432
6.131027245376,0.000167671
6.132479245375,0.000200495
6.133824445374,0.00422643
6.134062767149,0.000180032
6.134638593626,0.000168032
6.142292532861,0.000195848
6.147715332861,0.00798723
6.149189372288,0.000126032
6.149774789132,0.000139232
6.15245383252,0.000747632
6.16029468705,0.000128432
6.166889635039,0.000178832
6.169169742334,0.000121232
6.172736964756,0.00153723
6.180997213269,0.00145083
6.183083209123,0.000128432
6.187874114592,0.000129508
6.193268114591,0.000240634
6.194504114589,0.00464899
6.195696914588,0.000147674
6.200039714587,0.00327339
6.201644114585,0.01737
6.20601154296,0.00142083
6.212813747532,0.000135632
6.21327718846,0.000134432
6.216249670213,0.00146283
6.216678533869,0.000151232
6.223100352684,0.000144032
6.223594022301,0.000336032
6.226025269011,0.000138032
6.235153102035,0.000855632
6.237561409697,0.000121232
6.243402639556,0.000158432
6.249968215151,0.000160832
6.251700528139,0.000141632
6.258141724583,0.000157232
6.266832110134,0.00119892
6.268483310133,0.000169764
6.268494668732,0.000132032
6.26912710073,0.00736022
6.271860218592,0.000259232
6.273815803664,0.000129632
6.280394880287,0.000165632
6.283531348216,0.000121232
6.298290019914,0.000151232
6.299042956366,0.000127232
6.299367641618,0.000163232
6.303168771982,0.000612032
6.30683610616,0.00140763
6.328880812739,0.000160832
6.33717466497,0.000175176
6.338972264969,0.000244266
6.340145864968,0.00343203
6.34090189236,0.000223232
6.341828461925,0.000144032
6.346349064406,0.000155956
6.353777064406,0.00647573
6.355415064403,0.000663891
6.355557864401,0.000130491
6.355757064399,0.00414604
6.360283464398,0.000144064
6.363224664397,0.00604186
6.369056664396,0.00556542
6.373344264394,0.000388157
6.376553064394,0.0234288
6.381440664394,0.0307804
6.383779464394,0.000189644
6.389270664394,0.000216248
6.401616264392,0.0559044
6.40739069639,0.000272335
6.407520522581,0.000400832
6.410069128388,0.000506723
6.414308003377,0.000385719
6.414590003375,0.0102311
6.414654803375,0.00648363
6.415091635373,0.0626694
6.420483235373,0.0145804
6.421227135628,0.000162477
6.421861935626,0.00021792
6.422859135624,0.000131659
6.423035535623,0.00597483
6.429551135889,0.00357003
6.436095182159,0.000126032
6.43639475002,0.000140432
6.441927865569,0.000141632
6.442682003317,0.000142832
6.443456639296,0.000159632
6.443701050836,0.000148832
6.447145418891,0.00124443
6.447696497048,0.000208832
6.447966719877,0.000147632
6.45001369276,0.000138032
6.452601982796,0.000178832
6.453311319437,0.000765632
6.456333125721,0.000136217
6.45844872572,0.000136708
6.458706725717,0.000129446
6.460185125716,0.00475563
6.461876118226,0.000137249
6.463319718225,0.000176851
6.465608118224,0.000175429
6.467913318223,0.00685398
6.468342918222,0.00019666
6.46853011822,0.000186865
6.470094918219,0.000362061
6.470523318217,0.000136064
6.475686918215,0.000246852
6.479256918213,0.00307825
6.483767718212,0.026886
6.486563926398,0.000124832
6.488513601795,0.000156032
6.496566321045,0.000126804
6.497372721044,0.00356283
6.505044288141,0.00210418
6.509001888141,0.000216162
6.50923108814,0.00399363
6.510630288139,0.000165288
6.511583088137,0.0102108
6.519844506884,0.000176432
6.533853208789,0.000184832
6.535545545288,0.000181245
6.535621145287,0.00104523
6.55133527508,0.000202832
6.565345288028,0.000218432
6.56665673025,0.000140432
6.576656905008,0.000198368
6.578147305007,0.0026464
6.578234616574,0.000254432
6.584274505004,0.0118968
6.58574356466,0.000721232
6.589489068118,0.0001766
6.595483068117,0.00655683
6.600037192166,0.00291301
6.602636392165,0.000124246
6.605377192163,0.00949803
6.60790297042,0.000148832
6.61125756261,0.000175232
6.614706224003,0.000128553
6.615665024002,0.00394083
6.618487105593,0.000208239
6.619150705592,0.00143883
6.623441189635,0.00142203
6.627893917478,0.000128432
6.632694127791,0.000174032
6.646781541411,0.000222032
6.649222705792,0.000138032
6.653213165174,0.000692432
6.653410636087,0.000122432
6.656913391044,0.000174932
6.657468991043,0.000179979
6.659219791041,0.0001238
6.66044619104,0.000241671
6.663270991039,0.00164148
6.665431023037,0.00916206
6.668133423037,0.000179302
6.668387823037,0.0052281
6.668567327552,0.00134163
6.674253731113,0.000166832
6.690813604883,0.000828032
6.691976502961,0.00176163
6.699132800101,0.000130832
6.701268972632,0.000193232
6.702821982137,0.000153632
6.706457673786,0.000122432
6.708523244477,0.00165123
6.716189150062,0.000127232
6.717907493904,0.000122432
6.719057551247,0.000135632
6.720033058943,0.000496832
6.732766779348,0.000150032
6.736695223653,0.00143403
6.739419000538,0.000123632
6.742067736881,0.00210003
6.748404782581,0.000333632
6.748462892726,0.000219632
6.754061560877,0.000181232
6.758155309004,0.00101403
6.75947261451,0.000392432
6.760852646997,0.000130832
6.763749618154,0.000166832
6.767911100364,0.000391232
6.771446974993,0.00308043
6.774604479697,0.00370803
6.774982122096,0.000170432
6.781883907794,0.00369123
6.782400394771,0.000121232
6.783757145705,0.000165632
6.78813118563,0.00016521
6.788535585629,0.00355683
6.799030521959,0.000640832
6.804927470502,0.00420243
6.805410226549,0.00016071
6.805897426547,0.00373563
6.808304033745,0.000128433
6.809758433744,0.000126099
6.815356433742,0.00720723
6.821264012116,0.000168032
6.82329143484,0.000139232
6.82425193343,0.000182432
6.825758778887,0.000123632
6.826031844728,0.000123632
6.839390239824,0.000164432
6.840592938451,0.000171632
6.846614757487,0.00325203
6.847547684944,0.000144032
6.862729203392,0.000124832
6.872023247497,0.000181232
6.874056238842,0.000174032
6.880406212256,0.000162032
6.882154481914,0.000127232
6.886497468286,0.00288642
6.889966668285,0.000247106
6.891827868283,0.000154149
6.893966268281,0.0105852
6.89528872652,0.000124829
6.895526326518,0.00404403
6.895666570219,0.000169232
6.904877232733,0.000176432
6.905560227355,0.000153632
6.905957437227,0.000139232
6.911284143202,0.000160832
6.924067137062,0.0125712
6.926324532255,0.00111614
6.939435504782,0.000331787
6.93995870478,0.000130156
6.940304304779,0.00525633
6.945123504779,0.000411425
6.946373904777,0.030469
6.947630304777,0.0295667
6.951860336775,0.000350389
6.956611104775,0.000229287
6.961492704774,0.0205823
6.963607104771,0.0341841
6.965320377262,0.00365373
6.968526777262,0.000266087
6.970291977261,0.00435308
6.970726377261,0.0140836
6.971328809259,0.000135925
6.975177173293,0.0566325
6.978863605291,0.000359243
6.97928240529,0.0491442
6.98019320529,0.0269029
6.981893605289,0.0227209
6.986366401619,0.00388923
6.986603699166,0.00131523
6.988511730032,0.000931232
6.994199864767,0.000342032
6.998913419095,0.000312032
7.000846641425,0.000178832
7.002272754481,0.00117963
7.005516988477,0.000121232
7.005651420475,0.000145984
7.017665182495,0.000174032
7.019623316136,0.00016219
7.019780516136,0.000392432
7.021765348134,0.00219943
7.022506988,0.000126352
7.022638987998,0.00101883
7.024505245196,0.000201632
7.025700261906,0.000127232
7.03237265306,0.00161643
7.040664536213,0.000373988
7.041697736212,0.000676415
7.04349173621,0.00326523
7.044331175017,0.000251346
7.045031975017,0.00104283
7.046506582457,0.000160505
7.047884182456,0.00268563
7.048746527769,0.000184832
7.051076270117,0.000144032
7.059589998834,0.00019769
7.061699598833,0.000252365
7.063158798831,0.00716836
7.06519159883,0.00277709
7.066224798829,0.00012604
7.067129598827,0.000243925
7.067303598825,0.012048
7.07239174303,0.00404883
7.074975645934,0.000124832
7.079041539638,0.000136832
7.081474208719,0.000145232
7.08457093497,0.00234963
7.095974946717,0.000439232
7.101296959556,0.00368283
7.1019348106,0.000592832
7.102026892382,0.000231632
7.102795428262,0.000124832
7.1062923281,0.000278432
7.10680860789,0.000159632
7.107258299444,0.000183632
7.108539749959,0.000123632
7.109838521227,0.000439232
7.114517784939,0.000181232
7.123729923049,0.000147896
7.124587923049,0.00311643
7.127990551018,0.000142832
7.131992991898,0.00127323
7.137085634078,0.000206003
7.137618434078,0.00383403
7.148302481466,0.000236432
7.148870264848,0.000147632
7.149093518923,0.000127232
7.150780494356,0.000157337
7.151049294355,0.000644432
7.152407541067,0.000590432
7.15276014328,0.000274832
7.163029210905,0.00112083
7.169125334086,0.000139232
7.173081288462,0.00406923
7.177284310387,0.000127232
7.188018649589,0.000157232
7.192403564834,0.000130832
7.192967663586,0.000174032
7.195752860309,0.00285483
7.196218492307,0.000467741
7.199968492307,0.000189565
7.201512892305,0.000248132
7.201684524303,0.00609794
7.204316977199,0.00752385
7.206952177199,0.000764897
7.209768577198,0.000429603
7.210338577196,0.011802
7.213522254121,0.000163232
7.220315077608,0.000279632
7.225266412324,0.000268832
7.227703814778,0.000381632
7.228249382224,0.000210032
7.230268172683,0.000123632
7.23106411334,0.000144032
7.236732939136,0.00132363
7.241925599462,0.00166443
7.243974826842,0.00024152
7.248612826841,0.000260527
7.25041882684,0.00712803
7.256630281641,0.000141632
7.258200735224,0.000135632
7.267442759832,0.000570032
7.273859795568,0.00134403
7.275594288772,0.000670832
7.276584055786,0.000121232
7.280788041408,0.000166832
7.282682113853,0.000148832
7.284093749405,0.000166832
7.288830368795,0.00014598
7.289436368794,0.000510286
7.290240368792,0.00122756
7.291146368791,0.00592803
7.297414205243,0.00512283
7.300156237241,0.00701766
7.30748765451,0.000310832
7.309369706566,0.000123632
7.313176082641,0.00226203
7.314414070278,0.00119403
7.318732642061,0.00362883
7.329797372573,0.000148832
7.33969834251,0.000147632
7.367277182365,0.000133464
7.367494382364,0.00462363
7.367718127153,0.000124832
7.369115339078,0.00109083
7.369254216729,0.000123632
7.376514210049,0.000168032
7.376824816736,0.000183632
7.377171187734,0.000127232
7.379337444843,0.000412076
7.384943844843,0.00647043
7.397224221047,0.00811923
7.398458376526,0.000122432
7.401361934264,0.000139232
7.401394886913,0.000152432
7.404330434491,0.00294843
7.40923524599,0.00162723
7.410768958063,0.000644432
7.412709623838,0.000121232
7.422415829935,0.000571232
7.428473894802,0.000145232
7.443713649142,0.00304923
7.459260610601,0.000121232
7.473347615989,0.00589563
7.481505257596,0.000215424
7.481855700298,0.000409232
7.482564889594,0.000126685
7.485556489594,0.000167358
7.493585689592,0.00029689
7.49747488959,0.000168282
7.502864089588,0.000297886
7.503504889587,0.0270889
7.505654124411,0.00955443
7.512755869887,0.00300003
7.516934134621,0.000170432
7.518154566619,0.000451976
7.518285366618,0.00137696
7.524028549018,0.00612723
7.529543277226,0.000141632
7.535140868116,0.000176432
7.537037765473,0.000145232
7.540516368827,0.000191863
7.543240368827,0.00596163
7.544670525199,0.000160077
7.546078125197,0.000129173
7.546766925195,0.00446283
7.548272405682,0.000259232
7.552821178733,0.00167146
7.552828378732,0.000140255
7.557925978731,0.00879843
7.55994982813,0.000124832
7.562266160292,0.000165632
7.572264375498,0.000318538
7.572534375496,0.00387482
7.574822775496,0.012426
7.575665207494,0.00707194
7.577319241664,0.00208203
7.583506991874,0.000127232
7.585237960277,0.00133323
7.590253499245,0.000146432
7.605497082862,0.000124832
7.606086961138,0.000174032
7.611503026046,0.000175232
7.614085705621,0.000877232
7.619607504089,0.000169232
7.622575980846,0.000531632
7.624825324554,0.000744032
7.625236292463,0.000144032
7.625532059787,0.000169232
7.628374315242,0.000152432
7.633797334883,0.000955232
7.645489488689,0.000127232
7.657636799268,0.000802832
7.657888541535,0.000181232
7.65931379491,0.000902432
7.663995225807,0.000330032
7.668503062817,0.000399632
7.686338869704,0.000136832
7.700423310198,0.000128432
7.709570864393,0.00269487
7.713646064392,0.000136004
7.72177006439,0.00297013
7.722271664388,0.00412557
7.728623264387,0.0273252
7.729642096386,0.00784888
7.731107742276,0.000583232
7.731803883124,0.000139232
7.734617267963,0.00171123
7.735132290588,0.000133232
7.736482350918,0.000368432
7.744356661021,0.000159632
7.753374074149,0.00113043
7.754008590144,0.000147632
7.755231993232,0.000193232
7.7652983779,0.00104847
7.766006377899,0.00261603
7.768169604626,0.000367232
7.76921787618,0.000148832
7.774320458044,0.00140043
7.776925781308,0.000175232
7.77729742694,0.000165632
7.777330227604,0.000123632
7.777757655694,0.000126032
7.778368877883,0.000165632
7.787354331507,0.000127232
7.792373151076,0.000192004
7.795464351076,0.00783483
7.796357380715,0.000150764
7.799221780713,0.00450483
7.805193637975,0.00880683
7.805968634769,0.00366243
7.811124816467,0.000146432
7.816709200885,0.000279632
7.819369188182,0.000777632
7.823847724225,0.000849632
7.826605244918,0.000338432
7.832387158856,0.000177632
7.833112960063,0.000136832
7.834586685502,0.000124832
7.838666312337,0.000130832
7.839085800252,0.000139232
7.839196468641,0.000166832
7.848063060245,0.000171632
7.848365701009,0.000194432
7.855397579198,0.000136832
7.863754515276,0.000151232
7.865663300477,0.000122432
7.866546006557,0.000176432
7.872457950708,0.00115563
7.877222246302,0.00211839
7.878301046301,0.00469203
7.879711769671,0.00207363
7.884117644381,0.000150032
7.884876924931,0.000207632
7.890320215749,0.00276483
7.890735915852,0.000133232
7.894890479584,0.000165632
7.896688935413,0.000927632
7.907327570243,0.00327363
7.909289831284,0.00158643
7.915271783885,0.000645632
7.915811959295,0.000168032
7.923626996514,0.000254432
7.927647904732,0.00233643
7.930461234765,0.000136832
7.932861535423,0.000159632
7.933043007073,0.000213632
7.938720007487,0.00582363
7.939789110883,0.00012717
7.940668710882,0.000169447
7.94105031088,0.000234124
7.947988710878,0.00872043
7.950781876815,0.000261954
7.952914276815,0.011604
7.956174708813,0.0128161
7.956768708813,0.0105255
7.957776740811,0.0141728
7.965087743998,0.00169083
7.972159397133,0.000812432
7.972974839865,0.000180032
7.981223987981,0.000133868
7.98180598798,0.00436201
7.983074387979,0.00630483
7.992961602499,0.000176432
8.005006114895,0.00446883
8.006949613507,0.00378723
8.008633019709,0.000135632
8.021215598866,0.00146643
8.022511503087,0.000211066
8.024126703086,0.000140499
8.024277903084,0.00346083
8.024732997948,0.00101163
8.030033384131,0.000151232
8.032127318137,0.000174032
8.035033565629,0.000128432
8.048236622752,0.000124832
8.054010623724,0.000638432
8.057654676284,0.00402843
8.074582494762,0.000126961
8.075176494762,0.00293163
8.078541305665,0.00224523
8.085419681913,0.00265803
8.089980056671,0.000460832
8.090485093687,0.000154832
8.099282957312,0.000626497
8.100611357311,0.000184919
8.10385855731,0.0113076
8.105059789308,0.000299455
8.105335789306,0.00645059
8.105544621304,0.000143796
8.109785421303,0.000208717
8.110577421301,0.00885754
8.1110730213,0.0131454
8.125245013118,0.00313083
8.132915282643,0.000229546
8.134625282641,0.00082037
8.135035682641,0.00365688
8.14839528264,0.000367069
8.152420251215,0.000176525
8.153903282635,0.000153099
8.154509451213,0.000139636
8.156096882633,0.00975706
8.157839314632,0.00704862
8.158838914631,0.000247556
8.16047811463,0.000226784
8.16849051463,0.000145824
8.168880514625,0.0406969
8.173060114625,0.00896225
8.178852514624,0.0412648
8.186918386874,0.00735963
8.187796563602,0.000227823
8.187968163602,0.000615632
8.188189129329,0.000163232
8.195346502475,0.000141632
8.208717099736,0.00510938
8.220539499735,0.000151368
8.222359273569,0.000179189
8.228376073567,0.000276781
8.228448073566,0.000148379
8.232709305564,0.000324267
8.233177305563,0.0172326
8.233318905562,0.0333222
8.234620905561,0.0181057
8.239507195208,0.000126032
8.239730800457,0.000229232
8.240031024336,0.000168032
8.244013794551,0.000130839
8.24466539455,0.00162963
8.245205860586,0.000176432
8.24949173977,0.000241232
8.255086186205,0.000164432
8.259968619644,0.000148832
8.264919685654,0.000141632
8.265741452536,0.000126032
8.268012418297,0.00090933
8.271718018296,0.00519243
8.272174750803,0.000121232
8.272931613347,0.000790832
8.274251073294,0.000412283
8.275987473293,0.00243363
8.28686365766,0.000134432
8.294214419916,0.000160832
8.301573418333,0.000862832
8.304530154092,0.000186984
8.306265354091,0.000153407
8.30961455409,0.00822843
8.315100148646,0.000239939
8.320316548645,0.0104868
8.322763886594,0.000127232
8.336740369498,0.000142832
8.344441612638,0.000134432
8.353756650322,0.00240003
8.366123097744,0.00386763
8.371161266914,0.000140432
8.377273988301,0.000258032
8.383244488192,0.000123632
8.38823545902,0.000146432
8.38968578828,0.000128432
8.389941320559,0.000121232
8.393414733545,0.000124832
8.402291901792,0.000139232
8.406507502079,0.000150032
8.41118616875,0.000128432
8.413044256603,0.000164432
8.422489322965,0.000136832
8.426481047541,0.000963632
8.431077611597,0.00403203
8.439274212282,0.000127232
8.449682192931,0.00301582
8.45029659293,0.00498363
8.454812038198,0.000922832
8.462697680123,0.000141632
8.464979832225,0.000174032
8.479885430888,0.000127232
8.491357711407,0.00237243
8.497749837665,0.000237571
8.505606237665,0.0135948
8.506129869261,0.000178832
8.510858055509,0.000154832
8.515500227052,0.000138032
8.518541575821,0.000142832
8.522882954334,0.000142832
8.525125243412,0.000233858
8.53058284341,0.000347854
8.531032195113,0.000122362
8.531658075407,0.000198101
8.534248875405,0.00466344
8.536424507405,0.00012269
8.536657307404,0.0123217
8.537096573583,0.000301465
8.537262173581,0.00025615
8.544177773581,0.00759363
8.544360205579,0.000209122
8.544810205579,0.000167785
8.545503805578,0.000153245
8.550224605577,0.025478
8.552682843522,0.00106083
8.558476618055,0.000170432
8.561486625066,0.000135632
8.569208957018,0.000127232
8.570307302883,0.000127232
8.570683179033,0.000133232
8.579838669131,0.00133431
8.58135906913,0.00327603
8.588058809213,0.00127323
8.600278668763,0.000853232
8.607303621215,0.000267632
8.621375642323,0.000140432
8.621790722006,0.000140432
8.622148044652,0.000151232
8.623501096607,0.000429632
8.628480365498,0.00195003
8.629760910986,0.000525632
8.632005586424,0.000177219
8.632342786423,0.000306388
8.632934386421,0.00212163
8.633863491836,0.000123632
8.640417482237,0.000144032
8.644580864067,0.00365403
8.647866544279,0.000222236
8.648068176277,0.000210107
8.658530976277,0.00301939
8.659618176274,0.00203981
8.661277776274,0.0166225
8.66437241622,0.000140432
8.666544923576,0.000416758
8.669580923576,0.00356163
8.681847702515,0.000210109
8.689935702515,0.00943563
8.699613808847,0.000136832
8.702431771906,0.000157232
8.703280044011,0.000126032
8.704196490542,0.000127232
8.709174192001,0.000176432
8.714575341063,0.000140432
8.718382823095,0.000228032
8.721796911922,0.000124832
8.723743222872,0.000121232
8.724958069467,0.000145232
8.727980423218,0.000232832
8.72947907415,0.00125403
8.730159235157,0.000127232
8.733556073917,0.000167865
8.733712073916,0.000460832
8.735105065845,0.000744032
8.741216643962,0.000122115
8.748715443961,0.00210543
8.75475264396,0.00822286
8.758113843959,0.000298548
8.759263443957,0.0200904
8.76046156047,0.000126523
8.763683560469,0.0001577
8.764203160467,0.000441445
8.764613560467,0.00864243
8.765725161048,0.000132032
8.774659813066,0.000124832
8.777477443157,0.000134432
8.778486072438,0.000153632
8.789847468253,0.00208058
8.791106268252,0.00382323
8.793718418946,0.000128842
8.806736018946,0.000254601
8.812450418943,0.019398
8.812883423154,0.00946323
8.815068502975,0.000152432
8.816769310273,0.000157232
8.819130463603,0.00156243
8.821944825895,0.000163232
8.82223699369,0.000207632
8.822730519535,0.000403232
8.841951309409,0.000988416
8.843516109408,0.00261003
8.845715157938,0.000176432
8.856732834217,0.000154832
8.858589517237,0.000266432
8.862491281183,0.00384243
8.86617224419,0.000162593
8.866223844189,0.00166563
8.870088770406,0.000126032
8.870153679331,0.000126032
8.871253756458,0.000194432
8.878544627764,0.000128432
8.883940879585,0.000154832
8.890350460735,0.000142832
8.891157017225,0.000308432
8.894130427346,0.000242432
8.906654054712,0.000160092
8.908013654712,0.000198664
8.91349765471,0.000148302
8.913638054709,0.00773523
8.920652883241,0.000159632
8.9276581892,0.00692523
8.932603672503,0.00164523
8.935119113993,0.00101661
8.935533113993,0.000131614
8.940736313991,0.00768723
8.94197173556,0.000159632
8.96232355434,0.000471632
8.965595773786,0.000849632
8.977910461711,0.000141632
8.983457074351,0.000160832
8.989507392591,0.000124832
8.99253434134,0.000128432
8.994605033716,0.000146432
8.995120771121,0.000170432
8.998002910091,0.000662432
8.998153802239,0.000150032
9.000873646087,0.000124832
9.004095912516,0.000138032
9.006996547079,0.000236432
9.00866614603,0.000244518
9.01041334603,0.000187203
9.011108146027,0.0016512
9.012418546027,0.000436182
9.014524546026,0.00679083
9.016338149479,0.000164432
9.017575381477,0.00134893
9.022812916145,0.000180032
9.023910499773,0.000201632
9.034899907417,0.000216032
9.035820971548,0.000928832
9.039948153611,0.000159632
9.044670048305,0.00184537
9.047413248304,0.00735843
9.049979911373,0.000151701
9.052397911372,0.00226368
9.05335191137,0.000183125
9.053803111369,0.00744003
9.054170343367,0.000134367
9.054596343367,0.00792708
9.058349943366,0.000122095
9.060621543364,0.00688614
9.061904375362,0.000188628
9.063004775362,0.000158038
9.065907575361,0.00117727
9.073727975359,0.000269019
9.074199575357,0.0013066
9.074818775356,0.0142186
9.076815353421,0.000124832
9.079089127501,0.00147363
9.081055897022,0.000138032
9.085187059324,0.000239571
9.088382659324,0.000182269
9.092478259323,0.000131789
9.093749059323,0.0112452
9.105619570676,0.000196372
9.106243570675,0.000345534
9.106416370673,0.000527597
9.107321170673,0.000235133
9.110508370672,0.00514443
9.116202504313,0.000151232
9.135631934694,0.000122432
9.136105745675,0.000219632
9.143383183755,0.000150032
9.144914633857,0.000194432
9.155868049526,0.000494432
9.160065693843,0.000159632
9.163233936086,0.000750032
9.169909661139,0.000896432
9.170394333342,0.000460832
9.177080485566,0.000782432
9.177246862033,0.000178832
9.179452246199,0.000838832
9.184318333431,0.000129632
9.186147353132,0.000228032
9.19521416385,0.000123632
9.204182846159,0.000153632
9.207491795154,0.000178832
9.209343395432,0.000364832
9.213623164993,0.000675632
9.227000686431,0.00616323
9.229212773956,0.00101163
9.230031480078,0.000276032
9.232271417961,0.00149763
9.234187849959,0.000369401
9.234480649958,0.000215556
9.238029049957,0.000901993
9.239999449955,0.00254598
9.246376249955,0.000152544
9.246690649953,0.0158533
9.247457765214,0.000122432
9.24880388894,0.000129632
9.250883700591,0.00012418
9.25175250059,0.00150123
9.254308354467,0.000182432
9.254634132193,0.000133232
9.255401138012,0.000121232
9.258006639848,0.000164792
9.258234639848,0.000162822
9.259215039846,0.000261497
9.260337039844,0.000131614
9.263845839843,0.00280686
9.265896639841,0.0019008
9.267927039839,0.000126606
9.269919039838,0.0135
9.270061871836,0.000240455
9.277288625709,0.000211232
9.283521035359,0.00289683
9.283602559895,0.000250832
9.283979391893,0.00316879
9.286424476693,0.000597632
9.29217106969,0.00150483
9.294556854513,0.000131517
9.297106854512,0.000128691
9.298411254511,0.00604803
9.302693270126,0.000164612
9.303547670125,0.00148323
9.304906637541,0.000180032
9.310738272787,0.000172109
9.311439072787,0.00530643
9.314421061657,0.00144123
9.320196996561,0.00044153
9.32316219656,0.00507723
9.32651451791,0.000165632
9.332580508777,0.00314889
9.333605308775,0.00477483
9.336361758212,0.000803487
9.337046958211,0.00588603
9.341097244219,0.00234904
9.345431644219,0.000150097
9.348345244215,0.000209986
9.351778476213,0.000135774
9.351893676212,0.0067042
9.35433690821,0.000135673
9.354639340208,0.000304124
9.358256140208,0.000123271
9.359214940207,0.000146099
9.360708940205,0.0219985
9.366527740204,0.000190376
9.368298940202,0.000143711
9.372472540201,0.000191609
9.3745449402,0.000309152
9.381939690902,0.000508083
9.382114890901,0.00407819
9.384495690901,0.0327505
9.385755690901,0.0122436
9.389714172197,0.000214683
9.390509804195,0.000247795
9.391808522896,0.000213273
9.396513722894,0.0316779
9.397680122894,0.000220179
9.398952122893,0.0191885
9.402661354891,0.000235195
9.40420935489,0.0607678
9.405752281907,0.000140432
9.408750357694,0.000123632
9.410028894919,0.000509768
9.411922494917,0.00224907
9.415342494916,0.00601083
9.423695828,0.00169203
9.426765436321,0.000122432
9.42716420263,0.000121232
9.432070623986,0.000171632
9.433452532578,0.000122432
9.434026426802,0.000142832
9.445084331847,0.000814832
9.445681818071,0.000122432
9.447418163973,0.000904832
9.451455650449,0.00375243
9.460996751019,0.00308643
9.464576210743,0.00148923
9.466948714536,0.000164432
9.470512588575,0.000148832
9.471227628245,0.000133232
9.481199062507,0.00274443
9.481980628593,0.000177404
9.482809828591,0.00383403
9.495684666957,0.000122432
9.495880619015,0.000146432
9.497895794912,0.000126032
9.507485549674,0.00684483
9.509288652695,0.00416043
9.515854681701,0.00176616
9.518337481701,0.00024634
9.5207398817,0.000229709
9.522266281699,0.000237193
9.532457881697,0.000410728
9.532495799635,0.000482432
9.533497081695,0.000303376
9.533631481695,0.000291683
9.538511949295,0.0153096
9.538607974686,0.00453123
9.539464781293,0.0258637
9.540421181292,0.0148729
9.54226801329,0.0205789
9.542724296779,0.000248432
9.545181136941,0.000170432
9.552691351642,0.000139232
9.570986389316,0.000314432
9.57697883413,0.00123843
9.586574369665,0.000284901
9.590653169664,0.00327593
9.590738369662,0.00398384
9.592612769661,0.000179205
9.597490769659,0.000470368
9.600902369657,0.000128497
9.603691169655,0.000161716
9.603907169653,0.000173163
9.606374369652,0.000310462
9.61069196965,0.00029152
9.611425201648,0.0277165
9.61167979883,0.00431763
9.617305268678,0.000189257
9.619146899975,0.00501483
9.623420500676,0.0100057
9.632937668675,0.000582853
9.636350468672,0.000158748
9.63811686867,0.000222464
9.63850206867,0.012237
9.640940468669,0.039342
9.647110486169,0.000131703
9.654601533747,0.0109554
9.656761533747,0.000468716
9.657102333747,0.0143755
9.657881133747,0.000133747
9.658113965745,0.000236765
9.666672754549,0.000123189
9.666772354548,0.0234908
9.670614786546,0.000247232
9.671518386545,0.0268849
9.672591186545,0.000260746
9.674833986544,0.0313267
9.675319986543,0.0314417
9.678081218542,0.00805153
9.67837881309,0.000123632
9.679125958937,0.000162032
9.683521571984,0.000144032
9.687338890598,0.000128432
9.687641217715,0.000153632
9.692794818788,0.00185759
9.698510418788,0.00793083
9.700064073166,0.000229359
9.702218073165,0.0115176
9.703700969285,0.000134432
9.709805616389,0.000142832
9.710194024549,0.000259232
9.715201051526,0.000180032
9.716058249696,0.000170432
9.72127562553,0.000558032
9.723745979765,0.00013185
9.728134379764,0.000208192
9.730019579763,0.00641643
9.732150593165,0.00138483
9.733889123268,0.000168032
9.737087788359,0.00296763
9.743780695262,0.00185883
9.746398637602,0.00294723
9.74769754406,0.000121232
9.753808264199,0.00389283
9.763995322406,0.00207603
9.764093764703,0.000193232
9.76764641498,0.000217749
9.771892014979,0.00689403
9.781924381545,0.000160832
9.788271060584,0.000126032
9.793485172658,0.00459963
9.79483865696,0.000139232
9.795557849618,0.000126032
9.797701886645,0.000292567
9.800069486645,0.00016512
9.800551886644,0.000217562
9.806525486642,0.000530017
9.806932286639,0.00103255
9.811103518637,0.0144145
9.814819918638,0.012282
9.816083422647,0.000155389
9.817585822645,0.0116059
9.817985422645,0.00226885
9.821856622644,0.00280079
9.822037822643,0.0119616
9.824645658082,0.000190865
9.825977658081,0.000848485
9.827374458079,0.00415443
9.832864115347,0.000153632
9.839500819248,0.000138032
9.845921404932,0.000225632
9.85344947863,0.000152432
9.86491425563,0.000138974
9.865269455629,0.000224942
9.869511455628,0.0127956
9.875543545273,0.000169232
9.886959211785,0.000127232
9.888233806769,0.000124832
9.891860692438,0.000141139
9.899510692437,0.00810243
9.899547801943,0.000147632
9.911673613002,0.000135632
9.912416919637,0.000270032
9.913882496258,0.000493045
9.914226896256,0.00167523
9.914820375465,0.000214071
9.915311175463,0.00266523
9.918499139005,0.00381723
9.921245713301,0.000160443
9.9231693133,0.00324723
9.927196505792,0.000177632
9.92766213779,0.000475173
9.934899381408,0.000175232
9.937149206605,0.000122432
9.93865150122,0.000136832
9.939463059923,0.000182432
9.945668197667,0.000554432
9.95215297452,0.000133935
9.954747374519,0.00330483
9.960367457229,0.000122389
9.960624257228,0.000201324
9.960914657228,0.00318399
9.967790657227,0.000160498
9.972149057227,0.00016206
9.972464657227,0.0174636
9.973009144119,0.000138032
9.974540125303,0.000130832
9.977594063441,0.000123632
9.978180356084,0.000122372
9.981847556083,0.00398643
9.985697188081,0.000235079
9.98749118808,0.000129134
9.989991988078,0.00819167
9.993159523373,0.000123632
9.994493828824,0.000141632
9.995581386152,0.000142832
9.997147590071,0.000154832
9.997916253149,0.000536432
10.00289468873,0.000559232
10.004375735191,0.000144032
10.006168298326,0.000142832
10.006477946258,0.000141632
10.013764455311,0.000150032
10.014469086596,0.000267632
10.014946152158,0.000177632
10.01534956532,0.000157232
10.017008807861,0.000141632
10.021681133317,0.000940832
10.027876286265,0.000176432
10.031756246018,0.000178832
10.034892212762,0.000202832
10.039925903215,0.000493232
10.043970729848,0.000121232
10.050666551695,0.000153632
10.056947163118,0.000151232
10.05701953985,0.000166832
10.059545256294,0.000144032
10.06313398085,0.000127232
10.063587763262,0.000130832
10.066894195942,0.000152999
10.071204595942,0.00185417
10.072468195939,0.00417168
10.074116995939,0.00871203
10.083086148966,0.000161976
10.088862948964,0.00721033
10.091961348962,0.00585462
10.093010148962,0.0119352
10.094673069216,0.000186265
10.103088669216,0.000298418
10.103506269214,0.00984243
10.104260279936,0.000165539
10.106057879934,0.0100392
10.106333481828,0.000160832
10.109210728901,0.000142832
10.11764736661,0.00302763
10.121032873178,0.000213632
10.128013554737,0.000148003
10.133581554736,0.000262547
10.133862354733,0.00230236
10.136385954732,0.00915603
10.139542214635,0.000374432
10.141723371188,0.000134432
10.147081485353,0.000159632
10.164624430564,0.00016293
10.166432830564,0.000234439
10.167883630563,0.00032861
10.168690030561,0.00719163
10.174206246831,0.00207983
10.17801384683,0.00101673
10.180904646829,0.0105972
10.181056857331,0.000271232
10.1846541785,0.00160447
10.187434578498,0.000196913
10.199232978495,0.0209976
10.200374221944,0.0149004
