time,IdealSim1.flowGenerator3.flowSynId:vector
0.000055232,0
0.005516870334,2
0.011941670334,4
0.014689670333,5
0.015420470332,3
0.024821270332,6
0.029020070331,8
0.030919670329,9
0.032202470327,10
0.033674870325,11
0.034174070324,12
0.035029670322,13
0.036122870321,1
0.039087207896,14
0.042884007894,16
0.043586007891,15
0.04648520789,18
0.050922807889,20
0.054173607888,21
0.055529607886,19
0.058918407885,17
0.061316007885,22
0.062609607885,23
0.065378007884,7
0.066431672596,24
0.066958761684,25
0.071776423246,27
0.072772423246,26
0.074765808039,28
0.07553198774,29
0.080426909995,30
0.086189833029,32
0.089929033028,31
0.092741045479,33
0.095498013483,34
0.097773486498,35
0.099525328227,36
0.106631851788,38
0.109738651787,39
0.113625451786,37
0.120461255702,40
0.122179651118,41
0.123928223983,44
0.125778623982,45
0.126060623981,43
0.126718223981,47
0.128130623981,46
0.13600502398,52
0.137728223979,54
0.138257423977,55
0.142276223977,49
0.142869023977,48
0.143153423977,56
0.143963288281,57
0.145042144673,51
0.147451744672,53
0.147566888277,50
0.149019055973,60
0.149087455973,42
0.149840170531,59
0.151457770531,61
0.152292970531,58
0.152768179865,62
0.154114154549,63
0.159246070733,65
0.162931270733,66
0.163090870733,64
0.165069858775,67
0.171193905264,68
0.172877435849,69
0.176604222102,70
0.17825936125,71
0.182214307792,72
0.188369025951,73
0.205398592763,74
0.205979647542,75
0.206373154121,76
0.206980456866,77
0.208729703905,78
0.211972094594,79
0.230728633097,81
0.234441433097,82
0.234493065097,83
0.235327033096,84
0.238065433096,80
0.242870610669,85
0.261402464478,87
0.261474464478,86
0.262668887229,88
0.265533519193,89
0.266602597299,90
0.268515345947,91
0.27610797493,93
0.277636774929,94
0.278665174928,92
0.284925731848,96
0.286941731848,95
0.287510217986,97
0.288606937349,98
0.299182478937,99
0.304597722073,100
0.307290445539,101
0.314080467884,102
0.31867924366,103
0.323480661078,104
0.329621364816,105
0.330969954811,106
0.337484708805,107
0.339995833549,108
0.341861716656,109
0.342580858186,110
0.342785647998,111
0.347495232421,112
0.348591767285,113
0.350283665125,114
0.357744345391,115
0.358161569951,116
0.375462874156,117
0.38593812631,118
0.397226173656,119
0.399605951092,120
0.405182276229,121
0.409299849038,122
0.41813223721,124
0.42003303721,123
0.421617669773,125
0.42384806464,126
0.424518585241,127
0.435486537094,128
0.437994514549,129
0.438642967203,130
0.441114497936,131
0.443014124624,132
0.443963137486,133
0.448929077062,134
0.450566296562,135
0.464807407025,136
0.472237558524,137
0.476627779282,138
0.483174498841,139
0.483529837988,141
0.486359437987,140
0.490767399936,142
0.49214600011,143
0.49486584231,144
0.50058839417,147
0.50063399417,145
0.501523596971,146
0.502233389638,148
0.508373559664,149
0.517245270322,150
0.522774275597,151
0.523521704178,153
0.527918504178,152
0.527954839821,154
0.528084471821,155
0.530672068626,156
0.535332247612,157
0.53675653857,158
0.536829971775,159
0.542569448467,160
0.542704418039,161
0.549095682922,162
0.549343867626,163
0.551402717332,164
0.553942381431,165
0.556335499703,166
0.559287761799,167
0.562995354613,168
0.56535967935,169
0.578021046794,171
0.578873046793,170
0.581614018668,172
0.58760496718,175
0.588341767179,173
0.592146136098,176
0.594888136097,174
0.603423594841,177
0.605096823664,178
0.605211153288,179
0.606858988893,180
0.609634355373,181
0.619524153561,183
0.623181753561,184
0.62626575356,182
0.627704784657,185
0.638639049968,186
0.647826326412,188
0.648643526411,189
0.64865792641,187
0.649481312922,190
0.652611737577,191
0.663395256107,192
0.66411337881,193
0.665271775616,194
0.668879345534,195
0.674134840901,196
0.676155721899,197
0.677643038062,198
0.684686690379,199
0.696517421267,200
0.701770676139,201
0.704631619263,202
0.705061434652,203
0.710941184941,204
0.715104237117,205
0.716136489826,206
0.720884792192,207
0.728446080721,208
0.730446664177,210
0.731075464176,209
0.732563396121,211
0.734085556243,212
0.734959993851,213
0.741453601366,214
0.74671099358,215
0.750726175095,216
0.753145915144,217
0.759994300882,219
0.762775900882,220
0.763907500881,221
0.771534700881,222
0.782196700881,223
0.78235510088,218
0.790865464039,225
0.794856664039,224
0.804620769044,226
0.806552663998,227
0.815051539971,228
0.818276151427,229
0.819641104758,230
0.824446547946,231
0.830134907194,232
0.832264307008,233
0.840678197535,235
0.845331797534,234
0.84779041651,236
0.850022023055,237
0.852598208767,238
0.854902609449,239
0.85621838228,240
0.858973799239,241
0.860669271985,242
0.864788004376,243
0.865896558522,244
0.866920888529,245
0.876301393893,246
0.876993964855,247
0.87956946501,249
0.882191465009,248
0.886144067394,250
0.887182649271,251
0.888198219027,252
0.89148188082,255
0.891768680819,256
0.893002280817,257
0.893358680817,254
0.893649080816,258
0.894325880815,259
0.897072680813,260
0.897371480812,261
0.898937480811,253
0.905618923294,263
0.911002123293,264
0.911688523293,265
0.912571723293,262
0.91420072451,266
0.918080571065,267
0.918675309353,269
0.918756909352,270
0.91893930935,268
0.922387876712,271
0.930194469974,272
0.935050038634,273
0.935947526235,274
0.951240475824,275
0.954344265635,277
0.955352265634,279
0.956787465633,278
0.956876265632,280
0.957413865631,276
0.960187418536,281
0.960753857864,282
0.96138296294,283
0.962199007888,284
0.969191506749,285
0.975387426243,286
0.980584806478,288
0.982353606477,287
0.985405728466,290
0.991309728465,289
0.991626126047,291
0.992377682536,292
0.998112965095,293
0.999114801478,295
0.999915201478,294
1.004950587557,296
1.006246415623,297
1.008440460907,298
1.012620261288,299
1.012680968746,300
1.013013791926,301
1.013220578276,303
1.020930578275,302
1.022624939171,304
1.024043469588,305
1.025732486377,306
1.028770161584,307
1.037051974505,308
1.037223542844,309
1.04332709024,311
1.043660690239,312
1.044743090238,310
1.045571932127,314
1.047094732127,315
1.050874732127,317
1.053865132127,320
1.055333964127,313
1.057484364127,319
1.060177164127,318
1.060971104732,321
1.062117104732,322
1.062658304732,316
1.063965042238,323
1.064251092532,324
1.073444221179,328
1.075515421179,326
1.080501421179,329
1.081047421179,327
1.088957821179,325
1.093195309946,330
1.10419437086,331
1.105669133612,332
1.107700499099,333
1.109294922192,334
1.111965724746,335
1.117300120272,336
1.120295468155,337
1.121383756709,338
1.123329056409,339
1.127967835005,340
1.130432274168,341
1.137731787875,343
1.139230587875,345
1.139337387875,344
1.143831387875,346
1.144493787875,347
1.145260587875,348
1.147157787875,349
1.149932187875,350
1.153662987875,352
1.157151387874,353
1.158167787873,342
1.158639258495,354
1.160298858495,351
1.163741145907,355
1.163774713148,356
1.167476482951,357
1.172656462814,358
1.183387517118,359
1.184673467984,360
1.185708087169,361
1.189621292507,362
1.191856966525,363
1.196943024925,364
1.200453429493,365
1.207873204915,366
1.214579813464,367
1.215138421783,368
1.216954615214,369
1.228697188246,370
1.233453797353,371
1.234651264561,372
1.242038543794,374
1.242840143794,373
1.245647576271,375
1.247825203541,376
1.249387840903,379
1.252637440902,377
1.254517653753,380
1.256113653752,378
1.264158135709,381
1.266788357867,382
1.268178294052,383
1.269731088807,384
1.272425580517,385
1.28047459129,386
1.280726421984,389
1.282918821984,387
1.284846242792,391
1.286005442792,392
1.290385442792,388
1.292175205932,390
1.294955428923,393
1.29837789302,394
1.30227896379,395
1.306543018007,396
1.316033580857,397
1.321002506932,399
1.323623306931,398
1.331939214036,402
1.334101614035,403
1.339092414033,400
1.340052247042,401
1.34635276264,405
1.35040516264,404
1.352375152895,406
1.353532351128,408
1.355352751128,409
1.356870751128,410
1.357614751128,407
1.359605742583,411
1.362434936214,412
1.369408858262,413
1.371428806779,414
1.375261986708,415
1.385932097346,416
1.388558380097,417
1.39559516907,418
1.399478566164,419
1.403519575906,420
1.413392724979,421
1.42041359692,423
1.42223879692,422
1.423356024283,424
1.423859739368,425
1.425691226392,426
1.427145482525,427
1.427392304458,428
1.428654582674,430
1.429007382674,429
1.435451072475,431
1.436329169999,432
1.441759076169,433
1.454058513123,437
1.454400513122,438
1.457848113121,436
1.460156913121,439
1.460298513121,440
1.46284011312,434
1.465078414943,435
1.466394845478,441
1.467768327313,442
1.468586912382,443
1.473375967381,444
1.48331619371,446
1.483350993709,445
1.485297807779,447
1.490092966474,448
1.490235453312,449
1.49174538434,451
1.497622984339,450
1.498697764901,452
1.504427478024,453
1.513901551631,455
1.516525951631,454
1.521364496093,456
1.525966485901,457
1.540354201508,458
1.541193509438,460
1.545453509438,461
1.548263909438,459
1.560395215171,462
1.565367893449,463
1.567109903637,465
1.567202303636,464
1.56859626541,466
1.569467814718,467
1.57264180477,468
1.576830580814,470
1.578395380814,471
1.579001380814,472
1.583018980814,469
1.589302790175,474
1.592555990174,475
1.592659222174,476
1.594297222174,477
1.597185622173,473
1.597508547466,478
1.601056694407,480
1.602680294407,481
1.604048294406,479
1.609138358702,483
1.610339558702,482
1.616758051259,484
1.621919266715,485
1.622540095632,486
1.624728458382,487
1.630707789895,489
1.631044989895,488
1.632076275696,490
1.635877240901,491
1.639480953879,492
1.652951484762,493
1.656501917744,494
1.657428656083,495
1.658956255952,496
1.663675148512,497
1.673556809893,499
1.673580809892,498
1.675372950181,500
1.681589814658,501
1.683836082978,504
1.685740482977,503
1.685886882977,505
1.690745682977,507
1.693000482977,508
1.694339682977,502
1.695078829307,509
1.697985229307,511
1.701339229307,510
1.702730029307,512
1.703228029307,513
1.704950029306,506
1.715918697967,515
1.715951097967,514
1.716828241401,516
1.718370843636,517
1.71851138607,518
1.721061568849,519
1.723368416068,520
1.725685885294,521
1.730329459783,523
1.733021059782,522
1.738097658496,524
1.742714591467,525
1.743934757837,526
1.745215195773,529
1.746700795773,530
1.750498795773,527
1.750697477521,528
1.75091374005,531
1.753289066262,532
1.760138784796,533
1.760349273517,534
1.774305563821,535
1.774781247139,536
1.778386007874,537
1.780909116666,538
1.783092713609,539
1.790489660391,540
1.790830527818,541
1.791401284937,542
1.79418253943,543
1.798933266344,544
1.799424068857,545
1.800202857857,546
1.802641583807,547
1.812096769667,549
1.813689169667,550
1.819907569666,551
1.820091169666,552
1.820271169666,548
1.821420331445,553
1.824487097365,554
1.839835052761,555
1.842042414597,556
1.860128828749,557
1.863251471354,558
1.867660164806,559
1.883242826236,560
1.894826155253,561
1.89489563094,564
1.89551363094,563
1.89602003094,562
1.899856998815,565
1.899961556921,566
1.910297813709,567
1.911440877584,568
1.917989396596,569
1.924642641563,570
1.925323378211,571
1.925377790655,572
1.92965786256,574
1.92972386256,575
1.930017862559,576
1.930400662558,573
1.931270289202,577
1.932074037468,579
1.932527637467,578
1.934068971554,580
1.941710127044,581
1.944188842956,582
1.948785214305,583
1.949824643549,584
1.952270316761,585
1.956763246761,586
1.95968487521,588
1.960761275209,587
1.96231533243,589
1.962690997112,590
1.965103660996,591
1.967775143165,592
1.970347324203,593
1.970488753002,594
1.972467289726,595
1.973032621842,597
1.973535421842,598
1.981201021842,599
1.987869421841,596
1.99360176333,603
1.99610736333,600
2.000009009786,605
2.000147009784,601
2.000239000344,604
2.000356600343,606
2.000800600342,607
2.000945800342,602
2.003707049495,608
2.013529685947,609
2.015361528192,610
2.017450157224,612
2.021158157223,611
2.021908598331,613
2.023247790051,614
2.024522941932,616
2.027934541932,615
2.029110821822,617
2.031443873339,618
2.038717889702,619
2.045464856719,620
2.048607366272,621
2.04989764293,623
2.05324204293,622
2.056316750436,624
2.067999899055,625
2.068884845963,626
2.07270158814,627
2.080758737073,628
2.08319127681,629
2.08447670686,630
2.086072975101,631
2.089228290529,632
2.089608372261,633
2.100615511002,634
2.111052080969,635
2.117940770546,636
2.12259455017,637
2.125431590644,639
2.125660790644,638
2.129643631409,640
2.129762208496,641
2.132056447242,642
2.132955481175,643
2.133106019997,644
2.142929135727,645
2.145366557962,646
2.149624427746,648
2.152959227745,647
2.153516891342,649
2.157944276552,651
2.157952676552,650
2.162602031603,652
2.163610053862,653
2.165448948906,654
2.166828483149,655
2.170967336198,656
2.171533477121,657
2.174450443343,658
2.175452066997,659
2.177110149575,660
2.179122410166,663
2.181313610166,662
2.184832010166,664
2.185156010165,665
2.190300410163,666
2.198875610162,670
2.201902010159,669
2.202671210158,667
2.203121210157,668
2.203244810157,661
2.208262828639,671
2.211436848372,672
2.212237543551,673
2.215758065738,675
2.216974865737,674
2.226335835016,677
2.227150635016,676
2.227782714139,678
2.228886941666,679
2.234439635253,681
2.235441635253,683
2.23742163525,680
2.242863193623,682
2.244919392453,685
2.245713792452,684
2.250533073749,687
2.252984673749,686
2.256519700072,688
2.260517424236,689
2.264618617209,690
2.268657721592,691
2.273594446577,692
2.275317206514,693
2.278648324205,694
2.285729863153,695
2.293923160361,696
2.294832615122,697
2.306843268703,698
2.31021349661,699
2.313765946583,700
2.317669828988,703
2.318388628986,702
2.321247028986,704
2.324031028984,701
2.330321763704,705
2.33067742675,706
2.337139126142,707
2.337499575611,708
2.343656491042,710
2.344072891042,709
2.355584283126,711
2.357923841133,713
2.359433441132,712
2.361105420464,714
2.363632992624,715
2.36748327497,716
2.375535957126,717
2.384082251316,719
2.385186251315,720
2.389536251313,722
2.392019051311,723
2.398422251311,725
2.402197451311,726
2.403433451309,727
2.406211451308,721
2.406792251306,724
2.408934251306,730
2.412539051305,731
2.423129051304,734
2.431125851302,735
2.433369851301,736
2.4442670513,738
2.444777051299,729
2.445649451299,737
2.447174683299,718
2.447811158353,739
2.448641558352,740
2.45282355835,728
2.453062314747,742
2.453686314747,743
2.457809514746,744
2.463905514744,741
2.466171114744,745
2.473527114743,746
2.476909914742,748
2.47861631474,749
2.482161114739,750
2.485848714738,733
2.486168853339,755
2.488643253339,751
2.489111253339,732
2.489164053338,754
2.491702053338,753
2.493287253337,747
2.493828485338,752
2.494652937349,756
2.498241041783,757
2.501167031605,758
2.508719482185,760
2.509542682185,759
2.510077263586,761
2.515307170722,762
2.516044801937,763
2.517785574114,765
2.520006774113,766
2.531430774111,767
2.53496477411,764
2.535856150193,768
2.536200712564,769
2.538310047298,770
2.539353679584,771
2.546874162485,772
2.55074486048,774
2.551190060479,775
2.552382860478,776
2.556238460477,778
2.556677660476,773
2.558612660936,777
2.561671723683,779
2.566909521131,780
2.56911603363,781
2.573197056341,782
2.574742828902,783
2.579740499309,784
2.582685044238,785
2.588783048782,786
2.589853250076,787
2.593758498808,788
2.594590919704,789
2.596257746572,791
2.597134946571,792
2.59777934657,790
2.604263356989,793
2.608200640522,794
2.608572672522,795
2.612287465466,796
2.612837203859,798
2.614144003858,799
2.617376803858,797
2.61950910548,801
2.623506622615,803
2.624026222613,802
2.624526622613,804
2.627116222612,800
2.627287171581,805
2.63014882194,806
2.631620717387,807
2.634429202238,808
2.635636806172,809
2.6427359489,811
2.6470043489,810
2.650744143299,812
2.656066539439,813
2.656822805089,814
2.663036891352,816
2.663305691351,815
2.665684063021,817
2.666924283175,818
2.672531949901,819
2.674771441047,820
2.676869606401,821
2.700207839913,822
2.70040727235,823
2.706299005191,824
2.709385640435,825
2.712764930796,826
2.713699597108,827
2.715681603786,828
2.716018972885,830
2.716789372883,829
2.721611188844,833
2.723441188842,834
2.725427188841,832
2.726196388841,831
2.735001880266,837
2.735868280265,835
2.736261992424,836
2.737118975614,838
2.742982879682,839
2.743168278583,840
2.747394607842,841
2.747555523019,842
2.756051960572,843
2.756641505746,844
2.759578353111,845
2.772325758018,846
2.783353124958,847
2.784363848478,848
2.787379361311,849
2.788692412103,850
2.78881630908,851
2.792286673301,852
2.803125801531,854
2.80548020153,853
2.813258650059,856
2.813611450059,857
2.817395050057,858
2.825719450055,855
2.828837031164,859
2.852947521362,860
2.857952480703,862
2.862752480703,863
2.865816080702,864
2.8678032807,865
2.871094880698,861
2.87894886451,866
2.888596687881,867
2.891051484288,868
2.893599476367,870
2.900203076367,871
2.906481476365,872
2.922661076364,874
2.926953476362,875
2.928775076361,869
2.934910724484,877
2.935099124482,876
2.938198724482,878
2.940245924481,879
2.94199552448,873
2.948040760834,880
2.951036699178,882
2.951198699177,881
2.955919936119,883
2.957403067198,884
2.958904920035,885
2.961431851776,886
2.965345964746,887
2.971399669769,889
2.974080469769,888
2.979690081587,893
2.981608881586,892
2.984944881585,896
2.986336913585,897
2.987091467305,898
2.987139681582,895
2.987382081582,890
2.987891899304,891
2.990853499304,894
2.991073264436,899
2.991225909226,900
2.993935481181,901
2.998967122675,902
3.001033928106,903
3.008085786029,905
3.011913786028,904
3.026526279043,908
3.028657479042,907
3.031463079041,910
3.031538679041,909
3.031586711041,911
3.035243111041,906
3.038368912663,914
3.040575712662,915
3.04573931266,912
3.049881153212,916
3.052248753211,917
3.054017553209,918
3.063760353208,919
3.066196353207,913
3.066811066889,920
3.072708742425,921
3.074520964614,922
3.08123664668,924
3.08253024668,923
3.087597036038,925
3.088884836104,926
3.096565161598,927
3.098232716744,929
3.100146716744,928
3.103901536589,930
3.112753476015,931
3.135215778852,934
3.13614457885,936
3.136337596013,937
3.139747996013,938
3.140685196012,935
3.145605196011,941
3.145937596007,939
3.146074396006,942
3.146379196006,932
3.149909596005,944
3.151686796003,945
3.153090796002,946
3.156370396002,940
3.161249596001,947
3.161616796,943
3.170691195999,950
3.176807595996,933
3.177336132633,949
3.179500932633,948
3.18001923029,951
3.181109378739,952
3.183167604574,953
3.186403385833,955
3.189012185833,954
3.194513117617,956
3.208283612053,957
3.208421759864,958
3.230644899812,959
3.230693182429,960
3.239661771837,964
3.239876571836,962
3.240282171835,961
3.242840676027,965
3.243271476026,963
3.247776214767,967
3.247797814767,966
3.249759196884,968
3.253844920693,970
3.256548520693,969
3.25685531252,971
3.256919500923,972
3.260008361746,973
3.262417751899,974
3.266329625856,976
3.269093225856,975
3.269157412882,977
3.275224077614,978
3.28085281739,980
3.28156201739,979
3.288306537384,981
3.297509901126,983
3.297565101126,984
3.302101101126,982
3.30583786468,985
3.306885016501,986
3.312390780927,988
3.315749580927,987
3.316404844957,989
3.322881011858,993
3.328690211857,995
3.331997097037,991
3.333398697037,990
3.334262697036,994
3.336242591117,998
3.336943391116,997
3.338943791116,999
3.339976991115,992
3.340316591115,1000
3.341452991113,1001
3.342516191111,996
3.345595549396,1002
3.346390280875,1003
3.347812075625,1004
3.348996290674,1005
3.357777798407,1006
3.367033593254,1007
3.373070059494,1008
3.38169020126,1009
3.385459747889,1010
3.405706460249,1013
3.407382860248,1011
3.407426829038,1014
3.407640429037,1012
3.412524774946,1015
3.416911601671,1017
3.417031601671,1018
3.41712040167,1016
3.425161138159,1019
3.426690687994,1020
3.428510328088,1021
3.429554185779,1022
3.435923266983,1023
3.437816049305,1024
3.438586234072,1025
3.441247514296,1026
3.447080254058,1027
3.449039531971,1029
3.44935153197,1028
3.451777962214,1030
3.45955357894,1031
3.462478789527,1032
3.464315518171,1033
3.468651105925,1034
3.469296248854,1035
3.480270341175,1036
3.487007714761,1037
3.495866230497,1039
3.498173830497,1041
3.500073430495,1042
3.500221030493,1040
3.500545030493,1043
3.502586230492,1045
3.508918630489,1048
3.513376630488,1049
3.513421030488,1047
3.514784230488,1050
3.515618230488,1052
3.518563367135,1051
3.518609862488,1046
3.521366294488,1053
3.524267894488,1054
3.524787494487,1055
3.527783894486,1056
3.530083094484,1058
3.530093894484,1059
3.532111359421,1044
3.53726295942,1057
3.53894179142,1061
3.539490191419,1038
3.543711570295,1062
3.548918370294,1060
3.560524644472,1065
3.56283704447,1067
3.56435024447,1069
3.56495024447,1066
3.56514344447,1063
3.56667587647,1070
3.569011076469,1073
3.569032676469,1071
3.569956676469,1072
3.570044276467,1074
3.570242276467,1068
3.571174676467,1075
3.571270676465,1076
3.571861076465,1064
3.572539771244,1078
3.585732571244,1079
3.587194171243,1077
3.591209270787,1080
3.592902031359,1081
3.595409163344,1083
3.595674363343,1084
3.596363163343,1082
3.597957414892,1085
3.598766030929,1086
3.603084484546,1087
3.607918923035,1088
3.613718252158,1089
3.616431487723,1090
3.62122756275,1091
3.62514210609,1092
3.628046660266,1093
3.628127876751,1094
3.630865848121,1097
3.632200248119,1098
3.634411848118,1099
3.635737848116,1100
3.637319448115,1102
3.637375848114,1101
3.638981448113,1103
3.649266648112,1105
3.65256064811,1104
3.654693048109,1106
3.656788248107,1108
3.662983848106,1109
3.664725048105,1107
3.665823048105,1110
3.665956248105,1096
3.666379848104,1111
3.668494248103,1112
3.670686648102,1095
3.671366713146,1113
3.679585489853,1114
3.686156378561,1116
3.686981978561,1115
3.693037372119,1117
3.694084378095,1118
3.695368554621,1119
3.696861759786,1120
3.698815242007,1122
3.700722042007,1121
3.711640977835,1126
3.711698577834,1125
3.713239377833,1123
3.714212559892,1124
3.717420712814,1128
3.718747912812,1129
3.719085112811,1130
3.721386712809,1131
3.725775112809,1132
3.726837112808,1133
3.727798312807,1127
3.73360816845,1135
3.73516816845,1136
3.737973768448,1138
3.739099368445,1134
3.739178519294,1137
3.741334384673,1139
3.748412265716,1140
3.750405322735,1141
3.754418762897,1142
3.755384151552,1143
3.761184296211,1145
3.761991896211,1144
3.762867194052,1146
3.76377553272,1147
3.76519189793,1148
3.788253448259,1149
3.788512210111,1150
3.789333305936,1151
3.792062338291,1152
3.797009295124,1153
3.799195736337,1154
3.804953221239,1156
3.805565221238,1155
3.807376928709,1157
3.808558734142,1158
3.808990322637,1159
3.81271906189,1161
3.815645861889,1160
3.817663635703,1162
3.822352687315,1163
3.82463104117,1165
3.825499841169,1164
3.826856409169,1166
3.828045536199,1167
3.836282703095,1168
3.850420067255,1169
3.851250623886,1170
3.862852960117,1171
3.867788070609,1172
3.874741125724,1173
3.878539740868,1174
3.881504267135,1175
3.882517302478,1176
3.888087201262,1177
3.888598461224,1179
3.888632061223,1178
3.890973305439,1180
3.897558854622,1182
3.904898054622,1181
3.907140877559,1183
3.909985196945,1184
3.914632491365,1185
3.915015016605,1186
3.931504485045,1187
3.935758506457,1188
3.937045940101,1189
3.948658579224,1190
3.951632383717,1191
3.961052793571,1192
3.965023895583,1193
3.968758206281,1194
3.971448776175,1195
3.97287272871,1196
3.975887965588,1197
3.984709459058,1198
3.989491500417,1200
3.990654300416,1201
3.991760700415,1204
3.993182700413,1203
3.993866700412,1199
3.994178827653,1202
3.995278189245,1205
4.006784473321,1206
4.008866336711,1207
4.011121863109,1208
4.013169649492,1209
4.017000263366,1211
4.017641063365,1213
4.019118263363,1212
4.019871863362,1214
4.02091226336,1210
4.027424968596,1215
4.029635091589,1216
4.034113222745,1217
4.041989028587,1219
4.043036628587,1218
4.043152940025,1220
4.051217308693,1221
4.060470812015,1223
4.061958812014,1222
4.067356894572,1224
4.082896718382,1225
4.08628451647,1226
4.088363437994,1227
4.089676373635,1228
4.090103703034,1229
4.100510774543,1231
4.102437974543,1232
4.107199574541,1233
4.107605174539,1234
4.110000374537,1230
4.116528364952,1235
4.123840350753,1236
4.124698338928,1237
4.124962089317,1238
4.12768514606,1239
4.129163299679,1240
4.1317663366,1241
4.140255607838,1242
4.145926295483,1243
4.149257644404,1244
4.149433496237,1245
4.158651342511,1246
4.15867553364,1247
4.165812134599,1248
4.169011297297,1250
4.172191297296,1249
4.172313274693,1252
4.174517674692,1251
4.189332021962,1253
4.19131945387,1254
4.191432517671,1256
4.193626095136,1257
4.194024495134,1258
4.197562095133,1260
4.201080495131,1255
4.202705069867,1261
4.203956669866,1263
4.204557869864,1259
4.205606744176,1265
4.205925944176,1262
4.207835558249,1266
4.211241158247,1269
4.211880758245,1270
4.215119558244,1268
4.215167558244,1264
4.218433010847,1271
4.220878610845,1267
4.223167565028,1272
4.223938059049,1273
4.22458722187,1274
4.230625289669,1275
4.231257900159,1276
4.233221522896,1277
4.23434129664,1278
4.235529358066,1279
4.24352888798,1280
4.244828204802,1281
4.259839888936,1284
4.262911888935,1282
4.263392415698,1283
4.269951943971,1285
4.270277823109,1286
4.275747364723,1287
4.279783403076,1288
4.281294285095,1289
4.28540580374,1290
4.28746046725,1291
4.291639781159,1292
4.292952601208,1293
4.293024047722,1294
4.298802767744,1295
4.301797612203,1296
4.306304572073,1298
4.306350172072,1297
4.307349187286,1299
4.308072811658,1300
4.310134379633,1302
4.314160379632,1301
4.317909829327,1303
4.320332929338,1304
4.320995552518,1305
4.325629208034,1306
4.330642651554,1307
4.332453525605,1310
4.333237125604,1309
4.341533925603,1312
4.341740325601,1314
4.343714325599,1313
4.345144725599,1317
4.345201125595,1318
4.345835925595,1319
4.346267925595,1320
4.350088725594,1316
4.353123525594,1321
4.361131125593,1315
4.365278325593,1323
4.366023525592,1308
4.367003762146,1324
4.367200562144,1322
4.36919035759,1325
4.370486357588,1311
4.372782727973,1326
4.375985280533,1327
4.388102721509,1328
4.389248801386,1329
4.394947355676,1330
4.398611205885,1331
4.400772886294,1332
4.40424476694,1334
4.404375566939,1333
4.406254108951,1335
4.416928794746,1338
4.418545194745,1336
4.431975545571,1339
4.432291145569,1341
4.432858745568,1340
4.439927945567,1337
4.448010397244,1342
4.451181407827,1343
4.455665736374,1344
4.460600877035,1345
4.461511832334,1346
4.462500456563,1347
4.465115397223,1348
4.466489441296,1349
4.477850170655,1352
4.483842970654,1353
4.483926970652,1354
4.49108617065,1355
4.494725770649,1351
4.500522970647,1350
4.503053121052,1357
4.50313352105,1356
4.507500066545,1359
4.509645666544,1358
4.514709570723,1360
4.51714042547,1362
4.517576025469,1363
4.517620425467,1361
4.520090250458,1364
4.534446633043,1365
4.536775980105,1366
4.540030976895,1367
4.540902748158,1368
4.545087815827,1369
4.553098034988,1370
4.55367632083,1371
4.559458359893,1372
4.560023647456,1373
4.563911578136,1374
4.565500196018,1375
4.567764435287,1376
4.568912291499,1377
4.57336944812,1378
4.575191063668,1379
4.57574135574,1380
4.582377942319,1381
4.585557485316,1382
4.590292504946,1383
4.595770228615,1386
4.596571828615,1387
4.597518628614,1385
4.598770228613,1388
4.599312628611,1384
4.60315813304,1389
4.603307942092,1390
4.605170369578,1391
4.605982802566,1392
4.611432956087,1395
4.614226556085,1393
4.614830401052,1394
4.617915715472,1396
4.618257116517,1397
4.625401104234,1398
4.625738697355,1400
4.625751897354,1399
4.625770996837,1401
4.627593528993,1402
4.628714090451,1403
4.636150018352,1404
4.641200360476,1406
4.641753560476,1407
4.645030760475,1405
4.64650348535,1408
4.646748232005,1409
4.649778236473,1410
4.652055253869,1411
4.656235934192,1412
4.662101914203,1413
4.664608694405,1414
4.664767084291,1415
4.67536175563,1416
4.676247745113,1417
4.684061233159,1418
4.691368112187,1419
4.695067433946,1420
4.698518097374,1421
4.700939263675,1422
4.707358922983,1424
4.711274522982,1423
4.715563489149,1425
4.724378996305,1426
4.726049460948,1427
4.729205684399,1428
4.730133123567,1429
4.730756703347,1430
4.731793139767,1431
4.733573168275,1432
4.741690519625,1433
4.742641067023,1434
4.75337647384,1435
4.753962389964,1436
4.754415979943,1438
4.760139979943,1439
4.760924779941,1437
4.763178721705,1440
4.763304347892,1441
4.76720921402,1443
4.76860601402,1442
4.770689927391,1444
4.775806309829,1446
4.778464309828,1445
4.779138087848,1448
4.784256087846,1450
4.791175287844,1451
4.793934087843,1453
4.799065287841,1449
4.799206887841,1452
4.80205568784,1454
4.803525687838,1455
4.804207287836,1447
4.806294561841,1456
4.818841171038,1457
4.824516922264,1460
4.826705722264,1459
4.828017322263,1458
4.829750815519,1461
4.833797389864,1462
4.834231320908,1463
4.838930062345,1464
4.845235143834,1465
4.847087558964,1466
4.85701048653,1469
4.857126886529,1468
4.859036086528,1467
4.86500433571,1470
4.878750690262,1474
4.879585890259,1477
4.881435090257,1478
4.882363890257,1475
4.884680955946,1479
4.886174955945,1481
4.887508155943,1471
4.889927355943,1473
4.890038527016,1476
4.896938527016,1472
4.902688187943,1482
4.910644187941,1480
4.911314300046,1483
4.914734671856,1484
4.916742021096,1485
4.927699215812,1486
4.932189835001,1488
4.933189435,1489
4.934495034998,1487
4.940028436531,1490
4.940051173963,1491
4.944282802062,1492
4.946794624069,1493
4.952155065075,1494
4.967791971023,1495
4.971824303284,1496
4.977607996194,1499
4.977757996192,1500
4.978313596192,1498
4.978864396191,1497
4.987319747623,1501
4.988602366604,1502
4.993007871771,1503
4.999170282807,1505
5.003133882806,1504
5.005538097916,1506
5.010627977284,1507
5.013202482072,1508
5.015516342695,1509
5.01740883485,1511
5.017441234849,1512
5.019423634848,1510
5.027249662344,1513
5.031601762574,1514
5.033294175517,1515
5.03481830403,1516
5.036347100763,1517
5.037136788448,1518
5.045054557189,1519
5.046664885808,1520
5.053790858664,1521
5.058049555085,1524
5.058344755084,1525
5.059129555083,1526
5.059196755082,1522
5.059597221231,1527
5.062924821229,1528
5.064702021227,1523
5.072676191856,1529
5.074686688702,1530
5.077853391015,1533
5.078230191014,1534
5.078542191012,1531
5.078843231399,1532
5.091697857891,1535
5.095834361019,1537
5.095999961019,1536
5.09723816843,1538
5.106902331035,1539
5.109591331797,1540
5.11382700561,1542
5.113855805609,1543
5.115229805607,1541
5.117373592673,1544
5.118889534064,1545
5.129856891894,1546
5.13808438985,1547
5.141139247252,1548
5.154566925471,1549
5.158830406576,1550
5.16289779906,1551
5.163803994102,1552
5.165374918779,1553
5.172327561386,1554
5.185545195037,1556
5.186311995036,1555
5.198025821325,1558
5.199323021324,1557
5.201674599774,1560
5.203479399773,1559
5.205910033691,1561
5.214509709988,1563
5.218274109987,1562
5.218712711913,1564
5.222641493735,1565
5.242630053052,1567
5.246095653051,1568
5.247077253049,1569
5.252273253048,1570
5.254170453046,1566
5.255361303822,1571
5.259494079089,1573
5.261506479088,1572
5.263781849292,1574
5.263984894868,1575
5.26421915844,1576
5.2652621099,1577
5.268263472263,1578
5.269783434388,1579
5.271268851948,1580
5.272669102865,1581
5.274670557307,1582
5.279028587054,1583
5.283804668695,1584
5.285427128611,1585
5.2869330743,1586
5.288558811055,1587
5.291623233672,1588
5.292799534441,1589
5.299675327845,1591
5.300314927844,1592
5.301042127842,1590
5.304590180235,1593
5.305786338354,1594
5.308941980855,1596
5.309699180854,1595
5.310978489788,1597
5.314561153949,1598
5.314745432374,1599
5.320636369292,1600
5.321702873187,1602
5.322610073186,1601
5.325923440379,1604
5.326804240378,1605
5.330400640377,1603
5.333538388292,1606
5.336489536889,1607
5.339030499618,1608
5.342625579813,1609
5.347597072589,1611
5.349357472588,1612
5.351851072587,1610
5.354363115849,1613
5.360761581795,1614
5.368802792006,1616
5.369366792005,1617
5.369745992003,1618
5.369994392001,1615
5.370062731122,1619
5.37093953659,1620
5.371819792933,1621
5.376216733108,1622
5.376601619902,1623
5.381744266796,1625
5.382929866796,1626
5.383874266795,1624
5.387660188182,1627
5.390770506894,1628
5.392210639712,1630
5.392807039711,1629
5.396986671711,1631
5.410388225163,1632
5.412368476444,1633
5.413978160886,1634
5.424003398001,1635
5.427501810315,1636
5.434193534277,1637
5.436790665107,1638
5.437779055537,1639
5.439104593483,1640
5.4400993032,1641
5.445436929508,1642
5.447424647171,1643
5.449887404728,1644
5.451136475716,1645
5.452300786399,1646
5.45241271967,1647
5.456708281074,1648
5.461081502695,1649
5.462018792373,1650
5.465660125319,1651
5.466195889128,1652
5.469589790554,1653
5.477954808897,1654
5.483599628088,1655
5.490863707,1656
5.4963941867,1657
5.512643208179,1658
5.512650780705,1659
5.516804801857,1660
5.516871723463,1661
5.518558109407,1662
5.519673181946,1663
5.523007807118,1664
5.530391535479,1665
5.531612330591,1666
5.538568657066,1667
5.541390699349,1668
5.542347081293,1669
5.548634274403,1670
5.551155506731,1671
5.551536630645,1672
5.559082264243,1674
5.565514264242,1676
5.56983666424,1677
5.571996664238,1678
5.573160664237,1675
5.574543064235,1679
5.576320264234,1673
5.586070383535,1680
5.588047834439,1681
5.593433112055,1682
5.596447608679,1683
5.601951253259,1684
5.607581261602,1687
5.609729261601,1685
5.610215871883,1686
5.61423128598,1688
5.616339157483,1690
5.616406357482,1691
5.616790357481,1689
5.624176270928,1692
5.625753438145,1693
5.627648159487,1694
5.628668354451,1695
5.630848371164,1696
5.632093886482,1697
5.633442143932,1698
5.633742509066,1699
5.638806577159,1700
5.642063712033,1702
5.642171712032,1701
5.650633577531,1704
5.65179997753,1703
5.657449653059,1705
5.661557178098,1706
5.663866541202,1707
5.664344872927,1708
5.665735945714,1709
5.67506668868,1713
5.677119888679,1715
5.677583088679,1714
5.679332688679,1716
5.681250288678,1717
5.682736669799,1718
5.684687120678,1719
5.685378320678,1720
5.686051520676,1721
5.686581920676,1722
5.691803120675,1724
5.693605552676,1712
5.695629952675,1726
5.695727152674,1725
5.696465152674,1727
5.703822352673,1729
5.708696784673,1728
5.709609984673,1723
5.713443984672,1730
5.714481984671,1731
5.71506158467,1732
5.715384384669,1733
5.717520384667,1711
5.719534016667,1710
5.726850085455,1734
5.729769358683,1735
5.730727483163,1736
5.730791115163,1737
5.732397418309,1739
5.734646218308,1740
5.735157418306,1741
5.735405818304,1742
5.741350618302,1744
5.7454126183,1745
5.746640218299,1746
5.747770618298,1747
5.749960618297,1748
5.751196618296,1749
5.752129018295,1743
5.754964618294,1750
5.759991418292,1752
5.76210221829,1738
5.76224714101,1753
5.762571141009,1754
5.763952341007,1755
5.765691141006,1751
5.765759782384,1756
5.766840013488,1757
5.775230777492,1758
5.778071057823,1759
5.782870743807,1760
5.786491215538,1761
5.792563020886,1762
5.79264940886,1763
5.809423361305,1764
5.810174724945,1766
5.813895924943,1767
5.817477924941,1765
5.818791130266,1769
5.818855930266,1768
5.820036076274,1770
5.820301925681,1771
5.821325435015,1772
5.823377244138,1773
5.823780045001,1774
5.825335312741,1775
5.839915607553,1776
5.843302052317,1777
5.84492732853,1778
5.84503935195,1779
5.847654899294,1780
5.84851064515,1781
5.849564159733,1782
5.855848002343,1784
5.857136802342,1785
5.85735040234,1786
5.857697202338,1787
5.860250802337,1789
5.861110002336,1790
5.864345202334,1783
5.864969234334,1793
5.865306434334,1791
5.866477634334,1792
5.869639634333,1794
5.876218034331,1788
5.882456442354,1797
5.884909242353,1798
5.886471642352,1795
5.887300801353,1796
5.888311025902,1799
5.896290087172,1800
5.898403524283,1801
5.911922309032,1802
5.916214981879,1803
5.917735516623,1804
5.921330993335,1807
5.923783793334,1808
5.934464993333,1806
5.935656593332,1805
5.94210239954,1809
5.943966658097,1810
5.951051527408,1811
5.966994517784,1814
5.973540517783,1815
5.974243717782,1816
5.976772117782,1817
5.978411317781,1813
5.97897891778,1818
5.990201317778,1820
5.990336917776,1819
5.990440117775,1821
5.991326917773,1822
5.994833317771,1812
5.99486044369,1823
5.99582026174,1824
6.006307160287,1825
6.019271424322,1827
6.026149824321,1828
6.028151424319,1829
6.028669824318,1830
6.028818624316,1826
6.035016701064,1833
6.035368301063,1831
6.035418627322,1832
6.036043332222,1835
6.037185732221,1834
6.042587158348,1836
6.043228934508,1837
6.048109524006,1838
6.055730796178,1839
6.057337771991,1840
6.061576212596,1841
6.06464233414,1842
6.066095946665,1843
6.066109560695,1844
6.078388177634,1845
6.08801246491,1846
6.089442753926,1847
6.091340585075,1848
6.091960549057,1849
6.092308400711,1850
6.094720260212,1851
6.101147184012,1854
6.101609184011,1853
6.10276718401,1856
6.103698384008,1852
6.106043856763,1855
6.106073817915,1857
6.109374710604,1858
6.111932848816,1859
6.114763722695,1860
6.117049379127,1861
6.118084643536,1862
6.126716316938,1863
6.126963625066,1864
6.130919245378,1866
6.132371245377,1867
6.133608445376,1865
6.133954767151,1868
6.134530593628,1869
6.142184532863,1871
6.147553332863,1870
6.14908137229,1872
6.149666789134,1873
6.152345832522,1874
6.160186687052,1875
6.166781635041,1876
6.169061742336,1877
6.172628964758,1878
6.180889213271,1879
6.182975209125,1880
6.187766114594,1882
6.193160114593,1884
6.194360114591,1883
6.19558891459,1885
6.19993171459,1886
6.201284114588,1881
6.205903542962,1887
6.212705747534,1888
6.213169188462,1889
6.216141670215,1890
6.216570533871,1891
6.222992352686,1892
6.223486022303,1893
6.225917269013,1894
6.235045102037,1895
6.237453409699,1896
6.243294639558,1897
6.249860215153,1898
6.251592528141,1899
6.258033724585,1900
6.266724110136,1902
6.268375310135,1903
6.268386668734,1904
6.268893100734,1901
6.271752218594,1905
6.273707803666,1906
6.280286880289,1907
6.283423348218,1908
6.298182019916,1909
6.298934956368,1910
6.29925964162,1911
6.303060771984,1912
6.306728106162,1913
6.328772812741,1914
6.337066664972,1916
6.338864264971,1917
6.33992986497,1915
6.340793892362,1918
6.341720461927,1919
6.346241064408,1921
6.353669064408,1922
6.355307064405,1927
6.355449864403,1928
6.355595064401,1924
6.3601766644,1930
6.363095064398,1929
6.368948664397,1931
6.373233864396,1932
6.376286664396,1926
6.381147864396,1923
6.383671464396,1933
6.389162664395,1934
6.401107464394,1920
6.407282696394,1937
6.407390922583,1938
6.409961128394,1940
6.413555603379,1925
6.414147203379,1941
6.414184403378,1935
6.414255203378,1939
6.419163235378,1936
6.42111913563,1943
6.421753935628,1944
6.422093535626,1942
6.42274550861,1945
6.429443135891,1946
6.435987182161,1947
6.436286750022,1948
6.441819865571,1949
6.442574003319,1950
6.443348639298,1951
6.443593050838,1952
6.447037418893,1953
6.44758849705,1954
6.447858719879,1955
6.449905692762,1956
6.452493982798,1957
6.453175719439,1958
6.456225125723,1960
6.458340725722,1962
6.458598725719,1963
6.459897125719,1959
6.461768118228,1965
6.463211718226,1966
6.465500118225,1967
6.467697318224,1964
6.468234918223,1968
6.468422118221,1969
6.46998691822,1970
6.470415318218,1971
6.475578918216,1972
6.479148918215,1973
6.482993718214,1961
6.4864559264,1974
6.488405601797,1975
6.496458321047,1977
6.497210721046,1976
6.504936288143,1979
6.508893888143,1981
6.509087088141,1980
6.51052228814,1982
6.511277088139,1978
6.519736506886,1983
6.533745208791,1984
6.53543754529,1986
6.535481945289,1985
6.551227275082,1987
6.56523728803,1988
6.566548730252,1989
6.57654890501,1992
6.577987705009,1991
6.578084616576,1993
6.584046537009,1990
6.585635564662,1994
6.58938106812,1996
6.595321068119,1995
6.599929192168,1998
6.602528392167,1999
6.605161192165,1997
6.607794970422,2000
6.611149562612,2001
6.614598224005,2003
6.615503024004,2002
6.618379105595,2005
6.618988705594,2004
6.623333189637,2006
6.62778591748,2007
6.632586127793,2008
6.646673541413,2009
6.649114705794,2010
6.653105165176,2011
6.653302636089,2012
6.656805391046,2014
6.657360991045,2015
6.659111791045,2016
6.660338191044,2017
6.663162991043,2018
6.664855023043,2013
6.667607823043,2019
6.668006927555,2021
6.668065727554,2020
6.674145731115,2022
6.690705604885,2023
6.691814502963,2024
6.699024800103,2025
6.701160972634,2026
6.702713982139,2027
6.706349673788,2028
6.708415244479,2029
6.716081150064,2030
6.717799493906,2031
6.718949551249,2032
6.719925058945,2033
6.73265877935,2034
6.736587223655,2035
6.73931100054,2036
6.741959736883,2037
6.748296782583,2038
6.748332092728,2039
6.753953560879,2040
6.758047309006,2041
6.759364614512,2042
6.760744646999,2043
6.763641618156,2044
6.767803100366,2045
6.771338974995,2046
6.774442479699,2047
6.774874122098,2048
6.781775907796,2049
6.782292394773,2050
6.783649145707,2051
6.788023185632,2053
6.788373585631,2052
6.798922521961,2054
6.804819470504,2055
6.805302226551,2057
6.805681426549,2056
6.808196033747,2059
6.809650433746,2060
6.815140433744,2058
6.821156012118,2061
6.823183434842,2062
6.824143933432,2063
6.825650778889,2064
6.82592384473,2065
6.839282239826,2066
6.840484938453,2067
6.846506757489,2068
6.847439684946,2069
6.862621203394,2070
6.871915247499,2071
6.873948238844,2072
6.880298212258,2073
6.882046481916,2074
6.886389468288,2076
6.889858668287,2077
6.891719868285,2079
6.893606268283,2075
6.895157926521,2078
6.895178329988,2080
6.895544170221,2081
6.904769232735,2082
6.905452227357,2083
6.905849437229,2084
6.911176143204,2085
6.923959137064,2086
6.926216304784,2090
6.939327504783,2094
6.939851904782,2095
6.940166630206,2093
6.945013430206,2097
6.946082630205,2087
6.947321030204,2088
6.951752630203,2098
6.956505830202,2100
6.9611306302,2096
6.963114773301,2091
6.965141605301,2103
6.968417605301,2105
6.970167205299,2104
6.970451605298,2101
6.971220805297,2106
6.974602405296,2089
6.978690805296,2092
6.978741205295,2107
6.979668805295,2099
6.981318805294,2102
6.986258401621,2108
6.986441699168,2109
6.988403730034,2110
6.994091864769,2111
6.998805419097,2112
7.000738641427,2113
7.002164754483,2114
7.005408988479,2115
7.005537868697,2116
7.017557182497,2117
7.019515316138,2119
7.019602916138,2118
7.021547151287,2120
7.022397788002,2121
7.022398988002,2122
7.024397245198,2123
7.025592261908,2124
7.032264653062,2125
7.040556536215,2127
7.041589736214,2128
7.043275736212,2126
7.044223175019,2130
7.044869975019,2129
7.046398582459,2132
7.047722182458,2131
7.048638527771,2133
7.050968270119,2134
7.059481998836,2137
7.061591598835,2138
7.062942798833,2136
7.065011598832,2139
7.066116798831,2140
7.066857198829,2135
7.066960105731,2141
7.072283743032,2142
7.074867645936,2143
7.07893353964,2144
7.081366208721,2145
7.084462934972,2146
7.095866946719,2147
7.101188959558,2148
7.101826810602,2149
7.101879292384,2150
7.102687428264,2151
7.106184328102,2152
7.106700607892,2153
7.107150299446,2154
7.108431749961,2155
7.109730521229,2156
7.114409784941,2157
7.123621923051,2159
7.124425923051,2158
7.12788255102,2160
7.1318849919,2161
7.13697763408,2163
7.13745643408,2162
7.148194481468,2164
7.14876226485,2165
7.148985518925,2166
7.150672494358,2168
7.150887294357,2167
7.152299541069,2169
7.152652143282,2170
7.162921210907,2171
7.169017334088,2172
7.172919288464,2173
7.177176310389,2174
7.187910649591,2175
7.192295564836,2176
7.192859663588,2177
7.195587260311,2178
7.196109814496,2180
7.199861014494,2183
7.201077814491,2179
7.201372361429,2184
7.203983561428,2181
7.206844177199,2185
7.209660577197,2186
7.209842977195,2182
7.213414254123,2187
7.22020707761,2188
7.225158412326,2189
7.22759581478,2190
7.228141382226,2191
7.230160172685,2192
7.230956113342,2193
7.236624939138,2194
7.241817599464,2195
7.243866826844,2197
7.248504826843,2198
7.250202826842,2196
7.256522281643,2199
7.258092735226,2200
7.267334759834,2201
7.27375179557,2202
7.275486288774,2203
7.276476055788,2204
7.28068004141,2205
7.282574113855,2206
7.283985749407,2207
7.288722368797,2209
7.289328368796,2210
7.290096368794,2211
7.290894368793,2208
7.297306205245,2212
7.299994237245,2213
7.307379654512,2214
7.309261706568,2215
7.313068082643,2216
7.31430607028,2217
7.318624642063,2218
7.329689372575,2219
7.339590342512,2220
7.367169182367,2222
7.367332382366,2221
7.367610127155,2223
7.36900733908,2224
7.369146216731,2225
7.376406210051,2226
7.376716816738,2227
7.377063187736,2228
7.379229444845,2230
7.384781844845,2229
7.397116221049,2231
7.398350376528,2232
7.401253934266,2233
7.401276766266,2234
7.404216434493,2235
7.409127245992,2236
7.410660958065,2237
7.41260162384,2238
7.422307829937,2239
7.428365894804,2240
7.443605649144,2241
7.459152610603,2242
7.473239615991,2243
7.481397257598,2245
7.481729657598,2246
7.482456857596,2247
7.485448457594,2248
7.493477657593,2249
7.497366857592,2251
7.50275605759,2252
7.502806457589,2244
7.505160924413,2250
7.512647869889,2253
7.516826134623,2254
7.518046035576,2256
7.518115635574,2255
7.52381734902,2257
7.529435277228,2258
7.535032868118,2259
7.536929765475,2260
7.540408368829,2262
7.543024368829,2261
7.544562525201,2264
7.545970125199,2265
7.546442925197,2263
7.548164405684,2266
7.552713178735,2268
7.552720378734,2269
7.557745978733,2267
7.559841828132,2270
7.562158160294,2271
7.5721563755,2275
7.572398775498,2274
7.574651175498,2272
7.575324095842,2273
7.577040841666,2276
7.583398991876,2277
7.585129960279,2278
7.590145499247,2279
7.605389082864,2280
7.60597896114,2281
7.611395026048,2282
7.613977705623,2283
7.619499504091,2284
7.622467980848,2285
7.624717324556,2286
7.625128292465,2287
7.625424059789,2288
7.628266315244,2289
7.633689334885,2290
7.645381488691,2291
7.65752879927,2292
7.657780541537,2293
7.659205794912,2294
7.663887225809,2295
7.668395062819,2296
7.686230869706,2297
7.7003153102,2298
7.709462864395,2300
7.713538064394,2301
7.721662064392,2303
7.72210966439,2302
7.728209264389,2299
7.72930009639,2304
7.730999742278,2305
7.731695883126,2306
7.734509267965,2307
7.73502429059,2308
7.73637435092,2309
7.744248661023,2310
7.753266074151,2311
7.753900590146,2312
7.755123993234,2313
7.765190377902,2315
7.765844377901,2314
7.768061604628,2316
7.769109876182,2317
7.774212458046,2318
7.77681778131,2319
7.777189426942,2320
7.777221027606,2321
7.777649655696,2322
7.778260877885,2323
7.787246331509,2324
7.792265151078,2326
7.795248351078,2325
7.796249380717,2328
7.798789780716,2327
7.804653637977,2329
7.805590634771,2330
7.811016816469,2331
7.816601200887,2332
7.819261188184,2333
7.823739724227,2334
7.82649724492,2335
7.832279158858,2336
7.833004960065,2337
7.834478685504,2338
7.838558312339,2339
7.838977800254,2340
7.839065668643,2341
7.847955060247,2342
7.848257701011,2343
7.8552895792,2344
7.863646515278,2345
7.865555300479,2346
7.866438006559,2347
7.87234995071,2348
7.877114246304,2350
7.878085046303,2349
7.879495769673,2351
7.884009644383,2352
7.884768924933,2353
7.890212215751,2354
7.890627915854,2355
7.894782479586,2356
7.896580935415,2357
7.907219570245,2358
7.909181831286,2359
7.915163783887,2360
7.915703959297,2361
7.923518996516,2362
7.927539904734,2363
7.930353234767,2364
7.932753535425,2365
7.932906207075,2366
7.938543607489,2367
7.939681110885,2369
7.940560710884,2370
7.940942310882,2371
7.94707071088,2368
7.950672676817,2376
7.952601076816,2372
7.955833908817,2373
7.956391908817,2375
7.957345940817,2374
7.964979744,2377
7.972051397135,2378
7.972866839867,2379
7.981115987983,2382
7.981661987982,2381
7.982876387981,2380
7.992853602501,2383
8.004898114897,2384
8.006787613509,2385
8.008525019711,2386
8.021107598868,2387
8.022403503089,2389
8.023907103087,2388
8.02401179795,2391
8.02442939795,2390
8.029925384133,2392
8.032019318139,2393
8.034925565631,2394
8.048128622754,2395
8.053902623726,2396
8.057492676286,2397
8.074474494764,2399
8.075014494764,2398
8.078433305667,2400
8.085311681915,2401
8.089872056673,2402
8.090377093689,2403
8.099174957314,2406
8.100503357313,2408
8.103676157311,2404
8.10495125883,2410
8.105098858828,2407
8.105436058828,2411
8.109676858826,2412
8.110270858825,2409
8.110694458825,2405
8.12513701312,2413
8.132807282645,2416
8.134517282643,2417
8.134855682642,2415
8.148287282642,2420
8.152312082639,2422
8.153794251214,2423
8.154401451213,2424
8.155888251212,2419
8.157629483213,2421
8.158731115213,2425
8.160369115212,2426
8.168015515211,2414
8.168376715211,2428
8.172649915209,2427
8.178274315208,2418
8.186810386876,2429
8.187688563604,2431
8.187806163604,2430
8.188081129331,2432
8.195238502477,2433
8.208609099738,2435
8.220431499737,2438
8.222253099735,2439
8.228267499733,2440
8.228333499732,2441
8.23260069973,2442
8.232928299729,2434
8.232939149634,2436
8.234237581634,2437
8.23939919521,2443
8.239620400459,2444
8.239923024338,2445
8.243905794553,2447
8.244503394552,2446
8.245097860588,2448
8.249383739772,2449
8.254978186207,2450
8.259860619646,2451
8.264811685656,2452
8.265633452538,2453
8.267904418299,2455
8.271556018298,2454
8.272066750805,2456
8.272806813349,2457
8.274143073296,2459
8.275825473295,2458
8.286755657662,2460
8.294106419918,2461
8.301465418335,2462
8.304422154094,2464
8.306157354093,2465
8.309344554091,2463
8.314992148648,2467
8.320154548647,2466
8.322655886596,2468
8.3366323695,2469
8.34433361264,2470
8.353648650324,2471
8.366015097746,2472
8.371053266916,2473
8.377165988303,2474
8.383136488194,2475
8.388127459022,2476
8.389577788282,2477
8.389833320561,2478
8.393306733547,2479
8.402183901794,2480
8.406399502081,2481
8.411078168752,2482
8.412936256605,2483
8.422381322967,2484
8.426373047543,2485
8.430969611599,2486
8.439166212284,2487
8.449574192933,2489
8.450134592932,2488
8.4547040382,2490
8.462589680125,2491
8.464871832227,2492
8.47977743089,2493
8.491249711409,2494
8.497641837667,2496
8.505444237667,2495
8.506021869263,2497
8.510750055511,2498
8.515392227054,2499
8.518433575823,2500
8.522774954336,2501
8.525017243414,2504
8.530474843412,2506
8.530923643409,2507
8.531551243408,2508
8.534059243406,2505
8.536315243405,2509
8.536360843403,2502
8.536988995108,2511
8.537131795106,2512
8.543981395104,2510
8.544244195104,2513
8.544701395103,2514
8.545394995103,2515
8.549611795102,2503
8.552574843524,2516
8.558368618057,2517
8.561378625068,2518
8.56910095702,2519
8.570199302885,2520
8.570575179035,2521
8.579730669133,2523
8.581197069132,2522
8.587950809215,2524
8.600170668765,2525
8.607195621217,2526
8.621267642325,2527
8.621682722008,2528
8.622040044654,2529
8.623393096609,2530
8.6283723655,2531
8.629652910988,2532
8.631897586426,2534
8.632234786425,2535
8.632718386424,2533
8.633755491838,2536
8.640309482239,2537
8.644472864069,2538
8.647758544281,2540
8.64795774428,2541
8.658422944278,2542
8.659474144276,2543
8.660974144276,2539
8.664264416222,2544
8.666436923578,2546
8.669418923578,2545
8.681739702517,2548
8.689773702517,2547
8.699505808849,2549
8.702323771908,2550
8.703172044013,2551
8.704088490544,2552
8.709066192003,2553
8.714467341065,2554
8.718274823097,2555
8.721688911924,2556
8.723635222874,2557
8.724850069469,2558
8.72787242322,2559
8.729371074152,2560
8.730051235159,2561
8.733448073919,2563
8.733550073918,2562
8.734997065847,2564
8.741108643964,2566
8.748607443963,2568
8.754608643963,2567
8.758005843963,2570
8.758831443961,2565
8.760353560472,2571
8.763575560471,2572
8.76409516047,2573
8.764109560469,2569
8.76561716105,2574
8.774551813068,2575
8.777369443159,2576
8.77837807244,2577
8.789739468255,2579
8.790944268254,2578
8.793610418948,2581
8.806628018948,2583
8.812198418946,2580
8.812631423156,2582
8.814960502977,2584
8.816661310275,2585
8.819022463605,2586
8.821836825897,2587
8.822128993692,2588
8.822622519537,2589
8.841843309411,2591
8.84335410941,2590
8.84560715794,2592
8.856624834219,2593
8.858481517239,2594
8.862383281185,2595
8.866064244192,2597
8.866096644191,2596
8.869980770408,2598
8.870043279333,2599
8.87114575646,2600
8.878436627766,2601
8.883832879587,2602
8.890242460737,2603
8.891049017227,2604
8.894022427348,2605
8.906546054714,2607
8.907905654714,2608
8.913347654713,2606
8.913375784929,2609
8.920544883243,2610
8.927550189202,2611
8.932495672505,2612
8.935011113995,2614
8.935425113995,2615
8.940520313994,2613
8.941863735562,2616
8.962215554342,2617
8.965487773788,2618
8.977802461713,2619
8.983349074353,2620
8.989399392593,2621
8.992426341342,2622
8.994497033718,2623
8.995012771123,2624
8.997894910093,2625
8.998045802241,2626
9.000765646089,2627
9.003987912518,2628
9.006888547081,2629
9.008558146032,2631
9.010305346032,2633
9.01096414603,2632
9.012310546029,2634
9.014218546028,2630
9.016230149481,2635
9.017413381481,2636
9.022704916147,2637
9.023802499775,2638
9.034791907419,2639
9.03570937155,2640
9.039840153613,2641
9.044562048307,2643
9.047143248306,2642
9.049870711375,2646
9.052291111373,2647
9.053245111371,2648
9.05349711137,2644
9.053983295296,2645
9.054057032497,2650
9.058241432495,2651
9.060130232495,2649
9.061796594637,2653
9.062896994637,2654
9.065799794636,2655
9.073620194634,2657
9.074055794633,2656
9.074448194633,2652
9.076707353423,2658
9.078981127503,2659
9.080947897024,2660
9.085079059326,2662
9.088274659326,2663
9.092370259324,2664
9.093479059323,2661
9.105511570678,2666
9.106135570677,2668
9.106272370675,2667
9.107213170675,2669
9.110202370673,2665
9.116094504315,2670
9.135523934696,2671
9.135997745677,2672
9.143275183757,2673
9.144806633859,2674
9.155760049528,2675
9.159957693845,2676
9.163125936088,2677
9.169801661141,2678
9.170286333344,2679
9.176972485568,2680
9.177132862035,2681
9.179344246201,2682
9.184210333433,2683
9.186039353134,2684
9.195106163852,2685
9.204074846161,2686
9.207383795156,2687
9.209235395434,2688
9.213515164995,2689
9.226892686433,2690
9.229104773958,2691
9.22992348008,2692
9.232163417963,2693
9.234079849963,2695
9.234372649963,2696
9.237921049962,2697
9.239855449961,2698
9.246268249961,2699
9.246271849959,2694
9.247349765216,2700
9.248695888942,2701
9.250775700593,2703
9.251590500592,2702
9.254200354469,2704
9.254526132195,2705
9.255293138014,2706
9.25789863985,2708
9.25812663985,2709
9.259107039849,2710
9.260229039848,2711
9.263737839848,2712
9.265788639847,2713
9.267819039845,2714
9.269433039845,2707
9.269905449089,2715
9.277180625711,2716
9.283413035361,2717
9.283471759897,2719
9.283787833434,2718
9.286316476695,2720
9.292063069692,2721
9.294448854515,2723
9.296998854514,2724
9.298195254512,2722
9.302585270128,2726
9.303385670127,2725
9.304798637543,2727
9.310630272789,2729
9.311277072789,2728
9.314313061659,2730
9.320088996563,2732
9.323000196562,2731
9.326406517912,2733
9.332472508779,2735
9.333461308777,2734
9.336253758213,2737
9.336794958212,2736
9.340989244221,2739
9.345323644221,2742
9.348236044218,2743
9.351670444216,2744
9.351701644214,2741
9.354230044214,2746
9.354531244211,2747
9.35814684421,2748
9.359106844209,2749
9.360192844208,2738
9.366419209242,2751
9.368189209239,2752
9.372362809237,2753
9.374436409235,2755
9.38183284672,2758
9.381991246719,2756
9.383509246718,2745
9.385402890903,2754
9.389605278718,2759
9.390402078716,2760
9.391700478716,2761
9.395970078715,2750
9.397570425917,2762
9.398400825916,2757
9.402553310713,2763
9.403350110712,2740
9.405644281909,2764
9.408642357696,2765
9.409920894921,2767
9.411778494919,2768
9.415144494919,2766
9.423587828002,2769
9.426657436323,2770
9.427056202632,2771
9.431962623988,2772
9.43334453258,2773
9.433918426804,2774
9.444976331849,2775
9.445573818073,2776
9.447310163975,2777
9.451347650451,2778
9.460888751021,2779
9.464468210745,2780
9.466840714538,2781
9.470404588577,2782
9.471119628247,2783
9.481091062509,2784
9.481872628595,2786
9.482593828593,2785
9.495576666959,2787
9.495772619017,2788
9.497787794914,2789
9.507377549676,2790
9.509126652697,2791
9.515746681703,2793
9.518229481703,2794
9.520631881702,2795
9.522158281702,2797
9.532349881699,2801
9.532383481697,2800
9.533387881697,2802
9.533504281695,2803
9.538310281695,2798
9.538466313695,2804
9.538695513695,2792
9.539974713694,2799
9.541749545694,2796
9.542616296781,2805
9.545073136943,2806
9.552583351644,2807
9.570878389318,2808
9.576870834132,2809
9.586466369667,2811
9.590545169666,2813
9.590606369664,2812
9.592504769664,2814
9.597382769662,2815
9.60079436966,2816
9.603583169659,2818
9.603799169657,2819
9.606266369656,2820
9.610183169654,2810
9.610540868683,2822
9.611156468681,2821
9.617197268681,2825
9.619011668679,2824
9.623250068678,2823
9.632829668677,2827
9.636242468675,2828
9.638008868674,2829
9.638286068672,2826
9.640030868672,2817
9.647002486171,2836
9.654478486168,2833
9.656652886168,2837
9.656943286168,2830
9.657773718169,2838
9.658006518168,2839
9.666531318167,2831
9.666566118167,2840
9.670506918166,2842
9.671174118165,2835
9.672485718165,2843
9.674436918163,2832
9.674884550163,2834
9.677646115852,2841
9.678270813092,2844
9.679017958939,2845
9.683413571986,2846
9.6872308906,2847
9.687533217717,2848
9.69268681879,2851
9.69836641879,2849
9.699956073169,2852
9.701966073168,2850
9.703592969287,2853
9.709697616391,2854
9.710086024551,2855
9.715093051528,2856
9.715950249698,2857
9.721167625532,2858
9.723637979767,2860
9.728026379766,2861
9.729803579764,2859
9.732042593167,2862
9.73378112327,2863
9.736979788361,2864
9.743672695264,2865
9.746236637604,2866
9.747589544062,2867
9.753700264201,2868
9.763887322408,2869
9.763949764705,2870
9.767538414982,2872
9.771730014981,2871
9.781816381547,2873
9.788163060586,2874
9.79337717266,2875
9.794730656962,2876
9.79544984962,2877
9.797593886647,2879
9.799961486647,2880
9.800443886645,2881
9.806417486644,2885
9.80680268664,2883
9.810283886639,2878
9.814458718642,2882
9.815975518638,2888
9.817014718636,2884
9.817668622645,2887
9.821207422645,2886
9.821483469246,2889
9.824537658084,2891
9.825869658083,2892
9.827158458083,2890
9.832756115349,2893
9.83939281925,2894
9.845813404934,2895
9.853341478632,2896
9.864806255632,2898
9.865161455631,2899
9.869295455629,2897
9.875435545275,2900
9.886851211787,2901
9.888125806771,2902
9.89175269244,2904
9.899348692439,2903
9.899426601945,2905
9.911565613004,2906
9.912308919639,2907
9.91377449626,2910
9.914082896258,2908
9.914712375467,2911
9.914987175465,2909
9.918211139008,2912
9.921137713303,2914
9.923007313302,2913
9.927088505794,2915
9.92754939651,2916
9.93479138141,2917
9.937041206607,2918
9.938543501222,2919
9.939355059925,2920
9.945560197669,2921
9.952044974522,2923
9.954585374521,2922
9.960259457231,2926
9.96051625723,2927
9.960734657229,2925
9.967682657229,2928
9.972041057228,2929
9.972122657227,2924
9.972901144121,2930
9.974432125305,2931
9.977486063443,2932
9.978072356086,2934
9.981685556085,2933
9.985588750427,2936
9.987382750426,2937
9.989752750424,2935
9.993051523375,2938
9.994385828826,2939
9.995473386154,2940
9.997039590073,2941
9.997808253151,2942
10.002786688732,2943
10.004267735193,2944
10.006060298328,2945
10.00636994626,2946
10.013656455313,2947
10.014361086598,2948
10.01483815216,2949
10.015241565322,2950
10.016900807863,2951
10.021573133319,2952
10.027768286267,2953
10.03164824602,2954
10.034784212764,2955
10.039817903217,2956
10.04386272985,2957
10.050558551697,2958
10.05683916312,2959
10.056888739852,2960
10.059437256296,2961
10.063025980852,2962
10.063479763264,2963
10.066786195944,2965
10.071096595944,2967
10.072324195942,2966
10.073864995941,2964
10.082978148968,2970
10.088700948966,2969
10.091799348965,2971
10.092776148964,2968
10.094565069218,2973
10.102980669218,2975
10.103254269216,2972
10.104152279938,2976
10.105751879936,2974
10.10622548183,2977
10.109102728903,2978
10.117539366612,2979
10.12092487318,2980
10.127905554739,2982
10.133473554738,2984
10.133718354736,2983
10.136133954736,2981
10.139434214637,2985
10.14161537119,2986
10.146973485355,2987
10.164516430566,2989
10.166324830566,2990
10.167775630565,2991
10.168420030564,2988
10.174098246833,2993
10.177905846832,2994
10.180580646832,2992
10.180910178503,2996
10.184546178502,2997
10.187326578502,2999
10.198589778499,2995
10.199926621946,2998
