time,IdealSim1.flowGenerator3.flowSynSize:vector
0.000124323162,36
0.000670486409,803
0.001312964233,1
0.001587763596,6
0.001779643298,4884
0.002600916975,21
0.003020794942,7
0.003210754673,16
0.003339034645,5
0.003486274581,33
0.003537514571,12
0.003625389338,32
0.004030836616,27
0.004410995747,33
0.004573355439,18749
0.00458247542,506
0.004767515013,64
0.005211158172,37
0.005536121345,22
0.005740361094,2260
0.006302920059,5026
0.006320721751,588
0.006392144025,53
0.006763600878,14
0.006824320684,41
0.007298202004,16
0.007595681267,2
0.00769300121,59
0.007864000951,2896
0.008157999242,19574
0.008222570487,510
0.008737902411,36
0.009171099302,3999
0.009392904502,43
0.009668601259,87
0.009896148608,39
0.010071332813,7
0.010781984607,14
0.011124223577,1190
0.011584300244,5197
0.012164924219,1349
0.012357284335,774
0.012511502187,22
0.012696781922,5
0.012802797263,52
0.0129001818,1389
0.01308708032,626
0.013719239778,4
0.013891439775,2
0.013946567704,19
0.014436239688,10
0.01451591969,3
0.014594039648,2634
0.01470839965,2862
0.014808479648,1917
0.01502160282,5
0.015189242824,1926
0.015245762823,3226
0.015291201045,510
0.015321966021,126
0.015412537981,37
0.015669962534,516
0.015894122317,6584
0.01604772223,36
0.016145762232,2897
0.016411923859,57
0.016627442578,14
0.016920360638,6090
0.0172381899,624
0.017406543562,20
0.017779222185,23
0.017944736116,7
0.018340230182,595
0.01895570137,1223
0.020658657248,2026
0.020720964716,36
0.020756115409,1
0.020817085683,2
0.021025168147,1001
0.021316009195,262
0.023191773324,457
0.023562931719,988
0.023570111165,20
0.023655751229,19
0.02410904851,15050
0.024405861023,41
0.026259045237,15
0.026272125183,1262
0.026386168715,5
0.026672151913,4
0.026783859686,41
0.026970334548,44
0.027729595849,5
0.027882475096,20
0.02810411375,3743
0.028611371362,20
0.028870449709,6
0.028875609688,3494
0.028980693731,6
0.030037047838,53
0.030578572204,1
0.030847844547,4
0.031526846232,554
0.032046120227,4137
0.03246686609,15
0.033080932648,3831
0.033215795461,18
0.033867270858,20
0.034118383304,48
0.034304971547,116
0.034377125813,3
0.034419924796,95
0.034868323136,104
0.034995616518,208
0.035147166503,7
0.035949508568,122
0.035963068512,6026
0.037665087395,18
0.038712611963,666
0.039841417347,16
0.040079395102,5
0.040637027562,58
0.041048784865,36
0.041932019586,637
0.042181498009,5712
0.042286206927,48
0.042503606426,36
0.042578458456,66
0.043667453704,3
0.043919090349,1104
0.043990296657,61
0.044230249788,3
0.044420211986,474
0.044515833739,7
0.045011707652,52
0.045230508371,1283
0.046599535243,5457
0.047342555848,2
0.047781577808,118
0.048436246886,2996
0.048479562732,66
0.048844007866,3496
0.049195539984,7
0.049333399968,41
0.049605384222,7
0.050177664437,31
0.050210544439,3177
0.050346158764,34
0.050390918578,1482
0.050956155901,63
0.051843327021,9
0.052396227144,413
0.052474302664,29
0.052917703208,27
0.052950928414,101
0.053159742724,4644
0.053294130622,1006
0.053652024423,336
0.053802507373,6
0.053865987109,840
0.054401547458,615
0.054406707437,3000
0.05502836803,260
0.055076706372,388
0.055289948793,1007
0.055513038113,28
0.055752349941,27
0.056047575088,1089
0.056418335441,18
0.056654767905,28
0.057920902129,1019
0.058065501425,3252
0.058280201826,38
0.058879294059,1
0.05898921406,2961
0.059333410611,472
0.059764327522,6421
0.060461159433,49
0.060628482114,250
0.060640275322,4
0.060804698881,6
0.061082234288,1247
0.062071215229,3
0.062436972724,42
0.062864169666,5690
0.062892518435,28
0.063982704885,109
0.064901427964,35
0.064986867653,31
0.065070531289,16
0.06507687098,5326
0.065379972668,1087
0.066458322113,3495
0.066589536736,1144
0.066658337455,104
0.06700673453,21
0.067532284087,1
0.067762446367,1152
0.06789624945,225
0.068587469027,8
0.0697705421,24
0.070295867502,109
0.070581961871,53
0.070624943462,1
0.071212915439,3053
0.071629222982,727
0.071735688952,28
0.072207279172,45
0.07296340433,3740
0.073163447119,258
0.073295926517,1098
0.073380299566,44
0.073527355621,1
0.073616839365,18
0.074284637998,4736
0.074789897388,1968
0.075191416888,619
0.075433391434,78
0.076118228869,4
0.076396387062,10
0.076514814941,45
0.077272252834,7
0.078338445402,952
0.078648043324,18811
0.079205344835,13
0.079663861516,4886
0.080580876252,650
0.080774066353,44
0.081623953992,3
0.081946415124,16
0.082136857735,1037
0.082563454742,50
0.083132289691,1026
0.083345230684,14
0.084186619193,3
0.084711375322,4430
0.084909240905,744
0.085121002251,52
0.085378620868,6
0.085609060932,10
0.085740638225,1
0.086016179888,33
0.086185727194,2
0.08659760043,5
0.086708575848,2
0.086816888799,51
0.08774893937,17
0.087818676478,5
0.088075746144,20
0.088397343966,2534
0.088733206673,64
0.088838864909,16
0.088951701821,80
0.089267027318,19
0.089296170322,6
0.089419667116,16
0.089488067098,19
0.089552272265,5
0.08967202687,2174
0.089825989903,118
0.089867869877,100
0.090371869875,6556
0.090680691338,37
0.091219007442,89
0.091291127185,30
0.09153628934,6648
0.091538872448,1
0.09193259407,1594
0.091988610022,20
0.091998040877,16
0.092128529769,1346
0.092357586886,783
0.093138245519,1476
0.093623803658,203
0.093717272589,32
0.095242847542,38
0.095579985706,1013
0.095658448188,38
0.095810368092,84
0.095917048094,981
0.09605409115,2605
0.096141981813,38
0.096194905777,7
0.096263216286,29
0.096338940783,3
0.097037950664,8
0.097657542616,6
0.098177277162,2
0.098431915541,5105
0.098659372688,5
0.099311808967,1214
0.099360168787,16
0.099375528788,4115
0.099930096286,221
0.100030400098,2
0.100178483062,754
0.100613858665,88
0.100764081137,424
0.100962846087,1
0.10138082612,6
0.101387256868,4
0.101425219185,20
0.101450937801,29
0.102312171505,6537
0.102392813818,97
0.102523146937,19
0.102692048621,14
0.102995816152,4
0.103823997431,17
0.103841874275,7
0.104451508819,9
0.104486308692,13
0.104689351711,113
0.104706028362,959
0.104830831658,30
0.105206310596,3
0.105505230227,16
0.105962236301,940
0.106220672449,20
0.106346192235,48
0.106401992118,5177
0.106461271996,2270
0.106520719009,14
0.106618038886,240
0.106983680616,6676
0.107463083583,8
0.107732243335,1913
0.108185273659,1063
0.108337526398,3194
0.109296078912,11892
0.109438330991,1
0.110538236678,406
0.110685713355,4
0.110888849905,2
0.11104829217,47
0.11133845395,1611
0.111848811857,168
0.112148345729,1084
0.112268588925,98
0.112451705596,42
0.112915583475,23
0.113162027358,56
0.113891976653,5
0.114041855984,7
0.114057215985,111
0.114501936507,31
0.114574176281,51
0.114654096264,78
0.114834575444,15
0.115136977881,969
0.115485097002,503
0.115833936114,43
0.115984776012,18
0.116476294466,4117
0.116494174398,6
0.116496991309,3
0.116772573039,14941
0.116945167199,1095
0.117384446249,30
0.118457551694,15
0.118599346504,292
0.11868996871,4
0.119080929233,15
0.119304496645,5
0.119813101471,1019
0.120164142938,9
0.120906120486,3
0.121576781316,28
0.121634682158,18
0.121814261514,5
0.122988517393,1429
0.123464179726,7
0.123584782919,13
0.124322650229,344
0.124462209568,4811
0.124683557518,107
0.124901320299,53
0.125071623711,258
0.125492822459,2127
0.125572603693,18
0.125917841485,4515
0.126534613544,24
0.126797635781,3
0.126978358473,854
0.127149147977,901
0.127361357996,53
0.128166258132,1148
0.128192402139,9
0.128493841807,913
0.128654044849,598
0.128719244734,1
0.129319682734,3706
0.129549241323,4856
0.129618782852,38
0.129956589284,16
0.130346695519,858
0.130773101575,223
0.13172215704,1043
0.132219047393,34
0.132563445024,5668
0.13331271873,84
0.133528958351,14
0.134107236443,5723
0.134262620933,4534
0.134754075556,1
0.135218712186,4077
0.135379395214,356
0.135475874585,33
0.135654073721,20
0.135805873004,47
0.136080431226,9
0.136182310802,4589
0.136362293462,157
0.137059685822,2
0.137261680599,76
0.137644998626,42
0.138712005151,4581
0.138993356506,1501
0.139678312679,4226
0.140066656584,30
0.140470757555,33
0.141458072312,183
0.14216015486,2
0.142402073345,6346
0.142455482416,10
0.142511253933,28
0.142687922631,6
0.142833348246,4
0.142858750436,7
0.142986313602,50
0.143095993145,631
0.143663907244,1
0.143751716996,1
0.144294707571,43
0.145524649589,25
0.145558793032,1
0.145954369448,1876
0.146134489265,45
0.146149729256,11
0.146554607852,5618
0.146758850353,5
0.146898529715,25
0.146904169692,6254
0.146989251235,50
0.14745639673,6
0.148450416345,1524
0.148456056322,3048
0.148648580716,59
0.149128096619,26
0.14914450531,19
0.149293339536,28
0.149948774576,5244
0.150002016375,113
0.150561544541,3259
0.151508954433,17
0.151830792252,2910
0.152255247378,2229
0.152715448586,2
0.154154216557,3591
0.154243124524,43
0.154664205251,38
0.155108802047,6464
0.156158321442,73
0.156655589315,27
0.156829832169,108
0.156952951645,1325
0.156980706519,20
0.157066781468,6
0.157382980427,48
0.157801857481,133
0.157958336699,22
0.158018874889,1
0.158578972531,5717
0.15904907843,126
0.159374396236,15
0.15938927623,39
0.15954851909,17
0.159940437958,1481
0.160109637049,5850
0.160227109376,23
0.160386839442,16
0.160778638114,2610
0.16111879467,1636
0.161331913395,3192
0.161794605014,109
0.162310726599,70
0.162374129549,12
0.162591645823,13
0.16318957801,121
0.163255697735,1253
0.163352347389,198
0.163706524085,3
0.164066895382,3
0.165413948473,1
0.165768991735,37
0.165861905603,3
0.166031468388,556
0.166486314815,34
0.167474476781,107
0.167477956767,4220
0.167656095015,1
0.168347175833,2684
0.168502458927,31
0.16870945859,17
0.168784938591,1242
0.169193296077,4
0.169418895875,159
0.169627575518,8
0.169918935319,14
0.170286441727,9671
0.170414241644,105
0.170450241608,37
0.17054672484,1911
0.17113052054,8349
0.171710669532,27
0.171715829511,284
0.171806184137,20
0.171982826982,119
0.172006946882,667
0.172224956228,654
0.172460320603,1001
0.172687388523,4
0.173151745714,2
0.173480303478,2500
0.173928564813,1034
0.174390257882,1263
0.174570595377,657
0.174640319309,1
0.174788879119,24
0.175214277873,18
0.175358877773,2623
0.175423797659,3359
0.175539720717,511
0.176132678433,44
0.176158647307,42
0.177549356352,28
0.17760052468,31
0.177957400768,17
0.178209711629,35
0.178428071356,2
0.179167766003,34
0.179208452723,56
0.17926420849,23
0.179537053935,6
0.180012126381,251
0.180071886793,90
0.180143525745,38
0.180382958368,10
0.18132847425,37
0.181518437156,549
0.182109550006,586
0.18212946723,14
0.182263029767,19
0.18239610916,8357
0.182567509696,38
0.184102305273,1
0.184323041431,26
0.186131682857,15
0.186443945815,1318
0.186884816476,2
0.188443079687,2934
0.189610318917,468
0.189732440483,1214
0.189733400484,4994
0.189862883603,3517
0.190104499827,52
0.190117115671,19
0.191148581367,1
0.191264807739,17
0.191917739637,20
0.192583061722,2432
0.192662177792,66
0.192667019062,53
0.193092533531,12
0.193109213507,1377
0.193144903504,102
0.193246616635,4
0.193326466699,2
0.193469146522,2532
0.193538029591,52
0.193557349592,888
0.194289812661,41
0.194542123154,1140
0.194997321427,1
0.195112904254,98
0.195345831671,3
0.19579512463,44
0.196087286842,26
0.196254325951,1569
0.196381892914,327
0.196388259705,4
0.196639661808,1153
0.196896314283,31
0.197153531713,705
0.197168035294,4
0.197365528954,16
0.197422094328,2
0.197474742149,11
0.198238899998,19
0.19907289355,12364
0.199478975897,4
0.199759295648,1571
0.200119778611,456
0.200156498608,605
0.200179898608,99
0.200204058787,12
0.200303618558,2636
0.200431901687,2833
0.200490464938,9
0.201471768539,53
0.201654952773,44
0.201863815286,27
0.202294012202,3519
0.202314939786,45
0.202443578987,16
0.202578533905,125
0.203060332141,2274
0.203165695156,2109
0.203265707309,22
0.203990588961,7
0.204665281559,4110
0.204979536559,66
0.205108963549,44
0.205560840503,3793
0.205750475023,18
0.206918789888,15
0.207007764589,5
0.207388958772,40
0.208194673692,13
0.208437927633,46
0.208566470635,49
0.208726097483,25
0.209041628192,858
0.209079637223,1
0.210180351084,14
0.211224008044,50
0.211912877035,17
0.212378254491,524
0.212661936328,3
0.212793455734,2367
0.213083163102,36
0.213095860839,8
0.213324444499,223
0.213433067977,16
0.213436547978,161
0.214411713547,23
0.214655455789,5
0.215081241592,52
0.215524999666,1270
0.215533519631,3144
0.21591322761,15
0.215914067607,46
0.21637900315,8
0.21648136537,14
0.216663694638,250
0.21682641748,563
0.217215533547,70
0.217272987702,8
0.217563843909,423
0.217670006646,51
0.217829814948,7
0.21803105758,7
0.218289777004,1011
0.218602014919,15
0.218634654786,3
0.21914885475,52
0.220006370993,1
0.220332767371,769
0.220434887159,3315
0.220506167122,1236
0.220855488361,14696
0.220947602839,22
0.221262484811,24
0.22134639432,33
0.221694604788,4
0.221875683781,2792
0.222752381945,27
0.222896981273,2228
0.222904511348,63
0.223007494163,1
0.223562762144,265
0.223664479345,14
0.223944961368,2666
0.224642834594,268
0.224702114595,5706
0.224887517248,1862
0.225172106994,23
0.225476664957,2416
0.22577077,5
0.226170542418,3
0.226580661311,407
0.226984571334,823
0.227478243964,691
0.227688079587,1062
0.22798363223,188
0.228691786278,35
0.229511114703,1331
0.229658340814,696
0.230803126866,2
0.231140149542,117
0.231495393521,1135
0.231885901253,21
0.231992914065,879
0.232243476193,18
0.232679433061,6646
0.233150976346,22
0.233188582655,18
0.233832712597,16
0.233903557253,306
0.234484448924,27
0.234566408583,520
0.235677227117,1193
0.235911184053,51
0.236121542802,1311
0.236234142003,41
0.236482099045,215
0.236867126276,1219
0.237672395707,3
0.238527024677,41
0.238639824237,21
0.23907242624,7
0.239320705748,28
0.239961025281,81
0.240338482412,67
0.240464842177,36
0.240991525111,3396
0.241090765112,329
0.241140325112,6573
0.241372644965,14
0.242431768158,72
0.243231208156,450
0.243455968155,53
0.244545688154,7
0.244717888152,1515
0.244910128153,43
0.244992688151,28
0.245038048154,6479
0.245425410864,2
0.245507850863,58
0.245901810862,9
0.246226170865,15766
0.246278850866,8774
0.246748770646,108
0.246975330396,3080
0.247471410286,971
0.247809809779,2
0.247980645054,22
0.248335244774,29
0.248740364569,46
0.24906448776,841
0.249117767764,628
0.249579530956,1439
0.24991264444,619
0.249970504175,47
0.250137764343,4167
0.250240783157,12
0.250242413853,2581
0.250547865581,16812
0.250659225117,17295
0.250990746735,40
0.251136426105,83
0.251148306056,2162
0.251649516957,113
0.251725320173,18
0.251897356706,47
0.252119475371,14
0.253261866371,19
0.253706343184,17
0.253742471253,16
0.253939033813,15446
0.253951844709,18
0.254094407719,383
0.254806215244,1002
0.25519328524,43
0.255239336581,14
0.255357324887,3
0.255742523426,51
0.256119802356,4340
0.256216823584,2931
0.256291132322,44
0.256809752096,15
0.257030402527,834
0.257438504307,1325
0.257593082867,21
0.258092849908,20
0.258387304373,48
0.258997104874,2
0.259105684991,14
0.259494649752,126
0.259578251964,4
0.259744574784,9
0.259835783182,31
0.260040376897,2211
0.260545135646,50
0.260938863051,1000
0.261012063752,1251
0.261347546493,51
0.2614103123,66
0.261533315485,15
0.262175787679,921
0.262311990874,3505
0.262469310745,18
0.262571670744,2
0.262701510667,1413
0.262858589952,93
0.26322122816,730
0.263282071735,6
0.263436634645,6164
0.2635617978,44
0.263683920585,30
0.264392392841,4
0.264878629291,5598
0.265193214312,15
0.265725453891,50
0.265803120488,18
0.266422488714,4
0.266474928496,637
0.266687206257,43
0.266811468277,38
0.267371994959,29
0.267595944097,5
0.267860066094,1654
0.270139583675,314
0.27015976723,3
0.270748699124,1393
0.271057364009,32
0.271395292427,650
0.271493799665,43
0.271723799408,26
0.27176603941,1109
0.27191449674,905
0.272280018609,19
0.272463018403,38
0.272740817748,2251
0.272891776991,3793
0.273618987126,434
0.273745227103,1689
0.273835238297,1814
0.273886017472,275
0.274417087965,1
0.274436347849,7
0.274858259879,903
0.274874712295,4
0.275723995903,152
0.275782950571,1
0.276076634748,561
0.277351375796,3
0.278454112377,116
0.278560224802,43
0.278856736025,104
0.278988041202,6
0.279003790877,29
0.279347467326,2
0.280431375978,1033
0.280726214023,6129
0.281444660162,33
0.281483660045,32
0.281858302101,980
0.282924014424,14197
0.283146621057,2057
0.285413552092,42
0.28591404626,42
0.286394042878,117
0.286700400871,46
0.286913763679,512
0.287458439641,12064
0.288013686404,45
0.288978468782,4
0.289244990759,1397
0.289478747087,34
0.290139105166,1197
0.290806542886,3557
0.292385016362,2
0.292814015704,420
0.293400813973,16201
0.293610043332,2
0.293722843334,1160
0.293938662344,6
0.294178661785,794
0.294792097174,17496
0.294931420211,233
0.29522246944,1
0.295253549312,604
0.295710793428,181
0.295859106653,64
0.296009291996,5
0.296261985174,1
0.296653396453,19
0.297258676782,1175
0.297626594217,5772
0.298087807723,51
0.298319287306,1307
0.298613286744,7
0.298752489902,4
0.298828809902,8
0.298888929902,772
0.299107809778,3137
0.299151609779,3591
0.299245350908,12
0.299296206277,215
0.299793343957,4061
0.299832746182,2090
0.300015512011,254
0.300222192162,646
0.300927376894,82
0.301399335113,3610
0.30277141878,741
0.303063738419,2558
0.303281318282,18
0.303328461501,879
0.303342638155,969
0.303959661325,34
0.304121355032,15536
0.304188674931,104
0.304914315605,3776
0.30510691121,17
0.30534367008,342
0.305520549117,10
0.306494821547,48
0.306800579506,6
0.307672496778,19898
0.307891632304,1586
0.30789511229,3121
0.308242462914,7
0.308431221843,2824
0.308878501311,2290
0.30900728359,18
0.309775315769,388
0.309942071545,117
0.310192869957,1716
0.310508953634,22
0.31139414758,19
0.313640368625,18
0.313741288597,58
0.313762288599,49
0.314093611756,22
0.314299288107,1332
0.314679308785,6
0.314732730767,29
0.314813108786,1149
0.315035231672,12186
0.315114311554,39
0.315287403402,2
0.315428643117,51
0.316083246312,3847
0.316243686166,16
0.316555925367,4335
0.317187910503,2
0.317908030252,2184
0.318125709876,21
0.318448749609,780
0.318452120408,47
0.318572352806,5186
0.318814396001,401
0.319120275229,16291
0.31935439378,3154
0.319570111757,2
0.320947161196,7
0.320967215931,53
0.323183289958,21
0.323190878216,24
0.324084974663,86
0.324113174605,2524
0.324193574439,3072
0.324402856944,52
0.324618855645,3071
0.324896420872,18
0.32489942086,615
0.325094719644,42
0.325503291373,285
0.325810969373,49
0.325815310089,20
0.325897249374,2941
0.326119636147,25
0.326360575186,1
0.326751761652,107
0.327036159797,14
0.327142119356,3228
0.327641207737,22
0.328204080597,52
0.328334400012,1726
0.328949451625,2111
0.329869789806,53
0.329877349806,38
0.330409069573,4115
0.330702586457,9
0.330809221631,17
0.331357875218,30
0.331753152426,5666
0.33175952449,3
0.332406898791,105
0.332987738595,31
0.333381818027,3064
0.333559537712,4851
0.333680380909,2220
0.333744845785,16
0.333865688982,352
0.334013260562,6
0.334150900494,4
0.334271983689,35
0.334487743292,5089
0.334680250484,16
0.334764370173,28
0.334843929992,4296
0.334902527538,22
0.335019149058,7
0.335896579828,10
0.33682215686,2463
0.337425805775,172
0.338287820119,5
0.33866477475,36
0.340689440863,9
0.340862840658,12
0.340915640659,5863
0.340984241928,1661
0.341371277452,40
0.341809959631,9
0.341823879596,17
0.341858679597,680
0.342634910894,2919
0.342787868693,104
0.34296983276,46
0.343077338548,27
0.343711126662,34
0.343900404925,3
0.343979583386,19
0.344243551411,16
0.3448268254,3
0.345022752974,7
0.34508383272,476
0.34529659617,49
0.346074156701,1191
0.346366678898,52
0.346550351804,11
0.34698391058,10
0.347062104768,115
0.348145834015,100
0.348823046802,4673
0.349705419517,5
0.349936299058,42
0.350126138956,127
0.350174920928,8
0.350279858794,1671
0.350379690699,21
0.351010773795,129
0.351456333463,277
0.351491493465,1095
0.351597093423,2
0.351680976643,5
0.35201601939,741
0.352129899155,3408
0.352255419134,13
0.352545578429,3
0.352598138427,4
0.3528972976,42
0.35312713584,31
0.353128215841,23
0.354050895336,158
0.354103935339,9329
0.35425405523,2927
0.354491177951,10
0.355258215737,18558
0.356175584139,36
0.356404063912,13
0.356554783911,9
0.356886223913,1117
0.356897263913,308
0.357020340091,3
0.357135420063,266
0.357146507068,46
0.357245987051,1
0.35725375439,24
0.357343740027,500
0.357389831045,28
0.357514499996,9045
0.357808382831,1819
0.358112102611,5963
0.358829221837,1144
0.358829341839,7906
0.359245382618,48
0.359410621756,14
0.359673660418,117
0.3596964996,44
0.359924022406,40
0.359924982407,868
0.360010523047,43
0.360255464207,11295
0.360427248246,206
0.360910692294,7
0.36149062519,23
0.361761948769,1
0.362241556268,5
0.362633009551,1056
0.362923466002,22
0.36293422765,23
0.363205310226,9
0.363338870191,15
0.363559909835,44
0.363692509821,26
0.363850669604,53
0.363884149535,323
0.364016869302,2
0.365045265685,17
0.365404665434,1033
0.365588145235,44
0.365797788425,6
0.366417228168,7
0.366676907917,2738
0.366703547897,22
0.366756827786,1
0.366974267397,50
0.36730606706,13060
0.367395511311,612
0.367921351127,17306
0.368091028456,528
0.368734435781,1135
0.368876395099,2755
0.369422537182,28
0.369527837801,6
0.369655655427,33
0.369804975974,2
0.370000323406,52
0.370276321608,2592
0.371282893522,1
0.371290205676,42
0.371527573277,4870
0.371664496404,1534
0.371911990779,520
0.372057073924,656
0.372093790461,597
0.372351069716,1025
0.37269630738,41
0.372815260121,108
0.373297900297,8886
0.373479615951,6
0.373653138925,370
0.373916181526,1
0.374111901211,1488
0.374252777209,5
0.374301857005,4038
0.374960026522,47
0.375159332246,25
0.375571173012,2520
0.37566825506,93
0.376237228344,254
0.376396707679,1942
0.376452919007,396
0.376506433269,43
0.376663789264,527
0.378944143232,1591
0.3789829809,109
0.37905597059,17
0.379325033808,19
0.379819729473,37
0.380038373542,89
0.380614121179,516
0.380734720675,1446
0.380860092794,75
0.380977793385,27
0.381019752244,17
0.38139070617,1
0.381742783738,2450
0.381885163555,13
0.382354068712,17
0.382581903851,17
0.382728183134,983
0.382806720894,20
0.3829381134,218
0.383747069148,1159
0.385160806705,18
0.385248302348,38
0.386404095956,53
0.38689760557,1488
0.387592912539,31
0.387972774056,28
0.388269226709,2
0.38837221023,15
0.388927517918,2206
0.388983540607,42
0.389050285223,1116
0.389216130519,22
0.389874682022,889
0.390667995913,9548
0.39083288775,3
0.391117318728,964
0.391582049125,9
0.391621981643,15
0.39326924849,12
0.393694650628,15
0.393823393941,67
0.394984657906,14
0.39528203835,19
0.396224079348,7
0.396621189508,48
0.396994620595,31
0.397263676722,893
0.397406072867,2
0.397707596544,12
0.398589745898,5
0.399067947395,532
0.399245430529,454
0.399295110429,4
0.399497073625,614
0.399648873508,10
0.399697230208,1332
0.399722193509,4319
0.400797247314,16
0.401005433078,591
0.401230986294,14
0.401435764804,143
0.401818806236,427
0.40188890999,52
0.402092792862,743
0.402115581015,81
0.402367223116,4159
0.402861296853,4
0.403082309135,21
0.403530122227,45
0.404317701692,47
0.40444142121,39
0.404528660847,2031
0.405240530638,229
0.406165877983,5
0.40637407675,4451
0.406854488747,708
0.408408471834,2
0.408747251599,46
0.408955143793,4
0.409086437355,6
0.40913277027,31
0.41016987593,1153
0.410362594833,8
0.410838751401,35
0.410880871245,14
0.411487111704,9353
0.411989191718,4998
0.412502835034,39
0.412595353833,57
0.412622928928,34
0.412887314563,41
0.413035129958,7
0.413295433634,24
0.414144359918,863
0.41471142952,26
0.415044564426,12
0.415062389618,3
0.415983933881,368
0.415987553321,41
0.416700012428,1029
0.417019927894,15
0.417355690398,139
0.417497890308,3488
0.417738565177,2962
0.419052000602,1593
0.419273785011,338
0.419339065013,993
0.419481409018,21
0.419536848981,131
0.41987500773,20
0.420389446089,2
0.420518806033,29
0.420680205898,4
0.420915648953,38
0.420965568902,878
0.421075132068,6202
0.42124613186,26
0.421307158982,3
0.421398295055,4680
0.421774858006,1215
0.422203137515,1274
0.422583300238,13
0.422852579929,995
0.423055739678,2039
0.423141299679,5491
0.423177779679,4545
0.423191648963,44
0.42325610998,33
0.423440952283,4
0.423555329641,21
0.42367329579,14
0.424471688792,4
0.424601620474,4
0.426102786642,30
0.4264495857,3554
0.426544438748,3183
0.427113993588,807
0.427153062253,55
0.427693536429,41
0.428097140257,48
0.4282482284,107
0.428659380366,6
0.428864846709,14
0.429282778099,14
0.42942161961,4
0.429492539315,804
0.429999074491,2281
0.430298561168,50
0.430749257139,18
0.430757057107,98
0.430881380269,168
0.430929321135,28
0.431132237883,5
0.431653634615,3347
0.432055099731,3200
0.43223465185,136
0.432275091682,1251
0.432681720796,5
0.433183064108,1227
0.433364152005,11
0.43352171185,1256
0.434272187787,102
0.43429296457,2
0.434557667704,596
0.434633723619,4
0.43464116362,12
0.434716724076,55
0.434762867649,54
0.435229066931,1248
0.435430910012,116
0.436393429508,4284
0.436646633002,32
0.436819912746,7
0.436955755941,934
0.437042035925,18
0.437415718179,78
0.43745591818,13649
0.437722196836,41
0.437835356365,11449
0.438929072133,15
0.439050760062,74
0.439613534503,1062
0.439991798334,2252
0.440203120771,820
0.440543275146,11
0.440568115043,1650
0.440744210875,18
0.441811677486,1
0.442028033815,2573
0.443350792201,25
0.443430712036,4670
0.443476071951,2539
0.444302025883,12025
0.444919839635,87
0.445236940082,698
0.445685373601,34
0.446178887305,396
0.446329382173,1059
0.44637040564,14
0.44663033894,780
0.446816823164,964
0.447903932129,19
0.448503090186,36
0.448511478398,1
0.449227519116,5
0.44980087868,10097
0.450426079796,18
0.450490279798,14368
0.450724162047,4948
0.450868885055,16
0.451173923015,2492
0.45158975621,860
0.451832841245,52
0.451882602708,53
0.45201212083,1963
0.452172803689,714
0.4535634633,2
0.453812116805,1204
0.454121896614,1073
0.454212554783,30
0.454627581543,37
0.45542860236,1136
0.45548763207,11
0.456064634982,1005
0.456176484068,675
0.456509957607,204
0.456668819468,131
0.456895243492,34
0.457012189128,19
0.457455744157,653
0.457637906361,3
0.457692935571,1
0.458356593529,700
0.458674547363,1166
0.459148050464,28
0.459695821787,16
0.459782341736,53
0.459942181502,822
0.459996418463,6
0.460218060814,3262
0.460434613297,5
0.460451274192,15
0.460635836927,28
0.460719480233,21
0.461262093202,11
0.461637212141,3809
0.461700597452,2994
0.461910371476,69
0.461945951636,13
0.462658910401,20
0.462693310104,7
0.462695909731,14
0.462697699675,6
0.462878152877,20
0.463011688751,292
0.463733801625,208
0.464238833511,24
0.464294230133,2
0.464718950514,5713
0.46477418849,43
0.464803943197,44
0.465096623604,41
0.46532432538,4
0.46574239152,1897
0.466328991291,127
0.4665796694,38
0.466610028295,132
0.467654975534,27
0.467746694482,27
0.468524922779,534
0.469255611198,18
0.469625543377,15
0.469970609713,22
0.470212726321,44
0.470854691985,22
0.471305648728,3568
0.471675148877,35
0.472556699351,277
0.47278290542,710
0.473138485596,2881
0.473141232277,77
0.473204070331,41
0.473303033932,42
0.473523356294,1230
0.474287851916,44
0.474387946657,43
0.475456447377,5
0.475561523334,6
0.475593610573,434
0.476132890282,6
0.476392688618,5716
0.476441232129,39
0.476450434786,6
0.476839719125,9
0.477067837725,3777
0.477197560842,163
0.477699429541,1112
0.478038551897,50
0.478041911899,2735
0.478544404959,49
0.479236322622,31
0.479512202358,46
0.480101882108,2192
0.480147602108,5184
0.480324364837,4
0.480502807791,507
0.480760562945,103
0.481027921219,14268
0.482002916456,1590
0.482570490343,52
0.482868569603,4193
0.483059128516,5370
0.483094241545,4
0.483498538971,13
0.483542532082,6
0.484011803939,2293
0.484642313477,904
0.484827555877,17
0.485819844049,96
0.48583664405,672
0.486104126019,6328
0.486619233503,66
0.487993865235,264
0.488078585234,11
0.488262425234,1
0.488412665234,690
0.488603585231,237
0.488743028423,86
0.489005108425,5582
0.489270851934,2472
0.489285251904,2093
0.490032612487,5659
0.490387570034,4
0.491250483347,3
0.491563321242,15263
0.49159490716,23
0.491793002067,40
0.492888716047,5532
0.493337782874,1
0.493437666042,1
0.493680264634,2533
0.494121641863,1788
0.49412427739,4
0.494549357651,2558
0.494798262366,38
0.495334306465,40
0.49689799698,120
0.497301230308,18
0.49787959802,212
0.49789915798,46
0.49800703777,1388
0.498119957351,2525
0.498850774703,57
0.498979036652,6
0.499419585112,2063
0.500035825662,961
0.500534427282,4660
0.500787206605,3253
0.501181597702,24
0.501439048157,48
0.50167043425,17
0.501863883036,37
0.501877443037,425
0.502177321485,2468
0.502843766051,181
0.503278975676,579
0.503448217545,4
0.503600630367,34
0.503753510042,32
0.503838358792,50
0.504624255655,61
0.504785288566,12
0.505574922832,3192
0.505923846873,20
0.505955046859,15
0.506032681699,5
0.506103486616,90
0.506387160831,6429
0.506411953075,7
0.506905393161,5207
0.507386419177,6
0.507587468867,1
0.507904138617,8
0.507952726465,93
0.508016698394,726
0.508095409568,773
0.509288585786,1
0.509702234933,1
0.509734034802,1298
0.509848496791,50
0.510809033086,15
0.511080211899,1279
0.511501413232,645
0.5115045776,3
0.51179401972,3565
0.51195623808,1186
0.512010033384,20
0.513104489152,35
0.513927238976,7
0.514232724334,389
0.515575492136,409
0.516001840644,11
0.516408579897,7
0.516501839385,23
0.516656291853,22
0.517351556126,10
0.518673314192,35
0.51880939356,5942
0.519921379038,17
0.520110497964,4167
0.520286259357,35
0.520548697672,2305
0.520709803314,53
0.521569885139,5
0.521992762139,23
0.52202384201,8988
0.522382949364,7
0.52438180227,36
0.52472836021,327
0.524832759853,53
0.525346116173,31
0.525657154101,19
0.525827313185,12219
0.526068207094,18
0.526328845424,2484
0.526496984689,238
0.526522329441,43
0.526544555841,17
0.526649210958,33
0.526945145938,1286
0.52713314257,867
0.527250245153,39
0.527385710283,1
0.5275858557,28
0.528021658496,207
0.528499266842,25
0.528661512857,2
0.528835986776,653
0.5289746811,3
0.529281123347,18
0.529400793424,18
0.530086332391,125
0.530152520316,20
0.530322611452,1499
0.530577818017,4
0.530701781182,70
0.531012996345,47
0.53117103553,2555
0.531217008972,4
0.531596210034,24
0.531617209947,2441
0.532182433825,3102
0.532290406923,12
0.532509285818,1545
0.532711142805,117
0.532801142454,17
0.533533979226,4912
0.53371959553,3298
0.533777473604,82
0.534021849918,41
0.53438135789,89
0.534878506397,46
0.53505454545,19
0.535422702884,4375
0.535555111541,41
0.536194957996,181
0.536999075084,574
0.537059314881,33
0.537096964203,16
0.537125793107,3
0.537212753656,1
0.537304834474,5042
0.537304954473,18
0.537740473272,36
0.537783521949,39
0.538293281918,20
0.538414241447,26
0.538635640104,5166
0.538884818749,67
0.539195849488,1199
0.539339863496,10
0.539517466453,1071
0.539953063325,3657
0.541157622488,26
0.541385286498,1145
0.541516616079,7
0.542519139704,94
0.54286898025,779
0.543538153415,10
0.543797865845,663
0.543901145513,38
0.544092308414,606
0.544225089416,995
0.544662492931,17
0.544861264713,2
0.545107539844,626
0.545232702999,46
0.545350678621,16
0.545366311912,53
0.545789628067,38
0.546226950205,62
0.546324159205,30
0.54668481252,9
0.546741628882,28
0.547077778716,337
0.547914280884,3
0.54847876279,16
0.549205170395,303
0.54975821866,8
0.551383120099,716
0.551383878036,32
0.551799279977,206
0.551811372294,50
0.551976495116,392
0.552087078183,9
0.552419580699,10
0.55315795346,85
0.55328003305,7
0.553975664161,1543
0.554257869881,51
0.55435422812,7
0.554982224598,2840
0.555238429502,1170
0.55527378305,12
0.55602702255,44
0.556670223621,38
0.55710234236,26
0.557318342034,49
0.557617021988,5360
0.55764738523,630
0.558007626426,12111
0.558725838342,9
0.558923582976,465
0.559462111177,26
0.559786358973,1893
0.560313925305,18
0.560876924867,82
0.561131324309,2264
0.561227385377,2224
0.561541927256,1340
0.561752715585,38
0.561762075585,49
0.56187451558,524
0.562536426919,171
0.562694143811,1
0.562883615939,7
0.563039498838,748
0.563203637063,51
0.563328920217,51
0.563463014371,20
0.563494490891,13
0.563999455186,2527
0.564325169225,516
0.564454768647,2556
0.565182157108,312
0.565358196143,1609
0.565863764494,809
0.566274517801,6
0.566505454115,3
0.566558567245,45
0.566692394568,1
0.567625468126,178
0.56783082468,1
0.567900184682,374
0.568051947646,7
0.56824383083,45
0.568416226867,343
0.568587753603,64
0.568667742669,95
0.568739073554,90
0.56878710701,44
0.569299149706,38
0.569697549575,133
0.569747829576,405
0.569766069575,3
0.569988912771,5634
0.570500831978,21
0.571063394256,2333
0.571383433759,4387
0.571572793458,48
0.571585153433,1008
0.571652430071,110
0.57166982531,36
0.572478671323,12354
0.572920153181,14033
0.573098406241,23
0.573192148312,3
0.573214085808,47
0.573358808904,3
0.573504608798,4510
0.573583593875,3
0.57363512923,6
0.573662531946,14
0.574253893164,37
0.574679536359,1013
0.574783336355,5
0.574896256316,5
0.575115016279,260
0.575248096198,117
0.575555175421,5659
0.575615473497,3
0.576117856391,19
0.57635485635,365
0.576376336348,3
0.576630736054,478
0.576808417767,16
0.576849337684,691
0.577094500442,3693
0.577584220569,16155
0.577701637248,499
0.577925905776,4
0.578405874347,31
0.578767921546,5
0.579375102074,12
0.579383740883,1
0.581061135148,981
0.581139248134,26
0.581508489258,3
0.58206300859,1100
0.582080528591,1303
0.582138968545,47
0.582183072565,72
0.582267303469,53
0.582358088247,6068
0.582462284362,49
0.582496924496,2
0.582652331268,4
0.584110360383,370
0.584449005228,1
0.584611532824,27
0.58462297519,3
0.584884289911,16
0.584969864512,1
0.585079775932,39
0.585703654961,31
0.585832534396,7
0.585860137769,45
0.58591746399,133
0.586143933886,36
0.586233503832,29
0.586631066858,329
0.586741106861,919
0.586921226633,1163
0.587055573323,7602
0.587092185539,80
0.588427901634,529
0.588593399353,10882
0.588612962477,28
0.588953638219,16
0.589191957728,3116
0.589255320897,4331
0.589747808698,17
0.589959152387,39
0.591311027042,3859
0.591740298134,51
0.591892351658,2
0.592251898313,1
0.592497177915,84
0.593644493637,5751
0.593823052651,7432
0.594329039949,3
0.594515465776,31
0.595223950474,2264
0.596818249849,3
0.597472849283,1107
0.597549169232,52
0.597800812437,407
0.59801681204,2
0.598147491997,5500
0.599138922677,101
0.599158602678,1636
0.599162794698,1
0.599255062435,11
0.599606320163,17
0.599757043232,299
0.600137800561,17802
0.600749516001,25
0.602045935594,5
0.60277097627,2832
0.602949539223,375
0.602990699112,42
0.60318270171,11522
0.603620468434,28
0.603672548435,1840
0.603685742214,724
0.603728059736,15
0.603940630686,1184
0.604377515784,48
0.604446973403,45
0.604929752344,54
0.6056918796,15
0.60585257719,7
0.606276421228,29
0.606583033382,30
0.606729916362,7
0.606814276011,927
0.607957617718,43
0.608920045643,846
0.609063075386,4
0.609252858459,46
0.609317734878,25
0.609359240068,41
0.609590825831,188
0.610233516504,53
0.61030395649,683
0.610399665519,35
0.610611225088,3054
0.610726184609,1
0.610945186983,2730
0.61105831104,18
0.611312084859,20
0.611595172263,4
0.611829136916,995
0.611931584314,37
0.612790429091,2600
0.612815282502,2
0.613210723463,20
0.613355922788,34
0.61352020197,50
0.613581281774,40
0.613707161473,3268
0.614337251278,32
0.614933526811,6474
0.615027417222,5
0.615087278895,16
0.615353382727,523
0.616137468696,7
0.616796963453,49
0.61702497423,1
0.617381695292,1181
0.618207720216,1109
0.618416320903,7
0.61889540856,4
0.619434805987,34
0.619594405823,1854
0.619679007223,12
0.620112683838,1314
0.620511441017,10924
0.620735313211,1084
0.621389374738,13
0.621437038832,12
0.6217329659,1119
0.621778853359,26
0.622418035246,20
0.622488882048,180
0.622710526884,15
0.623623309588,613
0.623864140966,1
0.624448263921,32
0.625104821479,34
0.625278052794,18
0.625922172425,31
0.626791207339,450
0.626956326485,21
0.62695746687,4
0.627146709491,5441
0.627294021741,116
0.627489580356,8
0.628147487988,38
0.628461134818,1
0.629937001963,26
0.630012895628,6
0.630053164159,36
0.630424876786,410
0.630791609541,1073
0.632996081238,34
0.633825466234,23
0.634005225289,52
0.634208504183,86
0.634273183914,2585
0.634295406189,20
0.634742906022,15
0.635498064059,2024
0.635652624056,76
0.635663904053,2
0.635715864054,665
0.636136464047,4
0.636448104047,983
0.637030104047,908
0.637442183493,45
0.637911142768,4203
0.638426662519,6102
0.638488342501,20
0.639035060641,27
0.640683734806,17094
0.640847058055,26
0.640860407883,48
0.641114777852,65
0.641538977276,45
0.641621777276,1289
0.641780897103,2509
0.642234856931,18
0.642308656827,41
0.6423953001,5
0.642788176423,19023
0.643025179445,5108
0.643145899444,3239
0.643423941325,2875
0.643717518209,5
0.643749394983,17
0.644300786537,18
0.64437836031,19
0.644457503894,33
0.64448362508,24
0.64482254095,937
0.644886409629,74
0.644909951984,23
0.645109369259,15
0.645368198228,49
0.645493131427,515
0.645741311923,7
0.64595287127,5
0.645978911269,3
0.646269913938,2443
0.646295953934,5
0.646439896687,16
0.646668856258,16
0.646946055649,32
0.646967408445,28
0.647126771618,2738
0.647129411617,101
0.647161811611,7
0.647676728062,53
0.64805328674,1233
0.648764761317,4
0.648962880198,30
0.649057559804,16214
0.649764629907,3
0.649899269287,2816
0.650612426679,827
0.651008068765,27
0.651080668766,1584
0.65117310319,19
0.651431105238,5769
0.652092450639,47
0.653493320823,54
0.653662643636,26
0.653705723457,714
0.655241527437,69
0.656642528719,82
0.656773673006,17
0.657773687495,22
0.657931487395,38
0.657976727396,1019
0.658676802605,8624
0.658742355963,501
0.659056906465,24
0.659712581523,5290
0.660111703557,1164
0.660371621895,2
0.660815978694,6549
0.660901057016,24
0.661233756213,46
0.66157863754,4
0.661759116538,3130
0.661956710047,37
0.662077069546,1012
0.662452117876,1085
0.662897391739,7
0.663377412732,45
0.664786154054,85
0.665030270562,15
0.665429316038,477
0.665449183604,2
0.665799338687,23
0.665857664426,25
0.666029977806,2
0.666155740979,51
0.666435099787,634
0.666923261767,17
0.667057661516,509
0.667204661406,5685
0.667289261054,2836
0.66753337307,39
0.669189360096,391
0.669359649176,1119
0.670021279999,9
0.6702348972,61
0.670390198183,28
0.670753767374,2
0.67099356317,1276
0.671726914998,6
0.671898749386,2
0.672015195109,13
0.67214203825,314
0.673384677908,25
0.673777521268,1095
0.674049900049,3
0.674341292036,1650
0.674948478096,161
0.674954289228,42
0.675514156034,51
0.675923530153,745
0.676062973189,227
0.676193264688,9
0.676482961774,39
0.676899109808,226
0.67731509521,2288
0.677611165602,42
0.677706085207,2761
0.678296387801,2976
0.678348039474,1
0.67848371453,38
0.678921116052,19
0.678989875766,2795
0.68001105176,434
0.680600744748,2300
0.68065083486,17
0.68078139797,1794
0.680938403346,4
0.681083842639,3
0.681751637576,5799
0.682234401169,40
0.682437143466,16
0.682539313289,52
0.682683877883,3
0.682711424468,3
0.684047023943,37
0.684169693801,43
0.684769473136,2610
0.684865048472,20
0.686380920333,4
0.687310324696,51
0.687513623837,45
0.688148621188,35
0.688323448183,6
0.688757745481,1153
0.689104663144,53
0.689290782202,10
0.689636981263,2
0.689683296991,29
0.689826820986,6409
0.689898351052,2162
0.690595723224,47
0.690667262705,28
0.690707343719,16
0.691236414284,34
0.692700172245,5833
0.692765161953,208
0.694051570643,26
0.694103988799,2
0.69415549059,705
0.694620010557,35
0.694987093754,6117
0.695130718363,5424
0.695294062734,39
0.695769108595,16
0.69659207147,3291
0.696720474655,453
0.69688235453,5335
0.696962634512,18
0.697205397707,583
0.697241277704,3
0.697373760898,1876
0.698000163099,50
0.698171042993,9819
0.698548085813,4815
0.698558755977,8217
0.698855879172,547
0.699092278969,5278
0.699145562369,676
0.699321478285,2742
0.699527986289,185
0.699999341747,160
0.700192664091,49
0.700376914564,883
0.700659698844,1
0.70067450685,17
0.701874518202,45
0.702070331533,18
0.702087851507,136
0.702358933721,3
0.702466693723,1626
0.702472818481,636
0.702574604516,68
0.702678626182,6
0.703345264057,1247
0.70417445346,106
0.704301776627,232
0.704547651884,55
0.704616651885,2183
0.704752495016,664
0.704760490991,17
0.704989014124,54
0.705113213591,2071
0.705217906989,20
0.706066997848,22
0.706277957524,37
0.706522854377,2788
0.706702134133,1004
0.706730719079,3
0.70683044033,52
0.707173762581,5785
0.707516851028,3274
0.707605924587,4
0.708012153948,14
0.708255420849,21
0.708581702328,1858
0.709705494403,266
0.710237692984,2969
0.710316209235,47
0.710366160835,386
0.710388262823,4
0.710737232676,132
0.710792700754,33
0.710846309941,53
0.710962214991,3
0.711102978016,266
0.711559778441,51
0.712480990533,12
0.71262078987,2435
0.712907055081,19
0.713307298227,961
0.71381656079,36
0.713911000397,3009
0.714938248047,97
0.71499766646,23
0.715018551889,6
0.715186049235,16
0.715227689062,371
0.715376252054,392
0.715399374197,129
0.716410920254,834
0.71702053339,16
0.717470125601,3244
0.71783643103,6
0.718909864926,31
0.719348356472,9
0.719410166312,45
0.719747128203,145
0.719893528063,2231
0.720104835898,15
0.720259395621,27
0.720582795371,2279
0.720815475224,2618
0.720835398667,269
0.721084757637,129
0.721464435011,36
0.721509194825,6361
0.722139507626,133
0.722634641106,124
0.722878381258,218
0.722941818145,75
0.723134817263,3
0.723216691312,20
0.723781292908,1003
0.724300558657,1287
0.724505482262,51
0.724969278957,59
0.725257877054,5630
0.725771028144,18
0.725928073507,13
0.726852275606,375
0.727493978535,1020
0.727668221281,459
0.727766405575,1
0.7281868041,39
0.728376211359,24
0.728517374899,39
0.728991033977,11
0.729067451413,121
0.729188197171,403
0.729339013852,4172
0.729942615034,2438
0.730228453154,3967
0.73085676529,159
0.731044970651,3
0.731425606477,1785
0.731601169212,895
0.732026621281,2924
0.733087737231,24
0.734077834226,23
0.736835714668,6
0.736867034538,3697
0.736880532712,4
0.737033775635,3
0.737110935314,809
0.737759420963,40
0.737796721618,53
0.73782631877,6
0.738041743984,122
0.738656379364,5120
0.739830415436,6666
0.739953837648,2
0.740244193408,16
0.740247488675,14
0.740612681391,2352
0.741031523341,1256
0.741194375368,437
0.741378962381,1
0.742349582615,376
0.742955389457,21
0.744479362471,2441
0.746034061057,1
0.747442756784,4813
0.748258521656,40
0.748305090027,113
0.748364903642,3
0.748663651506,20
0.74946656539,74
0.749855483191,14
0.75039440152,50
0.750948439713,4712
0.750967039636,18883
0.751383584586,2400
0.751801413418,42
0.7519360032,120
0.752062123176,809
0.752648610463,4811
0.753062327702,18
0.753622086762,47
0.753811776524,21
0.754159537853,30
0.754577015844,17
0.754650215846,4448
0.754716098419,4
0.754949140791,116
0.755083540383,3108
0.755390116408,645
0.755390836408,6
0.756064031798,6514
0.756103342807,4
0.756334615989,38
0.757334454744,42
0.757366238374,1021
0.757789137285,7149
0.757835648606,2510
0.758018723445,1457
0.758458699179,6
0.758665875014,1011
0.7591333499,22
0.76065770828,4
0.760721976067,45
0.761258302556,46
0.761516569929,631
0.762068750366,41
0.762365597739,343
0.762590531933,520
0.762633909224,20
0.762670805975,41
0.762945431495,27
0.76348773279,696
0.764656948861,6
0.765871679356,569
0.7659028541,51
0.766075296861,652
0.766507522403,175
0.766958306046,233
0.768741886954,14
0.770150331011,7
0.771065088658,1073
0.77147260577,7
0.772285002146,792
0.772348722044,1207
0.773244081416,3529
0.773293788294,16
0.77331952224,386
0.773320842238,16697
0.773589884194,1326
0.773622429046,11
0.773761752083,207
0.774543666067,33
0.775445406571,842
0.775511498989,23
0.775634982158,61
0.776637836684,387
0.776762636146,1643
0.776924960254,206
0.777032547592,24
0.777540044735,1067
0.777800578083,46
0.777841222658,2
0.777842902659,38
0.777885205562,5
0.777958207748,38
0.778843433142,6
0.779345311617,30
0.779745149442,13
0.779920589221,6088
0.780225056457,2149
0.780770309576,1749
0.780966148446,4905
0.781220481622,22
0.781778919953,133
0.782044918268,548
0.782492771812,608
0.782768524308,182
0.783346715835,48
0.78342085599,14
0.783566668544,4
0.783974631222,9
0.784018380007,16
0.784029926861,20
0.784914305979,43
0.784951890037,62
0.785647757904,14
0.786483451499,26
0.786674330043,2
0.786768120606,47
0.787353794206,863
0.78783022255,833
0.788001705533,2701
0.788176015798,1352
0.788519764411,25
0.788604332418,73
0.789140019369,2204
0.789182791572,11
0.789597047918,38
0.789787332867,673
0.790840754394,2628
0.791072141904,1222
0.791635177948,438
0.791693875887,40
0.792470699537,112
0.792872788624,1847
0.79315412346,14
0.793394153507,33
0.793418900677,54
0.794062459578,4692
0.79408715092,3
0.794179649533,21
0.794219981899,48
0.795188749745,24
0.795545869745,3222
0.795629946541,2753
0.795931912766,2797
0.796014952767,2410
0.796175995277,3750
0.796616773089,1309
0.797323939134,577
0.797411363934,50
0.798230396712,4
0.798311636713,1749
0.798498955816,3318
0.799404160201,47
0.800608608581,2906
0.80085695906,2288
0.800972741956,13
0.802229558879,1006
0.802359149648,38
0.80252066893,6
0.80265086889,492
0.802779388321,2329
0.803111338385,26
0.803320731766,45
0.803611356554,7
0.804931662269,4
0.805509062048,322
0.805927464529,3097
0.807566247628,3
0.807672927184,2290
0.807983728794,1771
0.808649966074,2115
0.809106005381,284
0.809159869337,29
0.810036290885,122
0.810169130621,14
0.810565849802,6015
0.810618533182,38
0.810664591164,7
0.810780653095,1549
0.811086532348,25
0.811336731808,2921
0.811458291297,4397
0.812632498801,2509
0.813399525053,31
0.813575325014,195
0.813675285015,1328
0.814947520208,52
0.815350024511,10
0.815498319601,6
0.8155592796,4
0.815814402517,2272
0.815991765687,1537
0.815996085678,36
0.816155928752,30
0.816957047688,6
0.817644047437,3010
0.817690727438,16421
0.818768322151,16756
0.818895715412,45
0.818939635376,36
0.818988955274,318
0.81935915293,6033
0.819642650227,18
0.820979704883,2079
0.822161939016,7
0.822343927082,13
0.822945606799,33
0.822952806788,5
0.823378929936,43
0.823549929686,4760
0.823708089529,15963
0.823838288946,5599
0.824058719514,5
0.824091399954,89
0.82412046243,40
0.824509498741,5
0.824629666054,1203
0.824636266027,47
0.825057173874,101
0.825616618581,37
0.826104861938,24
0.826599968545,18
0.826682625246,5
0.826909241143,329
0.827325518176,1
0.827391278141,3848
0.827516841191,545
0.827549427311,122
0.827810549333,1756
0.828794365752,12
0.829529441955,34
0.83026534124,591
0.830561013443,28
0.830734532513,14
0.831359848874,6537
0.831618012191,50
0.832382046326,8539
0.832384988651,6
0.833782036929,19
0.83455216125,12
0.83548366313,1900
0.836720306649,3123
0.837224126672,17
0.837835398713,115
0.838432448814,3
0.838931545878,22
0.839076578819,7
0.839102132053,1
0.839449473348,4
0.840337190161,16
0.840758750181,25
0.841226616866,7
0.841412425621,37
0.84235693228,14
0.842756104049,703
0.843241504202,3260
0.84403542122,6
0.845076216956,1207
0.845186976495,2796
0.845589203149,669
0.846377767992,18
0.846605983175,45
0.848096543081,6
0.849243769261,1877
0.849882888181,49
0.850726841698,49
0.850772561508,11130
0.85119380552,29
0.851658022688,15
0.851962157561,19
0.852396295412,19
0.852620523934,32
0.85316628248,48
0.853211106478,1
0.853277642386,17
0.85359970629,1216
0.853750325454,1
0.853831434096,51
0.853843045547,32
0.854061608628,4512
0.854547135813,34
0.854593575795,20
0.854663043719,14
0.854795283572,3033
0.855470279232,784
0.855654598198,11997
0.855955661761,42
0.856256662491,13
0.857028895694,6
0.85713933028,6
0.85717751789,11
0.858091866054,506
0.858297904839,2074
0.858913879958,961
0.860135866263,611
0.860838361996,123
0.862245564213,17
0.862288992181,17
0.862328804462,26
0.862468909401,258
0.862956035023,1525
0.863100290759,338
0.863308557849,24
0.863351483073,78
0.863488526129,1466
0.863494589178,3
0.864149748201,20
0.864603588693,2945
0.864894652468,43
0.86491889242,37
0.865961089434,1093
0.866105809332,668
0.866468806809,11730
0.866547161603,17
0.86676249214,124
0.867120089662,2694
0.868292769264,38
0.869155562576,7675
0.870069380868,14
0.870351177157,31
0.870436484394,5
0.870528249046,6
0.871025419151,47
0.871565534087,17
0.871946282217,90
0.872287691186,4
0.872482322284,1
0.872604286924,21
0.872906042226,94
0.873097666469,945
0.873124523507,6
0.873463607254,20
0.873482687175,214
0.873646346138,520
0.874229662791,1
0.87497953873,552
0.875619256567,3084
0.875919375483,50
0.876154455007,3
0.876383894554,11509
0.876478109282,16
0.87654619405,134
0.876681677128,10
0.876967515248,5386
0.8775739813,4
0.877855744301,12
0.877959847214,28
0.879092745602,817
0.879272624605,2219
0.87947984144,4
0.88078159248,38
0.881463550141,3988
0.881497030002,12263
0.881617513196,27
0.881784930994,31
0.882035085156,1202
0.882302482551,36
0.882340339294,73
0.882432445707,236
0.88430313053,362
0.884513609278,1663
0.884679515745,47
0.88578128339,29
0.885966951599,122
0.886408125015,3102
0.886725223189,18
0.886730383168,1249
0.887116877033,5
0.887123367928,3
0.887243851122,62
0.887962462767,7
0.888502087927,29
0.889143046052,19
0.889242421563,157
0.88952104263,102
0.89077340496,17
0.890909364361,33
0.891457760304,12
0.891633799339,6134
0.892173288289,33
0.892923766233,5671
0.893368365977,1271
0.89361991041,374
0.893661713155,5
0.894294905795,5827
0.894309013521,33
0.896340355139,293
0.896667576768,608
0.897899046151,18
0.898453707399,34
0.899058739253,4
0.899361434125,7
0.899568503347,22
0.899624997068,42
0.899908290555,452
0.899926260197,25
0.900195364602,4
0.900517591234,15
0.900807654609,97
0.900974577468,52
0.901149337558,19
0.90126177756,612
0.90136551964,132
0.901747977708,37
0.90179057771,4561
0.901964820456,978
0.902389291562,50
0.902507089907,68
0.903597990659,80
0.903744096483,671
0.904102815326,33
0.904575016308,719
0.905106855163,9
0.905185935109,4789
0.905404938304,596
0.905445161794,18
0.905525661501,4
0.905799858017,2586
0.905908458018,2761
0.905942908004,1
0.906301823017,29
0.906411996938,16
0.906751582727,441
0.907003702178,5201
0.90748081504,42
0.907545495041,457
0.907789933741,4
0.90816157589,1128
0.908217012101,15
0.908516410987,10522
0.908632584909,50
0.908946266519,26
0.909355823613,5
0.909773540634,9040
0.910669956984,32
0.910739686839,63
0.910766916702,122
0.910851396607,48
0.911298517079,3739
0.911728250403,26
0.913671193465,2
0.913728414482,83
0.914446318348,25
0.914599463321,62
0.915694804638,312
0.916114569349,33
0.916431393081,525
0.917098965465,647
0.917181393048,284
0.917816048002,552
0.917837246157,44
0.918053224019,599
0.918539833333,8
0.918722735221,90
0.91962941638,3
0.920526284586,28
0.920857179464,49
0.921042339337,204
0.921470316034,463
0.922808063605,5036
0.92302927665,743
0.923126627876,130
0.923355781384,601
0.923526780565,104
0.923560740482,40
0.923910902276,263
0.924143941806,931
0.924745617307,14
0.924854016518,2
0.924989259597,8
0.925196498588,2
0.925243898589,10929
0.925406489294,1099
0.925538835392,52
0.925572613206,11
0.925648113798,1
0.925908635843,19
0.925933475764,18
0.926039679039,59
0.926142105798,5
0.926505300387,1120
0.92673280045,742
0.926900679555,3
0.927116438318,60
0.927476315821,8834
0.927836862493,76
0.928460102321,1228
0.928468255986,37
0.928561302281,1354
0.928750447269,398
0.929325105813,1154
0.929563668027,5
0.929818666408,4
0.930101504553,4831
0.930377326604,19
0.930516765944,1067
0.930604543702,50
0.931181823559,22
0.931305903027,4250
0.931554065063,1101
0.932127698128,134
0.932478215709,3947
0.932759451751,38
0.933366049651,1082
0.933504529577,1993
0.93374417453,285
0.933956693261,3255
0.934244935757,929
0.934651253697,7
0.934942359918,19
0.935286039663,4
0.935387439647,1794
0.935541762838,4
0.935576562813,39
0.935933565961,1
0.936030165766,6
0.936656928844,7876
0.936762288641,15
0.936937611831,5
0.937354971565,15
0.937562571178,32
0.938302130673,47
0.938320490674,588
0.93877085387,2169
0.939081773492,20
0.939165293491,27
0.93929237349,20
0.939397013493,8433
0.939879293247,28
0.940243852998,7476
0.940380056193,48
0.940454336195,4853
0.94068521498,17
0.940983293,3
0.941137256125,130
0.94143365932,838
0.941773978405,19343
0.942036086534,3858
0.942477581488,1310
0.942784543628,2
0.94282442026,1
0.943315062353,43
0.943453253254,2
0.943512802659,19
0.944616432603,579
0.944676301803,2
0.944862295741,654
0.945299522016,3027
0.946207672628,2472
0.946565619931,1141
0.946802871414,37
0.947159258831,24
0.947231962811,11
0.948227904937,1311
0.948308821677,24
0.948482464428,2095
0.949676466691,2
0.949698581877,22
0.949897579484,5
0.950856550293,4672
0.951090862883,2385
0.951693467075,686
0.95194174556,53
0.952181984105,46
0.952334636209,33
0.953353674832,41
0.953357625835,52
0.953465505823,30
0.953476663019,25
0.953987269027,736
0.954042829029,3094
0.954304432226,3069
0.954418589569,107
0.954635991763,42
0.954663231764,9741
0.954807831448,5807
0.955377135146,16
0.957206638767,162
0.957805882479,932
0.958765434744,69
0.95918015794,877
0.959219776342,1160
0.959369277556,25
0.959857074139,146
0.960198231802,4
0.960477114353,12
0.960500394339,15
0.960745313696,53
0.96117707364,36
0.961312073391,1165
0.961840312647,15
0.962205242341,1347
0.962403831888,15737
0.962794801165,3410
0.963401752322,129
0.963742911416,11
0.963919791222,29
0.964122230881,4915
0.964819188863,2
0.965774032035,1540
0.965795628691,49
0.965896788584,3
0.965927028563,20
0.966323988468,2535
0.966775428468,1
0.967174788462,22
0.967377708459,30
0.967481148465,17699
0.967518951751,4063
0.96794699102,3
0.968041071019,35
0.968143434216,4960
0.968467193982,20
0.96853091385,6067
0.968604837143,6166
0.968778116297,3607
0.968842609051,7
0.968878601768,28
0.969387481677,483
0.969995039647,3047
0.970118234637,46
0.970471800386,5890
0.970479416914,12
0.971088561618,19
0.971141202337,116
0.9716281051,50
0.971718744925,42
0.972235562186,365
0.97248259796,5
0.972921434842,37
0.973239312874,5105
0.973404418261,1054
0.973501592285,40
0.973861536462,2373
0.974486068163,1362
0.97480186154,2219
0.974877754403,1
0.975488823274,3144
0.976507530608,1630
0.976517376437,31
0.976872697715,41
0.977361214146,5554
0.978300438118,34
0.978935106051,5
0.97947978571,3733
0.979593665678,16
0.979664264955,5
0.97987818799,72
0.980114946538,19
0.980167986377,41
0.980760547394,69
0.980808307396,174
0.981718146117,8
0.98180490612,3686
0.981881706121,7254
0.98204682088,625
0.98222802063,3145
0.982424580312,1117
0.982576143421,30
0.982757943289,304
0.982941303026,4405
0.98317746156,2928
0.983394411504,28
0.984058081908,15
0.984700140403,88
0.985452947834,27
0.986599418836,8
0.986640098731,44
0.98713797878,10411
0.987662354484,41
0.98880392117,6
0.988931380671,4
0.989294068974,9
0.990062783081,12
0.990166102651,6593
0.991275361285,13
0.991364571836,125
0.991502609545,104
0.99160055362,37
0.99162236953,619
0.991807836975,1131
0.992152551217,2800
0.992234410255,17
0.992545312483,2539
0.992827650529,48
0.992908659357,292
0.993597938093,46
0.993822920656,2
0.993973150106,14
0.994060425938,52
0.994674819402,362
0.995323296964,6
0.995653294854,2598
0.996144743035,1
0.99617297649,23
0.996226909021,1232
0.996887061524,17
0.99732301841,18
0.997412298059,15
0.997563017443,9
0.997746256418,12946
0.997867406339,3
0.997926035522,1
0.998433516047,3171
0.998677672997,48
0.998857072008,4
0.999339588489,6555
0.999424192332,3
0.999557382862,18
0.999668298594,19
0.999822758976,29
0.999941144966,347
1.000397468505,366
1.000545573497,20
1.000724829811,19
1.000757834606,18
1.001484445504,25
1.001569548534,123
1.001610775188,48
1.001650156529,31
1.001808880766,18
1.002276112646,684
1.002895628577,47
1.003283624551,49
1.003597221205,69
1.004100590008,311
1.004505072982,1
1.005174655139,28
1.005802716284,26
1.005809953963,20
1.006062525607,20
1.006421398077,6
1.006467736315,9
1.006797418465,14
1.007228457257,482
1.007390817083,1431
1.00766369531,5100
1.008416613882,12
1.009048293075,2566
1.009358132286,2007
1.009578571374,28
1.009591051375,5145
1.01041689166,50
1.010537971643,19
1.010749291312,34
1.010809531314,4913
1.01099577396,5036
1.011031232869,19
1.011872734236,2423
1.012211287238,78
1.01290935493,12
1.013466151641,40
1.013502201568,873
1.013876549375,6472
1.014062221249,212
1.014280337105,12
1.0148161485,33
1.016570440567,18
1.016751279609,48
1.016896358988,87
1.017138997467,5590
1.0175286228,817
1.017909380502,374
1.018215262993,47
1.018553902621,6378
1.018647574528,619
1.018851576436,22
1.020318090828,6557
1.020486089929,9827
