time,IdealSim1.flowGenerator3.flowSynId:vector
0.000016323164,0
0.000562486411,2
0.001204963786,4
0.001479762699,5
0.001563642402,3
0.002492914729,6
0.002912792246,8
0.003102751527,9
0.003231031049,10
0.003378270535,11
0.003428190395,12
0.003513750135,13
0.003687869462,1
0.003919515205,14
0.004299192372,16
0.004372992117,15
0.004659430916,18
0.005103070582,20
0.005427967302,21
0.005569087277,19
0.005915285887,17
0.006142327883,22
0.00627168691,23
0.006640323889,7
0.006653967246,24
0.006706676127,25
0.007188440253,27
0.007293439429,26
0.007487380801,28
0.007563998715,29
0.008053490489,30
0.008629902413,32
0.009009099304,31
0.009284904504,33
0.009560601261,34
0.00978814861,35
0.009963332815,36
0.010673984609,38
0.010984663261,39
0.011384139983,37
0.012056924221,40
0.012228764337,41
0.012403621719,44
0.012588661005,45
0.01262406091,43
0.01268262399,47
0.012835383718,46
0.013611357893,52
0.013783677889,54
0.013836597888,55
0.014254797891,49
0.014315997893,48
0.014327208168,56
0.014407320948,57
0.014531880718,51
0.014780520527,53
0.014796120501,50
0.01491264353,60
0.015012456663,42
0.015031296637,59
0.01515657577,61
0.015292054729,62
0.015307294653,58
0.015422214938,63
0.01593540412,65
0.016303921156,66
0.016330680984,64
0.016517785863,67
0.017130189902,68
0.017298543564,69
0.017671222187,70
0.017836736118,71
0.018232230184,72
0.018847701372,73
0.02055065725,74
0.020608764718,75
0.020648115411,76
0.020708845684,77
0.020883769389,78
0.021208009197,79
0.023083773326,81
0.023454931271,82
0.023462111167,83
0.02354349068,84
0.023836288291,80
0.024297861025,85
0.026151045239,87
0.026163645185,86
0.026277688717,88
0.026564151915,89
0.026671059688,90
0.02686233455,91
0.027621595851,93
0.027774474647,94
0.027888113751,92
0.028503371364,96
0.02871036969,95
0.028761821792,97
0.028871493728,98
0.02992904784,99
0.030470572206,100
0.030739844549,101
0.031418846234,102
0.031884120229,103
0.032358866092,104
0.03297293265,105
0.033107795463,106
0.03375927086,107
0.034010383306,108
0.034196971549,109
0.034268885815,110
0.034290804705,111
0.034760323138,112
0.03486997652,113
0.035039166505,114
0.035785228513,115
0.035826956873,116
0.037557087397,117
0.038604611965,118
0.039733417349,119
0.039971395104,120
0.040529027564,121
0.040940784867,122
0.041824019588,124
0.04201949801,123
0.042172566929,125
0.042395606428,126
0.042462658458,127
0.043559453706,128
0.04381025035,129
0.043875096659,130
0.04412224979,131
0.044312211988,132
0.044407113741,133
0.044903707654,134
0.045068508373,135
0.046491535245,136
0.04723455585,137
0.04767357781,138
0.048328246888,139
0.0483637827,141
0.048657540303,140
0.049087539986,142
0.04922539997,143
0.049497384224,144
0.050069636285,147
0.050075876287,145
0.05017119828,146
0.050234138929,148
0.050848155903,149
0.051735327023,150
0.052288227146,151
0.052362969477,153
0.052809725846,154
0.052829285816,152
0.052835848357,155
0.053078005856,156
0.053544024425,157
0.053686453017,158
0.053694397171,159
0.054267741846,160
0.054286641189,161
0.054920368032,162
0.054950586375,163
0.055151070726,164
0.055405038115,165
0.055644349943,166
0.05593957509,167
0.056310335443,168
0.056546767907,169
0.057812902131,171
0.057903501427,170
0.058172201828,172
0.058771294061,175
0.05884857379,173
0.059225409577,176
0.059514007223,174
0.060353159435,177
0.060520482116,178
0.060532275324,179
0.060696698883,180
0.06097423429,181
0.061963215231,183
0.062328972275,184
0.062648169666,182
0.062781278437,185
0.063874704887,186
0.064793427966,188
0.064875267366,189
0.064887387316,187
0.064958931276,190
0.06527197267,191
0.066350322115,192
0.066427536738,193
0.066537977457,194
0.066898734532,195
0.067424284089,196
0.067626371037,197
0.067775103581,198
0.068479469029,199
0.069662542102,200
0.070187867504,201
0.070473961873,202
0.070516943464,203
0.071104915441,204
0.071521222984,205
0.071624448954,206
0.072099279174,207
0.072855404332,208
0.073055465837,210
0.07312374532,209
0.073267139568,211
0.073419355623,212
0.073506799367,213
0.0741561554,214
0.07468189739,215
0.07508341689,216
0.075325391436,217
0.076010228871,219
0.076288386614,220
0.076401545767,221
0.07716425947,222
0.078230451588,223
0.078273291283,218
0.079097344837,225
0.079501861518,224
0.080472876254,226
0.080666066355,227
0.081515953994,228
0.081838415126,229
0.081974909438,230
0.082455454744,231
0.083024289693,232
0.083237230686,233
0.084078619195,235
0.084549375324,234
0.084789840907,236
0.085013002253,237
0.08527062087,238
0.085501060934,239
0.085632638227,240
0.08590817989,241
0.086077727196,242
0.086489600432,243
0.08660045585,244
0.086702888801,245
0.087640939372,246
0.08771019648,247
0.087967746146,249
0.088235343968,248
0.088625206675,250
0.088729064911,251
0.088830621872,252
0.089158986789,255
0.089187666728,256
0.089311026288,257
0.089361066131,254
0.089376306075,258
0.089443385572,259
0.089718063452,260
0.089749866569,261
0.089944501776,253
0.09057269134,263
0.091111006994,264
0.091179646503,265
0.091284165684,262
0.09143087245,266
0.091818855512,267
0.091878329828,269
0.091888289809,270
0.091919249612,268
0.092249586888,271
0.093030245521,272
0.09351580366,273
0.093605552591,274
0.095134847544,275
0.095445225413,277
0.0955460251,279
0.095700344625,278
0.095702158989,280
0.095766601752,276
0.096029541815,281
0.096086185779,282
0.096149096265,283
0.096230700785,284
0.096929950666,285
0.097549542618,286
0.098069277011,288
0.098251555544,287
0.09855137269,290
0.099152568732,289
0.099184211391,291
0.099248568237,292
0.099822096288,293
0.099922280054,295
0.100007719394,294
0.100505858667,296
0.100635441138,297
0.100854846089,298
0.101272826122,299
0.10127925687,300
0.101312179172,301
0.101332822328,303
0.102113655873,302
0.10227329382,304
0.102415146939,305
0.102584048623,306
0.102887816154,307
0.103715997433,308
0.103733154277,309
0.104343508821,311
0.104376868608,312
0.104506708068,310
0.104567992374,314
0.104720271189,315
0.105098269668,317
0.105397308846,320
0.105647151549,313
0.105789307609,319
0.106062186523,318
0.106107906214,321
0.106222505359,322
0.106330144514,316
0.106407304209,323
0.106441309014,324
0.107355219996,328
0.107565219971,326
0.10806105955,329
0.108125499334,327
0.108921932749,325
0.109330330993,330
0.11043023668,331
0.110577713357,332
0.110780849907,333
0.110940292172,334
0.111207370863,335
0.111740811859,336
0.112040345731,337
0.112149175572,338
0.112343705598,339
0.112807583477,340
0.11305402736,341
0.113783976655,343
0.113933855538,345
0.113948135531,344
0.114393931898,346
0.114460171449,347
0.114536970938,348
0.114726569425,349
0.115004008133,350
0.115377086595,352
0.115725925256,353
0.115876764705,354
0.115923684561,342
0.116098042399,351
0.116384914584,355
0.116388511311,356
0.1167584472,357
0.117276446251,358
0.118349551696,359
0.118478146506,360
0.118581608712,361
0.118972929235,362
0.119196496647,363
0.119705101473,364
0.12005614294,365
0.120798120488,366
0.121468781318,367
0.12152464216,368
0.121706261516,369
0.122880517395,370
0.123356179728,371
0.123475926443,372
0.124214650231,374
0.12430020957,373
0.12457555752,375
0.124793320301,376
0.124949583616,379
0.125288942254,377
0.125462562595,380
0.125641961152,378
0.126426613546,381
0.126689635783,382
0.126828628551,383
0.126983907979,384
0.127253357998,385
0.128058258134,386
0.128083442107,389
0.12831708198,387
0.128501784081,391
0.128611343677,392
0.129070101817,388
0.129250876751,390
0.129506342854,393
0.129848589286,394
0.130238695521,395
0.130665101577,396
0.131614157042,397
0.132111047204,399
0.132378525027,398
0.133204718732,402
0.133420957903,403
0.133927235846,400
0.134028620337,401
0.134646075558,405
0.135056712189,404
0.135248314934,406
0.135364033888,408
0.135546072442,409
0.135697871275,410
0.135793870527,407
0.135971374249,411
0.136254293464,412
0.136951685824,413
0.137153680601,414
0.137536998628,415
0.138604005153,416
0.138866636508,417
0.139570312681,418
0.139958656586,419
0.140362757557,420
0.141350072314,421
0.142052154862,423
0.142240073348,422
0.142346402418,424
0.142396773908,425
0.142579922633,426
0.142725348248,427
0.142750030438,428
0.142876257925,430
0.142916937637,429
0.143555907246,431
0.143643716998,432
0.144186707573,433
0.145416649591,437
0.145451089565,438
0.145801009541,436
0.146026488719,439
0.146041008714,440
0.146311007642,434
0.146540209032,435
0.146650284542,441
0.146787632706,442
0.146869491188,443
0.147348396732,444
0.148342416347,446
0.148348056324,445
0.148540580718,447
0.149020096621,448
0.149034345312,449
0.149185338083,451
0.149778493192,450
0.149880576377,452
0.150453544543,453
0.151400954435,455
0.151668792255,454
0.15214724738,456
0.152607448588,457
0.154046216559,458
0.154130099203,460
0.154556215741,461
0.154851773329,459
0.156050321444,462
0.156547589317,463
0.156721831273,465
0.156736951199,464
0.156870426521,466
0.156957581465,467
0.157274980429,468
0.157693857483,470
0.157850336253,471
0.1579109358,472
0.15832889237,469
0.158941078432,474
0.159266395787,475
0.159280318978,476
0.159440517739,477
0.159761756453,473
0.159785053313,478
0.160116469297,480
0.160278828012,481
0.160426426833,479
0.160924633674,483
0.161050152679,482
0.161686605016,484
0.162202726601,485
0.162264809551,486
0.162483645825,487
0.163081578012,489
0.163120697738,488
0.163218427371,490
0.163598524087,491
0.163958895384,492
0.165305948475,493
0.165660991737,494
0.165753665605,495
0.165906425039,496
0.166378314817,497
0.167366476783,499
0.167369956769,498
0.167548095017,500
0.168169778781,501
0.168394404852,504
0.168588444096,503
0.168601164064,505
0.169085360279,507
0.169310959626,508
0.169489758934,502
0.169518682001,509
0.169809320171,511
0.17014831881,510
0.170283797837,512
0.170333597511,513
0.170562435656,506
0.171602669534,515
0.171607829513,514
0.17169362412,516
0.171847883697,517
0.171867338488,518
0.17211695623,519
0.172347640605,520
0.172579388525,521
0.173043745716,523
0.173318303479,522
0.173820564815,524
0.174282257884,525
0.174415075127,526
0.174532318495,529
0.174680877961,530
0.175089476311,527
0.175104785235,531
0.175106825227,528
0.175339706115,532
0.176024678435,533
0.176045727309,534
0.177441356354,535
0.177488924682,536
0.17784940077,537
0.178101711631,538
0.178320071358,539
0.179059766005,540
0.179093852725,541
0.17915092847,542
0.179429053937,543
0.179904126383,544
0.179953206795,545
0.180031085747,546
0.18027495837,547
0.181220474252,549
0.181379713525,550
0.182001548981,551
0.182019908894,552
0.182059508616,548
0.182152833125,553
0.182459509698,554
0.183994305275,555
0.184215041433,556
0.186023682859,557
0.186335945817,558
0.186776816478,559
0.188335079689,560
0.189493411021,561
0.189502205663,564
0.189568160507,563
0.189624200092,562
0.189996499829,565
0.190008863026,566
0.191040581369,567
0.191154887741,568
0.191809739639,569
0.192475061724,570
0.192543137756,571
0.192552779012,572
0.192976584213,574
0.192984432609,575
0.19301527573,576
0.193063398629,573
0.193137828916,577
0.193218203231,579
0.193268962859,578
0.193417697103,580
0.194181812663,581
0.194429683155,582
0.194889321429,583
0.194993264256,584
0.195237831673,585
0.195687124632,586
0.195979286844,588
0.196092325954,587
0.196242332916,589
0.196279899707,590
0.196521164946,591
0.196788314285,592
0.197045531715,593
0.197059675296,594
0.197257528956,595
0.197314062139,597
0.197364341783,598
0.198130895465,599
0.198813929825,596
0.199370975899,603
0.199624295876,600
0.200011778132,605
0.200039498095,604
0.200040218095,601
0.200057258052,606
0.200090857835,607
0.200130097559,602
0.20038150494,608
0.201363768541,609
0.201546952775,610
0.201755815288,612
0.202132012205,611
0.202201659788,613
0.202335578989,614
0.202463093623,616
0.202815051919,615
0.202932680074,617
0.203155187311,618
0.203882588963,619
0.204557281561,620
0.204871536561,621
0.20500053883,623
0.20534517601,622
0.205642475025,624
0.20681078989,625
0.206899284591,626
0.207280958774,627
0.208086673694,628
0.208329927635,629
0.208458470637,630
0.208618097485,631
0.208933628194,632
0.208971637225,633
0.210072351086,634
0.211116008046,635
0.211804877037,636
0.212270254493,637
0.212553956883,639
0.212582276699,638
0.212975163104,640
0.212987526301,641
0.213216444501,642
0.213306347956,643
0.213321401983,644
0.214303713549,645
0.214547455791,646
0.214973241594,648
0.215317519632,647
0.215373287864,649
0.215805227612,651
0.215806067609,650
0.216271003152,652
0.216371805372,653
0.21655569464,654
0.216693647751,655
0.217107533549,656
0.217164147704,657
0.217455843911,658
0.217556006648,659
0.21772181495,660
0.21792304009,663
0.218145759214,662
0.218493996378,664
0.218526396163,665
0.219040951978,666
0.219898347767,670
0.220203147159,669
0.220282827134,667
0.220331426984,668
0.220374386678,661
0.220837082841,671
0.221154484813,672
0.221234554322,673
0.22158660479,675
0.221713683782,674
0.222644381947,677
0.222731261274,676
0.22278907135,678
0.222899494165,679
0.223454762146,681
0.223554961742,683
0.22376736091,680
0.224311513704,682
0.224502738039,685
0.224587577383,684
0.225064106996,687
0.22531466496,686
0.225662770002,688
0.22606254242,689
0.226472661313,690
0.226876571336,691
0.227370243966,692
0.227542519589,693
0.227875632232,694
0.22858378628,695
0.229403114705,696
0.229496340816,697
0.230695126868,698
0.231032149544,699
0.231387393523,700
0.231777901243,703
0.231853260981,702
0.232135498698,704
0.23242829631,701
0.233042976348,705
0.233078542657,706
0.233724712599,707
0.233766157255,708
0.234376448926,710
0.234423488586,709
0.235569227119,711
0.235803184055,713
0.235959542803,712
0.236121342005,714
0.236374099047,715
0.236759126278,716
0.237564395709,717
0.238419024679,719
0.238529423831,720
0.238964541699,722
0.239212700757,723
0.239853019839,725
0.240230481608,726
0.240354081547,727
0.240657321325,721
0.240713004467,724
0.240904044115,730
0.241264764073,731
0.242323767259,734
0.243123207263,735
0.243347847259,736
0.244437687257,738
0.24452264726,729
0.244584447256,737
0.244796966892,739
0.244849166811,718
0.24487496998,740
0.245317289877,742
0.245386169831,743
0.245397929833,728
0.2457920098,744
0.246434369775,741
0.24662792918,745
0.247363527622,746
0.247701926664,748
0.247872449839,749
0.248227049786,750
0.248632049553,755
0.248883929546,733
0.248918249543,751
0.24897332954,754
0.249133769236,732
0.249271532404,753
0.249457891913,747
0.249563453344,752
0.249572933305,756
0.249834904131,757
0.250127503148,758
0.250882746737,760
0.250970466057,759
0.251018526275,761
0.251541516959,762
0.251615280175,763
0.251789356232,765
0.252011474445,766
0.253153864995,767
0.253523461967,764
0.253596415002,768
0.25363087124,769
0.253841804711,770
0.253946167575,771
0.254698215246,772
0.255085285242,774
0.255129804937,775
0.255249083997,776
0.255634642076,778
0.255714561795,773
0.255897263245,777
0.256177972324,779
0.256701752098,780
0.256922402529,781
0.257330504309,782
0.257485082869,783
0.25798484991,784
0.258279304375,785
0.258889104876,786
0.258996124993,787
0.259386649754,788
0.259469891966,789
0.259636573672,791
0.259724293023,792
0.259799532447,790
0.260437135648,793
0.260830863053,794
0.260873465998,795
0.261239546495,796
0.261294520216,798
0.261425199193,799
0.261780877005,797
0.261976109785,801
0.262361459212,803
0.262417019032,802
0.262463458697,804
0.262750616448,805
0.262773776306,800
0.263025681464,806
0.263172871732,807
0.263453720179,808
0.263574480587,809
0.264284392843,811
0.264716629292,810
0.265085214314,812
0.265617453893,813
0.26569308049,814
0.266314488716,816
0.266346768498,815
0.266579206259,817
0.266703228279,818
0.267263994961,819
0.267487944099,820
0.267698065648,821
0.270031583677,822
0.270051527232,823
0.270640699126,824
0.270949364011,825
0.271287292429,826
0.271380759667,827
0.271578959269,828
0.271612697065,830
0.271700536384,829
0.272172037309,833
0.272355036652,834
0.272560835846,832
0.272643035212,831
0.273510987128,837
0.273601226804,835
0.273645997896,836
0.273722697286,838
0.274309087967,839
0.274327627851,840
0.274750259881,841
0.274766352297,842
0.275615995905,843
0.275674950573,844
0.27596863475,845
0.277243375798,846
0.278346112379,847
0.278447184804,848
0.278748736027,849
0.278880041204,850
0.278893964388,851
0.279239467328,852
0.28032337598,854
0.280564214024,853
0.281336660164,856
0.281371939952,857
0.281750297829,858
0.282598930808,855
0.282894501059,859
0.285305552094,860
0.285806046262,862
0.286286042429,863
0.286592399972,864
0.286791118879,865
0.287141876007,861
0.287905686406,866
0.288870468784,867
0.289115947031,868
0.289370747089,870
0.290031104716,871
0.290662542136,872
0.292276894863,874
0.292706133753,875
0.292924292896,869
0.293501980671,877
0.29352430063,876
0.293830658133,878
0.294035497271,879
0.294257135476,873
0.29481487585,880
0.295114469442,882
0.295136069315,881
0.29560279343,883
0.295751106655,884
0.295901291998,885
0.296153985176,886
0.296545396455,887
0.297150763432,889
0.297424241205,888
0.297979807159,893
0.298175407041,892
0.298505409926,896
0.298644612861,897
0.298719972739,898
0.29873125274,895
0.298764492719,890
0.298819092543,891
0.29913613342,900
0.299142366256,899
0.299148733419,894
0.299408054558,901
0.299907512013,902
0.300114192164,903
0.300819376896,905
0.301212974993,904
0.302663417823,908
0.302883737162,907
0.303161558674,910
0.303173318658,911
0.303174398657,909
0.303562118726,906
0.303847690537,914
0.304068369822,915
0.304591927693,912
0.304998908906,916
0.305235667325,917
0.305412545912,918
0.306386817891,919
0.306664615628,913
0.306691906682,920
0.307281671121,921
0.307468294876,922
0.308134462916,924
0.308269221844,923
0.308770501313,925
0.308899283592,926
0.309667315771,927
0.309834071547,929
0.310030869958,928
0.310400953636,930
0.311286147582,931
0.313532368627,934
0.313625248416,936
0.31364671873,937
0.313985608349,938
0.314086768324,935
0.314571327663,941
0.314607327623,939
0.314620890819,942
0.314678007596,932
0.315001770052,944
0.315179610024,945
0.315320129948,946
0.315683129922,940
0.316135888108,947
0.316196967905,943
0.3170799226,950
0.317773042574,949
0.317816962443,933
0.318015204111,951
0.318027324061,948
0.318127286528,952
0.31832756041,953
0.318651137597,955
0.31891741543,954
0.319462111759,956
0.320839161198,957
0.320855244364,958
0.32307528996,959
0.323082878218,960
0.323976974665,964
0.324001214639,962
0.324045374507,961
0.324294855779,965
0.324355095329,963
0.324788420874,967
0.324791420862,966
0.324986719646,968
0.325395291375,970
0.325671049128,969
0.325696331203,971
0.325705030072,972
0.326011636149,973
0.326252575188,974
0.326643761654,976
0.326926119358,975
0.326928101274,977
0.327533207739,978
0.328096080599,980
0.328172400015,979
0.328841451627,981
0.329761789808,983
0.329769349808,984
0.330229069277,982
0.330594586459,985
0.330699301633,986
0.33124987522,988
0.331591152427,987
0.331651284492,989
0.332298898793,993
0.332879738821,995
0.333216218148,991
0.333359258122,990
0.333452497916,994
0.333635137433,998
0.333707977407,997
0.333905136643,999
0.334039296136,992
0.334042899325,1000
0.334156058504,1001
0.334300297353,996
0.334570354923,1002
0.334649828059,1003
0.33479200754,1004
0.33491042906,1005
0.33578857983,1006
0.336714156862,1007
0.337317805777,1008
0.338179820121,1009
0.338556774752,1010
0.340581440865,1013
0.340753640212,1011
0.340754785991,1014
0.340785389036,1012
0.341263277454,1015
0.341701959633,1017
0.341715279594,1018
0.341732919498,1016
0.342526910896,1019
0.342679868695,1020
0.342861832762,1021
0.34296621855,1022
0.343603126664,1023
0.343792404927,1024
0.343869423388,1025
0.344135551413,1026
0.344718825402,1027
0.344914752976,1029
0.344951352722,1028
0.345188596172,1030
0.345966156703,1031
0.3462586789,1032
0.346442351806,1033
0.346875910582,1034
0.34694042477,1035
0.348037834017,1036
0.348711566803,1037
0.349597419519,1039
0.349828178613,1041
0.350018138062,1042
0.350040098022,1040
0.35006529787,1043
0.350269416668,1045
0.350902656181,1048
0.351348695624,1049
0.351356375625,1047
0.351489215609,1050
0.35157249546,1052
0.351869614869,1051
0.351886534844,1046
0.352147293825,1053
0.352437692668,1054
0.352489652506,1055
0.352789291369,1056
0.353018971077,1058
0.353020051078,1059
0.353281051077,1044
0.35377640977,1057
0.35390504952,1061
0.354089608803,1038
0.354381953682,1062
0.354988428679,1060
0.356063259736,1065
0.356294499721,1067
0.356446059617,1069
0.356511699509,1066
0.356539062707,1063
0.356678502638,1070
0.356911901988,1073
0.356914181989,1071
0.357012105155,1072
0.357017625142,1074
0.357060708212,1068
0.357128270972,1075
0.357137870932,1076
0.357247913377,1064
0.357265271034,1078
0.358584167198,1079
0.358754085833,1077
0.35913172703,1080
0.359301003121,1081
0.359551716206,1083
0.359578236079,1084
0.359657915467,1082
0.359806541449,1085
0.359887403049,1086
0.360319248248,1087
0.360802692296,1088
0.361382625192,1089
0.361653948771,1090
0.36213355627,1091
0.362525009553,1092
0.362815466004,1093
0.362826227652,1094
0.363097383776,1097
0.363230823291,1098
0.363451982484,1099
0.363584582019,1100
0.363742741845,1102
0.363749821831,1101
0.363908944417,1103
0.36493734035,1105
0.365269740324,1104
0.365480099562,1106
0.365689619541,1108
0.366309419509,1109
0.366488819483,1107
0.366593099131,1110
0.36664877895,1111
0.36665513895,1096
0.366860217366,1112
0.367198975142,1095
0.367212630703,1113
0.367969348457,1114
0.368626435783,1116
0.368714395102,1115
0.369314537184,1117
0.369419237803,1118
0.369547655429,1119
0.369696975976,1120
0.369892323191,1122
0.370088401608,1121
0.371174893524,1126
0.371182205678,1125
0.371343496339,1123
0.371444415971,1124
0.371752937794,1128
0.371888300992,1129
0.37192754419,1130
0.372156623287,1131
0.372588256571,1132
0.372694455846,1133
0.37283101476,1127
0.373371615571,1135
0.373527614691,1136
0.373808173364,1138
0.37393885287,1137
0.373945932841,1134
0.374144238462,1139
0.374852026524,1140
0.375051332248,1141
0.375452673769,1142
0.375549215062,1143
0.376129228346,1145
0.376215387679,1144
0.376297519009,1146
0.376388353229,1147
0.376529989266,1148
0.378836143234,1149
0.378862020902,1150
0.378944130576,1151
0.37921703381,1152
0.379711729475,1153
0.379930373544,1154
0.380506121181,1156
0.380572720678,1155
0.380748492795,1157
0.380866673387,1158
0.380909832246,1159
0.381282706172,1161
0.381580783739,1160
0.381777163557,1162
0.382246068714,1163
0.382473903853,1165
0.382566183135,1164
0.382696440896,1166
0.382815353401,1167
0.38363906915,1168
0.385052806707,1169
0.38513586235,1170
0.386296095958,1171
0.386789605572,1172
0.387484912541,1173
0.387864774058,1174
0.388161226711,1175
0.388262530232,1176
0.38881951792,1177
0.388870645075,1179
0.388884805009,1178
0.389108130521,1180
0.389766682024,1182
0.390505995914,1181
0.390724887752,1183
0.39100931873,1184
0.391474049127,1185
0.391512301645,1186
0.393161248492,1187
0.39358665063,1188
0.393715393943,1189
0.394876657908,1190
0.395174038352,1191
0.39611607935,1192
0.39651318951,1193
0.396886620597,1194
0.397155676724,1195
0.397298072869,1196
0.397599596546,1197
0.3984817459,1198
0.398959947207,1200
0.399081506841,1201
0.399186746779,1204
0.399331946753,1203
0.399412826468,1199
0.399447629478,1202
0.399538618914,1205
0.400689247316,1206
0.40089743308,1207
0.401122986296,1208
0.401327764806,1209
0.401710824542,1211
0.401774904289,1213
0.40192622371,1212
0.401997983244,1214
0.402121822263,1210
0.402753296855,1215
0.402974309137,1216
0.403422122229,1217
0.404209701694,1219
0.404319860827,1218
0.404330653963,1220
0.40513253064,1221
0.406057877985,1223
0.406212076751,1222
0.406746488749,1224
0.408300471836,1225
0.408639251601,1226
0.408847143795,1227
0.408978437357,1228
0.409021170272,1229
0.410061875932,1231
0.410254594384,1232
0.410730750502,1233
0.410771310229,1234
0.411032428104,1230
0.411663631497,1235
0.412394835036,1236
0.412480633835,1237
0.412507008897,1238
0.412779314565,1239
0.41292712996,1240
0.413187433636,1241
0.41403635992,1242
0.414603429522,1243
0.414936564428,1244
0.41495414962,1245
0.415875933883,1246
0.415879553323,1247
0.41659201243,1248
0.416911927715,1250
0.417246126374,1249
0.417247623616,1252
0.417475164675,1251
0.418944000604,1253
0.41915894473,1254
0.419159184728,1256
0.419373506262,1257
0.419414381651,1258
0.419766987248,1260
0.420167545631,1255
0.420281303731,1261
0.4204064629,1263
0.420571702822,1265
0.420586342798,1259
0.420652105796,1262
0.420794424698,1266
0.421134982662,1269
0.421198780698,1270
0.421528180673,1268
0.421703740638,1264
0.421909899831,1271
0.422253938207,1267
0.42247240506,1274
0.422482365061,1272
0.422494005022,1273
0.423073328922,1275
0.423136589982,1276
0.423332952285,1277
0.423444929643,1278
0.423563735792,1279
0.424363688794,1280
0.424493620476,1281
0.425994786644,1284
0.426305585401,1282
0.42635903845,1283
0.42700599359,1285
0.427038582255,1286
0.427585536431,1287
0.427989140259,1288
0.428140228402,1289
0.428551380368,1290
0.428756846711,1291
0.429174778101,1292
0.429306059316,1293
0.429313564768,1294
0.429891074493,1295
0.43019056117,1296
0.430641257141,1298
0.430649057109,1297
0.43074571856,1299
0.430818081137,1300
0.431024237885,1302
0.431437634617,1301
0.431812579733,1303
0.432044091682,1304
0.432110355115,1305
0.432573720798,1306
0.43307506411,1307
0.433256151557,1310
0.433341711252,1309
0.434164186138,1312
0.434184946119,1314
0.434387044562,1313
0.434525269056,1317
0.434531749056,1318
0.434594509019,1319
0.434637589016,1320
0.435027828231,1316
0.43532302809,1321
0.436137468064,1315
0.436538866793,1323
0.436693056154,1308
0.436711056139,1324
0.43676649596,1322
0.436929828504,1325
0.43711894698,1311
0.437289072719,1326
0.437609328012,1327
0.438821072135,1328
0.438935680064,1329
0.439505534505,1330
0.439871918336,1331
0.440088087809,1332
0.440435275148,1334
0.440453755045,1333
0.440636210877,1335
0.441703677488,1338
0.441870717117,1336
0.443216511241,1339
0.44323991123,1341
0.443306511004,1340
0.444023385081,1337
0.444811839637,1342
0.445128940084,1343
0.445577373603,1344
0.446070887307,1345
0.446167382174,1346
0.446260845642,1347
0.446522338942,1348
0.446659743165,1349
0.447795931938,1352
0.448395089544,1353
0.4484034784,1354
0.44911951867,1355
0.449503877784,1351
0.450087198603,1350
0.450316107884,1357
0.450352227634,1356
0.450760805944,1359
0.450980764163,1358
0.451481756212,1360
0.45172484092,1362
0.45176840066,1363
0.451783640584,1361
0.452019824331,1364
0.453455463302,1365
0.453688396806,1366
0.454013896616,1367
0.454101074785,1368
0.454519581545,1369
0.455320602362,1370
0.455378432072,1371
0.455956634984,1372
0.456018564071,1373
0.456401957609,1374
0.45656081947,1375
0.456787243494,1376
0.45690202913,1377
0.457347744159,1378
0.457529906363,1379
0.457584935573,1380
0.458248593531,1381
0.458566547365,1382
0.459040050466,1383
0.459587821789,1386
0.459667981583,1387
0.45976986121,1385
0.459887820284,1388
0.459960059733,1384
0.460326613299,1389
0.460341594194,1390
0.460527836929,1391
0.460609080235,1392
0.46115409297,1395
0.461437051843,1393
0.461502837154,1394
0.461802371478,1396
0.461836511638,1397
0.462550910403,1398
0.462584669726,1400
0.462585989721,1399
0.462589099682,1401
0.462770152879,1402
0.462882208753,1403
0.463625801627,1404
0.464130833513,1406
0.464186153104,1407
0.464524670335,1405
0.464661148492,1408
0.464685623156,1409
0.464988623606,1410
0.465216325382,1411
0.465634391522,1412
0.466220991293,1413
0.466471669402,1414
0.466492908298,1415
0.467546975536,1416
0.467635574484,1417
0.468416922781,1418
0.4691476112,1419
0.469517543379,1420
0.469862609715,1421
0.470104726323,1422
0.470746691987,1424
0.47114364873,1423
0.471567148879,1425
0.472448699353,1426
0.472615745385,1427
0.472936765558,1428
0.473024112279,1429
0.473086470293,1430
0.473190113934,1431
0.473368115597,1432
0.474179851918,1433
0.474274906659,1434
0.475348447379,1435
0.475409770168,1436
0.475452397715,1438
0.476024913001,1439
0.476117552281,1437
0.476328672131,1440
0.476341275326,1441
0.476731718783,1443
0.476876797626,1442
0.477079792576,1444
0.477591429543,1446
0.477868028249,1445
0.477924607452,1448
0.478436403455,1450
0.479128320667,1451
0.479404200609,1453
0.479931000583,1449
0.479940600584,1452
0.48021636159,1454
0.480363360924,1455
0.480477000028,1447
0.480640256081,1456
0.481894916458,1457
0.482462489895,1460
0.482688569004,1459
0.482825127917,1458
0.482985881547,1461
0.483390538973,1462
0.483433932084,1463
0.483903803941,1464
0.484534313479,1465
0.484719555879,1466
0.485711844051,1469
0.485727084039,1468
0.485923402454,1467
0.486511233505,1470
0.487885865237,1474
0.487969385237,1477
0.488154305232,1478
0.488252585235,1475
0.488478775264,1479
0.488628175265,1481
0.488774815265,1471
0.489018897979,1473
0.489032707773,1476
0.489726298338,1472
0.490279610558,1482
0.491105683725,1480
0.491142230001,1483
0.491484267162,1484
0.491685002069,1485
0.492780716049,1486
0.493229782876,1488
0.493329742094,1489
0.493471100967,1487
0.494013641865,1490
0.494016277392,1491
0.494439077648,1492
0.494690262368,1493
0.495226306467,1494
0.496789996982,1495
0.49719323031,1496
0.497771598022,1499
0.497789357996,1500
0.497848517801,1498
0.497908997348,1497
0.498742774705,1501
0.498871036654,1502
0.499311585114,1503
0.499927825664,1505
0.500334983621,1504
0.500575406538,1506
0.501073597704,1507
0.501331048159,1508
0.501562434252,1509
0.501751682698,1511
0.501755882699,1512
0.501960841077,1510
0.502735766053,1513
0.503170975678,1514
0.503340217547,1515
0.503492630369,1516
0.503645510044,1517
0.503724478794,1518
0.504516255657,1519
0.504677288568,1520
0.505397322676,1521
0.505815749638,1524
0.505845389586,1525
0.505923749316,1526
0.505964789263,1522
0.505979761483,1527
0.506303278846,1528
0.506515077132,1523
0.507278419179,1529
0.507479468869,1530
0.507796138619,1533
0.507835606543,1534
0.507871501718,1531
0.507907002499,1532
0.509180585788,1535
0.509594234935,1537
0.509616194805,1536
0.509734616793,1538
0.510701033088,1539
0.5109699319,1540
0.511393498151,1542
0.511396618141,1543
0.511541340235,1541
0.511748158081,1544
0.511899753386,1545
0.512996489154,1546
0.513819238978,1547
0.514124724336,1548
0.515467492138,1549
0.515893840646,1550
0.516300579899,1551
0.516391199387,1552
0.516548291855,1553
0.517243556128,1554
0.518565314194,1556
0.518647393562,1555
0.51981337904,1558
0.519948497965,1557
0.52017825917,1560
0.520364137673,1559
0.520601803316,1561
0.521461885141,1563
0.521843602011,1562
0.521882071168,1564
0.522274949366,1565
0.524273802272,1567
0.524620359761,1568
0.524718519047,1569
0.5252381148,1570
0.52544943309,1566
0.525546930363,1571
0.525960207096,1573
0.526166845426,1572
0.526388984691,1574
0.526409289443,1575
0.526432715827,1576
0.526537010957,1577
0.52683714594,1578
0.526989142571,1579
0.527137685155,1580
0.527277710285,1581
0.527477855702,1582
0.527913658498,1583
0.528391266844,1584
0.528553512859,1585
0.528704106777,1586
0.528866681102,1587
0.529173123349,1588
0.529290753426,1589
0.529978332393,1591
0.530042291931,1592
0.530125811287,1590
0.530469818019,1593
0.530589433765,1594
0.530904996156,1596
0.530986115532,1595
0.531108648974,1597
0.531466912953,1598
0.531485343213,1599
0.532074433827,1600
0.532181116249,1602
0.532278195492,1601
0.53260314214,1604
0.532691221473,1605
0.533072459126,1603
0.533380835532,1606
0.533659753606,1607
0.53391384992,1608
0.534273357892,1609
0.534770506399,1611
0.534946545002,1612
0.535206702885,1610
0.535447111543,1613
0.536086957998,1614
0.536891075086,1616
0.536947474701,1617
0.536985394451,1618
0.537017314238,1619
0.53703279416,1615
0.537104753658,1620
0.537192779275,1621
0.537632473274,1622
0.537670961951,1623
0.538185223251,1625
0.538303782339,1626
0.538409021513,1624
0.538776818751,1627
0.53908784949,1628
0.539231863213,1630
0.539302302902,1629
0.539720262719,1631
0.54104962249,1632
0.541247646499,1633
0.541408616081,1634
0.542411139706,1635
0.542760980252,1636
0.543430153417,1637
0.543689865847,1638
0.543788705515,1639
0.543921258743,1640
0.544026129326,1641
0.544554492933,1642
0.544753264715,1643
0.544999539846,1644
0.545124447525,1645
0.545240878623,1646
0.5452556418,1647
0.545681628069,1648
0.546118950207,1649
0.546212679207,1650
0.546576812522,1651
0.546630388884,1652
0.546969778718,1653
0.547806280886,1654
0.548370762792,1655
0.549097170397,1656
0.549650218662,1657
0.551275120101,1658
0.551275878038,1659
0.551691279979,1660
0.551703372296,1661
0.551866610548,1662
0.551978118185,1663
0.552311580701,1664
0.553049953462,1665
0.553172033052,1666
0.553867664163,1667
0.554149869883,1668
0.554245508122,1669
0.5548742246,1670
0.555126349503,1671
0.555164463052,1672
0.555919022552,1674
0.556562219561,1676
0.556994457849,1677
0.557210457072,1678
0.557343056721,1675
0.557474096226,1679
0.557668014662,1673
0.558617838344,1680
0.558815582978,1681
0.559354111179,1682
0.559655558974,1683
0.560205925307,1684
0.560768924869,1687
0.560987324011,1685
0.561041385079,1686
0.561433927258,1688
0.561644715587,1690
0.561654075587,1691
0.561698355282,1689
0.562428426921,1692
0.562586143813,1693
0.562775615941,1694
0.562877634697,1695
0.563095637065,1696
0.563220188597,1697
0.563355014373,1698
0.563385050893,1699
0.563891455188,1700
0.564217168777,1702
0.564238768648,1701
0.56507415711,1704
0.565196196145,1703
0.565755764496,1705
0.566166517803,1706
0.566397454117,1707
0.566445287247,1708
0.56658439457,1709
0.567517468128,1713
0.567722824709,1715
0.567771270972,1714
0.567943950941,1716
0.568135950904,1717
0.568286673812,1718
0.568479513723,1719
0.568548633604,1720
0.568616073489,1721
0.568668993421,1722
0.569191112897,1724
0.569417552548,1712
0.569573912431,1726
0.569596835606,1725
0.5696570788,1727
0.570392917478,1729
0.570882516483,1728
0.570998913206,1723
0.571359639641,1730
0.571459119347,1731
0.57151707932,1732
0.57154935929,1733
0.571822718204,1711
0.572029479781,1710
0.572695804035,1734
0.572987735845,1735
0.573083548313,1736
0.573095007374,1737
0.573250541032,1739
0.573475419211,1740
0.573526538843,1741
0.573551378701,1742
0.574145855746,1744
0.574552055624,1745
0.574674815169,1746
0.574787854754,1747
0.575006854282,1748
0.575130453992,1749
0.575245293565,1743
0.575507251436,1750
0.576009928507,1752
0.576242128137,1753
0.576268168083,1754
0.576376288038,1738
0.576444072314,1755
0.576602231707,1756
0.576663551248,1751
0.576694801332,1757
0.57753387725,1758
0.577817905778,1759
0.578297874349,1760
0.578659921548,1761
0.579267102076,1762
0.579275740885,1763
0.58095313515,1764
0.581028271283,1766
0.581400388236,1767
0.581807187118,1765
0.581909712493,1769
0.581921352445,1768
0.58201440758,1770
0.582040992496,1771
0.582143343448,1772
0.582348524364,1773
0.582388804498,1774
0.58254433127,1775
0.584002360385,1776
0.58434100523,1777
0.584503532826,1778
0.584514975192,1779
0.584776289913,1780
0.584861864514,1781
0.584967215934,1782
0.585595595946,1784
0.585724474931,1785
0.58574775813,1786
0.585784841328,1787
0.586035880386,1789
0.586121800113,1790
0.586521399834,1783
0.586522843054,1793
0.586563643052,1791
0.586682506147,1792
0.586974823841,1794
0.587673458071,1788
0.588256442088,1797
0.588501721158,1798
0.588665160529,1795
0.588753477644,1796
0.588841902574,1799
0.5896398087,1800
0.589851152389,1801
0.591203027044,1802
0.591632298136,1803
0.59178435166,1804
0.592143898315,1807
0.592389177467,1808
0.593464493038,1806
0.593589052052,1805
0.594221039951,1809
0.594407465778,1810
0.595115950476,1811
0.596710249851,1814
0.597364848835,1815
0.597435168669,1816
0.597688008276,1817
0.597866327585,1813
0.597908687284,1818
0.599030919762,1820
0.599048079743,1819
0.599054799715,1821
0.599143482286,1822
0.599498319396,1823
0.599545239057,1812
0.599592945876,1824
0.600641516003,1825
0.601937935596,1827
0.602626975974,1828
0.602825934743,1829
0.602877894403,1830
0.602913534158,1826
0.603512468436,1833
0.603551228326,1831
0.603559982068,1832
0.603615132984,1835
0.603734772039,1834
0.604269515786,1836
0.604333693405,1837
0.604821752346,1838
0.605583879602,1839
0.605744577192,1840
0.60616842123,1841
0.606475033384,1842
0.606620393739,1843
0.606621876062,1844
0.60784961772,1845
0.608812045645,1846
0.608955075388,1847
0.609144858461,1848
0.60920685488,1849
0.60924164003,1850
0.609482825833,1851
0.610125516506,1854
0.61017531635,1853
0.610287515927,1856
0.610402235501,1852
0.610618183139,1857
0.610639303015,1855
0.610948271042,1858
0.611204084861,1859
0.611487172265,1860
0.611715736917,1861
0.611819264316,1862
0.612682429093,1863
0.612707162504,1864
0.613102723465,1866
0.61324792234,1867
0.61338244127,1865
0.613406276665,1868
0.613463859322,1869
0.61422925128,1871
0.614771526813,1870
0.614918937224,1872
0.614977478897,1873
0.615245382729,1874
0.616029468698,1875
0.616688963455,1876
0.616916974232,1877
0.617273695294,1878
0.618099720218,1879
0.618308320905,1880
0.618787408562,1882
0.619326805541,1884
0.619450405078,1883
0.619569804146,1885
0.620003961893,1886
0.620164400608,1881
0.620601153212,1887
0.62128137474,1888
0.621327718834,1889
0.621624965902,1890
0.621667853361,1891
0.622310035248,1892
0.62235940205,1893
0.622602526886,1894
0.62351530959,1895
0.623756140968,1896
0.624340263923,1897
0.624996821481,1898
0.625170052796,1899
0.625814172427,1900
0.626683207341,1902
0.626848326036,1903
0.626849466872,1904
0.626912709645,1901
0.627186021743,1905
0.627381580358,1906
0.62803948799,1907
0.62835313482,1908
0.629829001965,1909
0.62990429563,1910
0.629936764126,1911
0.630316876788,1912
0.630683609543,1913
0.63288808124,1914
0.633717466236,1916
0.63389722484,1917
0.634014583914,1915
0.63409018915,1918
0.634182846172,1919
0.634634906024,1921
0.635377703613,1922
0.635541503609,1927
0.635555783608,1928
0.635575703608,1924
0.636028343308,1930
0.636322463309,1929
0.636905663253,1931
0.637334422441,1932
0.637655301801,1926
0.638144061775,1923
0.63837818088,1933
0.638927058683,1934
0.640161613591,1920
0.64073905386,1937
0.640752052255,1938
0.641006896739,1940
0.64143079924,1941
0.641458999209,1935
0.641465479197,1939
0.641509162264,1925
0.642048319199,1936
0.642122711636,1943
0.642186191199,1944
0.642285910424,1945
0.642303550329,1942
0.642955110714,1946
0.643609518211,1947
0.643639474985,1948
0.644192786539,1949
0.644268200312,1950
0.644345663896,1951
0.644370105059,1952
0.644714540952,1953
0.644769649631,1954
0.644796671964,1955
0.645001369261,1956
0.64526019823,1957
0.645331131428,1958
0.645633311925,1960
0.645844870823,1962
0.645870670769,1963
0.646018510206,1959
0.646187609545,1965
0.646331969016,1966
0.646560808135,1967
0.646791327227,1964
0.646834286952,1968
0.646853006875,1969
0.647009485723,1970
0.647052325425,1971
0.647568681225,1972
0.647925679534,1973
0.648376755827,1961
0.648656392636,1974
0.648851360149,1975
0.649656629909,1977
0.649737269289,1976
0.650504426681,1979
0.650900184991,1981
0.650923104947,1980
0.65106302385,1982
0.651158303107,1978
0.651984450641,1983
0.653385320825,1984
0.653554553847,1986
0.653562113816,1985
0.655133527439,1987
0.656534528721,1988
0.656665673008,1989
0.657665687497,1992
0.657814726947,1991
0.657823461656,1993
0.65842744198,1990
0.658574355965,1994
0.658948906467,1996
0.659548301524,1995
0.660003717014,1998
0.660263634901,1999
0.660537712668,1997
0.660790297018,2000
0.661125756215,2001
0.661470620018,2003
0.661566499271,2002
0.661848710049,2005
0.661915069547,2004
0.662344117878,2006
0.662789391741,2007
0.663269412734,2008
0.664678154056,2009
0.664922270564,2010
0.66532131604,2011
0.665341063606,2012
0.665691338689,2014
0.665746898302,2015
0.665921976897,2016
0.666044615977,2017
0.666327094308,2018
0.666543096657,2013
0.666813334808,2021
0.666838774754,2019
0.666856732297,2020
0.667425373072,2022
0.669081360098,2023
0.669197649178,2024
0.669913280001,2025
0.670126897202,2026
0.670282198185,2027
0.670645767376,2028
0.670852323171,2029
0.671618915,2030
0.671790749388,2031
0.671905755111,2032
0.67200330558,2033
0.67327667791,2034
0.67366952127,2035
0.673941900051,2036
0.674206772038,2037
0.674840478098,2038
0.67484628923,2039
0.675406156036,2040
0.675815530155,2041
0.675947261224,2042
0.67608526469,2043
0.676374961776,2044
0.67679110981,2045
0.677144695211,2046
0.677460445209,2047
0.677498212167,2048
0.678188387803,2049
0.678240039476,2050
0.678375714532,2051
0.678813116054,2053
0.678853555769,2052
0.679903051762,2054
0.68049274475,2055
0.680541021218,2057
0.680589740864,2056
0.680830403348,2059
0.680975842191,2060
0.681535637578,2058
0.682126401171,2061
0.682329143468,2062
0.682425193291,2063
0.682575877885,2064
0.68260318447,2065
0.683939023945,2066
0.684059293802,2067
0.684661473138,2068
0.684754768474,2069
0.686272920335,2070
0.687202324698,2071
0.687405623839,2072
0.68804062119,2073
0.688215448185,2074
0.688649745483,2076
0.688996662697,2077
0.689182781305,2079
0.689396620466,2075
0.689528870681,2080
0.689552630535,2078
0.689566656994,2081
0.690487723226,2082
0.690556022707,2083
0.690595743706,2084
0.691128414286,2085
0.692406588008,2086
0.692632430998,2090
0.693943548936,2094
0.693995868935,2095
0.694030428937,2093
0.694512348933,2097
0.694637388937,2087
0.694763028937,2088
0.69518603132,2098
0.695661107826,2100
0.696149267827,2096
0.696360707825,2091
0.696532037719,2103
0.696852677713,2105
0.697029197714,2104
0.697072637714,2101
0.697132880813,2106
0.697517716449,2089
0.697886359596,2107
0.697928239571,2092
0.698019319243,2099
0.698189357878,2102
0.69863663742,2108
0.698660369369,2109
0.698851172327,2110
0.699419986291,2111
0.699891341749,2112
0.700084664093,2113
0.700227274565,2114
0.700551698846,2115
0.700565142034,2116
0.701766518204,2117
0.701962331535,2119
0.701978051494,2118
0.70217653315,2120
0.702250698225,2122
0.702263898167,2121
0.702450524451,2123
0.702570026184,2124
0.703237264059,2125
0.704066453462,2127
0.704169772883,2128
0.70434917144,2126
0.704433117371,2130
0.704503196838,2129
0.704650657271,2132
0.704788416175,2131
0.704874652723,2133
0.705107626991,2134
0.70595899785,2137
0.706169957077,2138
0.70631587678,2136
0.706519155985,2139
0.706622595177,2140
0.706712954527,2141
0.706730354433,2135
0.707239171029,2142
0.707497564589,2143
0.70790415395,2144
0.708147420851,2145
0.708457091639,2146
0.709597494405,2147
0.710129692986,2148
0.710193480674,2149
0.710202689191,2150
0.710279542822,2151
0.710629232678,2152
0.710680860756,2153
0.710725829891,2154
0.710853974993,2155
0.710983851856,2156
0.711451778443,2157
0.712372990535,2159
0.712458789871,2158
0.712799055083,2160
0.713199298229,2161
0.713708560792,2163
0.7137618404,2162
0.714830248049,2164
0.714887026462,2165
0.714909351886,2166
0.715078049237,2168
0.715104929064,2167
0.715240753714,2169
0.715276014199,2170
0.716302920256,2171
0.716912533392,2172
0.717308125603,2173
0.717728431032,2174
0.718801864928,2175
0.719240356474,2176
0.719296766313,2177
0.719575283801,2178
0.719621846856,2180
0.719996845586,2183
0.720151285536,2184
0.720168568734,2179
0.720431727689,2181
0.720695214707,2185
0.720976852541,2186
0.721033852118,2182
0.721352225376,2187
0.722031507628,2188
0.722526641108,2189
0.72277038126,2190
0.722824938147,2191
0.723026817265,2192
0.723106411314,2193
0.72367329291,2194
0.724192558659,2195
0.724397482264,2197
0.724861278508,2198
0.725041877055,2196
0.725663028146,2199
0.725820073509,2200
0.726744275608,2201
0.727385978537,2202
0.727559428418,2203
0.727658405577,2204
0.728078804102,2205
0.728268211361,2206
0.728409374901,2207
0.728883033979,2209
0.728943633814,2210
0.729024033531,2211
0.729114632828,2208
0.729741418086,2212
0.730015619101,2213
0.730748765292,2214
0.730936970653,2215
0.731317606479,2216
0.731441406133,2217
0.731873261282,2218
0.732979737233,2219
0.733969834228,2220
0.73672771467,2222
0.736749434541,2221
0.736771812711,2223
0.736911533099,2224
0.73692542167,2225
0.737651420965,2226
0.73768248162,2227
0.737717118767,2228
0.737933743986,2230
0.738494379366,2229
0.739722415438,2231
0.73984583765,2232
0.74013619341,2233
0.740139488677,2234
0.740433041098,2235
0.740923523343,2236
0.741076895369,2237
0.741270962383,2238
0.742241582617,2239
0.742847389459,2240
0.744371362473,2241
0.745926061059,2242
0.747334756786,2243
0.748150521658,2245
0.748185569933,2246
0.748256484224,2247
0.748555641801,2248
0.749358555235,2249
0.749747472588,2251
0.750286390467,2252
0.750350470253,2244
0.75056540786,2250
0.751275584588,2253
0.75169341342,2254
0.751815455897,2256
0.751828535895,2255
0.752402850163,2257
0.752954327704,2258
0.753514086764,2259
0.753703776526,2260
0.754051634314,2262
0.754324032436,2261
0.754467051056,2264
0.754607809939,2265
0.754676689416,2263
0.754827240452,2266
0.755282115546,2268
0.755282835546,2269
0.755792591399,2267
0.755994982809,2270
0.756226615991,2271
0.757226432313,2275
0.757253432289,2274
0.757482271388,2272
0.757566514115,2273
0.75773192271,2276
0.758350699181,2277
0.758523795016,2278
0.759025349902,2279
0.760549708282,2280
0.760608696069,2281
0.761150302558,2282
0.761408569931,2283
0.761960750368,2284
0.762257597741,2285
0.762482531935,2286
0.762523629226,2287
0.762553205937,2288
0.762837431497,2289
0.763379732792,2290
0.764548948863,2291
0.765763679358,2292
0.765788854102,2293
0.765931378839,2294
0.766399522405,2295
0.766850306048,2296
0.768633886956,2297
0.770042331013,2298
0.770957080718,2300
0.77136459738,2301
0.772176993307,2303
0.772227153298,2302
0.772862310704,2299
0.772964193155,2304
0.773110773841,2305
0.773180388296,2306
0.77346172547,2307
0.773513229048,2308
0.773648234885,2309
0.774435666069,2310
0.775337406573,2311
0.775400858991,2312
0.775523199262,2313
0.776529836686,2315
0.776600636148,2314
0.776816960256,2316
0.776921787594,2317
0.777432044737,2318
0.777692578085,2319
0.777729742656,2320
0.777733022758,2321
0.777775765564,2322
0.77783688775,2323
0.778735433144,2324
0.779237311283,2326
0.779546429019,2325
0.779635737128,2328
0.779922175924,2327
0.780519358892,2329
0.780596861729,2330
0.781112481624,2331
0.781670919955,2332
0.78193691827,2333
0.782384771814,2334
0.78266052431,2335
0.783238715837,2336
0.783311295992,2337
0.783458668546,2338
0.783866631224,2339
0.783908580009,2340
0.783919646844,2341
0.784806305981,2342
0.784836570039,2343
0.785539757906,2344
0.786375451501,2345
0.786566330045,2346
0.786654600608,2347
0.787245794208,2348
0.787722222552,2350
0.787830101931,2349
0.787971175616,2351
0.788411764413,2352
0.78848769242,2353
0.789032019371,2354
0.789073591574,2355
0.78948904792,2356
0.789668892868,2357
0.790732754396,2358
0.790928981906,2359
0.79152717795,2360
0.791581195889,2361
0.792362699539,2362
0.792764788626,2363
0.793046123462,2364
0.793286153509,2365
0.793304300653,2366
0.793871996057,2367
0.793978910757,2369
0.794066870095,2370
0.794105029877,2371
0.794798868208,2368
0.795078185744,2376
0.795291425329,2372
0.795617468498,2373
0.795676868303,2375
0.795777670763,2374
0.796508773091,2377
0.797215939136,2378
0.797297483936,2379
0.798122396714,2382
0.798180596523,2381
0.798307435518,2380
0.799296160203,2383
0.800500608583,2384
0.800694959063,2385
0.800863301958,2386
0.802121558881,2387
0.8022511492,2389
0.802412668032,2391
0.802427788022,2388
0.802473299343,2390
0.803003338387,2392
0.803212731768,2393
0.803503356556,2394
0.804823662271,2395
0.80540106205,2396
0.805765464532,2397
0.80745824763,2399
0.807517647187,2398
0.807854128795,2400
0.808541966076,2401
0.808998005383,2402
0.809048509339,2403
0.809928290887,2406
0.810061130848,2408
0.810385850405,2404
0.810505973562,2410
0.810533573539,2407
0.81055445671,2411
0.81097853503,2412
0.811057734752,2409
0.811107294391,2405
0.812524498803,2413
0.813291525055,2416
0.813462524685,2417
0.813503564565,2415
0.814839518692,2420
0.815242024739,2422
0.815390318086,2423
0.815450944364,2424
0.815609677684,2419
0.815783920882,2421
0.815883880568,2425
0.81604779998,2426
0.816849038468,2428
0.816888038413,2414
0.817305996724,2427
0.817885231949,2418
0.818691832654,2429
0.818779656135,2431
0.818796816043,2430
0.818818912897,2432
0.819534650229,2433
0.820871704885,2435
0.822053938568,2438
0.822235927309,2439
0.822837607252,2440
0.822844807241,2441
0.823270930391,2442
0.823317730367,2436
0.82333189036,2434
0.823462089327,2437
0.823950719516,2443
0.823973079957,2444
0.824003102393,2445
0.824401498743,2447
0.824466538253,2446
0.824520586011,2448
0.824949173876,2449
0.825508618583,2450
0.82599686194,2451
0.826491968547,2452
0.826574145248,2453
0.826801241019,2455
0.827171797983,2454
0.827217475079,2456
0.82729316079,2457
0.827425106969,2459
0.827598745574,2458
0.828686365754,2460
0.829421441957,2461
0.830157341242,2462
0.830453012994,2464
0.830626531614,2465
0.830961448874,2463
0.831510010622,2467
0.832031646326,2466
0.832276388653,2468
0.833674036931,2469
0.834444161252,2470
0.835375663132,2471
0.836612306651,2472
0.837116126674,2473
0.837727398715,2474
0.838324448816,2475
0.83882354588,2476
0.838968578821,2477
0.838994132055,2478
0.83934147335,2479
0.840229190163,2480
0.840650750183,2481
0.841118616868,2482
0.841304425623,2483
0.842248932282,2484
0.842648104051,2485
0.843107757899,2486
0.843927421222,2487
0.844968216958,2489
0.845029656498,2488
0.845481203151,2490
0.846269767994,2491
0.846497983177,2492
0.847988543083,2493
0.849135769263,2494
0.849774979132,2496
0.850560612637,2495
0.850612986877,2497
0.851085805522,2498
0.85155002269,2499
0.851854157563,2500
0.852288295414,2501
0.852512523936,2504
0.853058282034,2506
0.853103217518,2507
0.853165805187,2508
0.853424885164,2505
0.853642447529,2509
0.853665727483,2502
0.853709657299,2511
0.853726217281,2512
0.854417774452,2510
0.854436017625,2513
0.854481017322,2514
0.854550376809,2515
0.855022452926,2503
0.855268283568,2516
0.855847661763,2517
0.856148662493,2518
0.856920895696,2519
0.857030730282,2520
0.857068317892,2521
0.857983866056,2523
0.858135904841,2522
0.85880587996,2524
0.860027866265,2525
0.860730361998,2526
0.862137564215,2527
0.862179072183,2528
0.862214804439,2529
0.862350109402,2530
0.862848035025,2531
0.86297609076,2532
0.863200557771,2534
0.863234277619,2535
0.863293437178,2533
0.86338634918,2536
0.864041748203,2537
0.864458083461,2538
0.864786651895,2540
0.86480681506,2541
0.865853087946,2542
0.865961807544,2543
0.866127766213,2539
0.866437241605,2544
0.866654492142,2546
0.866958089664,2545
0.868184769266,2548
0.868993562578,2547
0.86996138087,2549
0.870243177159,2550
0.870328004396,2551
0.870419649048,2552
0.870917419153,2553
0.871457534089,2554
0.871838282219,2555
0.872179691188,2556
0.872374322286,2557
0.872495806925,2558
0.872798042228,2559
0.87294790647,2560
0.873015923509,2561
0.873355607256,2563
0.873371207177,2562
0.873510506064,2564
0.874121662793,2566
0.874871538284,2568
0.87547525582,2567
0.875811373986,2570
0.87592633356,2565
0.876046153905,2571
0.876368351287,2572
0.87642031104,2573
0.87646135075,2569
0.876572516095,2574
0.877465981302,2575
0.877747744303,2576
0.877848607216,2577
0.878984745604,2579
0.879110624607,2578
0.879371841442,2581
0.880673592032,2583
0.881245029703,2580
0.881288338399,2582
0.88150685027,2584
0.881676930996,2585
0.881913045158,2586
0.882194482553,2587
0.882223699296,2588
0.882273051717,2589
0.884195130532,2591
0.88435160928,2590
0.884571515747,2592
0.885673283392,2593
0.885858951601,2594
0.886249125016,2595
0.886617223191,2597
0.88662238317,2596
0.887008877035,2598
0.88701536793,2599
0.887125375584,2600
0.887854462769,2601
0.888394087929,2602
0.889035046054,2603
0.889115701565,2604
0.889413042632,2605
0.890665404962,2607
0.890801363913,2608
0.891349759405,2609
0.89136379934,2606
0.892065288291,2610
0.892765813249,2611
0.893260365979,2612
0.893511910147,2614
0.893553309858,2615
0.894073625574,2613
0.894197173523,2616
0.896232355141,2617
0.89655957677,2618
0.897791046153,2619
0.898345707401,2620
0.898950739255,2621
0.899253434127,2622
0.899460503349,2623
0.89951207707,2624
0.899800290557,2625
0.899815380199,2626
0.900087364604,2627
0.900409591236,2628
0.900699654611,2629
0.900866613977,2631
0.901041332947,2633
0.90111081271,2632
0.901241851801,2634
0.901452450097,2630
0.901633814911,2635
0.90175753718,2636
0.902281291564,2637
0.902391049909,2638
0.903489990661,2639
0.903582096484,2640
0.903994815328,2641
0.904467001803,2643
0.904741320215,2642
0.90499799,2646
0.905239789936,2647
0.905335189615,2648
0.905380309479,2644
0.905417032578,2650
0.905459632452,2645
0.905834989375,2651
0.906062147535,2649
0.906190429794,2653
0.906300468944,2654
0.906590867017,2655
0.907372780911,2657
0.907419940767,2656
0.907481860303,2652
0.907681535338,2658
0.907908911622,2659
0.908105589687,2660
0.908518703846,2662
0.908838261261,2663
0.909247817905,2664
0.909374896898,2661
0.910561956986,2666
0.910624356708,2668
0.910641636687,2667
0.910732116033,2669
0.911050833429,2665
0.911620250405,2670
0.913563193467,2671
0.913610574484,2672
0.91433831835,2673
0.914491463323,2674
0.91558680464,2675
0.916006569351,2676
0.916323393083,2677
0.916990965467,2678
0.91703943305,2679
0.917708048004,2680
0.91772468616,2681
0.917945224021,2682
0.918431833335,2683
0.918614735223,2684
0.919521416382,2685
0.920418284588,2686
0.920749179466,2687
0.920934339339,2688
0.921362316036,2689
0.922700063607,2690
0.922921276652,2691
0.923003147878,2692
0.923227141195,2693
0.923418783002,2695
0.92344806285,2696
0.923802900458,2697
0.923999939689,2698
0.92463761444,2699
0.924669054229,2694
0.924745776519,2700
0.924880388886,2701
0.925088369634,2703
0.925175248962,2702
0.925430835394,2704
0.925463413208,2705
0.9255401138,2706
0.92580066278,2708
0.925823462659,2709
0.925921501953,2710
0.926033701074,2711
0.92638469932,2712
0.926589658404,2713
0.926792696766,2714
0.926991895158,2707
0.927006178339,2715
0.927728862495,2716
0.928352102323,2717
0.928360255988,2719
0.928397938974,2718
0.928642447271,2720
0.929217105815,2721
0.929455683727,2723
0.929710681658,2724
0.929841120623,2722
0.930269326606,2726
0.930354765945,2725
0.930490663704,2727
0.931073823561,2729
0.931143903029,2728
0.931442105064,2730
0.93201969813,2732
0.932316215711,2731
0.932651451753,2733
0.933258049653,2735
0.933360529279,2734
0.933636173483,2737
0.933704692964,2736
0.934109723461,2739
0.934543160723,2742
0.93483452068,2743
0.935177843873,2744
0.935189363854,2741
0.935433687047,2746
0.935463930206,2747
0.93582561018,2748
0.93592149015,2749
0.936070890126,2738
0.936652768391,2751
0.936829888361,2752
0.937247248321,2753
0.937454488144,2755
0.938193968204,2758
0.938211488204,2756
0.938449448207,2745
0.938575567971,2754
0.938971410332,2759
0.939050973503,2760
0.939180851051,2761
0.939651371027,2750
0.939768010632,2762
0.939895210154,2757
0.940266130411,2763
0.940420929173,2740
0.940575228173,2764
0.940875035766,2765
0.94100288927,2767
0.941192248533,2768
0.941534245735,2766
0.94236958149,2769
0.94267654363,2770
0.942716420262,2771
0.943207062355,2772
0.943345253256,2773
0.943402642661,2774
0.944508432605,2775
0.944568181805,2776
0.944741815743,2777
0.945145562018,2778
0.94609967263,2779
0.946457619933,2780
0.946694871416,2781
0.947051258833,2782
0.947122762813,2783
0.948119904939,2784
0.948198061405,2786
0.948280980766,2785
0.949568466693,2787
0.949588061879,2788
0.949789579486,2789
0.950748550295,2790
0.950928862885,2791
0.951585467077,2793
0.951833745113,2794
0.952073983207,2795
0.952226622225,2797
0.953245780486,2801
0.953249579961,2800
0.95334970034,2802
0.95336314034,2803
0.95385119334,2798
0.953860797467,2804
0.953946476517,2792
0.954042116171,2799
0.954226797932,2796
0.954272429571,2805
0.954518113652,2806
0.955269135148,2807
0.957098638769,2808
0.957697882481,2809
0.958657434746,2811
0.959065314286,2813
0.959073834287,2812
0.959261272817,2814
0.959749068949,2815
0.96009034616,2816
0.960369104725,2818
0.960390704707,2819
0.960637423809,2820
0.961069183362,2822
0.961142506561,2810
0.961167979765,2821
0.96173052281,2825
0.961914689957,2824
0.962342044278,2823
0.963293762567,2827
0.963635041212,2828
0.963811680569,2829
0.96385020046,2826
0.96409391848,2817
0.964711048008,2836
0.965460153368,2833
0.965676153367,2837
0.96571023337,2830
0.965788113233,2838
0.965811396429,2839
0.966667273555,2840
0.966677233557,2831
0.967061716682,2842
0.967151719718,2835
0.967259122885,2843
0.967483282862,2832
0.967531765931,2834
0.967808003681,2841
0.967837881306,2844
0.967912595858,2845
0.968352157178,2846
0.968733889053,2847
0.968764121743,2848
0.969279481679,2851
0.969851039349,2849
0.970006403686,2852
0.970221801942,2850
0.970370096916,2853
0.97098056162,2854
0.971019402339,2855
0.971520105102,2856
0.971605824927,2857
0.972127562188,2858
0.972374597962,2860
0.972813434393,2861
0.973001952874,2859
0.973215058262,2862
0.973388912287,2863
0.973708776463,2864
0.974378068165,2865
0.974639861542,2866
0.974769754405,2867
0.975380823276,2868
0.97639953061,2869
0.976409376439,2870
0.976764639432,2872
0.977189195946,2871
0.97819243812,2873
0.978827106053,2874
0.979348513533,2875
0.97948386568,2876
0.979555784957,2877
0.979770187992,2879
0.980006946089,2880
0.980055185779,2881
0.980652542668,2885
0.980693222612,2883
0.981110465621,2878
0.981481988819,2882
0.981608348439,2888
0.981758581639,2884
0.981798541524,2887
0.982185659466,2889
0.982203779366,2886
0.982464564749,2891
0.982597763993,2892
0.98273744288,2890
0.983286411506,2893
0.98395008191,2894
0.984592140405,2895
0.985344947836,2896
0.986491418838,2898
0.986526938637,2899
0.986951135153,2897
0.987554354486,2900
0.988695921172,2901
0.988823380673,2902
0.989186068976,2904
0.989951062652,2903
0.989954780182,2905
0.991167361287,2906
0.991241691838,2907
0.991388249236,2910
0.991422689145,2908
0.991482036745,2911
0.991531116592,2909
0.991849911139,2912
0.992124570343,2914
0.992316928792,2913
0.992719650531,2915
0.992766213443,2916
0.993489938095,2917
0.993714920658,2918
0.993865150108,2919
0.99394630594,2920
0.994566819404,2921
0.995215296966,2923
0.995474734856,2922
0.996036742399,2926
0.996062422377,2927
0.996091462308,2925
0.996779056647,2928
0.997215013083,2929
0.997246452873,2924
0.997300914397,2930
0.997454012521,2931
0.997759406341,2932
0.997818035442,2934
0.998184752439,2933
0.998569712579,2936
0.99874911114,2937
0.998999189108,2935
0.999315952334,2938
0.999449382864,2939
0.999558138596,2940
0.999714758978,2941
0.999791624968,2942
1.000289468507,2943
1.000437573499,2944
1.000616829813,2945
1.000647794608,2946
1.001376445506,2947
1.001446908536,2948
1.001494615168,2949
1.001534956501,2950
1.001700880768,2951
1.002168112648,2952
1.002787628579,2953
1.003175624553,2954
1.003489221207,2955
1.00399259001,2956
1.004397072984,2957
1.005066655141,2958
1.005694716286,2959
1.005701953965,2960
1.005954525609,2961
1.006313398079,2962
1.006358776317,2963
1.006689418467,2965
1.007120456809,2967
1.007246816335,2966
1.007411695012,2964
1.008308613884,2970
1.008886292627,2969
1.009196131388,2971
1.009301010565,2968
1.009467306208,2973
1.010308862215,2975
1.010350622093,2972
1.010426024488,2976
1.010605783041,2974
1.010633348149,2977
1.010921072871,2978
1.011764734238,2979
1.01210328724,2980
1.012801354932,2982
1.013358151193,2984
1.013386231128,2983
1.013638589076,2981
1.013954221251,2985
1.014172337107,2986
1.014708148502,2987
1.016462440569,2989
1.016643279161,2990
1.01678835809,2991
1.016868997469,2988
1.01742062235,2993
1.017801379602,2994
1.018090458307,2992
1.018105685719,2996
1.018465414445,2997
1.018743452976,2999
1.019923288113,2995
1.020037415691,2998
