time,IdealSim1.flowGenerator3.flowCompletionTime:vector
0.000055232,5.5232e-05
0.005516870334,0.00285636
0.011941670334,1.37569e-05
0.014689670333,3.14304e-05
0.015420470332,0.0126701
0.024821270332,6.20543e-05
0.029020070331,3.54302e-05
0.030919670329,6.85304e-05
0.032202470327,2.86996e-05
0.033674870325,0.000128754
0.034174070324,5.38629e-05
0.035029670322,0.000125809
0.036122870321,0.0341628
0.039087207896,7.56995e-05
0.042884007894,0.000130186
0.043586007891,0.0012695
0.04648520789,0.000240053
0.050922807889,0.000187152
0.054173607888,0.000116168
0.055529607886,0.0082222
0.058918407885,0.0149456
0.061316007885,0.00142322
0.062609607885,0.000138999
0.065378007884,0.0386628
0.066431672596,2.8832e-05
0.066958761684,6.1232e-05
0.071776423246,4.99083e-05
0.072772423246,0.00351243
0.074765808039,1.4432e-05
0.07553198774,8.2832e-05
0.080426909995,0.000624032
0.086189833029,9.72392e-05
0.089929033028,0.00486003
0.092741045479,6.3632e-05
0.095498013483,0.000116432
0.097773486498,5.8832e-05
0.099525328227,2.0432e-05
0.106631851788,4.49961e-05
0.109738651787,0.00286774
0.113625451786,0.00770523
0.120461255702,0.00163083
0.122179651118,0.000940832
0.123928223983,9.02459e-05
0.125778623982,2.80496e-05
0.126060623981,0.00338456
0.126718223981,0.000197483
0.128130623981,0.00195731
0.13600502398,3.57521e-05
0.137728223979,2.36904e-05
0.138257423977,0.000165779
0.142276223977,0.0146036
0.142869023977,0.0156619
0.143153423977,6.8943e-05
0.143963288281,2.71044e-05
0.145042144673,0.0119278
0.147451744672,0.0106056
0.147566888277,0.0175608
0.149019055973,3.35283e-05
0.149087455973,0.0266425
0.149840170531,0.00148339
0.151457770531,0.00031363
0.152292970531,0.00540963
0.152768179865,5.6432e-05
0.154114154549,0.000631232
0.159246070733,9.83617e-05
0.162931270733,0.000148572
0.163090870733,0.00744363
0.165069858775,2.8832e-05
0.171193905264,0.000760832
0.172877435849,3.6032e-05
0.176604222102,3.9632e-05
0.17825936125,2.0432e-05
0.182214307792,0.000726032
0.188369025951,0.00147963
0.205398592763,0.00244323
0.205979647542,5.5232e-05
0.206373154121,1.3232e-05
0.206980456866,1.4432e-05
0.208729703905,0.00121323
0.211972094594,0.000326432
0.230728633097,0.00110764
0.234441433097,0.00238231
0.234493065097,6.15854e-05
0.235327033096,5.71526e-05
0.238065433096,0.0198744
0.242870610669,6.1232e-05
0.261402464478,4.79524e-05
0.261474464478,0.00155043
0.262668887229,1.8032e-05
0.265533519193,1.6832e-05
0.266602597299,6.1232e-05
0.268515345947,6.4832e-05
0.27610797493,2.38251e-05
0.277636774929,5.88634e-05
0.278665174928,0.00454563
0.284925731848,5.9865e-05
0.286941731848,0.00423483
0.287510217986,1.9232e-05
0.288606937349,1.9232e-05
0.299182478937,7.5632e-05
0.304597722073,1.3232e-05
0.307290445539,1.6832e-05
0.314080467884,0.00104763
0.31867924366,0.00535323
0.323480661078,3.0032e-05
0.329621364816,0.00460923
0.330969954811,3.3632e-05
0.337484708805,3.6032e-05
0.339995833549,6.9632e-05
0.341861716656,0.000151232
0.342580858186,1.5632e-05
0.342785647998,0.000126032
0.347495232421,0.000136832
0.348591767285,0.000261632
0.350283665125,2.0432e-05
0.357744345391,0.00724323
0.358161569951,0.000158432
0.375462874156,3.3632e-05
0.38593812631,0.000811232
0.397226173656,3.1232e-05
0.399605951092,1.8032e-05
0.405182276229,8.1632e-05
0.409299849038,5.5232e-05
0.41813223721,0.00153998
0.42003303721,0.00763683
0.421617669773,6.9632e-05
0.42384806464,5.5232e-05
0.424518585241,9.1232e-05
0.435486537094,1.5632e-05
0.437994514549,0.00133683
0.438642967203,8.5232e-05
0.441114497936,1.5632e-05
0.443014124624,0.000580832
0.443963137486,2.0432e-05
0.448929077062,7.4432e-05
0.450566296562,0.00155163
0.464807407025,0.00656043
0.472237558524,1.4432e-05
0.476627779282,0.000153632
0.483174498841,0.00470763
0.483529837988,0.000169443
0.486359437987,0.00539883
0.490767399936,2.0432e-05
0.49214600011,6.1232e-05
0.49486584231,2.0432e-05
0.50058839417,0.000121705
0.50063399417,0.00475923
0.501523596971,0.00273123
0.502233389638,5.2832e-05
0.508373559664,8.7632e-05
0.517245270322,2.2832e-05
0.522774275597,0.000984032
0.523521704178,8.07095e-05
0.527918504178,0.00610923
0.527954839821,5.1632e-05
0.528084471821,0.00013642
0.530672068626,0.00121923
0.535332247612,0.000415232
0.53675653857,0.00102003
0.536829971775,1.9232e-05
0.542569448467,0.00422043
0.542704418039,0.00136443
0.549095682922,0.000547232
0.549343867626,0.000706832
0.551402717332,0.00122043
0.553942381431,4.5632e-05
0.556335499703,4.4432e-05
0.559287761799,0.00131883
0.562995354613,3.3632e-05
0.56535967935,4.5632e-05
0.578021046794,0.00245683
0.578873046793,0.00514323
0.581614018668,5.7632e-05
0.58760496718,1.33249e-05
0.588341767179,0.00530643
0.592146136098,0.00114386
0.594888136097,0.0100368
0.603423594841,7.0832e-05
0.605096823664,0.000312032
0.605211153288,1.6832e-05
0.606858988893,1.9232e-05
0.609634355373,0.00150843
0.619524153561,1.83037e-05
0.623181753561,0.00011196
0.62626575356,0.00690603
0.627704784657,4.5632e-05
0.638639049968,0.000142832
0.647826326412,9.49404e-05
0.648643526411,8.52382e-05
0.64865792641,0.00649443
0.649481312922,3.1232e-05
0.652611737577,0.00131643
0.663395256107,0.00486603
0.66411337881,0.00205083
0.665271775616,0.000136832
0.668879345534,3.7232e-05
0.674134840901,1.3232e-05
0.676155721899,0.00139443
0.677643038062,0.000282032
0.684686690379,2.1632e-05
0.696517421267,4.0832e-05
0.701770676139,0.000142832
0.704631619263,7.5632e-05
0.705061434652,1.3232e-05
0.710941184941,0.00367563
0.715104237117,0.000884432
0.716136489826,4.5632e-05
0.720884792192,6.6032e-05
0.728446080721,0.00450003
0.730446664177,0.00063075
0.731075464176,0.00164523
0.732563396121,6.4832e-05
0.734085556243,1.3232e-05
0.734959993851,3.3632e-05
0.741453601366,0.00569523
0.74671099358,0.00237363
0.750726175095,0.000754832
0.753145915144,0.000105632
0.759994300882,2.14292e-05
0.762775900882,3.54361e-05
0.763907500881,0.000118983
0.771534700881,2.78166e-05
0.782196700881,0.00229639
0.78235510088,0.0238368
0.790865464039,4.28639e-05
0.794856664039,0.00589683
0.804620769044,0.000792032
0.806552663998,6.4832e-05
0.815051539971,1.5632e-05
0.818276151427,3.1232e-05
0.819641104758,0.00125643
0.824446547946,7.2032e-05
0.830134907194,0.00124323
0.832264307008,2.8832e-05
0.840678197535,1.85289e-05
0.845331797534,0.00533763
0.84779041651,0.000904832
0.850022023055,7.4432e-05
0.852598208767,1.9232e-05
0.854902609449,2.4032e-05
0.85621838228,1.3232e-05
0.858973799239,5.1632e-05
0.860669271985,1.4432e-05
0.864788004376,1.8032e-05
0.865896558522,1.4432e-05
0.866920888529,7.3232e-05
0.876301393893,3.2432e-05
0.876993964855,1.8032e-05
0.87956946501,5.97518e-05
0.882191465009,0.00308283
0.886144067394,8.8832e-05
0.887182649271,3.1232e-05
0.888198219027,0.000228032
0.89148188082,7.9098e-05
0.891768680819,3.22095e-05
0.893002280817,6.86125e-05
0.893358680817,0.00535281
0.893649080816,5.65368e-05
0.894325880815,2.35901e-05
0.897072680813,0.000294841
0.897371480812,0.000250916
0.898937480811,0.010932
0.905618923294,9.9827e-05
0.911002123293,0.000225554
0.911688523293,8.37936e-05
0.912571723293,0.00819483
0.91420072451,1.3232e-05
0.918080571065,0.00274203
0.918675309353,5.96448e-05
0.918756909352,4.97324e-05
0.91893930935,0.00250563
0.922387876712,0.000951632
0.930194469974,0.00178323
0.935050038634,0.000255632
0.935947526235,5.0432e-05
0.951240475824,5.7632e-05
0.954344265635,0.00245296
0.955352265634,0.000147466
0.956787465633,0.00248662
0.956876265632,0.000274708
0.957413865631,0.00569403
0.960187418536,5.7632e-05
0.960753857864,2.0432e-05
0.96138296294,4.6832e-05
0.962199007888,1.5632e-05
0.969191506749,2.1632e-05
0.975387426243,1.9232e-05
0.980584806478,1.66504e-05
0.982353606477,0.00614643
0.985405728466,2.31151e-05
0.991309728465,0.00610803
0.991626126047,0.00262083
0.992377682536,3.1232e-05
0.998112965095,0.000277232
0.999114801478,1.61807e-05
0.999915201478,0.000925232
1.004950587557,0.000117632
1.006246415623,0.000520832
1.008440460907,1.3232e-05
1.012620261288,1.9232e-05
1.012680968746,1.6832e-05
1.013013791926,3.6032e-05
1.013220578276,8.09048e-05
1.020930578275,0.00789723
1.022624939171,0.000128432
1.024043469588,3.4832e-05
1.025732486377,2.8832e-05
1.028770161584,1.6832e-05
1.037051974505,3.2432e-05
1.037223542844,2.0432e-05
1.04332709024,3.27799e-05
1.043660690239,4.22083e-05
1.044743090238,0.00168123
1.045571932127,0.000283212
1.047094732127,8.52607e-05
1.050874732127,2.15362e-05
1.053865132127,0.000104848
1.055333964127,0.0115633
1.057484364127,0.00382963
1.060177164127,0.0072777
1.060971104732,5.90792e-05
1.062117104732,0.000126322
1.062658304732,0.0155832
1.063965042238,3.6032e-05
1.064251092532,0.000313232
1.073444221179,4.93961e-05
1.075515421179,0.00632281
1.080501421179,0.00383752
1.081047421179,0.0106806
1.088957821179,0.0217116
1.093195309946,1.3232e-05
1.10419437086,0.000499232
1.105669133612,1.6832e-05
1.107700499099,1.4432e-05
1.109294922192,6.8432e-05
1.111965724746,0.00194523
1.117300120272,0.000213632
1.120295468155,0.00131283
1.121383756709,0.000129632
1.123329056409,6.2432e-05
1.127967835005,3.9632e-05
1.130432274168,7.9232e-05
1.137731787875,2.32971e-05
1.139230587875,3.51944e-05
1.139337387875,0.000290379
1.143831387875,8.6286e-05
1.144493787875,0.000133909
1.145260587875,0.0001981
1.147157787875,4.77892e-05
1.149932187875,0.00233733
1.153662987875,0.00182106
1.157151387874,0.000164679
1.158167787873,0.0230124
1.158639258495,5.46729e-05
1.160298858495,0.00849123
1.163741145907,1.9232e-05
1.163774713148,1.5632e-05
1.167476482951,0.00132603
1.172656462814,4.8032e-05
1.183387517118,3.0032e-05
1.184673467984,0.000362432
1.185708087169,1.6832e-05
1.189621292507,3.0032e-05
1.191856966525,1.8032e-05
1.196943024925,0.00123483
1.200453429493,2.2832e-05
1.207873204915,1.5632e-05
1.214579813464,4.5632e-05
1.215138421783,3.3632e-05
1.216954615214,1.8032e-05
1.228697188246,0.00172683
1.233453797353,2.0432e-05
1.234651264561,2.7632e-05
1.242038543794,0.000836531
1.242840143794,0.00620403
1.245647576271,0.000140432
1.247825203541,0.000109232
1.249387840903,0.000938862
1.252637440902,0.00489243
1.254517653753,5.50422e-05
1.256113653752,0.00775203
1.264158135709,4.0832e-05
1.266788357867,1.5632e-05
1.268178294052,0.00103683
1.269731088807,0.00109323
1.272425580517,7.5632e-05
1.28047459129,0.00180963
1.280726421984,4.36968e-05
1.282918821984,0.00311403
1.284846242792,0.00224107
1.286005442792,1.42274e-05
1.290385442792,0.01047
1.292175205932,0.0112524
1.294955428923,5.7632e-05
1.29837789302,3.1232e-05
1.30227896379,0.00104163
1.306543018007,0.000279632
1.316033580857,0.00126363
1.321002506932,9.31059e-05
1.323623306931,0.00686043
1.331939214036,0.000312131
1.334101614035,6.03152e-05
1.339092414033,0.0114912
1.340052247042,0.0100704
1.34635276264,1.40433e-05
1.35040516264,0.00491163
1.352375152895,0.000849632
1.353532351128,9.10642e-05
1.355352751128,5.98797e-05
1.356870751128,0.000124009
1.357614751128,0.00607323
1.359605742583,2.2832e-05
1.362434936214,0.000200432
1.369408858262,1.4432e-05
1.371428806779,0.000103232
1.375261986708,6.2432e-05
1.385932097346,0.00550923
1.388558380097,0.00181323
1.39559516907,0.00508323
1.399478566164,4.8032e-05
1.403519575906,5.1632e-05
1.413392724979,0.000231632
1.42041359692,1.64009e-05
1.42223879692,0.00763563
1.423356024283,2.4032e-05
1.423859739368,4.5632e-05
1.425691226392,1.9232e-05
1.427145482525,1.6832e-05
1.427392304458,2.0432e-05
1.428654582674,0.000131147
1.429007382674,0.000835232
1.435451072475,1.3232e-05
1.436329169999,1.3232e-05
1.441759076169,6.3632e-05
1.454058513123,0.000129681
1.454400513122,1.38148e-05
1.457848113121,0.00680093
1.460156913121,0.000172954
1.460298513121,5.04644e-05
1.46284011312,0.0143904
1.465078414943,0.0151596
1.466394845478,1.8032e-05
1.467768327313,4.2032e-05
1.468586912382,7.2032e-05
1.473375967381,1.9232e-05
1.48331619371,0.00366845
1.483350993709,0.00550443
1.485297807779,8.2832e-05
1.490092966474,4.3232e-05
1.490235453312,3.4832e-05
1.49174538434,7.87938e-05
1.497622984339,0.00634443
1.498697764901,0.000147632
1.504427478024,0.00392283
1.513901551631,5.18042e-05
1.516525951631,0.00353043
1.521364496093,0.00268683
1.525966485901,1.4432e-05
1.540354201508,0.00432123
1.541193509438,0.000114696
1.545453509438,0.000102395
1.548263909438,0.00787803
1.560395215171,9.9632e-05
1.565367893449,4.4432e-05
1.567109903637,0.000270779
1.567202303636,0.00173763
1.56859626541,3.6032e-05
1.569467814718,1.9232e-05
1.57264180477,6.9632e-05
1.576830580814,0.000331052
1.578395380814,6.3946e-05
1.579001380814,1.38639e-05
1.583018980814,0.00707763
1.589302790175,0.000314337
1.592555990174,4.75403e-05
1.592659222174,0.000105166
1.594297222174,6.87839e-05
1.597185622173,0.00874806
1.597508547466,0.00327483
1.601056694407,6.69912e-05
1.602680294407,5.01357e-05
1.604048294406,0.00320283
1.609138358702,0.00393828
1.610339558702,0.00581163
1.616758051259,0.000142832
1.621919266715,9.6032e-05
1.622540095632,2.6432e-05
1.624728458382,2.7632e-05
1.630707789895,0.000301502
1.631044989895,0.00166683
1.632076275696,0.000249632
1.635877240901,1.5632e-05
1.639480953879,1.5632e-05
1.652951484762,1.3232e-05
1.656501917744,5.6432e-05
1.657428656083,1.5632e-05
1.658956255952,0.000679232
1.663675148512,5.2832e-05
1.673556809893,0.000268662
1.673580809892,0.00521043
1.675372950181,1.3232e-05
1.681589814658,0.00579243
1.683836082978,0.000121466
1.685740482977,0.00303342
1.685886882977,5.23296e-05
1.690745682977,2.48168e-05
1.693000482977,0.000582417
1.694339682977,0.0178812
1.695078829307,3.01914e-05
1.697985229307,6.02656e-05
1.701339229307,0.00461798
1.702730029307,0.00026396
1.703228029307,0.000100562
1.704950029306,0.0146892
1.715918697967,7.62913e-05
1.715951097967,0.000391232
1.716828241401,3.6032e-05
1.718370843636,0.000819632
1.71851138607,0.000168032
1.721061568849,0.000796832
1.723368416068,0.00121323
1.725685885294,1.6832e-05
1.730329459783,1.58964e-05
1.733021059782,0.00302043
1.738097658496,0.00125283
1.742714591467,0.00156483
1.743934757837,0.00130683
1.745215195773,1.40713e-05
1.746700795773,9.67391e-05
1.750498795773,0.00750363
1.750697477521,0.00615723
1.75091374005,3.3632e-05
1.753289066262,0.000625232
1.760138784796,6.4832e-05
1.760349273517,6.2432e-05
1.774305563821,4.5632e-05
1.774781247139,4.9232e-05
1.778386007874,3.2432e-05
1.780909116666,5.4032e-05
1.783092713609,1.4432e-05
1.790489660391,5.2832e-05
1.790830527818,7.9232e-05
1.791401284937,3.9632e-05
1.79418253943,1.9232e-05
1.798933266344,0.000313232
1.799424068857,0.000120032
1.800202857857,5.7632e-05
1.802641583807,2.4032e-05
1.812096769667,9.99525e-05
1.813689169667,0.00132919
1.819907569666,0.00141777
1.820091169666,4.45293e-05
1.820271169666,0.0114876
1.821420331445,3.4832e-05
1.824487097365,5.7632e-05
1.839835052761,1.3232e-05
1.842042414597,4.3232e-05
1.860128828749,3.0032e-05
1.863251471354,0.00159363
1.867660164806,1.4432e-05
1.883242826236,0.00353283
1.894826155253,0.0110616
1.89489563094,0.00223732
1.89551363094,0.0046196
1.89602003094,0.00965403
1.899856998815,7.4432e-05
1.899961556921,3.4832e-05
1.910297813709,1.3232e-05
1.911440877584,3.2432e-05
1.917989396596,3.6032e-05
1.924642641563,0.00293043
1.925323378211,0.000105632
1.925377790655,9.6032e-05
1.92965786256,0.00331655
1.92972386256,4.03685e-05
1.930017862559,0.000255724
1.930400662558,0.00485763
1.931270289202,1.6832e-05
1.932074037468,1.61819e-05
1.932527637467,0.00108603
1.934068971554,7.4432e-05
1.941710127044,6.1232e-05
1.944188842956,0.00138003
1.948785214305,1.3232e-05
1.949824643549,0.000129632
1.952270316761,1.5632e-05
1.956763246761,6.4832e-05
1.95968487521,7.38109e-05
1.960761275209,0.00193203
1.96231533243,0.000404432
1.962690997112,1.6832e-05
1.965103660996,0.00139563
1.967775143165,4.9232e-05
1.970347324203,0.000858032
1.970488753002,1.6832e-05
1.972467289726,3.1232e-05
1.973032621842,1.65105e-05
1.973535421842,3.76501e-05
1.981201021842,5.72236e-05
1.987869421841,0.0149052
1.99360176333,2.89267e-05
1.99610736333,0.00505803
2.000009009786,0.0021977
2.000147009784,0.00899643
2.000239000344,0.00277263
2.000356600343,0.000347191
2.000800600342,4.04444e-05
2.000945800342,0.00897003
2.003707049495,2.2832e-05
2.013529685947,7.5632e-05
2.015361528192,6.4832e-05
2.017450157224,7.61418e-05
2.021158157223,0.00427323
2.021908598331,6.6032e-05
2.023247790051,3.1232e-05
2.024522941932,0.000311003
2.027934541932,0.00425643
2.029110821822,0.00390843
2.031443873339,3.8432e-05
2.038717889702,2.0432e-05
2.045464856719,0.00494403
2.048607366272,9.1232e-05
2.04989764293,0.000117239
2.05324204293,0.00462243
2.056316750436,3.3632e-05
2.067999899055,3.0032e-05
2.068884845963,1.8032e-05
2.07270158814,6.0032e-05
2.080758737073,2.7632e-05
2.08319127681,6.7232e-05
2.08447670686,7.0832e-05
2.086072975101,4.2032e-05
2.089228290529,0.00104163
2.089608372261,1.3232e-05
2.100615511002,2.8832e-05
2.111052080969,7.2032e-05
2.117940770546,3.2432e-05
2.12259455017,0.000640832
2.125431590644,1.87679e-05
2.125660790644,0.00286203
2.129643631409,5.5232e-05
2.129762208496,2.1632e-05
2.132056447242,0.000279632
2.132955481175,0.000205232
2.133106019997,3.1232e-05
2.142929135727,3.9632e-05
2.145366557962,1.8032e-05
2.149624427746,0.00013574
2.152959227745,0.00482523
2.153516891342,0.00251403
2.157944276552,4.79343e-05
2.157952676552,8.8832e-05
2.162602031603,2.1632e-05
2.163610053862,2.8832e-05
2.165448948906,0.000312032
2.166828483149,0.000687632
2.170967336198,9.6032e-05
2.171533477121,2.1632e-05
2.174450443343,0.000519632
2.175452066997,7.3232e-05
2.177110149575,2.0432e-05
2.179122410166,3.58423e-05
2.181313610166,0.00244939
2.184832010166,4.76335e-05
2.185156010165,1.87845e-05
2.190300410163,0.000135685
2.198875610162,1.42607e-05
2.201902010159,0.00370444
2.202671210158,0.0101565
2.203121210157,0.00517076
2.203244810157,0.02538
2.208262828639,3.8432e-05
2.211436848372,4.0832e-05
2.212237543551,5.1632e-05
2.215758065738,2.07326e-05
2.216974865737,0.00337323
2.226335835016,7.62214e-05
2.227150635016,0.00272403
2.227782714139,8.7632e-05
2.228886941666,1.3232e-05
2.234439635253,0.000647097
2.235441635253,6.15858e-05
2.23742163525,0.00496683
2.242863193623,0.00829683
2.244919392453,0.000654051
2.245713792452,0.00257403
2.250533073749,6.69629e-05
2.252984673749,0.00294483
2.256519700072,1.8032e-05
2.260517424236,1.5632e-05
2.264618617209,0.000500432
2.268657721592,0.000999632
2.273594446577,0.000841232
2.275317206514,0.00128643
2.278648324205,0.000237632
2.285729863153,5.4032e-05
2.293923160361,0.00160923
2.294832615122,0.000847232
2.306843268703,1.4432e-05
2.31021349661,0.000152432
2.313765946583,0.00137403
2.317669828988,8.52384e-05
2.318388628986,0.00214951
2.321247028986,5.47833e-05
2.324031028984,0.00910443
2.330321763704,3.8432e-05
2.33067742675,3.3632e-05
2.337139126142,4.3232e-05
2.337499575611,0.000397232
2.343656491042,7.565e-05
2.344072891042,0.000674432
2.355584283126,0.00144363
2.357923841133,0.000134325
2.359433441132,0.00165243
2.361105420464,6.1232e-05
2.363632992624,0.000270032
2.36748327497,0.00147483
2.375535957126,1.5632e-05
2.384082251316,0.000109549
2.385186251315,6.12578e-05
2.389536251313,3.48615e-05
2.392019051311,0.00011054
2.398422251311,0.000398194
2.402197451311,0.000330714
2.403433451309,0.000181952
2.406211451308,0.0201246
2.406792251306,0.0126511
2.408934251306,0.00159009
2.412539051305,7.75434e-05
2.423129051304,0.000525469
2.431125851302,0.00324876
2.433369851301,0.000388745
2.4442670513,6.45252e-05
2.444777051299,0.0380307
2.445649451299,0.0107532
2.447174683299,0.0636961
2.447811158353,0.000214954
2.448641558352,0.000143369
2.45282355835,0.0473292
2.453062314747,1.91197e-05
2.453686314747,0.000288342
2.457809514746,5.21677e-05
2.463905514744,0.0112234
2.466171114744,0.000398937
2.473527114743,0.00350624
2.476909914742,1.88208e-05
2.47861631474,0.000114544
2.482161114739,0.000147757
2.485848714738,0.073164
2.486168853339,0.000401907
2.488643253339,0.00588838
2.489111253339,0.0765409
2.489164053338,0.00466018
2.491702053338,0.00797002
2.493287253337,0.0173532
2.493828485338,0.0103185
2.494652937349,0.000754832
2.498241041783,6.8432e-05
2.501167031605,2.6432e-05
2.508719482185,0.000107102
2.509542682185,0.00266043
2.510077263586,0.000111632
2.515307170722,0.000147632
2.516044801937,3.3632e-05
2.517785574114,0.000124683
2.520006774113,4.50267e-05
2.531430774111,5.67741e-05
2.53496477411,0.0186612
2.535856150193,3.2432e-05
2.536200712564,3.1232e-05
2.538310047298,3.3632e-05
2.539353679584,0.000471632
2.546874162485,0.00121443
2.55074486048,0.000114777
2.551190060479,4.47266e-05
2.552382860478,1.91465e-05
2.556238460477,0.000194653
2.556677660476,0.00696243
2.558612660936,0.00518763
2.561671723683,6.4832e-05
2.566909521131,3.0032e-05
2.56911603363,0.00101283
2.573197056341,0.00160203
2.574742828902,3.7232e-05
2.579740499309,3.6032e-05
2.582685044238,6.9632e-05
2.588783048782,1.4432e-05
2.589853250076,2.8832e-05
2.593758498808,0.000163232
2.594590919704,1.6832e-05
2.596257746572,3.30228e-05
2.597134946571,8.63467e-05
2.59777934657,0.00272523
2.604263356989,7.2032e-05
2.608200640522,0.00234603
2.608572672522,0.00265325
2.612287465466,7.3232e-05
2.612837203859,0.000169313
2.614144003858,4.77311e-05
2.617376803858,0.00483363
2.61950910548,0.00226563
2.623506622615,7.59893e-05
2.624026222613,0.00342769
2.624526622613,1.67456e-05
2.627116222612,0.0107244
2.627287171581,0.000123632
2.63014882194,0.000888032
2.631620717387,1.9232e-05
2.634429202238,6.4832e-05
2.635636806172,4.8032e-05
2.6427359489,2.04581e-05
2.6470043489,0.00674043
2.650744143299,3.0032e-05
2.656066539439,7.2032e-05
2.656822805089,3.3632e-05
2.663036891352,2.1275e-05
2.663305691351,0.000787232
2.665684063021,6.3632e-05
2.666924283175,5.7632e-05
2.672531949901,4.6832e-05
2.674771441047,1.8032e-05
2.676869606401,0.00199683
2.700207839913,0.000388832
2.70040727235,1.5632e-05
2.706299005191,0.00168363
2.709385640435,5.0432e-05
2.712764930796,0.000792032
2.713699597108,6.3632e-05
2.715681603786,0.00136323
2.716018972885,7.35299e-05
2.716789372883,0.00116163
2.721611188844,7.83454e-05
2.723441188842,0.000147504
2.725427188841,0.00548884
2.726196388841,0.00734643
2.735001880266,0.00157234
2.735868280265,0.00435123
2.736261992424,0.00450723
2.737118975614,0.000342032
2.742982879682,1.3232e-05
2.743168278583,2.0432e-05
2.747394607842,0.00109563
2.747555523019,1.6832e-05
2.756051960572,0.000194432
2.756641505746,1.3232e-05
2.759578353111,0.000685232
2.772325758018,1.5632e-05
2.783353124958,0.000151232
2.784363848478,6.3632e-05
2.787379361311,0.000136832
2.788692412103,1.9232e-05
2.78881630908,4.6832e-05
2.792286673301,1.4432e-05
2.803125801531,0.00249022
2.80548020153,0.00861243
2.813258650059,9.05956e-05
2.813611450059,8.83087e-05
2.817395050057,0.0023631
2.825719450055,0.0183204
2.828837031164,0.00248043
2.852947521362,6.2432e-05
2.857952480703,0.00011173
2.862752480703,0.000292118
2.865816080702,0.000121469
2.8678032807,0.00124071
2.871094880698,0.0153732
2.87894886451,6.6032e-05
2.888596687881,1.6832e-05
2.891051484288,0.00168843
2.893599476367,9.31999e-05
2.900203076367,0.00401435
2.906481476365,0.00968205
2.922661076364,1.74521e-05
2.926953476362,0.00152354
2.928775076361,0.0358836
2.934910724484,1.68839e-05
2.935099124482,0.00280152
2.938198724482,2.61047e-05
2.940245924481,0.00191655
2.94199552448,0.0340584
2.948040760834,0.000291632
2.951036699178,1.42459e-05
2.951198699177,0.000744032
2.955919936119,0.000229232
2.957403067198,8.8832e-05
2.958904920035,1.8032e-05
2.961431851776,1.3232e-05
2.965345964746,3.4832e-05
2.971399669769,0.00283172
2.974080469769,0.00835443
2.979690081587,0.000254172
2.981608881586,0.00488172
2.984944881585,5.0512e-05
2.986336913585,3.22471e-05
2.987091467305,5.62907e-05
2.987139681582,0.00374288
2.987382081582,0.0121308
2.987891899304,0.0118427
2.990853499304,0.00966846
2.991073264436,0.000319232
2.991225909226,2.6432e-05
2.993935481181,0.00252003
2.998967122675,0.000316832
3.001033928106,0.000787232
3.008085786029,0.000207817
3.011913786028,0.00598443
3.026526279043,0.00267804
3.028657479042,0.00735526
3.031463079041,0.00329749
3.031538679041,0.00359032
3.031586711041,5.70302e-05
3.035243111041,0.0264145
3.038368912663,0.000132953
3.040575712662,0.000385186
3.04573931266,0.00866643
3.049881153212,5.24579e-05
3.052248753211,0.000832025
3.054017553209,3.52174e-05
3.063760353208,0.000126367
3.066196353207,0.0285432
3.066811066889,1.9232e-05
3.072708742425,0.00385323
3.074520964614,0.00201723
3.08123664668,2.81611e-05
3.08253024668,0.00341523
3.087597036038,0.00276003
3.088884836104,3.3632e-05
3.096565161598,0.000477632
3.098232716744,0.000292197
3.100146716744,0.00221763
3.103901536589,3.8432e-05
3.112753476015,3.4832e-05
3.135215778852,7.46565e-05
3.13614457885,0.000297958
3.136337596013,0.000258351
3.139747996013,0.000114815
3.140685196012,0.00496792
3.145605196011,4.44114e-05
3.145937596007,0.00499813
3.146074396006,0.000150784
3.146379196006,0.0231082
3.149909596005,0.000196631
3.151686796003,1.9082e-05
3.153090796002,0.000253862
3.156370396002,0.0138242
3.161249596001,6.81166e-05
3.161616796,0.0131516
3.170691195999,1.89954e-05
3.176807595996,0.043194
3.177336132633,0.00761893
3.179500932633,0.012672
3.18001923029,3.7232e-05
3.181109378739,0.000948032
3.183167604574,6.8432e-05
3.186403385833,0.000974344
3.189012185833,0.00428403
3.194513117617,1.4432e-05
3.208283612053,2.0432e-05
3.208421759864,7.5632e-05
3.230644899812,3.7232e-05
3.230693182429,4.0832e-05
3.239661771837,0.000421675
3.239876571836,0.00674307
3.240282171835,0.00760563
3.242840676027,0.000136495
3.243271476026,0.00521883
3.247776214767,5.48762e-05
3.247797814767,0.000777632
3.249759196884,6.2432e-05
3.253844920693,0.00069519
3.256548520693,0.00388923
3.25685531252,7.0832e-05
3.256919500923,3.6032e-05
3.260008361746,4.2032e-05
3.262417751899,1.3232e-05
3.266329625856,0.000268261
3.269093225856,0.00402003
3.269157412882,2.8832e-05
3.275224077614,3.8432e-05
3.28085281739,0.000136062
3.28156201739,0.00215163
3.288306537384,0.00254523
3.297509901126,0.000158424
3.297565101126,0.000126838
3.302101101126,0.00506883
3.30583786468,2.2832e-05
3.306885016501,3.2432e-05
3.312390780927,8.38329e-05
3.315749580927,0.00685323
3.316404844957,1.5632e-05
3.322881011858,0.000513885
3.328690211857,0.00019407
3.331997097037,0.0119388
3.333398697037,0.0150189
3.334262697036,0.00949563
3.336242591117,8.53652e-05
3.336943391116,0.00129941
3.338943791116,3.24639e-05
3.339976991115,0.0177892
3.340316591115,2.04346e-05
3.341452991113,9.56879e-05
3.342516191111,0.00843003
3.345595549396,3.1232e-05
3.346390280875,4.5632e-05
3.347812075625,3.8432e-05
3.348996290674,2.0432e-05
3.357777798407,2.4032e-05
3.367033593254,0.00296763
3.373070059494,0.000218432
3.38169020126,1.8032e-05
3.385459747889,5.5232e-05
3.405706460249,4.26243e-05
3.407382860248,0.00882363
3.407426829038,3.98011e-05
3.407640429037,0.00380763
3.412524774946,6.0032e-05
3.416911601671,3.27376e-05
3.417031601671,5.21409e-05
3.41712040167,0.000871232
3.425161138159,0.00351483
3.426690687994,0.000136832
3.428510328088,6.7232e-05
3.429554185779,4.4432e-05
3.435923266983,5.2832e-05
3.437816049305,1.5632e-05
3.438586234072,3.4832e-05
3.441247514296,3.1232e-05
3.447080254058,1.5632e-05
3.449039531971,2.86906e-05
3.44935153197,0.000597632
3.451777962214,7.0832e-05
3.45955357894,0.00144123
3.462478789527,7.4432e-05
3.464315518171,2.5232e-05
3.468651105925,2.4032e-05
3.469296248854,0.000150032
3.480270341175,0.000132032
3.487007714761,0.00561963
3.495866230497,2.3729e-05
3.498173830497,0.000161828
3.500073430495,0.000468114
3.500221030493,0.00423209
3.500545030493,3.06531e-05
3.502586230492,8.65553e-05
3.508918630489,0.000783809
3.513376630488,0.00167054
3.513421030488,0.00575666
3.514784230488,2.0585e-05
3.515618230488,3.97531e-05
3.518563367135,0.00357363
3.518609862488,0.0149891
3.521366294488,5.83097e-05
3.524267894488,2.13623e-05
3.524787494487,2.40379e-05
3.527783894486,0.000161569
3.530083094484,0.000184124
3.530093894484,0.000147004
3.532111359421,0.0305454
3.53726295942,0.00869883
3.53894179142,0.000578872
3.539490191419,0.0478768
3.543711570295,3.55836e-05
3.548918370294,0.0129708
3.560524644472,0.000139716
3.56283704447,7.19984e-05
3.56435024447,6.14071e-05
3.56495024447,0.00431514
3.56514344447,0.0149532
3.56667587647,0.00111943
3.569011076469,2.6421e-05
3.569032676469,0.00127545
3.569956676469,0.0021464
3.570044276467,0.000205342
3.570242276467,0.00632451
3.571174676467,6.87644e-05
3.571270676465,1.3549e-05
3.571861076465,0.0205646
3.572539771244,7.90927e-05
3.585732571244,0.0027565
3.587194171243,0.0149844
3.591209270787,6.9632e-05
3.592902031359,2.8832e-05
3.595409163344,0.00029258
3.595674363343,0.000116999
3.596363163343,0.00125883
3.597957414892,6.0032e-05
3.598766030929,6.3632e-05
3.603084484546,0.000259232
3.607918923035,2.0432e-05
3.613718252158,3.9632e-05
3.616431487723,1.3232e-05
3.62122756275,1.8032e-05
3.62514210609,0.00127923
3.628046660266,3.8432e-05
3.628127876751,3.9632e-05
3.630865848121,4.30482e-05
3.632200248119,6.39896e-05
3.634411848118,0.000170037
3.635737848116,0.000105438
3.637319448115,0.000264142
3.637375848114,0.00123931
3.638981448113,1.80007e-05
3.649266648112,9.2185e-05
3.65256064811,0.00375245
3.654693048109,0.00016875
3.656788248107,3.83839e-05
3.662983848106,4.26062e-05
3.664725048105,0.00988828
3.665823048105,9.02797e-05
3.665956248105,0.0366084
3.666379848104,1.37037e-05
3.668494248103,0.000131411
3.670686648102,0.0418428
3.671366713146,0.000812432
3.679585489853,0.000645632
3.686156378561,0.00273522
3.686981978561,0.00468603
3.693037372119,4.5632e-05
3.694084378095,1.9232e-05
3.695368554621,5.1632e-05
3.696861759786,1.4432e-05
3.698815242007,0.000135941
3.700722042007,0.00319083
3.711640977835,1.34643e-05
3.711698577834,0.000164553
3.713239377833,0.00743163
3.714212559892,0.00391683
3.717420712814,0.00175222
3.718747912812,0.00252269
3.719085112811,0.00226787
3.721386712809,0.0025563
3.725775112809,0.000110026
3.726837112808,0.000270944
3.727798312807,0.0150576
3.73360816845,2.54968e-05
3.73516816845,0.000899794
3.737973768448,1.32779e-05
3.739099368445,0.00703803
3.739178519294,0.00352083
3.741334384673,1.8032e-05
3.748412265716,6.8432e-05
3.750405322735,4.2032e-05
3.754418762897,0.00303603
3.755384151552,0.000123632
3.761184296211,0.00062072
3.761991896211,0.00265323
3.762867194052,0.000487232
3.76377553272,6.3632e-05
3.76519189793,0.000644432
3.788253448259,0.00192123
3.788512210111,0.000142832
3.789333305936,3.2432e-05
3.792062338291,3.4832e-05
3.797009295124,5.6432e-05
3.799195736337,0.000118832
3.804953221239,0.00125029
3.805565221238,0.00237243
3.807376928709,0.000102032
3.808558734142,4.4432e-05
3.808990322637,3.2432e-05
3.81271906189,1.33074e-05
3.815645861889,0.00295923
3.817663635703,2.7632e-05
3.822352687315,3.2432e-05
3.82463104117,5.25735e-05
3.825499841169,0.00121803
3.826856409169,3.6032e-05
3.828045536199,0.000273632
3.836282703095,0.00140283
3.850420067255,3.3632e-05
3.851250623886,5.7632e-05
3.862852960117,7.5632e-05
3.867788070609,0.00179763
3.874741125724,4.9232e-05
3.878539740868,4.5632e-05
3.881504267135,1.4432e-05
3.882517302478,3.0032e-05
3.888087201262,0.00351483
3.888598461224,0.000111887
3.888632061223,0.00226923
3.890973305439,3.8432e-05
3.897558854622,0.00214544
3.904898054622,0.0125424
3.907140877559,1.5632e-05
3.909985196945,0.00116883
3.914632491365,2.2832e-05
3.915015016605,3.0032e-05
3.931504485045,2.6432e-05
3.935758506457,3.0032e-05
3.937045940101,9.2432e-05
3.948658579224,2.8832e-05
3.951632383717,3.4832e-05
3.961052793571,2.0432e-05
3.965023895583,6.9632e-05
3.968758206281,4.9232e-05
3.971448776175,0.00108363
3.97287272871,1.4432e-05
3.975887965588,2.6432e-05
3.984709459058,1.8032e-05
3.989491500417,0.0012887
3.990654300416,0.00116229
3.991760700415,2.9664e-05
3.993182700413,0.00222776
3.993866700412,0.00842643
3.994178827653,0.00372003
3.995278189245,2.4032e-05
4.006784473321,3.1232e-05
4.008866336711,0.000721232
4.011121863109,2.8832e-05
4.013169649492,0.000183632
4.017000263366,0.00103683
4.017641063365,0.000197995
4.019118263363,0.00186067
4.019871863362,0.000205285
4.02091226336,0.00658803
4.027424968596,1.6832e-05
4.029635091589,3.7232e-05
4.034113222745,6.6032e-05
4.041989028587,0.000123742
4.043036628587,0.00251163
4.043152940025,5.8832e-05
4.051217308693,0.000286832
4.060470812015,2.4012e-05
4.061958812014,0.00536523
4.067356894572,0.000861632
4.082896718382,1.4432e-05
4.08628451647,6.7232e-05
4.088363437994,1.6832e-05
4.089676373635,1.9232e-05
4.090103703034,4.9232e-05
4.100510774543,0.0027783
4.102437974543,3.03422e-05
4.107199574541,9.53157e-05
4.107605174539,4.52727e-05
4.110000374537,0.0127116
4.116528364952,0.00600963
4.123840350753,5.8832e-05
4.124698338928,8.0432e-05
4.124962089317,5.2832e-05
4.12768514606,6.1232e-05
4.129163299679,2.0432e-05
4.1317663366,4.0832e-05
4.140255607838,0.00104763
4.145926295483,4.3232e-05
4.149257644404,2.6432e-05
4.149433496237,1.5632e-05
4.158651342511,0.000483632
4.15867553364,9.7232e-05
4.165812134599,0.00124683
4.169011297297,4.7527e-05
4.172191297296,0.00562563
4.172313274693,0.000455071
4.174517674692,0.00504003
4.189332021962,0.00211803
4.19131945387,0.00238923
4.191432517671,0.00117603
4.193626095136,6.1357e-05
4.194024495134,0.000325909
4.197562095133,8.2025e-05
4.201080495131,0.011394
4.202705069867,1.67502e-05
4.203956669866,0.00011612
4.204557869864,0.00885243
4.205606744176,2.54955e-05
4.205925944176,0.00227043
4.207835558249,0.000102382
4.211241158247,0.000133332
4.211880758245,2.48004e-05
4.215119558244,0.00442457
4.215167558244,0.0109284
4.218433010847,0.00306924
4.220878610845,0.010974
4.223167565028,0.00348483
4.223938059049,0.00164043
4.22458722187,2.7632e-05
4.230625289669,6.4832e-05
4.231257900159,5.1632e-05
4.233221522896,1.6832e-05
4.23434129664,3.7232e-05
4.235529358066,2.8832e-05
4.24352888798,1.6832e-05
4.244828204802,1.6832e-05
4.259839888936,0.000118857
4.262911888935,0.00766083
4.263392415698,0.00722163
4.269951943971,0.000980432
4.270277823109,7.8032e-05
4.275747364723,6.1232e-05
4.279783403076,6.9632e-05
4.281294285095,0.000140432
4.28540580374,1.9232e-05
4.28746046725,2.8832e-05
4.291639781159,2.8832e-05
4.292952601208,0.000976832
4.293024047722,1.6832e-05
4.298802767744,0.00274923
4.301797612203,7.2032e-05
4.306304572073,5.44503e-05
4.306350172072,0.000157232
4.307349187286,0.000213632
4.308072811658,4.5632e-05
4.310134379633,2.36286e-05
4.314160379632,0.00413643
4.317909829327,0.00395403
4.320332929338,0.00151323
4.320995552518,0.000175232
4.325629208034,1.8032e-05
4.330642651554,0.00229443
4.332453525605,5.06597e-05
4.333237125604,0.00326629
4.341533925603,0.000378059
4.341740325601,1.90107e-05
4.343714325599,0.00216111
4.345144725599,3.49364e-05
4.345201125595,8.42711e-05
4.345835925595,0.000337917
4.346267925595,0.000333903
4.350088725594,0.00615649
4.353123525594,0.000567741
4.361131125593,0.0172323
4.365278325593,0.000162047
4.366023525592,0.0367944
4.367003762146,3.67441e-05
4.367200562144,0.00284883
4.36919035759,5.51937e-05
4.370486357588,0.0326597
4.372782727973,0.000105632
4.375985280533,6.1232e-05
4.388102721509,3.0032e-05
4.389248801386,0.000100832
4.394947355676,0.00128643
4.398611205885,0.00271443
4.400772886294,0.000996032
4.40424476694,3.82849e-05
4.404375566939,0.00201123
4.406254108951,3.3632e-05
4.416928794746,1.35159e-05
4.418545194745,0.00484923
4.431975545571,0.0140481
4.432291145569,0.000100578
4.432858745568,0.00876686
4.439927945567,0.0246876
4.448010397244,0.000116432
4.451181407827,0.000849632
4.455665736374,5.2832e-05
4.460600877035,0.000852032
4.461511832334,0.00165363
4.462500456563,2.8832e-05
4.465115397223,0.000948032
4.466489441296,0.00116883
4.477850170655,7.84869e-05
4.483842970654,0.000140729
4.483926970652,1.34186e-05
4.49108617065,2.84347e-05
4.494725770649,0.0247949
4.500522970647,0.0328212
4.503053121052,5.50588e-05
4.50313352105,0.00981003
4.507500066545,4.95453e-05
4.509645666544,0.00302763
4.514709570723,0.00104403
4.51714042547,0.000136251
4.517576025469,0.00013843
4.517620425467,0.00250563
4.520090250458,0.000868832
4.534446633043,1.4432e-05
4.536775980105,0.00145683
4.540030976895,0.00129963
4.540902748158,4.8032e-05
4.545087815827,5.6432e-05
4.553098034988,0.00137523
4.55367632083,2.5232e-05
4.559458359893,0.00146763
4.560023647456,0.00107763
4.563911578136,0.000256832
4.565500196018,0.000169232
4.567764435287,5.2832e-05
4.568912291499,3.4832e-05
4.57336944812,0.000795632
4.575191063668,1.5632e-05
4.57574135574,1.3232e-05
4.582377942319,0.000852032
4.585557485316,0.00141123
4.590292504946,4.5632e-05
4.595770228615,6.8049e-05
4.596571828615,0.000200528
4.597518628614,0.00207403
4.598770228613,2.5276e-05
4.599312628611,0.00502203
4.60315813304,1.8032e-05
4.603307942092,3.0032e-05
4.605170369578,4.5632e-05
4.605982802566,3.7232e-05
4.611432956087,5.0785e-05
4.614226556085,0.00759363
4.614830401052,0.00662163
4.617915715472,9.4832e-05
4.618257116517,2.7632e-05
4.625401104234,3.6032e-05
4.625738697355,2.84283e-05
4.625751897354,4.3232e-05
4.625770996837,1.9232e-05
4.627593528993,3.6032e-05
4.628714090451,0.000362432
4.636150018352,0.000261632
4.641200360476,6.90388e-05
4.641753560476,1.60911e-05
4.645030760475,0.00691083
4.64650348535,6.3632e-05
4.646748232005,6.4832e-05
4.649778236473,6.1232e-05
4.652055253869,1.6832e-05
4.656235934192,0.00228843
4.662101914203,0.000164432
4.664608694405,6.3632e-05
4.664767084291,0.000182432
4.67536175563,4.4432e-05
4.676247745113,4.4432e-05
4.684061233159,0.000652832
4.691368112187,3.3632e-05
4.695067433946,3.0032e-05
4.698518097374,3.8432e-05
4.700939263675,6.4832e-05
4.707358922983,6.45005e-05
4.711274522982,0.00432603
4.715563489149,5.4032e-05
4.724378996305,0.000344432
4.726049460948,0.00117003
4.729205684399,0.00378123
4.730133123567,0.000104432
4.730756703347,6.1232e-05
4.731793139767,6.2432e-05
4.733573168275,0.00148803
4.741690519625,6.4832e-05
4.742641067023,6.3632e-05
4.75337647384,1.8032e-05
4.753962389964,0.000532832
4.754415979943,2.59785e-05
4.760139979943,2.528e-05
4.760924779941,0.00689763
4.763178721705,5.8832e-05
4.763304347892,1.9232e-05
4.76720921402,3.35562e-05
4.76860601402,0.00456123
4.770689927391,0.000207632
4.775806309829,0.00268066
4.778464309828,0.00573123
4.779138087848,0.000131139
4.784256087846,0.000187714
4.791175287844,0.000123579
4.793934087843,0.000229784
4.799065287841,0.0151752
4.799206887841,0.00789562
4.80205568784,2.06464e-05
4.803525687838,0.00122877
4.804207287836,0.0279492
4.806294561841,0.000135632
4.818841171038,0.00429483
4.824516922264,0.000197914
4.826705722264,0.0112778
4.828017322263,0.012804
4.829750815519,1.6832e-05
4.833797389864,2.7632e-05
4.834231320908,1.9232e-05
4.838930062345,0.00276363
4.845235143834,0.00109683
4.847087558964,3.2432e-05
4.85701048653,0.0003559
4.857126886529,0.00174313
4.859036086528,0.00853683
4.86500433571,9.1232e-05
4.878750690262,0.00148303
4.879585890259,8.63147e-05
4.881435090257,1.3419e-05
4.882363890257,0.00426526
4.884680955946,0.00143114
4.886174955945,0.00062811
4.887508155943,0.0157379
4.889927355943,0.0134796
4.890038527016,0.0118887
4.896938527016,0.0211716
4.902688187943,2.14585e-05
4.910644187941,0.0259419
4.911314300046,1.5632e-05
4.914734671856,3.9632e-05
4.916742021096,6.0032e-05
4.927699215812,0.00665043
4.932189835001,1.38658e-05
4.933189435,1.40065e-05
4.934495034998,0.00306603
4.940028436531,0.00215763
4.940051173963,1.6832e-05
4.944282802062,0.00308163
4.946794624069,5.7632e-05
4.952155065075,6.0032e-05
4.967791971023,0.000156032
4.971824303284,3.3632e-05
4.977607996194,0.000780297
4.977757996192,0.000185952
4.978313596192,0.00365883
4.978864396191,0.00502923
4.987319747623,8.0432e-05
4.988602366604,1.9232e-05
4.993007871771,0.00248763
4.999170282807,0.00231728
5.003133882806,0.00826803
5.005538097916,0.00542643
5.010627977284,4.0832e-05
5.013202482072,6.9632e-05
5.015516342695,3.2432e-05
5.01740883485,0.001061
5.017441234849,0.000133808
5.019423634848,0.00353763
5.027249662344,0.000229232
5.031601762574,0.000706832
5.033294175517,1.6832e-05
5.03481830403,5.2832e-05
5.036347100763,5.0432e-05
5.037136788448,7.2032e-05
5.045054557189,8.5232e-05
5.046664885808,2.6432e-05
5.053790858664,0.00709323
5.058049555085,8.18531e-05
5.058344755084,6.36402e-05
5.059129555083,2.85e-05
5.059196755082,0.0119196
5.059597221231,0.000227493
5.062924821229,2.81224e-05
5.064702021227,0.00733083
5.072676191856,1.9232e-05
5.074686688702,1.3232e-05
5.077853391015,3.86213e-05
5.078230191014,0.000345757
5.078542191012,0.00164403
5.078843231399,0.00170643
5.091697857891,1.3232e-05
5.095834361019,1.38484e-05
5.095999961019,0.00157683
5.09723816843,7.2032e-05
5.106902331035,3.0032e-05
5.109591331797,0.00154683
5.11382700561,0.00155977
5.113855805609,1.84616e-05
5.115229805607,0.00507963
5.117373592673,0.00143523
5.118889534064,3.6032e-05
5.129856891894,5.4032e-05
5.13808438985,2.0432e-05
5.141139247252,0.000478832
5.154566925471,0.000502832
5.158830406576,2.5232e-05
5.16289779906,2.0432e-05
5.163803994102,3.9632e-05
5.165374918779,3.8432e-05
5.172327561386,2.4032e-05
5.185545195037,9.52787e-05
5.186311995036,0.00719043
5.198025821325,5.19398e-05
5.199323021324,0.00503883
5.201674599774,9.51744e-05
5.203479399773,0.00282603
5.205910033691,7.5632e-05
5.214509709988,2.28854e-05
5.218274109987,0.0108096
5.218712711913,3.9632e-05
5.222641493735,2.0432e-05
5.242630053052,9.75856e-05
5.246095653051,0.000796642
5.247077253049,0.000138203
5.252273253048,8.62922e-05
5.254170453046,0.0152352
5.255361303822,3.4832e-05
5.259494079089,5.44111e-05
5.261506479088,0.00302043
5.263781849292,0.000297632
5.263984894868,6.3632e-05
5.26421915844,3.2432e-05
5.2652621099,5.1632e-05
5.268263472263,0.00155523
5.269783434388,0.00105243
5.271268851948,5.8832e-05
5.272669102865,1.3232e-05
5.274670557307,4.5632e-05
5.279028587054,0.000260432
5.283804668695,4.2032e-05
5.285427128611,1.4432e-05
5.2869330743,0.000795632
5.288558811055,1.5632e-05
5.291623233672,3.3632e-05
5.292799534441,3.3632e-05
5.299675327845,0.000310914
5.300314927844,5.93567e-05
5.301042127842,0.00199683
5.304590180235,1.6832e-05
5.305786338354,9.6032e-05
5.308941980855,0.000123883
5.309699180854,0.00314043
5.310978489788,1.6832e-05
5.314561153949,0.00294123
5.314745432374,4.0832e-05
5.320636369292,0.00373443
5.321702873187,4.0513e-05
5.322610073186,0.00188643
5.325923440379,0.000291991
5.326804240378,5.27606e-05
5.330400640377,0.00690483
5.333538388292,0.00480123
5.336489536889,0.000110432
5.339030499618,6.1232e-05
5.342625579813,0.000118832
5.347597072589,0.000122427
5.349357472588,5.73056e-05
5.351851072587,0.00535203
5.354363115849,6.1232e-05
5.360761581795,0.000229232
5.368802792006,0.00138918
5.369366792005,9.02113e-05
5.369745992003,4.95818e-05
5.369994392001,0.00682803
5.370062731122,1.5632e-05
5.37093953659,1.3232e-05
5.371819792933,3.3632e-05
5.376216733108,5.5232e-05
5.376601619902,5.8832e-05
5.381744266796,5.9298e-05
5.382929866796,7.4422e-05
5.383874266795,0.00627843
5.387660188182,9.2432e-05
5.390770506894,0.00145083
5.392210639712,3.508e-05
5.392807039711,0.00152883
5.396986671711,0.00462005
5.410388225163,4.3232e-05
5.412368476444,0.00138603
5.413978160886,2.0432e-05
5.424003398001,0.000124832
5.427501810315,0.000946832
5.434193534277,2.4032e-05
5.436790665107,0.000807632
5.437779055537,5.7632e-05
5.439104593483,0.000944432
5.4400993032,0.00141723
5.445436929508,3.2432e-05
5.447424647171,1.4432e-05
5.449887404728,0.000763232
5.451136475716,6.7232e-05
5.452300786399,3.1232e-05
5.45241271967,7.5632e-05
5.456708281074,5.7632e-05
5.461081502695,8.6432e-05
5.462018792373,4.8032e-05
5.465660125319,2.2832e-05
5.466195889128,4.5632e-05
5.469589790554,0.000416432
5.477954808897,1.5632e-05
5.483599628088,3.1232e-05
5.490863707,0.000375632
5.4963941867,2.1632e-05
5.512643208179,0.000904832
5.512650780705,8.7632e-05
5.516804801857,0.000259232
5.516871723463,7.6832e-05
5.518558109407,0.000482432
5.519673181946,2.2832e-05
5.523007807118,2.4032e-05
5.530391535479,0.000114032
5.531612330591,2.0432e-05
5.538568657066,0.00186363
5.541390699349,7.3232e-05
5.542347081293,2.0432e-05
5.548634274403,0.00342003
5.551155506731,0.00141603
5.551536630645,2.6432e-05
5.559082264243,0.000117264
5.565514264242,0.00014723
5.56983666424,0.000104984
5.571996664238,0.00018738
5.573160664237,0.013088
5.574543064235,0.00159257
5.576320264234,0.021948
5.586070383535,2.2832e-05
5.588047834439,0.000570032
5.593433112055,4.3232e-05
5.596447608679,0.00228363
5.601951253259,3.3632e-05
5.607581261602,0.000306016
5.609729261601,0.00501843
5.610215871883,0.00497643
5.61423128598,0.00162003
5.616339157483,0.000129144
5.616406357482,0.000160176
5.616790357481,0.000754832
5.624176270928,0.000217232
5.625753438145,1.3232e-05
5.627648159487,2.0432e-05
5.628668354451,0.000909632
5.630848371164,7.3232e-05
5.632093886482,7.3232e-05
5.633442143932,3.6032e-05
5.633742509066,2.7632e-05
5.638806577159,0.00337683
5.642063712033,0.00125043
5.642171712032,0.00404283
5.650633577531,0.00076048
5.65179997753,0.00232323
5.657449653059,0.000982832
5.661557178098,1.9232e-05
5.663866541202,1.5632e-05
5.664344872927,6.6032e-05
5.665735945714,1.3232e-05
5.67506668868,0.00086367
5.677119888679,1.41598e-05
5.677583088679,0.00180751
5.679332688679,4.44428e-05
5.681250288678,0.000264687
5.682736669799,0.00169683
5.684687120678,0.000315988
5.685378320678,0.000466126
5.686051520676,0.000441276
5.686581920676,0.000221683
5.691803120675,0.000237172
5.693605552676,0.0229432
5.695629952675,0.000807122
5.695727152674,0.00211673
5.696465152674,2.52541e-05
5.703822352673,0.000136615
5.708696784673,0.0112358
5.709609984673,0.0204311
5.713443984672,0.00364021
5.714481984671,0.000183107
5.71506158467,0.000405716
5.715384384669,0.000139364
5.717520384667,0.0481918
5.719534016667,0.050213
5.726850085455,0.00542403
5.729769358683,3.9632e-05
5.730727483163,1.5632e-05
5.730791115163,7.2673e-05
5.732397418309,1.84102e-05
5.734646218308,1.87115e-05
5.735157418306,2.5358e-05
5.735405818304,4.5263e-05
5.741350618302,0.000143664
5.7454126183,0.00365753
5.746640218299,2.80149e-05
5.747770618298,2.85271e-05
5.749960618297,0.00094624
5.751196618296,0.000431347
5.752129018295,0.0153392
5.754964618294,1.83153e-05
5.759991418292,7.89932e-05
5.76210221829,0.0306768
5.76224714101,0.00125833
5.762571141009,1.86963e-05
5.763952341007,0.00115896
5.765691141006,0.00855003
5.765759782384,0.00161283
5.766840013488,3.1232e-05
5.775230777492,0.000610832
5.778071057823,1.6832e-05
5.782870743807,4.9232e-05
5.786491215538,1.8032e-05
5.792563020886,2.6432e-05
5.79264940886,1.3232e-05
5.809423361305,0.00198243
5.810174724945,7.34756e-05
5.813895924943,1.82401e-05
5.817477924941,0.00965403
5.818791130266,0.00331965
5.818855930266,0.00375483
5.820036076274,6.8432e-05
5.820301925681,9.8432e-05
5.821325435015,7.5632e-05
5.823377244138,7.0832e-05
5.823780045001,1.4432e-05
5.825335312741,1.6832e-05
5.839915607553,0.000456032
5.843302052317,1.3232e-05
5.84492732853,4.4432e-05
5.84503935195,1.5632e-05
5.847654899294,3.1232e-05
5.84851064515,1.3232e-05
5.849564159733,5.8832e-05
5.855848002343,8.57765e-05
5.857136802342,2.80285e-05
5.85735040234,0.000159056
5.857697202338,0.000478594
5.860250802337,0.000140939
5.861110002336,0.000133396
5.864345202334,0.0136908
5.864969234334,0.00183007
5.865306434334,0.00428504
5.866477634334,0.00456195
5.869639634333,0.000203411
5.876218034331,0.0188478
5.882456442354,0.00191509
5.884909242353,0.000110512
5.886471642352,0.00880083
5.887300801353,0.00734883
5.888311025902,3.1232e-05
5.896290087172,3.2432e-05
5.898403524283,5.8832e-05
5.911922309032,0.00464283
5.916214981879,7.3232e-05
5.917735516623,1.4432e-05
5.921330993335,1.35997e-05
5.923783793334,0.000312683
5.934464993333,0.0139227
5.935656593332,0.0159468
5.94210239954,1.5632e-05
5.943966658097,4.9232e-05
5.951051527408,0.00272883
5.966994517784,2.09675e-05
5.973540517783,0.00399594
5.974243717782,0.000199045
5.976772117782,0.00147601
5.978411317781,0.0151091
5.97897891778,1.63924e-05
5.990201317778,0.000375218
5.990336917776,0.00406285
5.990440117775,1.34028e-05
5.991326917773,3.75254e-05
5.994833317771,0.0320064
5.99486044369,3.7232e-05
5.99582026174,0.000370832
6.006307160287,4.2032e-05
6.019271424322,2.30899e-05
6.026149824321,0.00680776
6.028151424319,0.000911893
6.028669824318,0.000111699
6.028818624316,0.0177672
6.035016701064,0.000110859
6.035368301063,0.00308163
6.035418627322,0.00174843
6.036043332222,4.79668e-05
6.037185732221,0.00145683
6.042587158348,6.9632e-05
6.043228934508,6.6032e-05
6.048109524006,7.6832e-05
6.055730796178,3.0032e-05
6.057337771991,2.0432e-05
6.061576212596,4.6832e-05
6.06464233414,4.8032e-05
6.066095946665,0.00112443
6.066109560695,2.6432e-05
6.078388177634,6.3632e-05
6.08801246491,0.00102723
6.089442753926,1.6832e-05
6.091340585075,6.7232e-05
6.091960549057,4.2032e-05
6.092308400711,6.1232e-05
6.094720260212,0.000237632
6.101147184012,0.000202569
6.101609184011,0.00171839
6.10276718401,0.000136702
6.103698384008,0.00555123
6.106043856763,0.00427563
6.106073817915,1.3232e-05
6.109374710604,3.3632e-05
6.111932848816,3.6032e-05
6.114763722695,1.6832e-05
6.117049379127,0.00120603
6.118084643536,5.6432e-05
6.126716316938,0.00313203
6.126963625066,1.4432e-05
6.130919245378,5.9671e-05
6.132371245377,9.24952e-05
6.133608445376,0.00401043
6.133954767151,7.2032e-05
6.134530593628,6.0032e-05
6.142184532863,8.78477e-05
6.147553332863,0.00782523
6.14908137229,1.8032e-05
6.149666789134,3.1232e-05
6.152345832522,0.000639632
6.160186687052,2.0432e-05
6.166781635041,7.0832e-05
6.169061742336,1.3232e-05
6.172628964758,0.00142923
6.180889213271,0.00134283
6.182975209125,2.0432e-05
6.187766114594,2.1508e-05
6.193160114593,0.000132634
6.194360114591,0.00450499
6.19558891459,3.96743e-05
6.19993171459,0.00316539
6.201284114588,0.01701
6.205903542962,0.00131283
6.212705747534,2.7632e-05
6.213169188462,2.6432e-05
6.216141670215,0.00135483
6.216570533871,4.3232e-05
6.222992352686,3.6032e-05
6.223486022303,0.000228032
6.225917269013,3.0032e-05
6.235045102037,0.000747632
6.237453409699,1.3232e-05
6.243294639558,5.0432e-05
6.249860215153,5.2832e-05
6.251592528141,3.3632e-05
6.258033724585,4.9232e-05
6.266724110136,0.00109092
6.268375310135,6.17644e-05
6.268386668734,2.4032e-05
6.268893100734,0.00712622
6.271752218594,0.000151232
6.273707803666,2.1632e-05
6.280286880289,5.7632e-05
6.283423348218,1.3232e-05
6.298182019916,4.3232e-05
6.298934956368,1.9232e-05
6.29925964162,5.5232e-05
6.303060771984,0.000504032
6.306728106162,0.00129963
6.328772812741,5.2832e-05
6.337066664972,6.7176e-05
6.338864264971,0.000136266
6.33992986497,0.00321603
6.340793892362,0.000115232
6.341720461927,3.6032e-05
6.346241064408,4.79557e-05
6.353669064408,0.00636773
6.355307064405,0.000555891
6.355449864403,2.2491e-05
6.355595064401,0.00398404
6.3601766644,3.7264e-05
6.363095064398,0.00591226
6.368948664397,0.00545742
6.373233864396,0.000277757
6.376286664396,0.0231624
6.381147864396,0.0304876
6.383671464396,8.16437e-05
6.389162664395,0.000108248
6.401107464394,0.0553956
6.407282696394,0.000164335
6.407390922583,0.000271232
6.409961128394,0.000398723
6.413555603379,0.0611334
6.414147203379,0.000224919
6.414184403378,0.00982552
6.414255203378,0.00608403
6.419163235378,0.0132604
6.42111913563,5.44771e-05
6.421753935628,0.00010992
6.422093535626,0.00503283
6.42274550861,1.8032e-05
6.429443135891,0.00346203
6.435987182161,1.8032e-05
6.436286750022,3.2432e-05
6.441819865571,3.3632e-05
6.442574003319,3.4832e-05
6.443348639298,5.1632e-05
6.443593050838,4.0832e-05
6.447037418893,0.00113643
6.44758849705,0.000100832
6.447858719879,3.9632e-05
6.449905692762,3.0032e-05
6.452493982798,7.0832e-05
6.453175719439,0.000630032
6.456225125723,2.82165e-05
6.458340725722,2.87079e-05
6.458598725719,2.14459e-05
6.459897125719,0.00446763
6.461768118228,2.92486e-05
6.463211718226,6.88515e-05
6.465500118225,6.74289e-05
6.467697318224,0.00663798
6.468234918223,8.86598e-05
6.468422118221,7.88655e-05
6.46998691822,0.000254061
6.470415318218,2.80636e-05
6.475578918216,0.000138852
6.479148918215,0.00297025
6.482993718214,0.026112
6.4864559264,1.6832e-05
6.488405601797,4.8032e-05
6.496458321047,1.88042e-05
6.497210721046,0.00340083
6.504936288143,0.00199618
6.508893888143,0.000108162
6.509087088141,0.00384963
6.51052228814,5.72882e-05
6.511277088139,0.00990483
6.519736506886,6.8432e-05
6.533745208791,7.6832e-05
6.53543754529,7.32449e-05
6.535481945289,0.000906032
6.551227275082,9.4832e-05
6.56523728803,0.000110432
6.566548730252,3.2432e-05
6.57654890501,9.03681e-05
6.577987705009,0.0024868
6.578084616576,0.000104432
6.584046537009,0.0116689
6.585635564662,0.000613232
6.58938106812,6.86001e-05
6.595321068119,0.00639483
6.599929192168,0.00280501
6.602528392167,1.62461e-05
6.605161192165,0.00928203
6.607794970422,4.0832e-05
6.611149562612,6.7232e-05
6.614598224005,2.05527e-05
6.615503024004,0.00377883
6.618379105595,0.000100239
6.618988705594,0.00127683
6.623333189637,0.00131403
6.62778591748,2.0432e-05
6.632586127793,6.6032e-05
6.646673541413,0.000114032
6.649114705794,3.0032e-05
6.653105165176,0.000584432
6.653302636089,1.4432e-05
6.656805391046,6.69324e-05
6.657360991045,7.19788e-05
6.659111791045,1.58e-05
6.660338191044,0.000133671
6.663162991043,0.00153348
6.664855023043,0.00858606
6.667607823043,0.0044481
6.668006927555,5.28062e-05
6.668065727554,0.000840032
6.674145731115,5.8832e-05
6.690705604885,0.000720032
6.691814502963,0.00159963
6.699024800103,2.2832e-05
6.701160972634,8.5232e-05
6.702713982139,4.5632e-05
6.706349673788,1.4432e-05
6.708415244479,0.00154323
6.716081150064,1.9232e-05
6.717799493906,1.4432e-05
6.718949551249,2.7632e-05
6.719925058945,0.000388832
6.73265877935,4.2032e-05
6.736587223655,0.00132603
6.73931100054,1.5632e-05
6.741959736883,0.00199203
6.748296782583,0.000225632
6.748332092728,8.8832e-05
6.753953560879,7.3232e-05
6.758047309006,0.000906032
6.759364614512,0.000284432
6.760744646999,2.2832e-05
6.763641618156,5.8832e-05
6.767803100366,0.000283232
6.771338974995,0.00297243
6.774442479699,0.00354603
6.774874122098,6.2432e-05
6.781775907796,0.00358323
6.782292394773,1.3232e-05
6.783649145707,5.7632e-05
6.788023185632,5.72101e-05
6.788373585631,0.00339483
6.798922521961,0.000532832
6.804819470504,0.00409443
6.805302226551,5.27099e-05
6.805681426549,0.00351963
6.808196033747,2.0433e-05
6.809650433746,1.80993e-05
6.815140433744,0.00699123
6.821156012118,6.0032e-05
6.823183434842,3.1232e-05
6.824143933432,7.4432e-05
6.825650778889,1.5632e-05
6.82592384473,1.5632e-05
6.839282239826,5.6432e-05
6.840484938453,6.3632e-05
6.846506757489,0.00314403
6.847439684946,3.6032e-05
6.862621203394,1.6832e-05
6.871915247499,7.3232e-05
6.873948238844,6.6032e-05
6.880298212258,5.4032e-05
6.882046481916,1.9232e-05
6.886389468288,0.00277842
6.889858668287,0.000139106
6.891719868285,4.61491e-05
6.893606268283,0.0102252
6.895157926521,0.00367563
6.895178329988,1.4432e-05
6.895544170221,4.6832e-05
6.904769232735,6.8432e-05
6.905452227357,4.5632e-05
6.905849437229,3.1232e-05
6.911176143204,5.2832e-05
6.923959137064,0.0124632
6.926216304784,0.00100792
6.939327504783,0.000223787
6.939851904782,2.33563e-05
6.940166630206,0.00511866
6.945013430206,0.000301351
6.946082630205,0.0301777
6.947321030204,0.0292575
6.951752630203,0.000242682
6.956505830202,0.000124013
6.9611306302,0.0202202
6.963114773301,0.0336918
6.965141605301,0.00347496
6.968417605301,0.000156915
6.970167205299,0.00422831
6.970451605298,0.0138088
6.971220805297,2.79206e-05
6.974602405296,0.0560577
6.978690805296,0.0485526
6.978741205295,0.000236843
6.979668805295,0.0263785
6.981318805294,0.0221461
6.986258401621,0.00378123
6.986441699168,0.00115323
6.988403730034,0.000823232
6.994091864769,0.000234032
6.998805419097,0.000204032
7.000738641427,7.0832e-05
7.002164754483,0.00107163
7.005408988479,1.3232e-05
7.005537868697,3.2432e-05
7.017557182497,6.6032e-05
7.019515316138,5.41901e-05
7.019602916138,0.000214832
7.021547151287,0.00198123
7.022397788002,0.000777632
7.022398988002,1.8352e-05
7.024397245198,9.3632e-05
7.025592261908,1.9232e-05
7.032264653062,0.00150843
7.040556536215,0.000265988
7.041589736214,0.000568415
7.043275736212,0.00304923
7.044223175019,0.000143346
7.044869975019,0.000880832
7.046398582459,5.25045e-05
7.047722182458,0.00252363
7.048638527771,7.6832e-05
7.050968270119,3.6032e-05
7.059481998836,8.96903e-05
7.061591598835,0.000144365
7.062942798833,0.00695236
7.065011598832,0.00259709
7.066116798831,1.804e-05
7.066857198829,0.0116016
7.066960105731,7.4432e-05
7.072283743032,0.00394083
7.074867645936,1.6832e-05
7.07893353964,2.8832e-05
7.081366208721,3.7232e-05
7.084462934972,0.00224163
7.095866946719,0.000331232
7.101188959558,0.00357483
7.101826810602,0.000484832
7.101879292384,8.4032e-05
7.102687428264,1.6832e-05
7.106184328102,0.000170432
7.106700607892,5.1632e-05
7.107150299446,7.5632e-05
7.108431749961,1.5632e-05
7.109730521229,0.000331232
7.114409784941,7.3232e-05
7.123621923051,3.98965e-05
7.124425923051,0.00295443
7.12788255102,3.4832e-05
7.1318849919,0.00116523
7.13697763408,9.80032e-05
7.13745643408,0.00367203
7.148194481468,0.000128432
7.14876226485,3.9632e-05
7.148985518925,1.9232e-05
7.150672494358,4.93372e-05
7.150887294357,0.000482432
7.152299541069,0.000482432
7.152652143282,0.000166832
7.162921210907,0.00101283
7.169017334088,3.1232e-05
7.172919288464,0.00390723
7.177176310389,1.9232e-05
7.187910649591,4.9232e-05
7.192295564836,2.2832e-05
7.192859663588,6.6032e-05
7.195587260311,0.00268923
7.196109814496,0.000359063
7.199861014494,8.20867e-05
7.201077814491,0.00549123
7.201372361429,0.000107601
7.203983561428,0.00719043
7.206844177199,0.000656897
7.209660577197,0.000321603
7.209842977195,0.0113064
7.213414254123,5.5232e-05
7.22020707761,0.000171632
7.225158412326,0.000160832
7.22759581478,0.000273632
7.228141382226,0.000102032
7.230160172685,1.5632e-05
7.230956113342,3.6032e-05
7.236624939138,0.00121563
7.241817599464,0.00155643
7.243866826844,0.00013352
7.248504826843,0.000152527
7.250202826842,0.00691203
7.256522281643,3.3632e-05
7.258092735226,2.7632e-05
7.267334759834,0.000462032
7.27375179557,0.00123603
7.275486288774,0.000562832
7.276476055788,1.3232e-05
7.28068004141,5.8832e-05
7.282574113855,4.0832e-05
7.283985749407,5.8832e-05
7.288722368797,3.79798e-05
7.289328368796,0.000402286
7.290096368794,0.00108356
7.290894368793,0.00567603
7.297306205245,0.00501483
7.299994237245,0.00685566
7.307379654512,0.000202832
7.309261706568,1.5632e-05
7.313068082643,0.00215403
7.31430607028,0.00108603
7.318624642063,0.00352083
7.329689372575,4.0832e-05
7.339590342512,3.9632e-05
7.367169182367,2.54644e-05
7.367332382366,0.00446163
7.367610127155,1.6832e-05
7.36900733908,0.000982832
7.369146216731,1.5632e-05
7.376406210051,6.0032e-05
7.376716816738,7.5632e-05
7.377063187736,1.9232e-05
7.379229444845,0.000304076
7.384781844845,0.00630843
7.397116221049,0.00801123
7.398350376528,1.4432e-05
7.401253934266,3.1232e-05
7.401276766266,3.43114e-05
7.404216434493,0.00283443
7.409127245992,0.00151923
7.410660958065,0.000536432
7.41260162384,1.3232e-05
7.422307829937,0.000463232
7.428365894804,3.7232e-05
7.443605649144,0.00294123
7.459152610603,1.3232e-05
7.473239615991,0.00578763
7.481397257598,0.000107424
7.481729657598,0.000283189
7.482456857596,1.86531e-05
7.485448457594,5.93255e-05
7.493477657593,0.000188858
7.497366857592,6.02501e-05
7.50275605759,0.000189854
7.502806457589,0.0263904
7.505160924413,0.00906123
7.512647869889,0.00289203
7.516826134623,6.2432e-05
7.518046035576,0.000343445
7.518115635574,0.00120723
7.52381734902,0.00591603
7.529435277228,3.3632e-05
7.535032868118,6.8432e-05
7.536929765475,3.7232e-05
7.540408368829,8.38625e-05
7.543024368829,0.00574563
7.544562525201,5.20772e-05
7.545970125199,2.1173e-05
7.546442925197,0.00413883
7.548164405684,0.000151232
7.552713178735,0.00156346
7.552720378734,3.22548e-05
7.557745978733,0.00861843
7.559841828132,1.6832e-05
7.562158160294,5.7632e-05
7.5721563755,0.000210538
7.572398775498,0.00373922
7.574651175498,0.0122544
7.575324095842,0.00673083
7.577040841666,0.00180363
7.583398991876,1.9232e-05
7.585129960279,0.00122523
7.590145499247,3.8432e-05
7.605389082864,1.6832e-05
7.60597896114,6.6032e-05
7.611395026048,6.7232e-05
7.613977705623,0.000769232
7.619499504091,6.1232e-05
7.622467980848,0.000423632
7.624717324556,0.000636032
7.625128292465,3.6032e-05
7.625424059789,6.1232e-05
7.628266315244,4.4432e-05
7.633689334885,0.000847232
7.645381488691,1.9232e-05
7.65752879927,0.000694832
7.657780541537,7.3232e-05
7.659205794912,0.000794432
7.663887225809,0.000222032
7.668395062819,0.000291632
7.686230869706,2.8832e-05
7.7003153102,2.0432e-05
7.709462864395,0.00258687
7.713538064394,2.80043e-05
7.721662064392,0.00286213
7.72210966439,0.00396357
7.728209264389,0.0269112
7.72930009639,0.00750688
7.730999742278,0.000475232
7.731695883126,3.1232e-05
7.734509267965,0.00160323
7.73502429059,2.5232e-05
7.73637435092,0.000260432
7.744248661023,5.1632e-05
7.753266074151,0.00102243
7.753900590146,3.9632e-05
7.755123993234,8.5232e-05
7.765190377902,0.000940466
7.765844377901,0.00245403
7.768061604628,0.000259232
7.769109876182,4.0832e-05
7.774212458046,0.00129243
7.77681778131,6.7232e-05
7.777189426942,5.7632e-05
7.777221027606,1.4432e-05
7.777649655696,1.8032e-05
7.778260877885,5.7632e-05
7.787246331509,1.9232e-05
7.792265151078,8.40035e-05
7.795248351078,0.00761883
7.796249380717,4.27638e-05
7.798789780716,0.00407283
7.804653637977,0.00826683
7.805590634771,0.00328443
7.811016816469,3.8432e-05
7.816601200887,0.000171632
7.819261188184,0.000669632
7.823739724227,0.000741632
7.82649724492,0.000230432
7.832279158858,6.9632e-05
7.833004960065,2.8832e-05
7.834478685504,1.6832e-05
7.838558312339,2.2832e-05
7.838977800254,3.1232e-05
7.839065668643,3.6032e-05
7.847955060247,6.3632e-05
7.848257701011,8.6432e-05
7.8552895792,2.8832e-05
7.863646515278,4.3232e-05
7.865555300479,1.4432e-05
7.866438006559,6.8432e-05
7.87234995071,0.00104763
7.877114246304,0.00201039
7.878085046303,0.00447603
7.879495769673,0.00185763
7.884009644383,4.2032e-05
7.884768924933,9.9632e-05
7.890212215751,0.00265683
7.890627915854,2.5232e-05
7.894782479586,5.7632e-05
7.896580935415,0.000819632
7.907219570245,0.00316563
7.909181831286,0.00147843
7.915163783887,0.000537632
7.915703959297,6.0032e-05
7.923518996516,0.000146432
7.927539904734,0.00222843
7.930353234767,2.8832e-05
7.932753535425,5.1632e-05
7.932906207075,7.6832e-05
7.938543607489,0.00564723
7.939681110885,1.91697e-05
7.940560710884,6.14473e-05
7.940942310882,0.000126124
7.94707071088,0.00780243
7.950672676817,0.000152754
7.952601076816,0.0112908
7.955833908817,0.0124753
7.956391908817,0.0101487
7.957345940817,0.013742
7.964979744,0.00158283
7.972051397135,0.000704432
7.972866839867,7.2032e-05
7.981115987983,2.58683e-05
7.981661987982,0.00421801
7.982876387981,0.00610683
7.992853602501,6.8432e-05
8.004898114897,0.00436083
8.006787613509,0.00362523
8.008525019711,2.7632e-05
8.021107598868,0.00135843
8.022403503089,0.000103066
8.023907103087,0.00309003
8.02401179795,2.55943e-05
8.02442939795,0.000708032
8.029925384133,4.3232e-05
8.032019318139,6.6032e-05
8.034925565631,2.0432e-05
8.048128622754,1.6832e-05
8.053902623726,0.000530432
8.057492676286,0.00386643
8.074474494764,1.8961e-05
8.075014494764,0.00276963
8.078433305667,0.00213723
8.085311681915,0.00255003
8.089872056673,0.000352832
8.090377093689,4.6832e-05
8.099174957314,0.000518497
8.100503357313,7.69195e-05
8.103676157311,0.0111252
8.10495125883,0.000190925
8.105098858828,0.00621365
8.105436058828,3.52338e-05
8.109676858826,0.000100154
8.110270858825,0.00855097
8.110694458825,0.0127668
8.12513701312,0.00302283
8.132807282645,0.000121546
8.134517282643,0.00071237
8.134855682642,0.00347688
8.148287282642,0.000259069
8.152312082639,6.8356e-05
8.153794251214,4.40679e-05
8.154401451213,3.16361e-05
8.155888251212,0.00954843
8.157629483213,0.00683879
8.158731115213,0.000139757
8.160369115212,0.000117785
8.168015515211,0.0398319
8.168376715211,3.20249e-05
8.172649915209,0.00855205
8.178274315208,0.0406866
8.186810386876,0.00725163
8.187688563604,0.000119823
8.187806163604,0.000453632
8.188081129331,5.5232e-05
8.195238502477,3.3632e-05
8.208609099738,0.00500138
8.220431499737,4.33684e-05
8.222253099735,7.30151e-05
8.228267499733,0.000168207
8.228333499732,3.38056e-05
8.23260069973,0.000215661
8.232928299729,0.0329316
8.232939149634,0.0169944
8.234237581634,0.0177223
8.23939919521,1.8032e-05
8.239620400459,0.000118832
8.239923024338,6.0032e-05
8.243905794553,2.28388e-05
8.244503394552,0.00146763
8.245097860588,6.8432e-05
8.249383739772,0.000133232
8.254978186207,5.6432e-05
8.259860619646,4.0832e-05
8.264811685656,3.3632e-05
8.265633452538,1.8032e-05
8.267904418299,0.00080133
8.271556018298,0.00503043
8.272066750805,1.3232e-05
8.272806813349,0.000666032
8.274143073296,0.000304283
8.275825473295,0.00227163
8.286755657662,2.6432e-05
8.294106419918,5.2832e-05
8.301465418335,0.000754832
8.304422154094,7.89842e-05
8.306157354093,4.54071e-05
8.309344554091,0.00795843
8.314992148648,0.000131939
8.320154548647,0.0103248
8.322655886596,1.9232e-05
8.3366323695,3.4832e-05
8.34433361264,2.6432e-05
8.353648650324,0.00229203
8.366015097746,0.00375963
8.371053266916,3.2432e-05
8.377165988303,0.000150032
8.383136488194,1.5632e-05
8.388127459022,3.8432e-05
8.389577788282,2.0432e-05
8.389833320561,1.3232e-05
8.393306733547,1.6832e-05
8.402183901794,3.1232e-05
8.406399502081,4.2032e-05
8.411078168752,2.0432e-05
8.412936256605,5.6432e-05
8.422381322967,2.8832e-05
8.426373047543,0.000855632
8.430969611599,0.00392403
8.439166212284,1.9232e-05
8.449574192933,0.00290782
8.450134592932,0.00482163
8.4547040382,0.000814832
8.462589680125,3.3632e-05
8.464871832227,6.6032e-05
8.47977743089,1.9232e-05
8.491249711409,0.00226443
8.497641837667,0.000129571
8.505444237667,0.0134328
8.506021869263,7.0832e-05
8.510750055511,4.6832e-05
8.515392227054,3.0032e-05
8.518433575823,3.4832e-05
8.522774954336,3.4832e-05
8.525017243414,0.000125858
8.530474843412,0.000239854
8.530923643409,1.38106e-05
8.531551243408,9.12686e-05
8.534059243406,0.00447381
8.536315243405,1.34264e-05
8.536360843403,0.0120252
8.536988995108,0.000193886
8.537131795106,0.000125772
8.543981395104,0.00739725
8.544244195104,9.31114e-05
8.544701395103,5.89741e-05
8.545394995103,4.44343e-05
8.549611795102,0.0248652
8.552574843524,0.000952832
8.558368618057,6.2432e-05
8.561378625068,2.7632e-05
8.56910095702,1.9232e-05
8.570199302885,1.9232e-05
8.570575179035,2.5232e-05
8.579730669133,0.00122631
8.581197069132,0.00311403
8.587950809215,0.00116523
8.600170668765,0.000745232
8.607195621217,0.000159632
8.621267642325,3.2432e-05
8.621682722008,3.2432e-05
8.622040044654,4.3232e-05
8.623393096609,0.000321632
8.6283723655,0.00184203
8.629652910988,0.000417632
8.631897586426,6.92194e-05
8.632234786425,0.000198388
8.632718386424,0.00190563
8.633755491838,1.5632e-05
8.640309482239,3.6032e-05
8.644472864069,0.00354603
8.647758544281,0.000114236
8.64795774428,9.9675e-05
8.658422944278,0.00291136
8.659474144276,0.00189578
8.660974144276,0.0163188
8.664264416222,3.2432e-05
8.666436923578,0.000308758
8.669418923578,0.00339963
8.681739702517,0.000102109
8.689773702517,0.00927363
8.699505808849,2.8832e-05
8.702323771908,4.9232e-05
8.703172044013,1.8032e-05
8.704088490544,1.9232e-05
8.709066192003,6.8432e-05
8.714467341065,3.2432e-05
8.718274823097,0.000120032
8.721688911924,1.6832e-05
8.723635222874,1.3232e-05
8.724850069469,3.7232e-05
8.72787242322,0.000124832
8.729371074152,0.00114603
8.730051235159,1.9232e-05
8.733448073919,5.98652e-05
8.733550073918,0.000298832
8.734997065847,0.000636032
8.741108643964,1.41153e-05
8.748607443963,0.00199743
8.754608643963,0.00807886
8.758005843963,0.000190548
8.758831443961,0.0196584
8.760353560472,1.85234e-05
8.763575560471,4.96996e-05
8.76409516047,0.000333445
8.764109560469,0.00813843
8.76561716105,2.4032e-05
8.774551813068,1.6832e-05
8.777369443159,2.6432e-05
8.77837807244,4.5632e-05
8.789739468255,0.00197258
8.790944268254,0.00366123
8.793610418948,2.08418e-05
8.806628018948,0.000146601
8.812198418946,0.019146
8.812631423156,0.00921123
8.814960502977,4.4432e-05
8.816661310275,4.9232e-05
8.819022463605,0.00145443
8.821836825897,5.5232e-05
8.822128993692,9.9632e-05
8.822622519537,0.000295232
8.841843309411,0.000880416
8.84335410941,0.00244803
8.84560715794,6.8432e-05
8.856624834219,4.6832e-05
8.858481517239,0.000158432
8.862383281185,0.00373443
8.866064244192,5.45934e-05
8.866096644191,0.00153843
8.869980770408,1.8032e-05
8.870043279333,1.5632e-05
8.87114575646,8.6432e-05
8.878436627766,2.0432e-05
8.883832879587,4.6832e-05
8.890242460737,3.4832e-05
8.891049017227,0.000200432
8.894022427348,0.000134432
8.906546054714,5.20918e-05
8.907905654714,9.06643e-05
8.913347654713,0.00744483
8.913375784929,2.6432e-05
8.920544883243,5.1632e-05
8.927550189202,0.00681723
8.932495672505,0.00153723
8.935011113995,0.00090861
8.935425113995,2.36144e-05
8.940520313994,0.00747123
8.941863735562,5.1632e-05
8.962215554342,0.000363632
8.965487773788,0.000741632
8.977802461713,3.3632e-05
8.983349074353,5.2832e-05
8.989399392593,1.6832e-05
8.992426341342,2.0432e-05
8.994497033718,3.8432e-05
8.995012771123,6.2432e-05
8.997894910093,0.000554432
8.998045802241,4.2032e-05
9.000765646089,1.6832e-05
9.003987912518,3.0032e-05
9.006888547081,0.000128432
9.008558146032,0.000136518
9.010305346032,7.92029e-05
9.01096414603,0.0015072
9.012310546029,0.000328182
9.014218546028,0.00648483
9.016230149481,5.6432e-05
9.017413381481,0.00118693
9.022704916147,7.2032e-05
9.023802499775,9.3632e-05
9.034791907419,0.000108032
9.03570937155,0.000817232
9.039840153613,5.1632e-05
9.044562048307,0.00173737
9.047143248306,0.00708843
9.049870711375,4.25013e-05
9.052291111373,0.00215688
9.053245111371,7.63252e-05
9.05349711137,0.00713403
9.053983295296,0.00731403
9.054057032497,2.10565e-05
9.058241432495,1.35844e-05
9.060130232495,0.00639483
9.061796594637,8.08475e-05
9.062896994637,5.02571e-05
9.065799794636,0.00106949
9.073620194634,0.000161238
9.074055794633,0.00116282
9.074448194633,0.013848
9.076707353423,1.6832e-05
9.078981127503,0.00136563
9.080947897024,3.0032e-05
9.085079059326,0.000131571
9.088274659326,7.42686e-05
9.092370259324,2.3789e-05
9.093479059323,0.0109752
9.105511570678,8.83723e-05
9.106135570677,0.000237534
9.106272370675,0.000383597
9.107213170675,0.000127133
9.110202370673,0.00483843
9.116094504315,4.3232e-05
9.135523934696,1.4432e-05
9.135997745677,0.000111632
9.143275183757,4.2032e-05
9.144806633859,8.6432e-05
9.155760049528,0.000386432
9.159957693845,5.1632e-05
9.163125936088,0.000642032
9.169801661141,0.000788432
9.170286333344,0.000352832
9.176972485568,0.000674432
9.177132862035,6.4832e-05
9.179344246201,0.000730832
9.184210333433,2.1632e-05
9.186039353134,0.000120032
9.195106163852,1.5632e-05
9.204074846161,4.5632e-05
9.207383795156,7.0832e-05
9.209235395434,0.000256832
9.213515164995,0.000567632
9.226892686433,0.00605523
9.229104773958,0.000903632
9.22992348008,0.000168032
9.232163417963,0.00138963
9.234079849963,0.000261401
9.234372649963,0.000107556
9.237921049962,0.000793993
9.239855449961,0.00240198
9.246268249961,4.45439e-05
9.246271849959,0.0154345
9.247349765216,1.4432e-05
9.248695888942,2.1632e-05
9.250775700593,1.61805e-05
9.251590500592,0.00133923
9.254200354469,7.4432e-05
9.254526132195,2.5232e-05
9.255293138014,1.3232e-05
9.25789863985,5.67921e-05
9.25812663985,5.48216e-05
9.259107039849,0.000153497
9.260229039848,2.36138e-05
9.263737839848,0.00269886
9.265788639847,0.0017928
9.267819039845,1.86058e-05
9.269433039845,0.013014
9.269905449089,8.4032e-05
9.277180625711,0.000103232
9.283413035361,0.00278883
9.283471759897,0.000120032
9.283787833434,0.00297723
9.286316476695,0.000489632
9.292063069692,0.00139683
9.294448854515,2.35167e-05
9.296998854514,2.06906e-05
9.298195254512,0.00583203
9.302585270128,5.66125e-05
9.303385670127,0.00132123
9.304798637543,7.2032e-05
9.310630272789,6.41093e-05
9.311277072789,0.00514443
9.314313061659,0.00133323
9.320088996563,0.00033353
9.323000196562,0.00491523
9.326406517912,5.7632e-05
9.332472508779,0.00304089
9.333461308777,0.00463083
9.336253758213,0.000695487
9.336794958212,0.00563403
9.340989244221,0.00224104
9.345323644221,4.20973e-05
9.348236044218,0.000100786
9.351670444216,2.77423e-05
9.351701644214,0.00651216
9.354230044214,2.88094e-05
9.354531244211,0.000196028
9.35814684421,1.39746e-05
9.359106844209,3.80031e-05
9.360192844208,0.0214824
9.366419209242,8.18446e-05
9.368189209239,3.39805e-05
9.372362809237,8.18781e-05
9.374436409235,0.000200621
9.38183284672,0.000401239
9.381991246719,0.00395455
9.383509246718,0.031764
9.385402890903,0.0118908
9.389605278718,0.00010579
9.390402078716,0.000140069
9.391700478716,0.000105228
9.395970078715,0.0311342
9.397570425917,0.000110482
9.398400825916,0.0186372
9.402553310713,0.000127151
9.403350110712,0.0599085
9.405644281909,3.2432e-05
9.408642357696,1.5632e-05
9.409920894921,0.000401768
9.411778494919,0.00210507
9.415144494919,0.00581283
9.423587828002,0.00158403
9.426657436323,1.4432e-05
9.427056202632,1.3232e-05
9.431962623988,6.3632e-05
9.43334453258,1.4432e-05
9.433918426804,3.4832e-05
9.444976331849,0.000706832
9.445573818073,1.4432e-05
9.447310163975,0.000796832
9.451347650451,0.00364443
9.460888751021,0.00297843
9.464468210745,0.00138123
9.466840714538,5.6432e-05
9.470404588577,4.0832e-05
9.471119628247,2.5232e-05
9.481091062509,0.00263643
9.481872628595,6.94039e-05
9.482593828593,0.00361803
9.495576666959,1.4432e-05
9.495772619017,3.8432e-05
9.497787794914,1.8032e-05
9.507377549676,0.00673683
9.509126652697,0.00399843
9.515746681703,0.00165816
9.518229481703,0.00013834
9.520631881702,0.000121709
9.522158281702,0.000129193
9.532349881699,0.000302728
9.532383481697,0.000370114
9.533387881697,0.000194176
9.533504281695,0.000164483
9.538310281695,0.015108
9.538466313695,0.00438957
9.538695513695,0.0250945
9.539974713694,0.0144264
9.541749545694,0.0200604
9.542616296781,0.000140432
9.545073136943,6.2432e-05
9.552583351644,3.1232e-05
9.570878389318,0.000206432
9.576870834132,0.00113043
9.586466369667,0.000176901
9.590545169666,0.00316793
9.590606369664,0.00385184
9.592504769664,7.12046e-05
9.597382769662,0.000362368
9.60079436966,2.04967e-05
9.603583169659,5.37157e-05
9.603799169657,6.51629e-05
9.606266369656,0.000202462
9.610183169654,0.0264744
9.610540868683,0.000140419
9.611156468681,0.0037943
9.617197268681,8.12573e-05
9.619011668679,0.0048796
9.623250068678,0.00983527
9.632829668677,0.000474853
9.636242468675,5.07481e-05
9.638008868674,0.000114464
9.638286068672,0.012021
9.640030868672,0.0384324
9.647002486171,2.37031e-05
9.654478486168,0.0108324
9.656652886168,0.000360068
9.656943286168,0.0142164
9.657773718169,2.6331e-05
9.658006518168,0.000129318
9.666531318167,0.0232498
9.666566118167,1.65526e-05
9.670506918166,0.000139364
9.671174118165,0.0265406
9.672485718165,0.000155278
9.674436918163,0.0309296
9.674884550163,0.0310062
9.677646115852,0.00761643
9.678270813092,1.5632e-05
9.679017958939,5.4032e-05
9.683413571986,3.6032e-05
9.6872308906,2.0432e-05
9.687533217717,4.5632e-05
9.69268681879,0.00174959
9.69836641879,0.00778683
9.699956073169,0.000121359
9.701966073168,0.0112656
9.703592969287,2.6432e-05
9.709697616391,3.4832e-05
9.710086024551,0.000151232
9.715093051528,7.2032e-05
9.715950249698,6.2432e-05
9.721167625532,0.000450032
9.723637979767,2.38501e-05
9.728026379766,0.000100192
9.729803579764,0.00620043
9.732042593167,0.00127683
9.73378112327,6.0032e-05
9.736979788361,0.00285963
9.743672695264,0.00175083
9.746236637604,0.00278523
9.747589544062,1.3232e-05
9.753700264201,0.00378483
9.763887322408,0.00196803
9.763949764705,4.9232e-05
9.767538414982,0.000109749
9.771730014981,0.00673203
9.781816381547,5.2832e-05
9.788163060586,1.8032e-05
9.79337717266,0.00449163
9.794730656962,3.1232e-05
9.79544984962,1.8032e-05
9.797593886647,0.000184567
9.799961486647,5.71203e-05
9.800443886645,0.000109562
9.806417486644,0.000422017
9.80680268664,0.000902949
9.810283886639,0.0135948
9.814458718642,0.0119208
9.815975518638,4.74853e-05
9.817014718636,0.0110348
9.817668622645,0.00195205
9.821207422645,0.0111312
9.821483469246,0.00242763
9.824537658084,8.28652e-05
9.825869658083,0.000740485
9.827158458083,0.00393843
9.832756115349,4.5632e-05
9.83939281925,3.0032e-05
9.845813404934,0.000117632
9.853341478632,4.4432e-05
9.864806255632,3.09737e-05
9.865161455631,0.000116942
9.869295455629,0.0125796
9.875435545275,6.1232e-05
9.886851211787,1.9232e-05
9.888125806771,1.6832e-05
9.89175269244,3.31394e-05
9.899348692439,0.00794043
9.899426601945,2.6432e-05
9.911565613004,2.7632e-05
9.912308919639,0.000162032
9.91377449626,0.000385045
9.914082896258,0.00153123
9.914712375467,0.000106071
9.914987175465,0.00234123
9.918211139008,0.00352923
9.921137713303,5.24427e-05
9.923007313302,0.00308523
9.927088505794,6.9632e-05
9.92754939651,0.000362432
9.93479138141,6.7232e-05
9.937041206607,1.4432e-05
9.938543501222,2.8832e-05
9.939355059925,7.4432e-05
9.945560197669,0.000446432
9.952044974522,2.59349e-05
9.954585374521,0.00314283
9.960259457231,1.43893e-05
9.96051625723,9.33241e-05
9.960734657229,0.00300399
9.967682657229,5.2498e-05
9.972041057228,5.40605e-05
9.972122657227,0.0171216
9.972901144121,3.0032e-05
9.974432125305,2.2832e-05
9.977486063443,1.5632e-05
9.978072356086,1.43716e-05
9.981685556085,0.00382443
9.985588750427,0.000126642
9.987382750426,2.06959e-05
9.989752750424,0.00795243
9.993051523375,1.5632e-05
9.994385828826,3.3632e-05
9.995473386154,3.4832e-05
9.997039590073,4.6832e-05
9.997808253151,0.000428432
10.002786688732,0.000451232
10.004267735193,3.6032e-05
10.006060298328,3.4832e-05
10.00636994626,3.3632e-05
10.013656455313,4.2032e-05
10.014361086598,0.000159632
10.01483815216,6.9632e-05
10.015241565322,4.9232e-05
10.016900807863,3.3632e-05
10.021573133319,0.000832832
10.027768286267,6.8432e-05
10.03164824602,7.0832e-05
10.034784212764,9.4832e-05
10.039817903217,0.000385232
10.04386272985,1.3232e-05
10.050558551697,4.5632e-05
10.05683916312,4.3232e-05
10.056888739852,3.6032e-05
10.059437256296,3.6032e-05
10.063025980852,1.9232e-05
10.063479763264,2.2832e-05
10.066786195944,4.49986e-05
10.071096595944,0.00174617
10.072324195942,0.00402768
10.073864995941,0.00846003
10.082978148968,5.39759e-05
10.088700948966,0.00704833
10.091799348965,0.00569262
10.092776148964,0.0117012
10.094565069218,7.82653e-05
10.102980669218,0.000190418
10.103254269216,0.00959043
10.104152279938,5.75388e-05
10.105751879936,0.00973323
10.10622548183,5.2832e-05
10.109102728903,3.4832e-05
10.117539366612,0.00291963
10.12092487318,0.000105632
10.127905554739,4.00027e-05
10.133473554738,0.000154547
10.133718354736,0.00215836
10.136133954736,0.00890403
10.139434214637,0.000266432
10.14161537119,2.6432e-05
10.146973485355,5.1632e-05
10.164516430566,5.49295e-05
10.166324830566,0.000126439
10.167775630565,0.00022061
10.168420030564,0.00692163
10.174098246833,0.00197183
10.177905846832,0.000908725
10.180580646832,0.0102732
10.180910178503,0.000124553
10.184546178502,0.00149647
10.187326578502,8.89128e-05
10.198589778499,0.0203544
10.199926621946,0.0144528
