time,CharnySim1.flowGenerator3.flowCompletionTime:vector
0.000072342905,7.23429e-05
0.00500173335,0.00322806
0.007979258178,2.73159e-05
0.009818632992,4.6473e-05
0.016048527294,0.0142149
0.01658567814,7.95341e-05
0.019373016489,4.99231e-05
0.020654763628,8.7337e-05
0.021492269008,4.30885e-05
0.022518766597,0.000154689
0.022816695408,6.98904e-05
0.023419524012,0.000150283
0.026138297799,0.000130626
0.028700219634,0.000197671
0.030636871146,0.00242587
0.031194085655,0.000363982
0.034091987037,0.000268216
0.036206674775,0.000168382
0.04209150499,0.000444432
0.043961648359,0.00403312
0.044382110174,0.00011355
0.044648668841,0.0131104
0.04485069617,0.000252343
0.047944526138,0.000126849
0.049869193662,3.4943e-05
0.05071548713,0.00041605
0.056646843524,0.00344492
0.057637373082,0.0283221
0.057695859522,0.000300797
0.062094760011,0.000309818
0.062824569755,0.0166512
0.064075734596,0.000488014
0.065372983105,0.00022988
0.066395221728,5.86242e-05
0.071171402638,0.000113499
0.072241687516,0.070935
0.076337413829,0.0196247
0.077485895532,0.00623862
0.082783617639,0.000224966
0.083898591421,6.48752e-05
0.084934075858,0.000586915
0.087915203676,0.00708932
0.09019993147,0.0109796
0.090713750861,6.75696e-05
0.091847977971,4.49556e-05
0.091895946209,0.00778041
0.092329552703,0.000268456
0.095541827433,0.000152173
0.096010986415,5.35305e-05
0.097677548887,0.0158935
0.099415205955,9.15208e-05
0.102423693796,0.000615862
0.1027202576,0.0019575
0.106622877843,0.00771836
0.106736484634,0.000638012
0.109459278687,0.00093748
0.110267170239,0.000239819
0.110373978117,0.00805203
0.114980639492,0.0262378
0.115541405917,0.000313803
0.116103126959,0.0454896
0.117583022501,0.0263523
0.11800193569,0.000292209
0.118925246084,9.92933e-05
0.120041743689,0.0349267
0.121013993592,0.00739194
0.121932298773,0.0371275
0.126152388255,0.0051602
0.126342152066,0.0396714
0.13020086237,0.0322786
0.132680265679,0.00808734
0.134082621483,0.116273
0.137496331384,0.000213388
0.137598732542,2.54511e-05
0.13800909283,3.17429e-05
0.139650646598,0.0580207
0.142525266657,0.00142816
0.143074371519,0.00473006
0.143841216367,0.00853764
0.144274623474,0.0405098
0.154331377579,0.00125071
0.156390487746,0.000102835
0.156945957317,9.93703e-05
0.15744022809,0.00273414
0.162006301746,0.000133383
0.167783873221,0.0223232
0.174299281349,6.29399e-05
0.175032791714,0.0017501
0.175135498152,3.4928e-05
0.177045452795,3.4328e-05
0.177773302852,7.90593e-05
0.179050098467,8.30892e-05
0.184094661331,3.85615e-05
0.185128845982,7.6905e-05
0.187848962061,0.0051026
0.189987501884,7.6924e-05
0.191698818888,3.81616e-05
0.192428700854,3.68973e-05
0.193265080437,0.00479381
0.19949974334,9.51787e-05
0.203081686715,2.536e-05
0.204883403692,3.4328e-05
0.209996440812,0.00130788
0.215016432672,0.00613242
0.215677886681,4.4134e-05
0.220696213323,7.19981e-05
0.221875752633,0.005201
0.225016634913,5.08504e-05
0.22670593,8.84623e-05
0.227986795316,0.000179806
0.228410145457,3.3328e-05
0.228591340601,0.000151597
0.231735953096,0.000163686
0.232523477771,0.000303388
0.233544435793,3.56137e-05
0.239020060596,0.000351302
0.241961987206,0.00829458
0.250334325248,4.81638e-05
0.257669874068,0.000918611
0.264842105015,4.54772e-05
0.266426874061,3.4928e-05
0.270168991284,0.000101895
0.272902087597,7.23429e-05
0.279462709744,0.00173454
0.281184629771,0.000152605
0.282648808284,0.000120253
0.283152370646,0.000200802
0.283721890641,0.00879109
0.290347264729,3.3328e-05
0.292558345489,0.000186522
0.29270343416,0.00159831
0.294099238624,3.3328e-05
0.295616229275,0.000660701
0.295997417367,3.56137e-05
0.299330265474,9.38354e-05
0.301090526514,0.00174742
0.312852263398,0.00735428
0.314846745682,3.1328e-05
0.317831923632,0.000182492
0.322528934367,0.000288671
0.325471730844,0.00649382
0.327205635545,4.09903e-05
0.327838569961,0.00719817
0.328135571393,7.90593e-05
0.329932553917,3.56137e-05
0.333790682618,0.000146223
0.334945684323,0.000158646
0.336626857476,0.00409861
0.336969369098,0.00638619
0.338965896655,0.000108612
0.344851033145,3.60743e-05
0.348969520174,0.00110936
0.349066634565,0.000105971
0.352049786152,0.000114314
0.352283772043,0.000318404
0.355693885586,0.00272533
0.356278222209,0.00840537
0.357086671546,0.000475328
0.357914671338,4.08448e-05
0.358328819459,0.00117115
0.362568862874,0.00167554
0.363788531841,0.00488919
0.366362163655,0.000663196
0.366605441171,0.000847417
0.368164860919,0.00137667
0.369326096262,6.15966e-05
0.37092096516,6.02534e-05
0.373466106436,0.00148682
0.375355978886,4.81638e-05
0.376937628207,6.15966e-05
0.386470390385,0.00276091
0.387829792827,0.000125535
0.388320227961,0.00583368
0.391753816614,2.60551e-05
0.39592573636,0.00192422
0.396090094201,0.00739987
0.401964891308,0.012064
0.402324980811,8.98056e-05
0.403498746011,3.58652e-05
0.403562930581,0.000373069
0.404595165928,3.5328e-05
0.407116340867,0.00169906
0.413039363869,3.5464e-05
0.415516148752,0.000136287
0.418537300414,9.78653e-05
0.420702701291,0.00779622
0.425834547876,0.000170403
0.431938364934,0.000117441
0.432478195903,0.000106004
0.433032971804,6.62512e-05
0.436628909295,0.00851991
0.436902693551,0.00270582
0.443865430895,0.000442135
0.444612270966,0.00323724
0.445426106086,0.00640662
0.445946936016,5.21937e-05
0.449439765934,2.536e-05
0.451412306665,0.00157145
0.451900227433,0.000326223
0.456479200253,3.5828e-05
0.464373949687,5.62235e-05
0.467922298657,0.000170403
0.469799170224,9.51787e-05
0.470057495101,2.536e-05
0.475635396343,0.00412503
0.477147088203,0.00100055
0.477455501858,6.15966e-05
0.48063027258,8.44325e-05
0.48760588207,0.00106194
0.488531601516,0.000199225
0.489408701762,2.71523e-05
0.489454204563,0.00682351
0.489574682966,0.00328786
0.489999071711,4.81638e-05
0.497522696062,0.00701712
0.499541456034,0.00331655
0.50083637229,0.000855477
0.50215561622,0.000128761
0.50668597312,3.7392e-05
0.508543594083,4.99509e-05
0.509335936726,0.000143592
0.514375740167,3.78173e-05
0.522514549542,0.00258101
0.527289472137,7.44054e-05
0.537914927427,0.000256373
0.538586597349,0.00270077
0.539733057812,0.0340542
0.539925990525,0.0139528
0.54339059998,3.3328e-05
0.545542090196,4.54772e-05
0.547006751026,0.00141697
0.549674159497,9.11489e-05
0.553996643204,0.00140219
0.554866440684,4.27907e-05
0.560473981447,3.42024e-05
0.566612648673,0.00202226
0.566794070287,0.000162343
0.567073506093,0.0070774
0.568421312511,3.5328e-05
0.569956475633,3.7424e-05
0.57082879352,2.536e-05
0.572683091215,6.83131e-05
0.573801221323,3.1328e-05
0.576548242917,3.4928e-05
0.577286079014,3.1328e-05
0.577990929836,9.24921e-05
0.584226128457,4.68205e-05
0.584685549903,3.4928e-05
0.586417314549,7.75057e-05
0.589537897797,0.00346548
0.590813445092,0.000109955
0.591479755426,4.54772e-05
0.592279234367,0.00029911
0.594367824077,9.93022e-05
0.594538044959,4.70641e-05
0.595376429134,8.73169e-05
0.595826763066,9.84004e-05
0.596243403636,4.18765e-05
0.598155783909,0.00615187
0.59836131271,0.000509419
0.598471652644,0.000391276
0.603849884431,0.000170487
0.605594251158,0.0135906
0.607446644962,0.000262265
0.607840058083,0.000103572
0.609484099648,2.57713e-05
0.612549160018,0.000138717
0.612597594989,0.000126144
0.617023996665,0.0067983
0.617129047869,0.00617326
0.617812779165,0.00352195
0.618477847539,0.0155599
0.620947495741,0.00200667
0.623492942255,0.000296671
0.623998365929,6.69698e-05
0.634196925353,7.50295e-05
0.637028543153,0.000225344
0.638014669233,0.00342046
0.63815831745,0.000423946
0.639584715689,0.00338415
0.640211697682,0.000125173
0.640529775649,4.08251e-05
0.640955844496,0.00647596
0.640985202344,9.44484e-05
0.641488911925,3.3328e-05
0.646149077833,3.5828e-05
0.650280790828,3.5328e-05
0.65374424585,3.21418e-05
0.656963235552,4.14933e-05
0.658580440232,0.00777566
0.661650148531,8.58482e-05
0.662647844949,0.00331098
0.664913937829,0.00811281
0.665544672323,0.00032085
0.666098320985,3.25738e-05
0.66704222264,0.00104891
0.670030830659,0.000142194
0.671077259124,0.000593537
0.672310179271,2.536e-05
0.675102680859,3.5328e-05
0.675143752497,3.4328e-05
0.675369356994,5.08504e-05
0.675527539662,0.000101091
0.681948289218,0.000283951
0.682746199347,7.37743e-05
0.683863616444,6.11802e-05
0.684418529159,0.00906296
0.685869881056,3.4328e-05
0.691393182198,4.68205e-05
0.691504354273,3.56137e-05
0.695577076694,4.75365e-05
0.695804091539,5.84369e-05
0.697337729094,0.000478582
0.697743206323,0.00236863
0.698125058383,0.000118744
0.700604819901,3.60226e-05
0.702635148186,0.000128292
0.707428964956,0.000154281
0.707551715388,0.00511522
0.708272832314,0.000278977
0.709396854805,0.000110848
0.710615852576,0.00132395
0.713358207965,0.0114252
0.715679688263,8.31382e-05
0.717378636095,0.0215315
0.724936340055,0.0071604
0.72540218301,0.0126071
0.728815686143,2.76342e-05
0.729974215609,0.0319242
0.730707622845,0.0171297
0.736910961703,0.0011142
0.737136699895,3.51655e-05
0.738490292863,3.29148e-05
0.739633264369,0.000148938
0.7443643627,0.0043507
0.744739052673,0.0332416
0.744986028821,0.000261703
0.747468527592,0.0014801
0.747658376257,0.000155626
0.748924818875,8.04026e-05
0.752007015563,5.48802e-05
0.753667903344,9.92086e-05
0.758508375264,3.60481e-05
0.75951395314,5.03575e-05
0.759698819757,0.000334147
0.762602997654,0.000106263
0.763066430346,0.000159844
0.763607773481,0.000232782
0.764804106602,6.41075e-05
0.76768967385,0.00262643
0.769943448677,0.00204883
0.771520294648,0.000195822
0.772484344284,9.46205e-05
0.775860086521,4.54773e-05
0.775877170601,3.77832e-05
0.780875493309,0.0130037
0.781538944971,0.00410531
0.781843029782,0.000104076
0.786486727116,0.0297165
0.78894912404,4.4134e-05
0.789956914009,0.000416223
0.790495164779,3.4328e-05
0.7931049743,4.4134e-05
0.794594217683,3.4928e-05
0.798531585377,0.00139279
0.800323139259,3.60743e-05
0.805271709943,3.3328e-05
0.80975105095,6.15966e-05
0.810118023666,4.81638e-05
0.811325983476,3.4928e-05
0.819923773621,0.00194354
0.822324523945,3.56137e-05
0.823123869103,4.14474e-05
0.828415980741,0.000947972
0.830648348367,0.000310252
0.831536226433,0.00711215
0.831953936521,0.000143289
0.833360318831,0.001061
0.836402690391,9.42827e-05
0.837647914192,0.00581791
0.841222364715,0.00898128
0.842801092648,5.62235e-05
0.844548478578,3.3328e-05
0.846075854488,0.00131488
0.847150344068,0.00139177
0.848328477727,9.51787e-05
0.853857315322,6.88319e-05
0.856316790655,0.00387348
0.85735574103,2.82641e-05
0.858098134176,0.00489494
0.858437758478,0.00336765
0.863440232066,0.000175034
0.865650885171,8.64445e-05
0.865870231903,0.0125933
0.86777869949,0.0138302
0.868813170694,0.00132162
0.871165794164,0.000323537
0.878009522176,0.00149622
0.880721228277,0.000114961
0.886142855692,0.00830094
0.888111752296,0.000360364
0.889438581942,7.7716e-05
0.897584842144,2.56959e-05
0.899979578662,0.013325
0.901111841995,0.0160444
0.902491479861,0.000197289
0.902542340513,0.00152533
0.903631255893,0.000102675
0.904709288283,0.00021146
0.906446825482,5.82184e-05
0.908810724242,0.000654388
0.909829352837,0.0128337
0.91204717063,0.0110195
0.912960945508,3.1328e-05
0.914343124078,0.000126074
0.916880105741,8.04026e-05
0.929070817963,0.00878891
0.929236942613,0.00474018
0.933057070674,0.000103381
0.934215117458,0.00720716
0.935713608993,6.83131e-05
0.942377200825,0.000269806
0.946963313691,3.18497e-05
0.948939572197,5.15773e-05
0.949307826162,9.84212e-05
0.950484826981,3.68307e-05
0.95145671577,3.76154e-05
0.951621685022,4.04367e-05
0.951757604728,0.00868883
0.952506674594,0.000157718
0.953060244026,0.000945477
0.956983920317,2.536e-05
0.957569318666,2.536e-05
0.961212041999,8.17459e-05
0.969441023195,0.000155135
0.969617801913,2.66697e-05
0.973593389743,9.46906e-05
0.973600898043,0.000278259
0.975052540995,0.00768776
0.97762809284,4.35505e-05
0.978606850012,0.000122653
0.979234041952,0.000224122
0.982283667914,4.58443e-05
0.982515489146,0.0168824
0.98437341838,0.0177609
0.990402376486,0.000259059
0.990630756534,0.00419893
0.991485058979,0.00625402
0.993425399724,5.89101e-05
0.993516587969,4.95071e-05
0.994542683658,9.829e-05
0.999359696618,0.000326275
1.002568657253,0.00838296
1.005850440912,0.00551401
1.009301916967,6.8752e-05
1.012772139259,0.00410846
1.015629276657,0.0031775
1.017332697267,3.1328e-05
1.027581237337,0.000195362
1.030410825559,0.000176749
1.030891695497,0.00686972
1.03767105042,0.0107471
1.040319099823,0.000122044
1.043609227657,6.02534e-05
1.044873230552,0.000313814
1.045598740208,0.00195563
1.04575767265,5.08504e-05
1.046334383145,3.5328e-05
1.048469910814,8.84623e-05
1.051380816564,0.00038113
1.052303652014,8.26955e-05
1.052683704617,2.536e-05
1.058569866386,0.0079423
1.059687443703,0.000361808
1.061738089526,6.57896e-05
1.061838510767,0.000135807
1.062905468889,8.65101e-05
1.066848149239,0.00402567
1.067441574727,0.000115106
1.068508109939,8.80041e-05
1.07221240482,0.013254
1.077138256811,0.00990795
1.077222794117,0.00708941
1.078059243778,0.000315764
1.079331300784,0.00964602
1.081333504337,0.000118015
1.081715879868,4.01041e-05
1.083175331651,4.14474e-05
1.087286102086,0.000348577
1.088349950388,0.00209785
1.088410261304,0.000525832
1.090607733934,3.3328e-05
1.093010209253,3.3328e-05
1.101984195175,2.536e-05
1.104370676684,7.36862e-05
1.104975344055,3.3328e-05
1.106288866033,0.00077085
1.10915120068,6.96563e-05
1.11583583967,0.000310407
1.116931838787,2.536e-05
1.119637945443,0.00739103
1.12266293361,0.000186522
1.124002305296,0.000112603
1.126776095834,0.00957784
1.126859602099,0.00505489
1.127185844947,3.86008e-05
1.128941165831,0.000662455
1.130086264028,5.38387e-05
1.132045996697,9.60209e-05
1.135588985959,0.000611607
1.135666280993,0.000247969
1.139072646695,0.00792515
1.144060337712,0.0001654
1.144656586694,0.000128447
1.144935820797,0.00122924
1.146223574202,0.000661338
1.148267602651,0.00323346
1.150402863053,0.00355971
1.150488755223,4.27197e-05
1.152723106096,0.0350841
1.152752034096,0.00464858
1.153574580714,3.22051e-05
1.155449727824,0.0286092
1.157775230945,0.00444148
1.159309490336,0.00141294
1.163492887869,2.54715e-05
1.16401325034,0.00324674
1.164552627215,0.000149923
1.16456413981,0.00281219
1.167347574246,9.41689e-05
1.170523758362,0.0020812
1.171505838185,0.00847901
1.172161334749,0.0101646
1.173465724366,8.30892e-05
1.173604963614,8.04026e-05
1.182901551188,6.15966e-05
1.183220303249,6.56265e-05
1.185615871111,4.68205e-05
1.187307722732,7.09996e-05
1.188750182406,3.1328e-05
1.193694208599,6.96563e-05
1.193933405777,9.92086e-05
1.194295982184,5.48802e-05
1.19614419962,3.5328e-05
1.199441171646,0.000361149
1.199680904758,0.00014488
1.200171846709,7.50295e-05
1.201782458538,3.7424e-05
1.208120135745,0.000122258
1.209738623479,0.00149863
1.213442974998,7.85481e-05
1.213943962189,0.00161743
1.214331839786,7.48402e-05
1.216411073078,0.000124763
1.218818204218,0.0129625
1.226573240507,2.536e-05
1.228058365139,5.89101e-05
1.240109998461,4.4134e-05
1.242899657947,0.00179443
1.245128483204,3.1328e-05
1.258707430622,0.00556743
1.264308219146,0.00253601
1.266141607706,0.00554559
1.266740093153,0.000122277
1.26677856479,0.000256854
1.269783165084,0.0122058
1.27091015398,0.0150671
1.273548414473,2.536e-05
1.274319117584,4.68205e-05
1.278686426774,5.08504e-05
1.283748747376,0.00027025
1.28376638782,0.000245215
1.286023176472,0.0048817
1.286526627658,7.09649e-05
1.286940275826,0.000432184
1.287540144209,3.78394e-05
1.288070938399,3.2368e-05
1.289239120154,0.00501158
1.289560674137,0.000230981
1.290642552037,0.00301482
1.291288104482,0.00759275
1.294511656016,7.90593e-05
1.296761201308,0.00155533
1.299206681536,2.536e-05
1.299952300817,0.000155626
1.301536451174,3.3328e-05
1.304548699009,8.30892e-05
1.306501054572,9.36783e-05
1.308155947301,0.00226979
1.308487330346,3.78869e-05
1.308525104656,0.000584504
1.310711476013,0.00157279
1.3118829006,6.56265e-05
1.313685638742,3.76914e-05
1.313977124705,0.000984263
1.315002849062,4.54772e-05
1.315376286386,3.22122e-05
1.315718269194,5.3088e-05
1.32083659499,7.40628e-05
1.329095844048,4.72863e-05
1.333984546686,0.000144443
1.334303809246,0.000964203
1.335711104683,0.0038369
1.335880550401,9.10721e-05
1.336484764531,0.00484052
1.337159714699,0.00979349
1.341556008456,0.0141223
1.342519906645,0.0145361
1.342537623895,0.000234921
1.343149660901,0.0278402
1.343614219963,8.30892e-05
1.34501140983,9.53996e-05
1.348039169762,0.000144126
1.348877209541,6.61708e-05
1.349969044311,0.00537909
1.349999602161,0.000524976
1.354381322673,0.000111028
1.355308881782,0.00619014
1.355596487638,0.00546156
1.359167252178,3.56137e-05
1.365930912768,0.00025349
1.366139573414,0.00579236
1.366661992817,0.000141724
1.370926916366,7.15041e-05
1.371190167836,0.00544376
1.378690711999,4.4134e-05
1.379279470642,3.4928e-05
1.381838753463,7.7716e-05
1.387195517444,4.14474e-05
1.388835138942,8.57757e-05
1.389693722157,8.98056e-05
1.390744862192,5.75668e-05
1.393089960289,2.65334e-05
1.393314224555,0.00118979
1.400433910013,4.27907e-05
1.407411181513,9.11489e-05
1.411985712892,4.68205e-05
1.415500411977,0.0008646
1.416976841821,3.496e-05
1.418567101534,0.00336793
1.419797942511,7.23429e-05
1.419862878997,3.5828e-05
1.421508080321,0.000323537
1.42207375273,0.000240253
1.422114656407,6.47977e-05
1.428647882711,5.48802e-05
1.430267278641,3.4928e-05
1.433155591589,0.000163133
1.437436610241,0.0034347
1.438128368987,0.00603904
1.438661535287,6.39738e-05
1.438692567635,0.000116671
1.441756094402,3.5828e-05
1.44243027192,4.27907e-05
1.443784416737,0.000359805
1.444874153812,0.000780253
1.447365550659,0.000118015
1.447710391414,3.5828e-05
1.449879400988,0.000592193
1.450345048815,9.24922e-05
1.45142875876,3.56137e-05
1.452774471282,5.00927e-05
1.455329520429,0.00275337
1.456586553226,6.36354e-05
1.456793654289,3.55038e-05
1.460272327466,0.000162511
1.465935049921,2.74836e-05
1.469621516199,0.00415647
1.471334632304,0.00603433
1.472259594388,0.000109997
1.473332199683,0.0116557
1.474351129955,8.7119e-05
1.474901905844,0.000111298
1.477193731177,3.55091e-05
1.483411694565,0.00767727
1.484303810077,0.000130734
1.485405617384,0.000275563
1.485465421678,0.0335556
1.485941450499,2.56441e-05
1.487378699314,0.00442763
1.490024980555,0.000829955
1.49033197468,7.86084e-05
1.494712899428,0.0064097
1.497279124422,0.00110223
1.500456101267,0.000145361
1.501219894803,0.00579339
1.504376944995,4.24996e-05
1.505257963685,0.0155471
1.50612435568,0.00609779
1.507034522824,3.3328e-05
1.50998282437,0.000570701
1.512901566354,0.00112951
1.516190853756,0.00102204
1.517556835748,0.00153632
1.519216983391,0.000276522
1.523854887057,7.09996e-05
1.530685825433,0.00247654
1.530961172904,0.00163758
1.537917219135,3.1328e-05
1.540221858568,0.000181149
1.543143220644,0.00154861
1.545163183221,0.00010679
1.546577825882,0.00241842
1.54753285534,7.13582e-05
1.553490131086,0.0102057
1.553575758079,5.35369e-05
1.553810693644,4.81638e-05
1.558119815277,5.58858e-05
1.558528780785,0.000460552
1.562482920026,9.56926e-05
1.563032290775,0.000766651
1.571053622086,0.00162652
1.572020267569,0.00016059
1.573719463024,0.00186546
1.574108518296,7.90593e-05
1.575888097645,0.000312791
1.579000408674,0.00166145
1.583713544751,3.3328e-05
1.589448873222,0.000133738
1.59016347426,8.01453e-05
1.593052453454,5.15269e-05
1.594740572026,0.000134898
1.599139703735,0.000456999
1.601624446731,0.000379955
1.602383427392,0.000215761
1.607566702827,0.0026706
1.608445638337,0.000137966
1.615857940351,0.000788885
1.617051664042,0.0209575
1.622573220766,0.000585817
1.622904282733,0.00431956
1.628060939747,0.0373364
1.629551014885,8.26641e-05
1.632153693195,0.00042289
1.63261151951,0.000279393
1.63539921786,3.70878e-05
1.636240883732,0.000642235
1.636502767667,0.0132386
1.638605997216,0.000101099
1.644879793903,0.00103168
1.65129996399,3.92347e-05
1.652616353023,0.000281839
1.655041586523,0.000366015
1.657120619681,0.01044
1.657935526356,0.000757562
1.666077760532,0.00974184
1.666263049683,0.000814643
1.667026659131,0.0625291
1.667617992711,0.000190926
1.667878192398,0.0127083
1.668090355078,0.0329689
1.670923849138,0.00832511
1.672905556139,0.000497302
1.674330661906,0.00102024
1.674989071607,0.0191677
1.677573422326,0.000232642
1.678088843925,0.00131582
1.679023368251,0.000582774
1.680158541444,0.000184043
1.687020229145,0.0313469
1.687803885182,0.000221218
1.689705024063,0.0860421
1.690727182304,0.000178037
1.690948792462,0.000169139
1.69236966891,0.000185392
1.693260745181,0.0220059
1.695789808452,0.00320178
1.696554502558,0.0459318
1.700848355484,0.0004283
1.700920548676,0.000156993
1.701620835682,4.50264e-05
1.704593926459,0.000564722
1.705208211228,0.00810172
1.705389612275,0.116404
1.708110542802,0.000372615
1.711392922306,0.00013993
1.716711109744,0.000240712
1.719557358794,0.00748856
1.720007455972,0.000204478
1.722213384819,0.000469777
1.725881202387,3.54579e-05
1.725921215759,0.0115245
1.725960163459,0.0236768
1.726662700842,0.000113089
1.729766873195,5.08147e-05
1.729937498369,0.000873987
1.7309074767,9.09942e-05
1.731632852263,0.000267119
1.732672461559,0.0328623
1.736483362079,0.000355812
1.742033560202,0.000557405
1.74252341817,0.000744824
1.742907517056,0.000176669
1.746406820618,0.0163707
1.746502097714,0.00926569
1.749185355381,0.0002316
1.749208035176,0.0119284
1.749710128222,3.68769e-05
1.752457856862,0.0010155
1.754486259866,0.00965728
1.754488787866,8.77976e-05
1.756731213794,0.0004883
1.757401058762,0.000341876
1.758432118175,0.149976
1.759802030033,0.0069615
1.760636072223,0.0135704
1.761860838392,5.05112e-05
1.761974207693,0.153594
1.767262673987,0.000119933
1.769408365913,0.0277129
1.770952555995,0.000289551
1.771309495767,0.000116714
1.775390527414,4.67832e-05
1.777389438194,0.000309151
1.778186769111,0.000275668
1.778561128128,0.00354882
1.781832644262,0.000175899
1.7822506855,0.0379895
1.783211467171,4.25278e-05
1.784980841546,0.107445
1.785662525916,0.0254866
1.786988320694,0.0037398
1.800295365434,3.42719e-05
1.800338378193,0.00045904
1.804972093396,0.00189518
1.806290442063,6.69698e-05
1.808879051198,0.000897119
1.809172389291,8.17459e-05
1.810756884898,0.00012659
1.811704911827,0.00215933
1.812321421183,0.00190293
1.814453619709,9.83908e-05
1.815704264033,0.000175141
1.819442934134,0.0061507
1.820796985257,0.00823035
1.82405759454,0.00177124
1.825647703776,0.00112974
1.826358268745,0.0053469
1.826700220131,0.00553038
1.828671791788,2.536e-05
1.828800844765,3.56137e-05
1.831729501392,3.70407e-05
1.832116217165,0.00125023
1.837466516114,0.000228164
1.837777542497,2.536e-05
1.84003964722,0.000777566
1.848240078679,3.3328e-05
1.855647734184,0.000179806
1.856281890204,8.17459e-05
1.858325372356,0.000163686
1.859150781402,3.5328e-05
1.85924259131,6.29399e-05
1.861546155534,3.1328e-05
1.86988825175,0.00279787
1.875599678048,0.000154308
1.875833415805,0.000151322
1.877038779991,0.0124603
1.879457864737,0.0027699
1.889787719524,0.00554999
1.897496957501,0.0258976
1.902003795511,8.04026e-05
1.905362906601,0.000135739
1.908644547095,0.000337639
1.910609601341,0.000146527
1.912440327756,0.00139861
1.919399708196,0.000144487
1.92111387414,0.0172994
1.925754231921,3.4328e-05
1.928142585927,0.00190055
1.929119188724,0.000115004
1.935433963311,0.00464148
1.943959139686,0.0127595
1.948460660603,3.15778e-05
1.952000826626,0.0017142
1.956629087974,3.31943e-05
1.958833940172,5.21937e-05
1.959789992589,0.00492492
1.962329019347,0.00344277
1.966126631412,0.000960546
1.967373793563,2.54914e-05
1.969431102072,0.00246132
1.97121197113,0.000751502
1.971822225979,0.000279403
1.972634021037,4.27623e-05
1.974306851493,2.77716e-05
1.97697285215,9.87637e-05
1.978327130013,0.0497328
1.983893078497,0.00484778
1.986721753278,0.000431147
1.990022334093,9.27544e-05
1.990928330335,5.85527e-05
1.991461624103,0.00010484
1.994295442093,0.000162457
1.995884195015,0.0113994
1.996354386153,0.00251836
1.996685998089,0.0077548
2.001694685243,0.00259449
2.006296159496,0.00104418
2.007026310642,0.00686185
2.013542819619,0.02951
2.015719357193,0.0214424
2.017078781787,0.0335779
2.020481462328,0.0818567
2.021252889573,0.000233102
2.022596861106,0.0454462
2.023710384738,0.00781156
2.025917289419,0.000426649
2.02806836916,0.00127468
2.028075562712,0.0092985
2.028459757336,0.0410031
2.028736574096,0.0101043
2.033374219918,0.00015509
2.036099399762,0.000111176
2.036960404067,0.0227589
2.037050322919,0.0027725
2.037561025212,0.0336081
2.04270175528,0.000279098
2.044581173688,5.32838e-05
2.046374001594,0.0216587
2.054214505366,7.5515e-05
2.058176494445,0.00984067
2.059399200921,0.000165065
2.064744239291,0.0188406
2.066412509297,0.00111883
2.067243362022,0.00318501
2.069437790875,0.000195721
2.072619589134,0.0198762
2.072793734374,0.0162357
2.075267807089,0.000122044
2.075507867861,0.0102218
2.090234941044,0.000140859
2.091100528701,0.000536115
2.091181588757,0.000462092
2.093285032549,0.000196245
2.09537831293,0.0894925
2.097113281305,7.27582e-05
2.097572794244,0.000290386
2.100246244396,0.000437601
2.101150954834,3.91455e-05
2.101199690834,0.0107215
2.102391347444,0.000500058
2.103729720975,0.00977008
2.107602847753,0.000148528
2.113817963318,3.64963e-05
2.120241248513,0.00025325
2.122648558549,0.000582443
2.129019159996,0.0053998
2.129279198819,0.0342484
2.129705768559,3.99781e-05
2.129746984559,0.00963942
2.13598389494,0.0228391
2.138129243222,0.0391524
2.138917407898,7.52879e-05
2.139337383515,0.000439965
2.147783743131,0.122682
2.149354828842,0.0262027
2.152491702373,0.0412724
2.15386032426,0.000121879
2.153904862528,0.000136629
2.160205813802,0.000712416
2.162239965921,0.000437178
2.163075398646,0.0808948
2.165311199842,0.000163641
2.166820802291,0.000356292
2.169022133153,0.00434201
2.171112659478,0.00234617
2.171460268174,0.000204622
2.17162208906,0.000432435
2.171994573789,0.0165722
2.173498337623,0.000187451
2.174581909374,0.0194642
2.174961706599,2.536e-05
2.177576781515,0.018875
2.178001097905,0.000626855
2.179515723368,9.66694e-05
2.183087631487,0.0146481
2.183568606374,0.000111509
2.187443985608,0.000299482
2.188629650584,0.0119142
2.189426862597,0.100351
2.190687254838,0.00441366
2.193458422126,0.00295089
2.198440285891,0.000205968
2.198467145104,0.00017497
2.203709758727,0.00568825
2.203912762717,3.60743e-05
2.204615210195,4.68205e-05
2.208308179016,0.000103547
2.210959813216,3.36712e-05
2.215636662151,0.000725244
2.216220098892,0.0102892
2.219224625325,0.000227197
2.224272959291,0.000168142
2.226014885875,7.40011e-05
2.22664460988,0.00288196
2.22691411361,5.00093e-05
2.227871737862,0.000300202
2.230497831367,0.0139865
2.23052321692,0.000147005
2.231104236929,0.000207804
2.231484684428,0.0181125
2.231988980947,0.000139885
2.232710212822,5.96404e-05
2.237085006524,0.0248318
2.238565448216,6.29373e-05
2.239794182945,0.0250023
2.240701067813,0.017977
2.246043131582,0.00333249
2.248822781056,0.000255029
2.25448304084,3.4928e-05
2.257008686831,7.23429e-05
2.270501198448,5.86412e-05
2.27166179538,7.04434e-05
2.273743012324,0.00452115
2.275107625519,0.00013113
2.275944627665,0.0102385
2.277966577732,4.7335e-05
2.278055234432,6.89272e-05
2.278487739561,0.000988293
2.284671682398,0.000302445
2.285188814354,0.00409128
2.28571450646,8.57757e-05
2.286400089211,6.02534e-05
2.290649946328,6.96563e-05
2.29190027287,3.3328e-05
2.292417108475,4.95071e-05
2.294189665442,4.54772e-05
2.298076409372,3.3328e-05
2.299382094041,4.15332e-05
2.299851460048,0.000682193
2.301227892393,8.98056e-05
2.307032066063,0.00162383
2.308363407117,9.38354e-05
2.309565618277,3.87608e-05
2.312455473283,3.7424e-05
2.312942606831,0.000178462
2.320250519133,0.000158313
2.327226534683,0.00630115
2.330600303851,3.86362e-05
2.332198772713,0.000190771
2.333603515968,0.000533305
2.333729819363,5.35678e-05
2.335133263977,0.00013348
2.336001960451,0.00534266
2.339643910196,0.000887363
2.343017900414,0.0018805
2.343209897892,3.41342e-05
2.343779203014,6.02181e-05
2.345285250339,0.00684234
2.347648531018,0.000109874
2.347737945096,0.00441146
2.349536230625,3.85425e-05
2.349885632596,4.33282e-05
2.351994842027,0.000246625
2.35274394522,0.0169968
2.353473740472,0.000175813
2.353484741306,0.000218761
2.359989238599,0.00108063
2.362536766795,8.6109e-05
2.366964377738,0.0145883
2.37392013143,0.000330179
2.375316177265,0.00013948
2.376306179189,0.000113621
2.379380732592,5.7629e-05
2.38058634102,0.000693718
2.380868296232,3.02112e-05
2.380904135036,0.00386651
2.381081739063,0.000344464
2.382069298689,0.000428846
2.382144342148,0.00363952
2.385007601025,0.00646742
2.386024694414,0.012268
2.391745446877,0.0573681
2.394624639483,0.000531547
2.395414065819,0.000165266
2.395633710713,0.0196885
2.397584493662,0.000546251
2.398065883544,0.00132149
2.399046246498,0.000447991
2.399614738169,0.000479806
2.400025661387,0.0113749
2.403839368603,0.00195587
2.404779458036,0.00804324
2.405340152953,7.44923e-05
2.40932520837,0.000206128
2.410971962537,2.64587e-05
2.414199038398,5.93512e-05
2.417212143485,0.0504187
2.418887192356,0.00021504
2.418944328356,0.000218832
2.420661451185,0.000112918
2.421603257974,0.000179086
2.423317972444,0.000490098
2.424050049077,0.000295109
2.425148834371,0.00924025
2.425329721139,0.000626184
2.426013806655,3.81751e-05
2.427325919702,0.0032349
2.429050025069,0.0717517
2.432959362588,0.000176387
2.434191572921,0.0666606
2.43674642515,0.000396893
2.437721063065,0.109979
2.437899703162,6.64604e-05
2.440040903237,0.0075021
2.442026582151,6.57542e-05
2.443988315217,0.00016647
2.444271959139,2.78629e-05
2.445930969931,0.000355745
2.451166280227,0.00413009
2.453179671591,0.0166218
2.455790110179,0.00316354
2.462237505061,0.000243012
2.46277628287,6.61855e-05
2.463323944647,0.00770984
2.463785858867,0.000241244
2.464596851775,3.19666e-05
2.465710230156,0.0842371
2.466154763988,0.000368563
2.471953457856,0.0170895
2.474444500388,2.6158e-05
2.47470723625,0.00035122
2.48370308064,0.00659075
2.484340703027,0.000563978
2.485053751079,0.0200329
2.48567819577,0.00780003
2.48576056701,0.00138312
2.485885456561,0.00840197
2.48890756699,0.0153771
2.4891277819,7.26674e-05
2.49029909483,0.0110788
2.492002275698,2.86153e-05
2.492982425046,0.00347018
2.49427406917,6.31674e-05
2.499355816684,0.000459928
2.500493713463,0.00025152
2.503230619747,0.0127922
2.504399852201,0.000892839
2.509734019717,0.000592753
2.510071158325,0.00302877
2.513152891792,0.00489958
2.515399480394,0.044861
2.51574955275,0.00605124
2.519594509202,0.100029
2.523596775063,0.022675
2.523652562837,0.0356117
2.523721569783,0.0174958
2.526186262121,0.000606677
2.526313234851,0.000112652
2.528140968981,0.000122631
2.530847628539,0.00662615
2.531472311349,0.000170403
2.533099753119,0.000381817
2.536179574734,0.11695
2.53626010774,0.0610997
2.537423509228,0.00162156
2.53840739843,0.000224134
2.53868146185,0.0032196
2.539069788119,6.02534e-05
2.539352080952,4.68205e-05
2.541829774593,2.59383e-05
2.545120890784,0.0033298
2.545148962907,5.82938e-05
2.548260324071,4.68205e-05
2.549788188239,6.92098e-05
2.550897708,0.0013765
2.551264435156,5.08504e-05
2.552164756543,0.00031682
2.558167430444,0.00158085
2.566972453981,4.81638e-05
2.567537024062,7.50295e-05
2.575280064127,9.51787e-05
2.579349748894,0.00202279
2.583193555639,6.56265e-05
2.585724335886,6.15966e-05
2.58769121809,3.1328e-05
2.588368980947,4.4134e-05
2.592515215968,0.000190833
2.593991831402,0.00308328
2.594046886674,9.03044e-05
2.594302031049,0.00458712
2.599353714674,0.00241144
2.604785012153,3.48484e-05
2.608490557786,0.00261298
2.609786825899,4.7053e-05
2.610052929674,6.29399e-05
2.610328305808,0.0154246
2.62102547281,4.01041e-05
2.623863116933,4.4134e-05
2.624749656745,0.000113985
2.632462622161,4.27907e-05
2.634447874905,4.95071e-05
2.640723854757,3.56137e-05
2.64339130469,8.84623e-05
2.645871609344,6.56265e-05
2.648133632552,0.00122354
2.648603525807,3.1328e-05
2.650614459838,4.01041e-05
2.656495879372,3.4928e-05
2.660606861663,0.00180499
2.661200013628,4.59894e-05
2.661902078085,0.00224074
2.663449277658,0.00281265
2.663564494361,6.17229e-05
2.665223471336,0.00491761
2.666758818262,0.00979864
2.671214304792,4.54772e-05
2.672914601444,0.000817865
2.674104811418,4.27907e-05
2.675540085847,0.000216074
2.678595729564,0.000300351
2.678683434388,0.00137448
2.680126063396,0.000348345
2.680513263015,0.00234153
2.683587986834,0.00737183
2.68497308573,3.4328e-05
2.686450766719,5.21937e-05
2.689449226282,8.44325e-05
2.694726730788,0.000149873
2.695524472102,0.0001284
2.696570857562,0.00288753
2.700951914319,0.000331597
2.707002675559,3.81422e-05
2.710411921365,0.0060162
2.711971870796,0.000975029
2.721952852255,3.1328e-05
2.724230632048,8.57757e-05
2.725598731996,3.4328e-05
2.726473422423,3.5328e-05
2.726768607179,6.56265e-05
2.734942810259,0.00312116
2.73497759234,3.91708e-05
2.738186704556,0.000117199
2.738433699814,6.04319e-05
2.749366677034,0.000178998
2.75000606098,0.00026079
2.750110630992,0.000171126
2.751357172525,0.0198313
2.75188301927,0.000133743
2.752735971976,0.0123902
2.752797525496,3.56137e-05
2.754539893242,5.62235e-05
2.760655221838,0.00118324
2.763980952397,5.89101e-05
2.766194245716,4.01041e-05
2.766311904158,3.3328e-05
2.772518490589,0.000132956
2.772691742097,0.000579935
2.777823389843,0.00144652
2.779374244852,6.50646e-05
2.781821679036,0.000582876
2.78551816239,0.00780772
2.786684275328,0.00703251
2.795341357863,0.00183703
2.795850650194,0.000140825
2.795854902611,0.00437891
2.796371320413,0.000572263
2.79671621305,0.00409607
2.798423083714,0.000103037
2.801825413533,3.32004e-05
2.802737503134,0.000177136
2.803766990378,4.6158e-05
2.805430499826,0.000275049
2.807318278279,0.00488127
2.807633422853,0.000228205
2.807948183653,4.42117e-05
2.816544645624,0.000171586
2.817244752055,0.0101148
2.820866022662,0.000492384
2.821181517091,0.000377338
2.82218145738,0.0119389
2.822196789916,6.03293e-05
2.823083874783,0.000214498
2.823274626176,0.0261377
2.823798316025,0.000131299
2.824168223083,0.00930314
2.825583263594,0.032459
2.827985432041,0.0148636
2.829044595389,3.65581e-05
2.829909755815,3.55073e-05
2.832347608204,0.0257446
2.832694232651,0.0298681
2.8399567038,0.000142682
2.845831073233,0.00899704
2.845958548292,0.00851136
2.846970701944,0.000170841
2.847174823419,0.00119382
2.850536481135,7.90593e-05
2.853230976351,8.84623e-05
2.854270284728,0.000167716
2.85695970916,3.5328e-05
2.858330547512,4.27907e-05
2.861116756785,4.27907e-05
2.862039528069,3.47176e-05
2.862434427726,0.00111725
2.867123703735,0.00308801
2.867908202336,9.11489e-05
2.870905111398,7.16969e-05
2.870982989814,0.000187696
2.871673359785,0.000249656
2.872079716413,6.15966e-05
2.873443258044,3.60907e-05
2.880031769548,0.00668247
2.881118421953,0.000571542
2.883053227447,0.0038401
2.883777753353,3.69693e-05
2.884073250067,0.00810272
2.888349520195,8.09429e-05
2.889114607102,0.00354913
2.890874250932,0.00422703
2.894512981886,3.21053e-05
2.894585238828,0.000481328
2.896793257535,5.33981e-05
2.896859453395,0.000114884
2.897483577656,0.000484905
2.897557612993,0.0031888
2.897738000557,0.000448652
2.902503242475,0.000799386
2.903275684874,0.00732086
2.910313487819,0.000235968
2.911378151271,6.68059e-05
2.912897582933,0.000140807
2.914673985807,0.00510617
2.915557729462,0.000439665
2.916949053746,0.0210165
2.917470078885,0.00018738
2.925463574033,8.1781e-05
2.926418422174,0.000319776
2.934617228682,0.00550995
2.936244447712,0.000106793
2.936999010459,0.0508463
2.937027108127,0.0451427
2.937597959015,0.000117641
2.938026408851,0.00484184
2.940583996271,0.00998615
2.940796293787,0.00588674
2.9446368217,2.66358e-05
2.950050292141,0.00758632
2.954949150476,0.000155439
2.959840019546,0.0104454
2.962835210529,0.0175502
2.965519064511,0.000256421
2.968785929473,0.00189808
2.970522794431,0.000114192
2.972958134514,0.0294646
2.974169135047,0.00100324
2.97504199536,6.09123e-05
2.975177803783,0.001939
2.977458415379,0.00134684
2.978490200017,0.00160979
2.985280035957,9.89135e-05
2.989301788282,0.00016696
2.989303020282,2.73189e-05
2.994080783461,4.22929e-05
3.002115705994,0.000116998
3.005095016198,0.000128002
3.011871152205,0.000535036
3.012170437216,0.000545374
3.01653188443,0.00742153
3.019119854543,0.00630558
3.01964894582,0.039695
3.021591528264,0.0171795
3.022643325566,0.0270943
3.022987760171,3.29595e-05
3.023254175558,0.0131776
3.02729036368,0.00374426
3.027389677098,0.0001532
3.029250040202,0.00342914
3.029502688698,0.0510349
3.030094608739,7.36862e-05
3.035820478489,5.30859e-05
3.036057345259,0.00157548
3.040743723346,0.00208324
3.040954373299,0.00165703
3.042734511873,0.000298014
3.043753930802,0.000199955
3.045210725197,6.96563e-05
3.045967813427,4.95071e-05
3.049283692596,0.000901149
3.050150282445,3.3328e-05
3.050510775826,2.536e-05
3.055314889696,0.000964283
3.057687754905,0.00159025
3.060226178605,6.15966e-05
3.063887541275,8.60882e-05
3.064482695244,0.000235161
3.065876634741,4.66663e-05
3.065970324158,0.00234059
3.068489313766,0.00562892
3.06879499536,3.4928e-05
3.068896074023,4.4134e-05
3.070144755026,6.15966e-05
3.070682574037,5.21937e-05
3.074321567825,6.67871e-05
3.078847479598,0.000300224
3.078895076052,7.54197e-05
3.080340852525,0.00820167
3.080391871736,0.00930326
3.083627565199,5.08504e-05
3.083849296903,4.24509e-05
3.083855296903,4.952e-05
3.083870128903,3.5619e-05
3.085089181706,5.08504e-05
3.085983995654,0.000416223
3.090895645149,0.000303388
3.094175168156,8.76204e-05
3.094524911783,3.32655e-05
3.097765569294,0.000139
3.09793062432,0.000141691
3.099944205584,0.000132869
3.100026113848,0.00794616
3.101393275912,3.4328e-05
3.105203860696,0.00257219
3.108152903127,0.000194582
3.109787609038,9.09008e-05
3.109955630705,0.000232529
3.116938469111,6.02534e-05
3.117529128766,6.02534e-05
3.123013565278,0.000741298
3.127604483936,4.81638e-05
3.130069068592,4.4134e-05
3.132373313859,5.35369e-05
3.133999376952,8.30892e-05
3.138278314408,8.20327e-05
3.142820091068,0.00485443
3.143743971054,7.09996e-05
3.149752450311,0.000396074
3.151476290349,0.00155667
3.15358228452,0.000229823
3.153930194863,0.000133214
3.154623354485,0.000136216
3.155266650413,0.00498368
3.156673010173,0.00194959
3.161166880919,8.30892e-05
3.161800035901,8.17459e-05
3.168940555893,3.4928e-05
3.169639118691,4.57844e-05
3.169752523942,0.000799485
3.173448904924,3.9105e-05
3.17554187672,0.000128617
3.175569948836,4.65382e-05
3.17817481985,5.77147e-05
3.178674463756,0.00932303
3.180783223859,0.000461694
3.184261872076,0.00823202
3.18629510803,0.000290475
3.186667724568,0.00458396
3.18966307147,0.000284155
3.191571851539,0.0097498
3.194181578877,0.000147107
3.196070967225,0.000268098
3.201399641828,4.29475e-05
3.203646257793,0.00943875
3.204123595503,0.00259232
3.204541302888,0.00043535
3.207892234982,0.0186322
3.216581524727,0.000368852
3.217839047865,0.00814149
3.219865422658,4.2767e-05
3.222603480671,9.03088e-05
3.222861644453,5.35852e-05
3.231194172377,0.0209089
3.231504021779,0.000133937
3.234916478794,0.00549094
3.237091733194,0.0129808
3.237639306794,0.0274971
3.238307316504,0.000537592
3.239979509871,0.00305701
3.240208036898,0.056036
3.243475960704,0.000200558
3.247050573605,0.0133844
3.253120712336,0.000120995
3.253387176322,0.0018754
3.254306876497,2.57623e-05
3.257369579534,0.00530382
3.257625884249,0.00212601
3.25785521158,0.000823981
3.266957443183,0.0148575
3.267672429525,0.0167073
3.268487643948,4.31576e-05
3.271528242553,0.0236814
3.27423480525,3.56932e-05
3.276578060973,0.000114701
3.277108801234,0.0265975
3.277918854795,0.000130862
3.28814365403,2.63412e-05
3.288809635994,2.6017e-05
3.293402531808,4.63038e-05
3.298150045871,0.000325384
3.301305752429,0.0136864
3.301685125278,0.000288437
3.303070386385,0.0111565
3.303485037537,0.0227858
3.306385135507,0.012251
3.308230526242,0.0517623
3.311942471359,0.000185179
3.314575278,4.81638e-05
3.318650107834,0.000268745
3.318820542443,0.00093541
3.320537226743,0.00410072
3.321525714207,0.0056356
3.324926762263,0.000100552
3.325757417735,3.5328e-05
3.329808670727,0.00279518
3.334043369011,0.00280804
3.340510894099,0.000119464
3.341365021567,0.0114545
3.341898279374,0.0084905
3.342177029015,8.84623e-05
3.343702760991,4.68205e-05
3.345042619252,0.000171001
3.345450951881,0.00121906
3.347899250299,0.00397525
3.351614072503,0.000267119
3.35473169929,0.000801746
3.355552557011,3.4328e-05
3.356579971026,6.96563e-05
3.357598082282,6.69698e-05
3.358134319832,9.11489e-05
3.363418808439,0.000105925
3.364465739985,4.01041e-05
3.372106549581,0.000128082
3.372289067291,0.000101657
3.372781857894,4.78212e-05
3.37337800208,0.00891292
3.37341059408,0.000497442
3.375314399091,4.99332e-05
3.381817466283,4.61597e-05
3.382888980352,0.0180376
3.383141670061,2.60323e-05
3.384642549668,0.0130618
3.385263544444,5.3698e-05
3.385652817046,0.000396528
3.386581739638,0.00198297
3.386803186956,0.00204532
3.39448177726,2.536e-05
3.397239547584,2.58725e-05
3.398061741619,0.00177966
3.398201906487,9.11489e-05
3.404625666652,4.4134e-05
3.407409720895,0.00204672
3.409259695906,3.47999e-05
3.409939183745,0.00176103
3.412671259732,0.000102258
3.413862440083,0.00323687
3.41441754994,0.00765077
3.419939572885,7.09996e-05
3.42541158561,3.56137e-05
3.427653465305,0.000546522
3.436616116445,0.000573387
3.439242210547,3.87608e-05
3.441953858416,3.56137e-05
3.44256445496,5.48802e-05
3.443611194795,5.35369e-05
3.448239776924,3.7424e-05
3.457083495042,0.000116884
3.460808555638,0.00806085
3.465385196915,6.92759e-05
3.46788219144,0.000162575
3.469931509072,0.00707538
3.470721365989,0.000165098
3.471806875541,0.00470463
3.476364115622,3.95659e-05
3.479199819082,8.44325e-05
3.481787980296,4.06058e-05
3.483895839446,0.0122529
3.495141805154,0.00012016
3.497767754917,0.000901747
3.49812489942,0.000165533
3.501564878386,0.000106905
3.503625474533,7.44933e-05
3.506386952523,9.38406e-05
3.509542163027,0.000261321
3.509582722678,0.000124905
3.510052097757,0.00106262
3.51029546119,0.000155143
3.514059249447,0.00840188
3.514371002494,0.000230989
3.515129658362,2.57445e-05
3.51623281518,0.0236093
3.516380614564,0.00389328
3.51651448218,9.78653e-05
3.516556157713,0.00541733
3.519480814334,0.000302044
3.522565991255,5.75668e-05
3.523639792407,3.1328e-05
3.524992776716,0.000901149
3.525728780703,3.3328e-05
3.527774564925,4.81638e-05
3.528558765438,4.81638e-05
3.533268771371,0.000359162
3.533580413053,7.66989e-05
3.534947843151,0.00225098
3.536416560157,3.4328e-05
3.537244885429,0.000118015
3.539361769348,0.000149704
3.540676271598,3.51664e-05
3.54139261253,0.00368678
3.543224493799,8.80936e-05
3.544578634355,0.00349869
3.547844852175,6.99454e-05
3.551071355087,0.000650389
3.551279570468,0.000111917
3.551302654404,0.00670136
3.55222470353,0.00507561
3.557938926568,0.000352857
3.559500658753,0.000187814
3.561544741018,0.0090533
3.561932911105,0.000261746
3.562405759972,0.0134086
3.565130272666,0.000147175
3.566274580975,7.44696e-05
3.569667713883,0.000133125
3.570412029505,0.00607934
3.573955352136,0.000267119
3.579672284057,0.000154564
3.579884685218,8.70784e-05
3.579911662168,0.00163592
3.580065802056,3.44026e-05
3.580643283371,2.5747e-05
3.581262336026,7.15621e-05
3.583144412345,0.00770017
3.58418001031,7.23429e-05
3.584438231355,7.63728e-05
3.587866990297,7.70111e-05
3.58866355715,9.32606e-05
3.591915645366,0.000203808
3.592205762496,0.00714187
3.594807200209,0.00192742
3.594839922716,5.62163e-05
3.597026046367,0.00284057
3.600906765413,0.00599569
3.606955572184,5.89101e-05
3.608883673381,0.00156204
3.6093407663,3.56137e-05
3.616069297319,0.000150253
3.61877372105,0.0010704
3.622817092184,3.7424e-05
3.624903270084,0.000914581
3.625222645162,7.50295e-05
3.62674261802,0.00130251
3.627627815976,0.00183977
3.630316485533,4.68205e-05
3.631638138114,3.1328e-05
3.63361432836,0.00086488
3.634131938212,8.57757e-05
3.634891846844,4.54772e-05
3.634986570496,9.51787e-05
3.637842128853,7.50295e-05
3.640770648726,0.000107268
3.641378123455,6.42832e-05
3.64379426981,3.60743e-05
3.644161768059,6.15966e-05
3.646592243457,0.000476671
3.651992779265,3.3328e-05
3.655757741304,4.54772e-05
3.660756382799,0.000430999
3.6642841978,3.5828e-05
3.675151471563,0.000109372
3.675527727639,0.00103548
3.678020446616,0.000157186
3.678077001342,0.000379955
3.679267669924,0.000550552
3.679802974228,3.60743e-05
3.682026607412,3.7424e-05
3.686989832758,0.000138164
3.687763546104,3.56137e-05
3.693233353763,0.00209667
3.694304137049,9.24921e-05
3.694920046572,3.56137e-05
3.701076774263,6.99752e-05
3.701463464623,0.00465397
3.702250771754,0.00242446
3.706118220286,0.000141554
3.710419238519,0.000174549
3.713281444422,0.000126991
3.71475942222,0.0002199
3.717862571928,0.00256225
3.722148123548,0.015433
3.724078924049,4.7223e-05
3.726257729545,0.00127253
3.728150552131,0.0252357
3.728985496778,5.89101e-05
3.732009470555,0.00256682
3.734659911317,4.81638e-05
3.73853535835,0.000351861
3.742606818531,0.00613293
3.743222211203,0.00639592
3.744358355075,0.000218346
3.744430885929,0.000266765
3.744971194316,0.00323036
3.745287368638,0.00126368
3.749559712062,0.000253686
3.750518830763,2.536e-05
3.751787432035,3.56137e-05
3.752867908701,0.00102876
3.753942584926,9.24921e-05
3.754772928471,9.24922e-05
3.755654924998,5.08504e-05
3.75585136544,4.14474e-05
3.762645380201,0.00210319
3.762662763601,0.0057096
3.764514990295,0.0057624
3.767443170612,0.000861105
3.768933008298,0.00261518
3.77208858137,0.0011107
3.774393958732,3.5328e-05
3.775933934134,3.3328e-05
3.776270326403,8.44325e-05
3.777173835809,2.536e-05
3.783779471345,0.000977459
3.784762512556,2.536e-05
3.785877966985,0.00202758
3.786251177192,5.90133e-05
3.787635627827,0.000311894
3.789278855068,0.00191896
3.78994459046,0.000363835
3.790479925441,0.000538462
3.790921162508,0.000514333
3.791163579306,0.000256754
3.79465342962,0.000276131
3.797638763346,0.00109021
3.797668242747,4.16437e-05
3.798730321919,0.00299004
3.802646317214,0.000189159
3.810030136074,0.000497551
3.8105657351,0.000402388
3.810902408042,0.00113183
3.813836908939,0.0333954
3.814843266098,0.00830742
3.815608325873,0.017301
3.819993624576,0.000173807
3.820515321023,4.07536e-05
3.820816135794,0.000337174
3.821628260945,4.22555e-05
3.822174764759,0.0293889
3.823124862847,3.98583e-05
3.823481255706,5.98822e-05
3.823687504759,0.000113801
3.827787278735,0.000315976
3.831138513993,6.37117e-05
3.831892986425,6.49256e-05
3.835116588082,0.00127307
3.835297121573,0.00262087
3.836533543587,0.00869682
3.836674577007,4.37083e-05
3.840137099921,0.000195483
3.841752791879,5.11621e-05
3.844630845991,0.00397164
3.844755122832,0.000215935
3.847242666324,0.00538041
3.847931644125,0.0336476
3.849720026565,0.00695539
3.852093587021,5.74365e-05
3.853794047097,0.00404742
3.855482859903,0.000268519
3.857707491961,5.87029e-05
3.861215112029,0.0816627
3.86178536745,2.79162e-05
3.861791915033,0.000100856
3.86590123406,0.0278072
3.866861234013,0.0423347
3.868349926102,0.0888026
3.873561591008,0.000160758
3.875512932741,0.00388565
3.875954045307,3.55887e-05
3.880345585773,0.000367156
3.880673046266,0.000537384
3.88121029432,0.000377092
3.882547141739,3.67331e-05
3.882557197141,0.000352922
3.883207934256,0.00622695
3.883588083444,4.24296e-05
3.883785370815,0.00705131
3.89296030554,0.0210777
3.893990441596,0.00101739
3.894433861826,0.0734836
3.895551240211,2.536e-05
3.896648851044,6.02534e-05
3.896715807966,3.3328e-05
3.898461255441,4.54772e-05
3.899023635433,2.536e-05
3.899746591242,7.63728e-05
3.903948600763,0.000107117
3.904777211999,3.80295e-05
3.905000053759,0.000205823
3.905383635295,0.00057123
3.906906613094,0.000166704
3.907484441357,0.000166704
3.910987794953,0.00222835
3.912591972822,0.00524437
3.913408208194,0.000450726
3.914257220814,0.00631343
3.921894681538,0.0214584
3.923407864832,0.000208711
3.923569561655,0.00320866
3.925627016334,0.000107154
3.930951158168,0.000112721
3.932460448427,0.000230654
3.933789464781,0.0138215
3.936046658315,0.0175995
3.941569493895,0.036656
3.944254334353,0.000159834
3.945166560349,0.00698024
3.945179139934,3.17502e-05
3.947570330966,2.54019e-05
3.949341418216,0.000360678
3.961427232876,3.60545e-05
3.962625951012,0.0155977
3.962721003241,0.000109386
3.96438396205,0.0179108
3.968613641034,0.00306518
3.97801849509,3.61282e-05
3.98299626677,0.000299818
3.984478915206,0.00478253
3.985421669906,0.00189093
3.986007081681,3.20648e-05
3.993223116058,0.0176883
3.99364317001,2.536e-05
3.99364680201,0.000429402
3.994259298612,6.63704e-05
3.996213391024,0.00536402
3.996617261321,6.84535e-05
3.997792634251,0.000826348
4.004267258344,9.05062e-05
4.012874874563,4.26516e-05
4.016966353222,0.0417484
4.019284376389,0.000245626
4.019751854846,0.00159217
4.023027225279,0.0101325
4.023441882899,0.000171322
4.024117389429,0.000120479
4.026161416523,0.00371462
4.028623197125,0.00027818
4.029037537254,0.000262269
4.029339622579,0.00552036
4.029690031633,0.00816559
4.032190384171,0.00016859
4.036669026529,0.0293014
4.037177976747,4.4134e-05
4.038247173704,3.56137e-05
4.041082526988,6.29399e-05
4.0431271513,6.42832e-05
4.044096722496,4.13034e-05
4.044603531593,0.00128919
4.052298109642,8.17459e-05
4.059150557408,0.0011604
4.059651609284,3.4328e-05
4.060934677785,8.57757e-05
4.061336578163,5.75668e-05
4.061577171794,7.90593e-05
4.063264940729,0.000276522
4.067531880655,0.000235471
4.068631749648,0.000211428
4.068904684286,0.00231082
4.070734315814,2.72585e-05
4.072953506004,0.00752207
4.072986546954,9.24946e-05
4.074306863522,0.00646138
4.074648728254,5.08504e-05
4.07653225513,3.4328e-05
4.078589449386,0.00136055
4.078759160545,7.36862e-05
4.084664187377,3.1392e-05
4.085919307814,0.00352978
4.087317149969,7.74337e-05
4.088300289878,0.000114456
4.089412502713,0.000157346
4.089777875734,0.000130835
4.091040698591,0.00464202
4.094840242797,0.000109119
4.099412727036,3.71668e-05
4.099823485088,6.6447e-05
4.10256630067,0.00142883
4.102676417877,0.00952435
4.106813117078,3.56137e-05
4.111230340945,8.98056e-05
4.11272436689,2.536e-05
4.115743557112,0.0016104
4.121211273078,0.00151369
4.122005465126,3.56137e-05
4.125199920175,3.68491e-05
4.128843953347,0.000158966
4.130436549068,7.03889e-05
4.131858224,0.00528814
4.134953228463,0.00377568
4.139329652018,0.00293584
4.14184297716,5.75668e-05
4.14215037752,5.52065e-05
4.143588890476,0.0207395
4.144444399401,9.28648e-05
4.144961700193,0.00177047
4.148688397501,5.08504e-05
4.149104435859,0.000265776
4.150635625304,4.4134e-05
4.157045730554,0.000847417
4.158318811799,2.536e-05
4.162229774811,6.69698e-05
4.166607911774,6.96563e-05
4.167754094571,4.81638e-05
4.172055288213,6.56265e-05
4.178320471921,0.00123168
4.178944942601,3.65181e-05
4.1789651045,8.94074e-05
4.181402806506,0.000335482
4.182497302045,3.98543e-05
4.182686953071,0.0081757
4.18689452833,7.50295e-05
4.188965437479,2.536e-05
4.198818102019,5.89101e-05
4.199312477579,3.5328e-05
4.199541949318,7.23429e-05
4.202279224069,0.000574731
4.20508431015,0.00146533
4.219216310166,6.96563e-05
4.224750930478,8.46045e-05
4.225981377767,0.000162712
4.227373019048,0.000253912
4.227866003934,7.6384e-05
4.228254180725,0.00377829
4.230858428229,6.30224e-05
4.236988972948,3.73907e-05
4.237223730016,0.000722948
4.239734072263,0.00532672
4.240147611701,5.46781e-05
4.242766926313,0.0112327
4.246354590393,0.00823272
4.249020857702,0.000383453
4.249217615412,0.00689012
4.255879723412,0.000153176
4.25957140938,0.000201799
4.262610571578,0.0271944
4.268920259967,0.0351468
4.271638511853,0.000226271
4.271783507178,0.00037038
4.273585522042,0.000543919
4.276329201461,0.000381012
4.28089834829,0.000188576
4.281502335857,0.000406325
4.281583540629,0.00946943
4.281875904294,5.75866e-05
4.286747644669,0.0171751
4.290705676087,5.9576e-05
4.290993082918,0.000156871
4.294686981895,0.000162826
4.295197260764,0.000171147
4.295831046257,0.000299708
4.295926656043,0.000225177
4.29880894963,0.000262891
4.29907134282,0.000746233
4.300077799845,0.000160693
4.302057630893,0.0240172
4.302132220265,0.000516786
4.304222560227,9.12874e-05
4.305419487219,0.00815216
4.305609784525,6.84393e-05
4.305765770432,4.75839e-05
4.305906448163,0.021919
4.306379694702,0.00468257
4.307891968448,6.60553e-05
4.308335098452,0.0377332
4.308912853611,0.000150942
4.310434683095,0.000146224
4.312392905723,0.0002954
4.312496926969,0.000268092
4.313674537601,8.30345e-05
4.313988090655,0.000832852
4.317405236136,0.000445192
4.322127826889,0.0185082
4.324342544449,4.98148e-05
4.325832121576,0.000260408
4.326567974852,0.00911553
4.327003560729,0.0196307
4.331001474249,4.17964e-05
4.3324232283,0.101949
4.339462307548,0.000271824
4.34050520284,0.000195203
4.341728355181,0.00643495
4.346761501271,0.0175549
4.34682538019,0.000379997
4.348079380114,0.0112544
4.353401111787,0.118453
4.356020170463,0.000241253
4.35707016914,0.000160636
4.359318994277,0.00293505
4.361034309751,0.0267861
4.367630841425,0.000209213
4.368900211865,0.0643124
4.376885371276,0.000134134
4.377724352696,4.68205e-05
4.384416424948,0.000110734
4.385494632631,0.00017451
4.386515836511,0.00284856
4.391383732231,0.00136884
4.392994023007,0.000119044
4.398583250256,0.0169981
4.401709280488,3.45165e-05
4.402919512148,0.00483672
4.405287695516,0.00011827
4.407596247102,0.000208027
4.409500790061,0.0168833
4.409757057986,3.86105e-05
4.412405484123,0.000219573
4.416379412915,0.0045715
4.418568620639,5.8297e-05
4.419499601725,0.00482016
4.419690427386,0.0118743
4.420038480972,0.0227857
4.421764496314,8.44325e-05
4.431177836714,0.000138164
4.432767249825,4.4134e-05
4.43555803611,3.25667e-05
4.43569181683,0.000677995
4.43791126323,8.56241e-05
4.438283352655,9.06778e-05
4.439430341059,3.30137e-05
4.440296596271,0.00016025
4.443149612265,0.00206327
4.445414140062,0.000111392
4.446910668982,0.00209354
4.44957056098,0.000179295
4.450686348614,0.0131737
4.450777835149,0.00867135
4.46090871328,0.000918331
4.46205182157,0.00190857
4.466037386332,3.60743e-05
4.467489752069,0.000105925
4.4685071634,6.15966e-05
4.470921489192,3.1328e-05
4.472986022144,0.00173801
4.477409940043,3.5328e-05
4.478554702604,3.1328e-05
4.479322726895,4.14474e-05
4.480136593542,0.000445776
4.488468731692,5.75668e-05
4.491669007372,0.00149488
4.492896907027,3.3328e-05
4.495552204922,0.0022404
4.498964988689,0.000136148
4.499022692318,0.000308592
4.502679378069,9.24922e-05
4.505785581889,0.00102473
4.506382364966,0.00032891
4.50718395093,3.60743e-05
4.509131563525,7.63728e-05
4.512007478919,0.000327567
4.516731940298,0.000190814
4.516784598448,0.00454024
4.519413298549,0.00548233
4.521544801848,2.536e-05
4.522519929865,0.000125587
4.523201111185,0.00440599
4.525384832699,7.41823e-05
4.527135072907,0.0038159
4.532866762846,0.00060697
4.536923369035,9.03579e-05
4.538826553755,4.282e-05
4.539224220549,0.00540753
4.539789790428,3.49008e-05
4.539803430297,0.0050289
4.547178890758,0.00841276
4.547475036116,7.7716e-05
4.548813612473,4.54772e-05
4.549473503054,9.38354e-05
4.550456759259,3.3328e-05
4.550638803153,3.3328e-05
4.559557558072,7.36862e-05
4.560362616854,8.17459e-05
4.565012678634,7.691e-05
4.565809213457,0.0035674
4.575103908929,3.4328e-05
4.581320502483,9.24922e-05
4.582672570348,8.44325e-05
4.586900453127,7.09996e-05
4.58805349461,3.5328e-05
4.592195310304,0.00312127
4.593311404481,0.000165029
4.594510742752,6.15967e-05
4.596807270256,3.13383e-05
4.597136778995,0.000138554
4.600216421555,0.00589489
4.602169529495,0.0132488
4.603220986174,8.7119e-05
4.603665993545,6.15966e-05
4.603924280731,4.54772e-05
4.607485197141,6.96563e-05
4.618221525989,0.00141593
4.626364119147,0.000294974
4.62659146171,3.90961e-05
4.630245019035,0.000436966
4.630479638367,0.00711432
4.634775260099,0.000435295
4.63568483508,0.0280209
4.637775594803,0.000187717
4.645811413658,0.000304287
4.647523513308,6.15902e-05
4.647560339491,0.00644924
4.652148037448,0.00818877
4.653023451849,0.000687211
4.663541327819,0.0257795
4.665625229609,0.00876625
4.665636389011,0.0030645
4.666965678514,0.0549233
4.667890158524,0.000778286
4.668120741148,0.00238648
4.66886483764,0.0415912
4.668949842055,0.0105628
4.669121209211,0.0585179
4.670291262932,2.74253e-05
4.670534818502,0.000197861
4.67628558526,0.00889017
4.678769769488,0.000442336
4.679372858886,0.0597575
4.679839612877,0.000198862
4.680884605821,0.00129255
4.681635234638,4.81439e-05
4.683618242343,0.000749167
4.683798610813,8.32575e-05
4.685620910499,0.0306361
4.686940389166,0.00586029
4.689740396322,0.0542135
4.693042206755,0.0133316
4.694458138985,0.000931107
4.695856074898,0.0564076
4.695940843725,0.00192663
4.696333073546,0.00916226
4.696482231737,0.000429012
4.697719370353,0.000155318
4.699496031515,0.000454901
4.70051498243,0.00452222
4.700777282223,0.00015579
4.701718248493,0.0816261
4.702620805703,0.0902577
4.705677882108,0.0121935
4.706399875434,0.000138336
4.707021758067,0.0102227
4.707802571734,0.000171082
4.710769912981,3.74071e-05
4.71155735717,0.000300241
4.712473747718,0.00419741
4.715279131086,0.0112855
4.716601809927,3.46006e-05
4.719348446046,7.8641e-05
4.720992007252,0.000106023
4.722476093728,0.0102475
4.723384824889,0.0198811
4.725114556449,0.00363369
4.730738441141,0.000381298
4.734741828312,0.000211655
4.735150565364,3.68345e-05
4.735363262062,0.00113528
4.736358634774,0.00461588
4.737543895474,0.000201298
4.737834296984,6.83131e-05
4.738144957013,9.51787e-05
4.73897740664,3.3328e-05
4.739980824148,0.000381298
4.742983527444,9.24922e-05
4.749110164692,5.54803e-05
4.750968061919,0.0033204
4.75194798644,4.95071e-05
4.755128052946,0.00131488
4.758040115039,0.000120361
4.759977265961,0.004121
4.76553164948,0.000154283
4.765869968792,5.48802e-05
4.766012852617,3.5328e-05
4.767149207922,6.71031e-05
4.767490987596,0.000554413
4.768508973292,0.000630901
4.768617890511,0.00029435
4.775749868677,0.00114428
4.779371553907,4.74858e-05
4.783740451368,0.00439908
4.784806713592,3.5328e-05
4.791973238217,6.56265e-05
4.794884562821,3.60743e-05
4.795280186844,8.44325e-05
4.797772995515,0.000605828
4.799971976354,0.000119358
4.801044141658,0.000200968
4.8011803672,0.00591501
4.805591149486,0.0014663
4.806939364732,0.000713382
4.807278371537,0.0102206
4.808790774009,0.0109287
4.809025880582,0.000119866
4.81373794865,0.000380985
4.81446597604,0.0154416
4.816855605359,0.000190552
4.818531608931,0.00031682
4.818817631092,0.000124731
4.820129688457,3.3328e-05
4.820664237938,5.08504e-05
4.824977502325,0.0013713
4.828593568247,0.00175279
4.829315571676,0.000160034
4.832417043356,0.000182177
4.83661896942,0.00775844
4.837707263573,4.81638e-05
4.838751516213,4.14474e-05
4.845109534398,0.000527716
4.849737975757,0.00139413
4.850589522796,0.000640552
4.851000575859,2.536e-05
4.853823845694,7.63728e-05
4.855078411412,5.62235e-05
4.856027651025,7.63728e-05
4.859176965744,5.40397e-05
4.859764276196,0.000480221
4.860585015954,0.00124315
4.86613291924,0.00932069
4.869443893129,0.00791631
4.87190207945,0.000450864
4.872016369797,0.00992398
4.872864044379,3.3328e-05
4.877441758899,0.00349906
4.878139257006,0.00265923
4.881507459859,0.00477159
4.886488583892,5.62235e-05
4.893088687234,5.48802e-05
4.911466858657,3.77133e-05
4.91176521078,3.63473e-05
4.912787487875,3.37647e-05
4.914217336382,0.002201
4.914702236005,0.00612174
4.917641834737,7.7716e-05
4.917855968541,9.51787e-05
4.918064631824,3.5328e-05
4.919634779682,0.000351201
4.926059839111,0.00707756
4.932257338575,3.33756e-05
4.934224676177,7.6208e-05
4.934239512227,7.78756e-05
4.935940265039,0.00987027
4.93828539168,0.00403072
4.940123207246,0.00171786
4.940718093671,0.000635076
4.94175095456,2.536e-05
4.94842545775,0.000529059
4.952271302196,5.21937e-05
4.963745883282,0.00330294
4.972784945735,2.536e-05
4.985271424128,0.0069701
4.987658021113,0.000131465
4.987965712312,0.000334733
4.988325986084,3.38498e-05
4.990336307627,7.68862e-05
4.995748394916,0.000222529
4.998284258976,7.9854e-05
5.001933765831,0.000222964
5.011454455997,0.000278654
5.012473559085,0.0150738
5.0127137458,0.000912019
5.015915829182,0.00464356
5.017585816936,0.0110819
5.019694932269,9.38355e-05
5.023520651058,0.000211027
5.024701403689,0.000106381
5.027064153076,0.000181149
5.029358006952,0.0174238
5.029786065396,0.000112433
5.030619012351,0.0463417
5.030672255089,3.96203e-05
5.032497786384,0.000489004
5.035185607066,6.01911e-05
5.037590899452,0.00349109
5.039925966669,4.26359e-05
5.04112180096,0.0129191
5.041575349805,0.000174998
5.043008776408,0.0181563
5.048264914329,0.000301023
5.051619987328,0.00584695
5.055645983376,5.94768e-05
5.058898346299,0.00874021
5.060181366273,0.0144525
5.060226455941,0.000155078
5.061551913128,0.00561543
5.062313920843,0.0295622
5.065891891955,0.0242941
5.070282495242,3.4328e-05
5.070693051878,8.44325e-05
5.0743043051,8.57757e-05
5.076343912038,0.000871596
5.079704574047,7.90593e-05
5.081847630018,0.000484731
5.083464846125,0.000743984
5.083471425713,7.65854e-05
5.083654277846,7.90593e-05
5.085541508854,6.02534e-05
5.089520311608,0.00095891
5.096943499127,3.5328e-05
5.105298482522,0.000160276
5.105424719129,0.000868741
5.106507380507,0.000899805
5.109369188448,0.000259059
5.112405923535,0.00033697
5.124177482483,4.27907e-05
5.13356553251,3.56137e-05
5.140823429884,0.0029061
5.142381064088,4.1024e-05
5.149477865851,0.00361124
5.150489272473,0.00505854
5.154550737443,0.000107637
5.15528465755,0.00160165
5.156745395202,7.93561e-05
5.158542253042,0.00113297
5.160924174513,0.00565348
5.16111214477,0.01325
5.162909746424,0.000111727
5.168270476799,0.0340718
5.169326134888,8.54961e-05
5.169410898553,0.00124847
5.170131765802,0.000105925
5.177229351807,0.00106274
5.178352304397,0.00275874
5.1788356161,0.000300701
5.179435586297,5.62235e-05
5.183403951708,0.00145727
5.184586141941,8.57757e-05
5.184829559432,7.50295e-05
5.184836765885,3.23688e-05
5.185122677131,3.4928e-05
5.185543860061,7.50295e-05
5.191520061006,3.5328e-05
5.194890670133,0.000103238
5.197544787839,7.37099e-05
5.205654870679,0.0091769
5.207457115619,0.000138193
5.207525889227,0.0157729
5.208954556833,0.00741709
5.211333517621,0.000380472
5.212080350973,0.0144891
5.21315447459,0.000760104
5.216172762266,0.000840701
5.217779670836,0.000268462
5.221561480206,8.84623e-05
5.222026876055,4.27907e-05
5.223008897002,3.4328e-05
5.22572639449,3.60743e-05
5.226009856081,4.54772e-05
5.226070608139,5.08504e-05
5.232009364717,8.17459e-05
5.232221447604,0.000107268
5.236883288812,4.27907e-05
5.242461098927,5.89101e-05
5.243725240319,3.1328e-05
5.244333502057,8.7119e-05
5.248718117086,0.00118324
5.252601150268,0.00253191
5.255629277245,0.0065566
5.255673522494,0.00391476
5.256035975047,5.75668e-05
5.256568239665,0.000122044
5.260456794183,5.50049e-05
5.261380189844,0.00300993
5.263224927862,7.50295e-05
5.264768883119,0.000928014
5.274011484644,0.00464219
5.274570095993,0.00276783
5.277029777262,0.000612343
5.277173667568,7.7716e-05
5.282422808757,0.000174432
5.286046010241,0.00250503
5.286925725857,4.27907e-05
5.288536248672,6.83131e-05
5.288673617828,0.000120701
5.293143445978,3.54852e-05
5.293772611893,0.000106436
5.29409348134,0.000216023
5.300588244247,0.000241629
5.301194514061,0.0125969
5.313080146909,0.0202346
5.313091578911,0.0188847
5.314730060339,0.0172346
5.315255371106,0.0196829
5.315493045356,0.000296507
5.316962379897,0.00273107
5.31697049464,0.00803922
5.317753434251,0.0220175
5.32076489593,3.81495e-05
5.323025428324,0.00472944
5.324691315617,0.00684494
5.328610566019,8.7119e-05
5.339072377304,7.41188e-05
5.339791870754,0.00610035
5.340726770182,0.00528518
5.348375558549,0.000175267
5.348566110418,0.00206667
5.349371825737,4.769e-05
5.350500126323,0.00135255
5.35174652412,0.00453514
5.353313678164,5.89101e-05
5.354719956545,8.44325e-05
5.356639036131,3.56137e-05
5.365442188502,3.4328e-05
5.369622510435,0.000707716
5.373536700279,0.00445254
5.383004744328,3.43885e-05
5.38499009134,0.00349352
5.386994132756,0.00279675
5.391372794872,0.00286503
5.393418293537,0.000405477
5.393616447716,6.29399e-05
5.399728419016,0.000624112
5.40038063814,9.63462e-05
5.403449705778,0.00027615
5.403670109222,6.95592e-05
5.406573620973,0.000189151
5.407236979792,0.00798018
5.413587406149,0.0185535
5.414214550705,0.013068
5.415892454882,0.017274
5.418713169178,0.00397038
5.421937339191,0.000146848
5.423343727209,0.000807119
5.424817080526,0.00389788
5.432318732864,0.000299924
5.434914988741,8.58377e-05
5.435893073218,5.96177e-05
5.436293310198,4.67668e-05
5.439322741993,0.000261836
5.440388701433,0.000221148
5.442256454034,0.00839599
5.442317984302,0.0114248
5.445616444637,5.33178e-05
5.455501362515,0.0127695
5.458702593733,0.000323433
5.458949182185,0.000265251
5.460072156972,0.00183714
5.463586998477,0.000117085
5.48035080234,9.20481e-05
5.481608683841,0.000155294
5.485314712502,0.0162429
5.4856028471,6.97177e-05
5.485731923714,0.000332395
5.488677989909,0.000421298
5.488750624849,0.0357115
5.48956604516,0.0707769
5.492973450193,5.26747e-05
5.493582821898,0.000340827
5.493666086368,0.000665041
5.495983327138,6.13566e-05
5.497082359971,0.000396074
5.500333453864,0.000833115
5.503598902997,0.000317734
5.503690092719,0.00833292
5.506727919506,0.000181394
5.50972088183,0.0324244
5.509970245144,0.000118209
5.510066824714,0.0850084
5.510452210238,4.19299e-05
5.513190853126,0.00178879
5.513304720094,0.0356279
5.514728470214,2.61243e-05
5.516732219165,0.000839693
5.517558984605,0.00279846
5.52338743344,0.00768487
5.524556090077,6.99396e-05
5.525705074724,0.014688
5.529483424181,0.000114366
5.532825649123,0.0661612
5.534959400242,0.00115234
5.536327823337,9.90434e-05
5.537468252682,6.0288e-05
5.543463168668,0.000223029
5.547128155315,0.0128707
5.548463060397,3.8624e-05
5.555054699481,0.0151682
5.557781198761,4.95071e-05
5.562911557873,4.01041e-05
5.570147301299,0.00257622
5.57905603469,0.00421906
5.580727377139,4.68205e-05
5.584855766464,0.000178462
5.588780565462,3.3328e-05
5.592112888291,5.35369e-05
5.593073851231,3.56137e-05
5.593238752374,2.536e-05
5.595560929031,3.4328e-05
5.601480590441,4.54772e-05
5.604295880179,5.75668e-05
5.607407438211,3.56137e-05
5.608660235924,7.36862e-05
5.614944451324,4.27907e-05
5.617979923028,0.000968313
5.622433473696,0.00440309
5.626133314856,3.5328e-05
5.63437651777,0.0032656
5.635621709116,0.00541307
5.636848778511,0.000922641
5.641752195894,4.81638e-05
5.64328829927,8.44325e-05
5.653207460593,3.5328e-05
5.6623723299,0.00304881
5.665163646488,0.000155469
5.670789315747,0.000155291
5.673903045776,0.000100897
5.676971104171,6.29741e-05
5.677063927537,0.015723
5.678982002976,4.95071e-05
5.681876255318,4.95071e-05
5.683411263819,0.00015034
5.687101486228,0.00027816
5.687298700765,2.54789e-05
5.687752472161,0.000112489
5.690893237979,2.536e-05
5.691598639153,0.0004019
5.691605658854,0.00521537
5.691613590555,0.000276242
5.696305431636,0.000204709
5.696556689637,0.000128409
5.69699677363,9.63998e-05
5.69938583492,0.0164954
5.702754843586,0.0116987
5.703763407821,0.00268207
5.70567353075,0.000136073
5.70762532097,5.79923e-05
5.712287824265,0.0291234
5.712756478013,3.5328e-05
5.71348870859,3.5328e-05
5.71373872552,3.87608e-05
5.720386047234,0.00138314
5.72222242639,0.0035004
5.725838597823,0.00131488
5.733795021807,0.000844731
5.738213201337,0.000189209
5.747536960744,4.68205e-05
5.747813680533,4.68205e-05
5.748056785177,5.89101e-05
5.74908486147,0.000370552
5.753328851498,0.00230863
5.753550636483,0.000727117
5.754640535286,8.82906e-05
5.754923942538,0.00023301
5.755860035514,3.34623e-05
5.756035980042,0.00216081
5.760233150536,5.08504e-05
5.765298846705,0.000202641
5.765423381733,0.000184669
5.76617284437,0.00555496
5.774078992261,0.00373794
5.774322434994,0.00260353
5.776223101186,6.8445e-05
5.777940995244,0.000522218
5.784775700971,0.00742951
5.786689347205,0.0235858
5.787883596055,0.0001252
5.797395350982,0.0103953
5.799694108578,4.27907e-05
5.801581986429,6.56265e-05
5.802137602675,3.4928e-05
5.802748167029,3.5328e-05
5.806085625686,8.7119e-05
5.809670093238,4.68205e-05
5.812248074252,0.00014488
5.814482381282,3.4328e-05
5.815773353916,2.536e-05
5.816594085306,5.21937e-05
5.818648647466,0.000150253
5.820058874789,3.75394e-05
5.820128887896,0.00131219
5.822335178579,7.63728e-05
5.822516553844,0.000349059
5.823629847775,0.000722492
5.827422056461,2.5704e-05
5.833320075025,0.00224673
5.838834090181,0.00029056
5.840259785681,3.64276e-05
5.841509039184,0.0104892
5.842436780018,8.62061e-05
5.843069545884,0.000561736
5.84379034935,6.15967e-05
5.84972772917,3.77418e-05
5.851632154596,7.01472e-05
5.852356924984,0.000135298
5.85353398175,0.0162199
5.854109018167,0.0279937
5.860729877427,0.00221862
5.862430454753,3.74033e-05
5.862540142145,0.00435145
5.871162539694,0.000174928
5.876741027219,0.000130313
5.877888694116,0.000147309
5.880528952321,0.0115822
5.881355182936,0.000167454
5.881699735253,0.000346827
5.882561508941,0.00100998
5.882812645401,0.00443396
5.886381885176,0.024347
5.894971382004,0.00099612
5.896692264366,0.00275488
5.897112936311,8.7119e-05
5.904448274737,6.29399e-05
5.905736588735,0.000187865
5.910183482921,0.00441758
5.910744981697,7.18812e-05
5.911680043501,0.00197457
5.913343420272,3.4928e-05
5.913385092889,3.3328e-05
5.914146817903,0.000107268
5.91897974422,3.56137e-05
5.922586971649,6.29399e-05
5.926854592919,4.95071e-05
5.927467270299,0.00023488
5.929419663148,0.000161
5.93773164992,6.9008e-05
5.938654625086,0.000111298
5.94228850484,5.56029e-05
5.945639371699,0.00837082
5.947063813884,6.83131e-05
5.955696487384,0.00854118
5.956982929463,4.85964e-05
5.957601094367,0.00153276
5.958021908074,0.00404961
5.961319367185,0.000111298
5.964911236963,0.00954518
5.974985514864,0.000417567
5.97733812864,0.000840701
5.98522738362,4.81638e-05
5.988933817907,6.96563e-05
5.992956035062,3.4328e-05
5.994972886604,3.56137e-05
5.996359271422,5.35369e-05
5.996713962018,8.04026e-05
5.998759937563,9.07574e-05
5.998901119116,0.000674134
6.000533537393,3.4328e-05
6.002682720974,4.4134e-05
6.004661026555,0.000154283
6.005777418227,0.000163
6.006916547976,9.91192e-05
6.008000520205,0.00169589
6.008370960784,0.000382718
6.010937532142,0.000155054
6.013505578073,0.00268795
6.013803930189,0.00864812
6.015179738298,9.11489e-05
6.015921239811,0.000115328
6.02325403097,0.000131447
6.024186753977,0.000925328
6.026593994131,6.83131e-05
6.030504371272,0.00195459
6.03328740615,6.85994e-05
6.035585764195,0.000139907
6.036074687369,5.07034e-05
6.036875055259,0.00345223
6.03884417191,2.56065e-05
6.041395499695,0.000251668
6.04204420577,0.000146381
6.04381389358,0.0171107
6.045167512749,0.0142588
6.046023849525,0.00287031
6.046402642776,0.0152898
6.049218406732,0.000245769
6.050517641835,0.00192233
6.05116359881,3.65845e-05
6.05404755788,0.000102315
6.056785201527,0.00504154
6.056943285573,0.000311627
6.058961896327,0.000161636
6.059222779864,0.0233992
6.061607481809,4.31683e-05
6.070476192419,0.00019406
6.071043004278,0.000444313
6.071356043062,0.000763527
6.071668604839,0.000277913
6.077527539769,0.000160025
6.078802004727,0.0384019
6.083422091488,0.0131795
6.083817461958,0.0288149
6.090370996464,3.1328e-05
6.090726219657,0.000135477
6.09554633463,5.75668e-05
6.096587402835,0.000107268
6.104025500698,0.000443089
6.106672354286,6.83131e-05
6.109051811017,0.000729208
6.113821112304,0.00114563
6.113960619359,0.000671618
6.118187226652,0.000141873
6.118365851294,0.000833816
6.119904220701,0.000828611
6.122828295622,3.5828e-05
6.124091094276,0.00014488
6.130093682568,3.3328e-05
6.136081072748,6.15966e-05
6.138298447688,8.98056e-05
6.139617056738,0.000298014
6.142610946743,0.000645925
6.153716588834,0.00054629
6.154764174673,0.00263008
6.156465252624,0.000288523
6.156511172624,0.000632206
6.156692321491,0.00284313
6.157252907006,0.0100279
6.159057047135,0.000972343
6.161077065395,0.00277475
6.16420939072,6.02534e-05
6.164922573035,3.23509e-05
6.165824673442,4.18355e-05
6.167205816613,3.28032e-05
6.169649822658,0.000232541
6.169734216676,6.69499e-05
6.169903470269,0.00306929
6.170212320537,2.57165e-05
6.171993176506,9.86114e-05
6.17214450568,9.66268e-05
6.172896744407,0.000261049
6.173512477626,4.21936e-05
6.178574029911,4.04072e-05
6.179409943643,0.00538396
6.179860478375,0.00386325
6.179981702589,0.0260901
6.180097250515,0.000216306
6.184945082999,0.000226821
6.189120847006,0.000219695
6.192521114321,0.00543831
6.192670639791,0.00211941
6.192783093157,0.0218371
6.1929296223,0.00572255
6.195766419736,0.00198893
6.196321007697,3.74491e-05
6.198022834625,3.7392e-05
6.201783690853,9.79191e-05
6.20238296043,0.00747415
6.203308345646,0.000157275
6.203425348103,0.00204906
6.207126627697,8.25187e-05
6.211034101999,0.00694567
6.21134837268,0.00269515
6.213554072513,0.000383761
6.217571799969,0.00551516
6.217640953412,7.50295e-05
6.223424183397,0.0038031
6.224875319266,0.00116981
6.225450109457,0.00622979
6.22980178079,0.00396965
6.230254531288,6.68333e-05
6.232237688529,0.000147516
6.233899415947,0.0131255
6.234470766894,4.2299e-05
6.236181447383,4.72908e-05
6.236504237314,0.00028076
6.23878288481,2.76384e-05
6.239439568825,6.03414e-05
6.239685315311,0.00955899
6.244344660257,0.000119751
6.245490363345,5.35442e-05
6.24830961134,0.000122324
6.249767234675,0.000276709
6.254810245603,0.000522507
6.257439924385,0.00541546
6.259871380247,0.000205054
6.26044475766,0.000270085
6.261268370756,0.000204871
6.265253113928,0.000279818
6.266719956466,0.0177119
6.268688897842,0.000404791
6.270565285044,0.000157385
6.272459264532,4.14474e-05
6.273298370566,0.0474914
6.274269515972,0.00125676
6.280057478425,0.00694186
6.284465310899,3.66414e-05
6.284724062465,2.87487e-05
6.288353760415,0.000421099
6.28892188886,3.51551e-05
6.289452222986,0.000196493
6.291913693343,0.038738
6.29197380343,0.0106379
6.292502000409,0.0580052
6.295982143053,0.0527582
6.297072988964,3.33982e-05
6.29810911205,0.0252213
6.298688850242,0.00250918
6.300480707108,0.00280515
6.308335727143,0.00986691
6.311409102057,0.00021958
6.313393300378,0.00466865
6.313695729841,0.000119892
6.314129272736,6.63419e-05
6.314584425904,0.00931088
6.320083212737,0.0911222
6.3213211139,0.000118964
6.322797651004,0.0038279
6.324037677938,0.00472048
6.330406151306,3.1328e-05
6.330542994954,5.35369e-05
6.331881436609,3.4928e-05
6.343825369347,0.00707322
6.344058820534,0.0102983
6.345215890431,0.00249021
6.345559608558,0.000165514
6.347154085531,0.000147304
6.348174837442,0.000155445
6.35504808125,0.000349979
6.355098567212,0.000422989
6.355704091109,0.000241621
6.355770405852,0.00021054
6.361014145988,0.00496298
6.362388988292,0.000738412
6.363641262463,0.000300793
6.366293511077,0.017492
6.367767988419,0.0174025
6.368454554813,8.6475e-05
6.373157189511,0.0253644
6.37496927829,0.0325686
6.380689568108,0.000241597
6.385102859227,0.00127592
6.391067781694,0.000208136
6.395110895734,0.000155186
6.395171005822,0.00358618
6.395522071238,0.00435238
6.398428910257,0.000415309
6.400550894425,3.49791e-05
6.402424754291,7.1785e-05
6.402571083765,8.17459e-05
6.404278275637,0.000235671
6.407147589244,0.000213956
6.410020865938,0.00511275
6.411531289838,0.000120616
6.416809547064,0.00738817
6.422456008415,0.000886131
6.424220593016,9.27793e-05
6.425477835906,0.0002149
6.427412076564,0.0184689
6.431360318287,4.11295e-05
6.438200919438,0.000672374
6.438556796979,5.85389e-05
6.438870124185,0.000285324
6.44439624879,2.98717e-05
6.447250962988,0.00033926
6.447832807911,0.0187354
6.448636510573,0.000416217
6.452223651233,5.35305e-05
6.453126375287,0.000483757
6.455870963162,0.000285937
6.458250661977,0.000110356
6.458716641182,0.000391584
6.458768146852,0.0302836
6.462777035251,0.045267
6.466253473153,0.0771143
6.467187618765,0.000631142
6.467279331672,0.00665451
6.46920403198,0.000159674
6.473357210421,0.000248687
6.474717152124,0.00142729
6.477302294917,0.000621615
6.477739238191,0.0488849
6.477782725479,0.00052418
6.482490342045,8.09222e-05
6.484674939134,0.00419654
6.485745042378,0.000460917
6.488530412413,0.0587747
6.488869173281,0.0421827
6.489613287168,0.000465893
6.495042560135,0.0346562
6.498415775687,3.15676e-05
6.499047083016,0.0118699
6.500028442578,0.0710236
6.501366492669,0.0721143
6.508742194059,0.0141276
6.509615777557,0.000348756
6.512128995208,0.000509885
6.514347961214,0.0249345
6.518290331383,0.0226561
6.521511830221,0.000336131
6.52291657582,0.0624496
6.523180916084,0.0152347
6.525484250849,5.42318e-05
6.527082779981,0.0271392
6.529254086472,0.046852
6.529906592034,0.000106975
6.53033493704,4.70586e-05
6.532109414408,0.000503202
6.533416926915,0.000147349
6.533851640296,0.000295424
6.538087439156,0.000757126
6.539003890014,0.0017374
6.541377635482,0.140312
6.544054689662,0.000102667
6.550055046571,0.000418518
6.550486813709,0.00667576
6.552601378749,0.0426027
6.553677544051,0.00359143
6.553832338646,0.0279086
6.555421880906,0.000281559
6.557386878296,0.0113497
6.559715720976,0.000140529
6.564527387963,0.000730206
6.564575855066,0.0272559
6.565647476486,0.0306222
6.56895700687,0.0201437
6.56901633718,0.000151639
6.570437146168,0.0303864
6.573803525637,0.0426775
6.576559102581,4.2248e-05
6.576837560064,0.000141218
6.583716512354,0.000133637
6.5866315733,0.0154877
6.591256647858,3.5328e-05
6.592106977847,3.4328e-05
6.594528501661,4.87996e-05
6.599655720708,5.56074e-05
6.603196582699,0.00892441
6.607733434732,4.14474e-05
6.608289820185,0.000191895
6.609366717419,0.000440417
6.60993735188,0.000199816
6.610331933066,0.00196416
6.611850817032,0.00342019
6.614147700895,9.08538e-05
6.616114261486,0.00632632
6.618168209027,0.000155626
6.618252631266,0.00497124
6.618615385469,0.000490742
6.623235208675,8.57757e-05
6.624715844405,3.1328e-05
6.625719236827,4.27907e-05
6.626280920716,9.38354e-05
6.630586096942,0.000510253
6.634716605739,3.7246e-05
6.639171735167,0.00487671
6.64018981367,2.64351e-05
6.640397150123,0.000115195
6.642080427628,0.00359331
6.645156259162,6.94864e-05
6.648062954764,7.16236e-05
6.648644427489,6.36861e-05
6.649653468503,4.7273e-05
6.651682993843,3.60395e-05
6.652064282799,2.56265e-05
6.657252935907,0.000278197
6.658284109213,4.27395e-05
6.662062033535,3.8106e-05
6.663018276001,0.000116811
6.663505642364,0.0115982
6.663725715526,0.000100013
6.664801452758,0.000139614
6.665448074986,0.0287807
6.666048856681,0.00112898
6.66922975765,0.00100612
6.669564174902,7.63728e-05
6.67075807609,7.44319e-05
6.670962086298,7.12101e-05
6.671369237883,0.0168357
6.675800515667,5.75668e-05
6.676323511591,0.000189209
6.676600809074,8.84623e-05
6.676860515371,6.56265e-05
6.677959614386,4.81638e-05
6.681436324502,0.00094279
6.685220355196,8.7119e-05
6.687808081597,8.98056e-05
6.689909591753,0.000116671
6.693396859874,0.000441746
6.695925025233,2.536e-05
6.700403543106,6.15966e-05
6.704589530822,5.89101e-05
6.704632327954,6.38561e-05
6.706318333241,5.08504e-05
6.708706493901,3.5328e-05
6.709007361773,3.60743e-05
6.711222032416,6.12342e-05
6.714866073381,0.00196579
6.716714046398,0.00451637
6.719758285212,0.00948831
6.722019258488,6.98097e-05
6.729864966264,0.000207097
6.730322121461,0.00922038
6.733110841964,0.00903969
6.735482885983,0.000289385
6.736186376255,0.000123215
6.737653618993,0.000205186
6.739503125773,0.000124528
6.740335792609,0.0196192
6.747652208365,0.000439381
6.748742225245,0.019633
6.749905842727,0.0192267
6.750748583984,0.00766876
6.751967643757,5.72758e-05
6.755730635325,0.00018463
6.756801031436,0.0024277
6.760038181305,0.000592993
6.761115980793,5.6688e-05
6.761792476927,0.0103059
6.764682881959,6.83131e-05
6.776379097812,7.14305e-05
6.777617435957,0.000151842
6.778627416032,0.000257403
6.784745536701,0.00332793
6.785230294343,0.010898
6.786073624373,0.00140888
6.787402303316,0.000211886
6.791505922921,0.00280611
6.791627381421,0.000135604
6.804298425882,0.0240935
6.812828218552,0.0225124
6.815221948869,0.0297317
