time,CharnySim1.flowGenerator3.flowSynId:vector
0.000600145576,0
0.000957140575,2
0.001275574432,4
0.001577416744,5
0.002250881034,6
0.002358629294,3
0.002532777322,8
0.002657214146,9
0.002745100944,10
0.002836608414,11
0.002875026361,12
0.002927296846,13
0.003200932968,14
0.003450677351,16
0.003652679412,15
0.003683454012,18
0.003982810358,20
0.004204178944,21
0.004765019382,23
0.004957257872,22
0.005027142108,24
0.005060476212,25
0.005310198173,19
0.005382019645,27
0.005583796466,28
0.005630391873,29
0.006170572359,30
0.006339956555,32
0.006778906383,33
0.006959158988,34
0.007114710188,35
0.007234003266,36
0.007463891106,17
0.00746720393,26
0.007706095405,38
0.008799544282,39
0.008856492737,44
0.008983834927,45
0.009035169074,47
0.009665284238,52
0.009781024165,54
0.00980661328,55
0.009862768464,41
0.010007137482,46
0.010139284534,56
0.010170739764,31
0.010195943603,57
0.010532848774,60
0.010577567088,40
0.010781505413,62
0.010796253483,61
0.011134305729,43
0.011210369963,65
0.011452468735,66
0.011579565891,59
0.011603075911,67
0.011878495277,63
0.012123121656,69
0.01237153865,70
0.012482910478,71
0.012868063509,51
0.013119252468,53
0.013347663272,68
0.013567304953,72
0.013939925471,48
0.014144465779,49
0.014237611163,76
0.014328490275,75
0.014398047812,77
0.014767746898,73
0.01484391976,50
0.015037374032,37
0.015172932184,58
0.015206387561,79
0.015806643234,78
0.016229294581,83
0.016285046045,84
0.016300189137,81
0.016612539372,74
0.016692378572,1
0.016787598304,85
0.016982793662,82
0.017634325135,42
0.018023951424,87
0.018110218182,88
0.018301340615,89
0.018305771041,64
0.018369660129,90
0.018496855374,91
0.018671052372,86
0.019005993579,93
0.019105447008,94
0.019591365138,96
0.019766607703,97
0.019839441268,98
0.019968464231,7
0.020540710736,99
0.020785925316,100
0.020913153765,92
0.021085107029,101
0.021172643767,95
0.021614562356,102
0.022163520854,104
0.022662826595,106
0.02309683503,107
0.02326209687,108
0.023381013519,109
0.023438250699,110
0.023444228794,111
0.023475446131,103
0.023757590323,112
0.023951098789,114
0.024306758897,113
0.024324405451,80
0.024467129777,116
0.024716582258,105
0.025628878176,117
0.02586136403,115
0.026275271793,118
0.027079808353,119
0.027239340193,120
0.027606855197,121
0.027883120045,122
0.028422379564,124
0.028703469715,125
0.028853144613,126
0.028895421597,127
0.029631776407,128
0.02963743412,123
0.029837596132,130
0.029995763169,129
0.030006835696,131
0.03019632595,133
0.030387416592,132
0.030523850248,134
0.031202608741,135
0.032081828773,137
0.03222092514,136
0.032365196702,138
0.032824215514,141
0.033316679155,142
0.033406103677,143
0.033590002377,144
0.033790343002,139
0.03396471731,147
0.034078849412,148
0.034486010046,149
0.034548513028,146
0.034691960885,140
0.035081817755,150
0.035273470122,145
0.035465824613,151
0.035496315711,153
0.035793816323,154
0.035796893848,155
0.03638320902,157
0.03638773763,159
0.036692862615,158
0.036732422719,156
0.037234192566,161
0.037246172614,162
0.03752671025,165
0.037621608299,163
0.037686224868,166
0.03792197126,164
0.038130981713,168
0.038186203074,152
0.038287822329,169
0.038469423378,160
0.038562995564,167
0.039370623001,172
0.039540636012,171
0.039653199019,175
0.040107197499,176
0.040824016752,177
0.040946921385,179
0.040982003668,170
0.040988355255,178
0.041056331433,180
0.041067356394,173
0.041787497096,181
0.041900901128,183
0.042138274056,184
0.042444107386,185
0.042744127069,174
0.043166607829,186
0.043782360944,188
0.043800952526,182
0.043837499821,189
0.043896855629,190
0.044284335853,191
0.044942485607,194
0.045189931926,195
0.045202666823,193
0.045421790911,196
0.045499810105,187
0.045757584122,198
0.045992346359,192
0.046244482808,199
0.046359097272,197
0.047031918201,200
0.047375335188,201
0.047483362301,203
0.047570544725,202
0.0483395361,206
0.048363840048,205
0.048654779206,207
0.048865777771,204
0.049259347264,210
0.049418522768,212
0.049433558783,211
0.049595257955,213
0.049731255573,209
0.050286142374,208
0.050775348423,216
0.050802848475,217
0.05126502294,219
0.051362233487,215
0.051449744528,220
0.051519451381,221
0.051738287913,214
0.052033949619,222
0.052702055777,223
0.053321799329,225
0.054366071694,227
0.054380724368,226
0.054796596764,224
0.054935954325,228
0.055149826627,229
0.055558489762,231
0.055657703142,230
0.056082711637,233
0.05623098965,232
0.056644123495,235
0.05726355142,237
0.057302686697,236
0.057439081871,238
0.057560744582,240
0.057592185621,239
0.057861713629,241
0.057977138615,242
0.058053574786,218
0.058251500879,243
0.058325727434,244
0.058390248719,245
0.058734823689,234
0.059018131148,246
0.059065242224,247
0.059234205297,249
0.059670585242,250
0.05974366709,251
0.059798207375,252
0.060027114918,255
0.060049540005,256
0.060129264606,257
0.060173236326,258
0.060220587286,259
0.060254051689,248
0.060385384957,260
0.060408264089,261
0.060968172959,263
0.061131780269,254
0.061318762443,264
0.061373901685,265
0.061426175903,266
0.06184125285,269
0.061847412587,270
0.062434854515,271
0.06252386975,268
0.062612462145,267
0.062945582639,273
0.062993320599,274
0.063337945751,272
0.063531552342,253
0.06401233517,275
0.064280500029,279
0.064373582773,280
0.064528922973,262
0.064609082026,281
0.064649341551,282
0.06466797033,277
0.064689431695,283
0.064745869298,284
0.064875433751,278
0.065211470566,285
0.065322582759,276
0.065624779489,286
0.065971474932,288
0.066292489549,290
0.066756733937,292
0.066976327921,291
0.067161413952,293
0.067206812987,295
0.067589186142,296
0.067602221783,294
0.067708811587,298
0.067806912489,297
0.068106981814,299
0.06811124021,300
0.068131996243,301
0.068142932397,303
0.068483188739,287
0.06865307053,289
0.068766762263,304
0.068867460189,305
0.068980389213,306
0.06918371253,307
0.069734781742,308
0.069747112845,309
0.07015327951,311
0.070174914338,312
0.070286128849,314
0.070400835628,315
0.070657266427,317
0.070705902463,310
0.070850964085,320
0.071327837353,321
0.071399767929,322
0.071528970125,323
0.071535716464,319
0.071634511522,324
0.072159947412,328
0.072253664464,302
0.072754211938,318
0.073214172455,329
0.073359168935,330
0.073629576152,326
0.07431062169,332
0.074361417533,331
0.074446119354,333
0.074455652349,327
0.074505668901,313
0.074548707804,334
0.075072693812,336
0.075350669875,338
0.075484852722,339
0.075715255284,316
0.075774238261,335
0.075795491174,340
0.075859646192,337
0.075957182117,341
0.076447527141,343
0.076536804428,344
0.07654653269,345
0.076849854833,346
0.076890810291,347
0.0769377775,348
0.077074293478,349
0.077732812003,353
0.077839490105,354
0.077889741865,352
0.077899777149,350
0.078181858426,355
0.078184173799,356
0.078774337048,358
0.078830073369,357
0.079490990654,359
0.079611711264,360
0.079646390667,361
0.07990643544,362
0.079947509695,351
0.080005063321,325
0.080056171206,363
0.080628912689,365
0.080798834882,364
0.081124052032,366
0.081569338076,367
0.081607315069,368
0.081729348572,369
0.082322535371,342
0.082644464386,370
0.082829104321,371
0.082908413062,372
0.083346946357,374
0.083634134898,375
0.083781353342,376
0.084102569151,379
0.084231097378,380
0.084747624796,377
0.084874820951,381
0.085051765038,382
0.085423677991,385
0.085481952097,383
0.08564731383,373
0.085978801892,384
0.085979045693,389
0.086213042517,392
0.086540518936,391
0.086613567162,387
0.086738763658,386
0.086926938675,393
0.087096709352,378
0.087156876115,394
0.087684371204,396
0.087879551177,395
0.088222060244,388
0.088661034218,399
0.088886304109,397
0.089176917703,390
0.0893754432,402
0.089536512731,403
0.090236340201,405
0.090829688917,408
0.090913042992,406
0.090953255734,409
0.091049962153,410
0.091239049057,411
0.091416128845,412
0.091893203374,413
0.092022282015,414
0.092027929196,398
0.092280300296,415
0.092305465572,401
0.092805224208,400
0.093137648411,404
0.093814436706,417
0.093895686847,419
0.09392380951,407
0.094164915037,420
0.094811036491,421
0.095054683298,416
0.095293293222,423
0.095332605286,418
0.095489063462,424
0.095521163431,425
0.095644999671,426
0.095742224719,427
0.09575829748,428
0.095835042723,430
0.096128592052,429
0.096176164337,431
0.096234544657,432
0.096713175166,433
0.097439597675,438
0.097528854382,437
0.09757714437,422
0.097932591883,439
0.097950130974,440
0.098358981584,441
0.098402038347,436
0.09844872369,442
0.098501364944,443
0.098824247917,444
0.099614868845,447
0.099936987414,448
0.099946948641,449
0.100044690518,451
0.100492531068,446
0.100503705914,452
0.100714647611,434
0.100985176125,435
0.101088312539,445
0.101523746235,455
0.10233045375,457
0.102734364851,453
0.102929292331,454
0.102951194288,456
0.103338847344,460
0.103509110318,450
0.103623553233,461
0.104353319045,458
0.104620029767,462
0.104955314029,463
0.105056171737,465
0.105170941677,466
0.105230233188,467
0.105404602578,464
0.105438356713,468
0.105700238571,470
0.105746045443,472
0.105782380846,459
0.105822260842,471
0.106532764677,474
0.106767375574,475
0.106770589001,476
0.106882187288,477
0.107332892028,480
0.107442347605,481
0.108012824248,478
0.108374705124,484
0.108722148724,485
0.108756906304,483
0.108768103477,486
0.108913646914,487
0.109215587879,479
0.109294111784,489
0.109559515379,469
0.109657688269,491
0.109671043949,490
0.109898193663,492
0.11003386674,482
0.110141195228,488
0.110642326013,473
0.110676108354,493
0.111029844628,494
0.111094431079,495
0.111151947067,496
0.111508404169,497
0.112152895535,499
0.112170940223,500
0.112848107506,504
0.112989413541,505
0.113311583671,498
0.113315206985,507
0.113441418729,508
0.11354198335,503
0.113603579805,509
0.113795277673,511
0.113894240232,501
0.114098229318,512
0.114142045638,513
0.114938408148,510
0.114989687755,515
0.115053211562,516
0.115080298946,514
0.115156429509,518
0.115570272986,517
0.115644804656,521
0.11595464288,523
0.116174892028,519
0.116551132924,520
0.116826932659,529
0.117040636201,530
0.117325682231,531
0.117405766051,526
0.117663496234,524
0.117938503997,533
0.117952676697,534
0.118005520646,525
0.118163169745,532
0.118283672417,522
0.118884394665,535
0.118916001714,536
0.119157372401,537
0.119264547622,528
0.119323968905,538
0.119472145964,539
0.119634745352,527
0.119779037274,506
0.119962823489,540
0.119971195684,502
0.119983725901,541
0.120024255776,542
0.120211128462,543
0.12050814763,544
0.120553747994,545
0.120609827305,546
0.120774680617,547
0.12139993339,549
0.121767612381,550
0.121936622999,552
0.121997605009,551
0.122026001422,553
0.12222904954,554
0.123135192687,555
0.123278646197,548
0.123400271736,556
0.124606732032,557
0.125109981681,559
0.125147098162,558
0.126626506922,560
0.126937999084,564
0.127144021681,563
0.12725249912,565
0.127262096544,566
0.127832574846,567
0.12802754259,568
0.128201944209,562
0.128279928447,561
0.128463834931,569
0.128948044539,571
0.128952264844,572
0.129245755183,575
0.129250954728,576
0.129350421075,577
0.129404002626,579
0.129533404037,580
0.129908861703,574
0.129994615968,578
0.130043503445,581
0.130116652662,570
0.130398435895,583
0.130579882727,584
0.130690697905,573
0.130750457906,585
0.130812636484,582
0.131046859839,586
0.131240883189,588
0.131442294805,589
0.131445089928,590
0.131780011169,587
0.13178190026,592
0.131964940321,594
0.132096015579,595
0.132134657885,597
0.1321666637,598
0.132292114229,593
0.132394357065,591
0.132676512327,599
0.133505334226,603
0.133934435348,606
0.133984408648,607
0.134105358156,605
0.134179243663,608
0.134225142727,604
0.134520192839,600
0.134830415838,609
0.134953474212,610
0.13509196524,612
0.135137453916,601
0.135389740759,613
0.135400594489,602
0.135481284471,614
0.135547701783,616
0.136027318523,618
0.136513629523,619
0.137109468114,615
0.137167918554,621
0.137252419971,623
0.137374557311,611
0.137685948865,624
0.137705922921,617
0.138464976704,625
0.138524660632,626
0.13877648086,627
0.139064532483,596
0.1390850745,620
0.139282925445,622
0.139315592052,628
0.139475114191,629
0.1395605372,630
0.139668887462,631
0.139786597196,633
0.139925804045,632
0.140639257521,634
0.141332148826,635
0.141794034811,636
0.142132207634,637
0.142294333771,639
0.142572822173,640
0.142582942976,641
0.142718624775,642
0.142783495376,643
0.142805323255,644
0.143011300955,638
0.143459480816,645
0.143623380651,646
0.143899470724,648
0.144457888735,650
0.144459918486,651
0.144745917762,649
0.144772249683,652
0.144787673031,647
0.144839040856,653
0.14494480497,654
0.145165100565,655
0.145324920217,656
0.145367601924,657
0.145528866267,658
0.145625401207,659
0.14573953051,660
0.145872583444,663
0.146244140757,662
0.146252517882,664
0.146276060108,665
0.146611155896,666
0.147071401983,670
0.147468039286,669
0.147722491088,668
0.147815340671,671
0.148026949541,672
0.148079206329,673
0.148259831039,667
0.148315967798,675
0.149017695044,677
0.149071900855,679
0.149113468091,678
0.149622011532,681
0.149625735793,683
0.150247247126,674
0.150322567769,685
0.150430408831,676
0.15063143611,687
0.151033821058,688
0.15130060627,689
0.151528954039,680
0.151584841546,684
0.151763111498,690
0.152437024898,686
0.15253165174,694
0.152571448259,692
0.152582559252,691
0.152978612019,695
0.153198815485,693
0.153854844648,682
0.153986735037,697
0.154012228118,696
0.154298947838,661
0.154388734701,698
0.154604302177,699
0.155094388885,700
0.155105799153,703
0.155324233187,702
0.155346421438,704
0.155952468076,705
0.155976494203,706
0.156406715718,707
0.156664645557,708
0.156839164428,710
0.15694072971,709
0.157040319534,701
0.15778611326,713
0.15800326193,714
0.158151283694,711
0.158157714298,715
0.158213027039,712
0.158968167264,717
0.158986743549,716
0.159531659061,719
0.159608582834,720
0.159900306759,722
0.160060775132,723
0.160468834523,725
0.16072497284,726
0.160817062071,727
0.161431056206,731
0.161564607746,730
0.162107370331,734
0.162681500685,724
0.162799355875,736
0.162832076441,735
0.16354715582,738
0.16377335878,739
0.163833616986,740
0.164136582416,742
0.164160031506,743
0.164450966341,744
0.164573626295,737
0.164985204026,745
0.165458414623,721
0.165726367208,748
0.165833903429,749
0.166067929093,750
0.166318146979,755
0.166408549705,746
0.167091406174,754
0.167145275228,757
0.167318572761,751
0.167343084744,758
0.167712103582,756
0.167841158677,760
0.167932821627,761
0.168145136135,741
0.168316757384,753
0.16833442742,763
0.168345956773,762
0.168444259859,765
0.168597801036,766
0.168791084003,729
0.169358788072,767
0.169655402063,768
0.169678645219,769
0.169772717968,752
0.169818717011,770
0.170413442339,771
0.170480520801,759
0.170642428381,774
0.170676798944,775
0.170757969682,776
0.171003138294,778
0.17124616422,747
0.171374070144,779
0.171490434491,728
0.171554062633,772
0.171725544777,780
0.17224725925,783
0.172580724292,784
0.172774774812,785
0.172839142837,781
0.173184890609,786
0.173255334097,787
0.173388684482,782
0.173552336188,788
0.173571974441,789
0.173681861982,791
0.173736755893,792
0.174213415196,793
0.174536276946,777
0.174747978874,796
0.174778124766,798
0.174873522569,799
0.175495852187,803
0.175567550713,804
0.175674029083,794
0.175760358249,805
0.175952119944,773
0.176040249954,807
0.17622483596,808
0.17630637683,809
0.176365176509,718
0.176490414725,801
0.176508207385,795
0.17678140456,811
0.176934958753,790
0.177314733381,812
0.177437926453,802
0.177450925569,806
0.177666597521,813
0.177719481232,814
0.178134780188,816
0.178308427285,817
0.178391551509,818
0.178613549364,815
0.178765913684,819
0.178917299296,820
0.179164936417,797
0.180337822905,821
0.180626481579,823
0.18076908026,822
0.181222583755,825
0.181370681476,733
0.181509407541,827
0.181663315307,830
0.181668230924,800
0.181864885764,732
0.182035692168,833
0.182049079366,826
0.182153225262,834
0.182330528074,824
0.182555295368,810
0.182605867677,829
0.182841962047,828
0.183202147917,837
0.183344983312,839
0.18346841127,838
0.183476883978,840
0.183769623672,842
0.184180069135,832
0.184255674608,844
0.184333034437,835
0.184349395548,843
0.184396856561,841
0.184469019305,836
0.185088396645,845
0.185267694409,764
0.185286127462,831
0.185420957538,846
0.186146938424,847
0.186220159986,848
0.186416314155,849
0.186511721368,850
0.186518110721,851
0.186751628341,852
0.187441332596,854
0.188144925492,856
0.18816847058,857
0.188737869173,858
0.188913647047,853
0.189578045948,859
0.190792647593,860
0.191122900766,862
0.191431064069,863
0.191646715404,864
0.191697150911,855
0.192017346617,865
0.192525667726,866
0.193172296025,867
0.193500575898,870
0.193820974459,868
0.194291842262,871
0.195443416648,874
0.195670322927,872
0.195695055076,861
0.195763148422,875
0.196259751132,877
0.19647841659,878
0.196874199324,876
0.197038294301,879
0.19719195544,880
0.197215019458,882
0.197646553501,883
0.197754526463,884
0.197790457218,881
0.197859376829,885
0.197908155481,886
0.198287730628,887
0.199229684335,893
0.199593327961,896
0.199687458089,897
0.199736142318,898
0.199832137355,889
0.20001365064,900
0.200174652857,899
0.200423910322,895
0.200606460505,892
0.200742033943,902
0.201125635358,905
0.201613642455,903
0.202702545445,911
0.203149385299,901
0.203149508498,914
0.203181756577,891
0.203340998001,908
0.203581923337,915
0.203922426422,916
0.203928194211,890
0.203989673179,910
0.204096834933,909
0.20419926453,918
0.204830284464,917
0.204842600193,919
0.205053172685,920
0.205216737446,894
0.205895436275,907
0.206014746238,924
0.206524138376,926
0.206526156986,904
0.206823598416,888
0.207191148045,929
0.207469529999,927
0.207527631915,930
0.207783644091,922
0.208114917074,931
0.208551077612,912
0.208635371119,869
0.209166296035,928
0.209240791459,925
0.209344543621,921
0.209453563557,923
0.209609856411,934
0.209656810571,936
0.209672415553,937
0.209909301433,938
0.210304604402,941
0.210328622892,942
0.210581450054,944
0.210711579654,945
0.210789509618,946
0.21127458408,939
0.211346180944,947
0.211375128487,935
0.211799396807,873
0.211978532299,950
0.212599235161,951
0.212807318583,953
0.2135671129,956
0.213573152407,952
0.213637265017,955
0.214484677649,957
0.214489963285,958
0.214616335353,949
0.214853392246,940
0.215515808253,943
0.215974245532,959
0.215977160818,960
0.216498640192,954
0.216549730627,964
0.216780819683,965
0.217115283847,967
0.217246751676,968
0.217719470446,971
0.217726077103,972
0.217824686155,966
0.21793143365,973
0.217974375136,974
0.218044036773,970
0.218226433184,948
0.218369101671,976
0.218542235863,977
0.218946027997,978
0.219314809998,980
0.219421780063,962
0.220130169673,961
0.220423903786,983
0.220429682905,984
0.220628326183,963
0.220987965415,985
0.221057185649,986
0.22142072843,988
0.22143710081,979
0.221499168756,969
0.221692990195,989
0.221824860228,906
0.222373926816,993
0.222500171466,995
0.222534164899,981
0.222636311322,975
0.223011144044,998
0.223194495882,999
0.22328697794,1000
0.223357422673,1001
0.223638225853,1002
0.223639841187,997
0.223690026638,1003
0.223785135126,1004
0.22386562541,1005
0.224450740056,1006
0.224517287302,932
0.225563174154,1008
0.22558167316,994
0.226045548035,1009
0.226129272386,982
0.226190954208,991
0.226293914978,1010
0.227645150384,1013
0.227759526244,1014
0.227801809168,1007
0.228098226064,1015
0.228216740504,996
0.22829624968,990
0.228392315017,1017
0.228398934411,1018
0.228482888823,987
0.228641131847,992
0.228996344171,1016
0.229029294135,913
0.229037150744,1020
0.229163326603,1021
0.229234202101,1022
0.229400226065,1012
0.229658290407,1023
0.229708361918,933
0.229786986713,1024
0.229836958618,1025
0.230014579496,1026
0.230404533938,1027
0.230534299876,1029
0.230540819276,1019
0.230627358936,1028
0.230714099667,1030
0.231113660858,1011
0.23142718398,1032
0.231552831325,1033
0.231752978997,1031
0.231841950516,1034
0.231876559981,1035
0.232609366181,1036
0.233656544598,1039
0.233801035879,1041
0.233907307493,1042
0.233967925035,1043
0.234100188592,1045
0.234306766573,1037
0.234479154098,1048
0.234840855362,1040
0.234892472581,1049
0.234917808992,1050
0.234972224197,1052
0.235299073783,1047
0.23535439432,1053
0.235550172398,1054
0.235584470027,1055
0.235666008647,1051
0.235774967274,1056
0.235926784347,1058
0.235930102741,1059
0.236491252847,1061
0.236845447729,1062
0.237244260081,1046
0.237959322646,1065
0.238118011867,1067
0.23813748623,1057
0.238219525176,1069
0.238532664022,1073
0.238564059742,1076
0.238589600934,1074
0.238674311107,1075
0.238678049298,1070
0.238754841087,1071
0.238764338692,1078
0.239103162126,1072
0.239387196187,1066
0.240009760044,1080
0.240125348058,1081
0.240304464622,1084
0.240338256346,1083
0.240460276819,1085
0.240513783259,1086
0.240637806914,1068
0.241060967727,1079
0.241127258318,1088
0.241162757067,1087
0.241338925818,1082
0.241512065283,1089
0.241574881378,1090
0.242014308074,1091
0.24246762262,1093
0.242472957166,1094
0.242655129322,1097
0.242742650786,1098
0.242883097077,1099
0.24297580706,1100
0.243070758464,1102
0.243198093836,1103
0.243381978888,1101
0.243462186797,1092
0.243601012502,1044
0.243878807976,1105
0.244235292313,1106
0.244294216267,1063
0.244383621862,1108
0.244796595207,1109
0.244904878126,1111
0.244982806253,1110
0.245021219784,1104
0.245157780218,1112
0.246121685651,1113
0.246427652544,1114
0.246531803857,1060
0.246799869341,1117
0.246871335091,1118
0.246954672299,1119
0.247056827375,1120
0.247088943684,1064
0.247179129042,1122
0.247523598025,1116
0.247921983029,1126
0.248025751661,1107
0.248035843912,1125
0.248978186142,1132
0.249049623412,1128
0.249343089516,1129
0.249353097539,1133
0.249505872006,1135
0.249561583894,1130
0.249678076194,1138
0.249946001074,1115
0.250021306006,1139
0.250305971312,1136
0.25048984908,1140
0.250499955338,1124
0.250540813941,1131
0.250624510432,1141
0.25113274586,1121
0.25122720663,1143
0.25151478966,1147
0.251627907931,1145
0.251974679469,1146
0.252483425284,1148
0.252851376429,1137
0.253204905455,1150
0.253220412905,1151
0.253402185413,1152
0.253730550439,1153
0.253872512049,1154
0.254109325427,1144
0.254218185828,1077
0.254432224171,1157
0.254501250255,1158
0.254530973084,1159
0.254661020313,1161
0.25471504737,1142
0.254923308884,1038
0.255109341727,1162
0.255151074573,1156
0.255404957551,1149
0.255422043919,1163
0.255491121131,1123
0.255572395536,1165
0.255721937643,1166
0.255737641459,1134
0.256098724259,1155
0.25611398066,1167
0.256513527062,1164
0.257074282818,1168
0.257158502562,1160
0.257292786166,1169
0.257346365458,1170
0.25811876493,1171
0.258239158228,1096
0.258335975937,1127
0.258890136799,1172
0.258912980168,1173
0.259166513092,1174
0.259366192227,1175
0.259432630281,1176
0.259832900355,1179
0.25999590146,1180
0.260147722996,1178
0.260170780218,1095
0.260581199175,1177
0.260974802759,1182
0.261075252341,1183
0.261574396663,1185
0.261599263288,1186
0.261770802872,1184
0.262698786015,1187
0.262982212672,1188
0.263063907618,1189
0.26342359388,1181
0.263842230264,1190
0.26403998236,1191
0.264668969689,1192
0.264930429806,1193
0.265180775358,1194
0.265392099142,1195
0.265457365368,1196
0.265657612437,1197
0.266246240724,1198
0.266715869395,1204
0.266744783755,1200
0.266772978376,1201
0.26695082457,1205
0.266986608323,1203
0.267292766354,1202
0.267717148357,1206
0.267973427288,1207
0.267989088979,1199
0.26800640987,1208
0.268132692784,1209
0.268429683478,1213
0.268550586541,1211
0.268578065096,1214
0.268845195817,1212
0.269094161905,1215
0.269240121202,1216
0.269536701131,1217
0.270022144557,1210
0.270058001777,1219
0.270139863823,1220
0.270416743381,1218
0.270662254343,1221
0.27129660377,1223
0.271709722488,1224
0.272314387519,1222
0.272792363527,1225
0.273014631192,1226
0.273156585987,1227
0.273243955028,1228
0.273270443629,1229
0.27401761841,1231
0.274094023018,1232
0.274407184394,1233
0.274437576672,1234
0.27551923504,1236
0.275574721751,1237
0.275594260032,1238
0.27577514194,1239
0.275876357554,1240
0.276048518633,1241
0.276188780122,1235
0.276738025016,1242
0.276907086383,1230
0.276992349798,1243
0.277215735072,1244
0.277228003204,1245
0.277811326116,1246
0.277838698993,1247
0.278492124905,1248
0.278531070776,1250
0.27872440358,1252
0.279442169368,1249
0.279472164175,1251
0.280073573731,1256
0.280171128113,1257
0.280180051185,1258
0.280432264981,1260
0.280493260945,1254
0.280779610388,1261
0.280802692094,1253
0.280856291042,1263
0.280972265098,1265
0.281115691286,1266
0.28134085837,1269
0.281390890594,1270
0.281797102996,1262
0.282237645144,1274
0.282496945417,1268
0.282637708408,1275
0.282680821633,1276
0.282814086777,1277
0.282887574708,1278
0.282945233508,1271
0.282967116976,1279
0.283148293189,1273
0.283501066421,1280
0.283587600831,1281
0.283941351052,1272
0.284561662961,1259
0.284581847665,1284
0.285235667849,1267
0.285280358536,1286
0.285503150684,1255
0.28564591798,1287
0.285781099129,1285
0.285914607739,1288
0.285921415489,1264
0.286010558064,1289
0.286292719068,1290
0.286428985899,1291
0.286585888345,1283
0.286647737869,1282
0.286707542198,1292
0.286800840183,1294
0.287194167464,1293
0.287381958061,1296
0.287679727876,1297
0.287683559833,1298
0.287742515797,1299
0.287802068163,1300
0.287941023433,1302
0.28811953262,1295
0.28865487479,1305
0.288974264223,1306
0.289427048249,1310
0.289503008615,1304
0.289993857876,1301
0.290013175082,1312
0.290048463035,1314
0.290230626923,1307
0.29027438066,1317
0.290274809896,1318
0.290300353828,1319
0.290329293062,1320
0.290429446766,1303
0.290515157816,1309
0.290669117945,1313
0.290770595409,1321
0.291246284012,1316
0.291608057544,1323
0.291731472905,1324
0.291875886247,1325
0.292064739228,1322
0.292112035537,1326
0.292328546856,1327
0.292953942304,1315
0.293138648122,1328
0.293210051526,1329
0.294214219605,1334
0.294348541604,1335
0.294460302407,1330
0.294471954009,1332
0.294941390383,1338
0.295399193604,1333
0.295717773908,1331
0.296083444908,1341
0.297093707339,1336
0.297126639707,1342
0.297641093447,1344
0.298093697877,1343
0.298098452758,1347
0.298190204687,1340
0.298252580374,1345
0.299020984624,1311
0.299080449395,1348
0.299093421481,1346
0.299118651582,1352
0.299350784616,1349
0.299408156858,1354
0.299513834846,1353
0.299821030598,1339
0.300004232932,1355
0.300141380933,1308
0.300800483589,1357
0.301097110437,1359
0.301733873025,1362
0.301763064156,1363
0.302264672526,1360
0.302896290349,1365
0.302967956968,1364
0.303324017112,1368
0.303389193933,1358
0.303572789346,1361
0.303602424839,1369
0.304177098735,1371
0.304193149541,1366
0.304269108432,1367
0.304576690524,1356
0.304951684018,1374
0.304991709722,1375
0.305068328543,1370
0.305114408853,1376
0.305192224632,1377
0.305347727356,1373
0.305420886783,1372
0.305528834526,1380
0.305611926072,1379
0.306032206802,1337
0.30624528973,1378
0.306419139219,1381
0.306616740292,1383
0.306977472866,1382
0.306980343982,1386
0.307025085426,1387
0.307183227497,1388
0.307476290042,1389
0.307485652538,1390
0.307492617438,1385
0.307608713858,1391
0.30766328396,1392
0.307755269829,1351
0.308025879656,1395
0.308455111079,1396
0.308482255963,1397
0.30895783273,1398
0.308980790448,1399
0.308980913647,1400
0.308983673523,1401
0.309104022406,1402
0.309223568697,1403
0.309344361842,1384
0.309659427519,1404
0.309970630966,1394
0.310008942316,1406
0.310049310212,1407
0.310362820572,1408
0.310379038895,1409
0.310581444106,1410
0.310613448082,1393
0.310736088732,1411
0.310772487684,1350
0.311396082209,1413
0.311569841129,1414
0.311572733488,1415
0.311587196971,1412
0.312287987555,1416
0.312347097665,1417
0.312411603578,1405
0.312827371954,1418
0.313355777594,1419
0.313602639046,1420
0.313832123267,1421
0.31399177434,1422
0.314419787175,1424
0.314891117222,1423
0.314967790109,1425
0.315535783043,1426
0.315760867052,1427
0.315935519848,1429
0.315979967208,1430
0.316048859431,1431
0.316545574526,1432
0.316708831678,1433
0.316772004821,1434
0.316857691239,1428
0.317490755547,1435
0.317532123144,1436
0.317559479014,1438
0.317941141091,1439
0.318141477592,1440
0.318152486645,1441
0.318411923193,1443
0.318632381911,1444
0.319200826589,1448
0.319538390868,1450
0.319542139648,1446
0.320003643398,1451
0.320180700443,1453
0.320736203871,1454
0.320887295956,1437
0.320948226063,1445
0.321010908093,1456
0.321186713551,1442
0.321361300625,1455
0.321842933892,1452
0.322221633495,1460
0.322582485716,1461
0.322798222555,1457
0.322851716728,1462
0.322881456882,1463
0.323737245979,1466
0.32388528584,1449
0.324220414786,1465
0.32437731544,1469
0.324742383759,1464
0.324783986365,1468
0.324927806718,1470
0.325184189375,1459
0.325900439775,1477
0.325908410485,1478
0.325949705589,1474
0.326303331564,1481
0.326360010725,1479
0.326477311558,1458
0.326607822829,1475
0.327444872391,1482
0.328020506849,1483
0.328050216605,1476
0.328246853335,1484
0.328325504696,1473
0.328379046196,1485
0.329291974492,1488
0.329358797535,1489
0.32993615901,1491
0.330103961974,1467
0.330383094633,1493
0.330740098008,1494
0.331319843167,1471
0.331474187696,1472
0.331632757579,1490
0.331776113345,1495
0.331931145786,1487
0.33205313922,1496
0.332160046822,1447
0.332438400409,1500
0.332473786878,1499
0.332770647679,1492
0.333082882421,1501
0.333172686997,1502
0.333657140133,1498
0.33408275233,1486
0.334222848845,1497
0.334470293117,1505
0.334639329175,1507
0.334809179181,1508
0.334845681048,1503
0.334965821061,1509
0.335087475555,1512
0.335416269262,1511
0.33574480003,1513
0.336152202358,1515
0.336251379661,1516
0.336340623302,1514
0.33635347652,1517
0.336404658201,1518
0.336700315769,1506
0.336865990772,1510
0.33693170937,1519
0.337042821136,1520
0.337142577531,1504
0.337798122515,1524
0.337818988494,1525
0.33787358107,1526
0.33789158197,1527
0.338126647272,1528
0.338777341673,1529
0.338791766636,1530
0.339121288881,1533
0.339126011199,1534
0.339494033042,1521
0.33958251437,1531
0.339627522896,1480
0.339635772552,1532
0.339925859185,1535
0.340201666023,1537
0.340411444802,1538
0.340702196671,1536
0.340855661517,1523
0.341058428227,1539
0.341522635191,1543
0.34152487824,1522
0.341718705939,1542
0.341857254228,1545
0.342104434837,1540
0.342206058867,1544
0.34258701747,1546
0.342780637902,1541
0.34313783967,1547
0.343310839805,1548
0.344204418225,1549
0.344520490552,1550
0.344791970055,1551
0.344851103054,1552
0.344955911361,1553
0.34542038088,1554
0.346296810791,1556
0.347131911673,1558
0.347372133566,1560
0.347655880911,1561
0.347743306618,1555
0.348232802087,1563
0.348407460389,1559
0.348511819199,1564
0.34864564278,1557
0.348774962204,1565
0.350102542383,1567
0.350329121314,1568
0.350396333904,1569
0.350746125409,1570
0.350919941049,1562
0.350955402815,1571
0.351229556928,1573
0.351528478029,1575
0.351546199156,1576
0.351552874584,1574
0.351614303639,1577
0.351990767079,1581
0.352014357446,1580
0.352242213423,1582
0.352300676615,1579
0.352432468078,1578
0.352525260434,1583
0.352660520362,1572
0.352851154269,1584
0.352961105807,1585
0.353169803455,1587
0.353372918193,1588
0.353443343825,1586
0.353451341957,1589
0.353891225707,1591
0.353950809195,1592
0.354238455338,1593
0.354312853176,1594
0.354521518191,1596
0.354592786205,1590
0.354664439048,1597
0.354913785608,1599
0.355377793433,1602
0.355642625689,1604
0.355717020788,1605
0.356359133926,1607
0.356531746189,1608
0.35664428033,1595
0.356650891371,1601
0.356737061897,1566
0.35676763632,1609
0.357017674088,1598
0.357098648412,1611
0.357220210136,1612
0.357553788257,1613
0.357873617623,1600
0.357978829618,1614
0.358541989928,1620
0.358552105204,1617
0.358580338126,1618
0.358603522725,1619
0.358719326754,1621
0.358902373598,1616
0.358950829063,1606
0.359011312726,1622
0.359036435863,1623
0.359379163372,1625
0.359457384089,1626
0.359570789468,1603
0.359771639192,1627
0.360078750242,1630
0.360432342201,1610
0.360730817701,1628
0.360745005066,1629
0.361289908136,1632
0.361530888922,1634
0.361768932074,1615
0.361868788125,1633
0.362192190998,1635
0.362370624374,1631
0.36249183441,1624
0.362559654647,1636
0.36287819512,1637
0.363114992382,1639
0.363129104824,1638
0.363252713256,1640
0.363627112075,1642
0.363670721669,1641
0.363760898243,1643
0.364004808473,1645
0.364084890458,1646
0.36408936285,1647
0.364130946094,1644
0.36437685552,1648
0.36466648363,1649
0.364731529585,1650
0.364975965137,1651
0.36501016272,1652
0.365211702539,1653
0.365796090715,1654
0.366171371981,1655
0.366632683624,1656
0.367025011659,1657
0.36810442666,1659
0.368129594429,1658
0.368369850073,1660
0.368386566859,1661
0.368576835579,1663
0.368719300126,1662
0.368799065708,1664
0.369285312453,1665
0.369372938824,1666
0.37002131003,1668
0.370088729353,1669
0.370225651134,1667
0.370700881476,1672
0.370930388101,1671
0.371197931977,1674
0.371298969129,1670
0.371624636555,1676
0.371915696482,1677
0.372054366734,1678
0.372488526432,1679
0.373003316709,1680
0.373492912362,1682
0.373497597483,1681
0.373679056168,1675
0.374061458983,1684
0.374418665727,1687
0.374718355778,1683
0.375014281505,1690
0.375016658305,1691
0.37534947032,1689
0.375529616046,1693
0.375554035286,1692
0.375726672627,1688
0.375775497152,1694
0.37589194516,1686
0.375926859073,1685
0.375985229161,1696
0.376068548242,1697
0.376160673119,1698
0.376181235849,1699
0.376461955514,1695
0.377053908581,1702
0.377095965088,1673
0.377362649248,1704
0.377976705625,1701
0.377982298261,1700
0.378036351364,1706
0.378190351556,1707
0.378195234469,1709
0.37819990784,1703
0.378218878745,1708
0.378379066409,1705
0.378888031607,1713
0.378954143784,1715
0.379160367011,1714
0.379219399161,1716
0.379332673222,1717
0.379558298519,1719
0.379594552079,1720
0.379640954001,1721
0.379690972027,1722
0.379806547164,1718
0.380038029473,1724
0.380255151175,1726
0.380363025345,1727
0.380404849125,1725
0.380846068152,1729
0.381553543935,1731
0.381577572499,1732
0.381616578968,1733
0.38229775112,1730
0.382582198073,1735
0.382630968196,1728
0.382647760593,1736
0.382648246989,1737
0.382758966681,1739
0.38290867564,1740
0.382942340823,1741
0.382957614805,1742
0.38334742364,1744
0.383707770654,1746
0.383783318324,1747
0.384007037867,1749
0.384068321592,1748
0.384087233711,1712
0.384263520081,1750
0.384391011259,1723
0.384594537966,1752
0.384770628393,1754
0.384773763088,1745
0.385020678429,1753
0.385054409076,1757
0.385488132105,1755
0.385803825722,1759
0.386031126666,1756
0.386041607502,1758
0.386121788744,1760
0.386365233641,1761
0.386656049054,1763
0.386769384952,1762
0.387215240815,1734
0.387940554272,1766
0.388192145786,1767
0.388354846557,1751
0.388598403095,1770
0.388613840011,1771
0.388683605695,1772
0.388798599172,1764
0.388820813039,1773
0.388851438212,1774
0.38895490975,1775
0.389373246393,1743
0.389608337276,1768
0.389701884428,1769
0.390033066297,1777
0.390087924772,1776
0.390259182153,1778
0.390268552063,1779
0.390380099945,1781
0.390441839516,1780
0.390567369382,1782
0.390980813009,1711
0.390984389646,1784
0.391074254341,1785
0.391079585686,1786
0.391274393242,1789
0.391332002324,1790
0.391372572914,1787
0.391896345031,1794
0.392421903424,1710
0.3924515876,1793
0.392487814768,1791
0.392876834599,1792
0.392920237415,1798
0.393152277204,1799
0.393160370606,1797
0.393684365911,1800
0.393823783102,1801
0.393968459187,1765
0.395009841908,1803
0.395115145476,1804
0.395234912708,1807
0.395401490226,1796
0.395498412412,1808
0.396431980893,1795
0.396739863228,1809
0.396861551678,1810
0.398101289892,1802
0.398247517596,1783
0.398398882202,1814
0.398870147401,1816
0.399197824088,1818
0.399456894545,1738
0.39957968068,1817
0.399658601207,1811
0.399842267131,1821
0.399936696111,1820
0.400019479282,1822
0.400057502557,1815
0.400255187132,1823
0.400671874251,1824
0.401017940467,1825
0.401125057438,1806
0.401321879852,1819
0.401883543027,1827
0.402098232866,1788
0.402493185691,1805
0.402504117698,1830
0.402662020111,1829
0.40292739413,1833
0.402999983899,1835
0.403434887111,1836
0.403460179691,1832
0.403478125691,1837
0.403640593778,1813
0.403802370916,1838
0.404207899781,1834
0.404313602551,1839
0.404381957753,1831
0.404421490307,1840
0.404543537647,1828
0.404702254025,1841
0.404906434848,1842
0.405005711244,1844
0.405397517947,1843
0.405821879952,1845
0.406561964856,1847
0.406685177638,1848
0.406728060547,1849
0.406749956798,1850
0.406829788433,1846
0.406899166093,1851
0.40733007491,1854
0.407442368917,1856
0.407550964827,1857
0.407667804194,1853
0.407889814907,1858
0.408060077195,1859
0.408250298904,1860
0.408468870354,1862
0.408702897158,1826
0.409063772458,1864
0.409324429963,1866
0.409419106027,1867
0.40947574012,1855
0.409514099641,1861
0.409525766696,1868
0.409565085005,1869
0.409786094208,1852
0.410073451624,1871
0.410537855388,1872
0.410576176091,1873
0.410913602394,1874
0.410917156111,1863
0.411277902728,1875
0.411308044954,1812
0.411504967634,1865
0.411714288993,1876
0.411750124325,1877
0.412500225094,1878
0.41279730257,1880
0.41298357954,1879
0.413116507581,1882
0.413468691685,1884
0.413490587246,1870
0.413636918473,1885
0.414218083697,1883
0.41443065194,1886
0.4146800959,1887
0.414778904386,1888
0.414809878223,1889
0.41503542355,1891
0.415323601912,1890
0.415464036218,1892
0.415484083305,1893
0.415659351792,1894
0.416309496953,1896
0.416320545658,1895
0.416816450279,1897
0.417232114168,1881
0.417254074399,1898
0.417370745749,1899
0.417799111733,1900
0.418404931527,1902
0.41848793048,1903
0.41849105248,1904
0.418706995049,1905
0.418845911932,1906
0.419282152198,1907
0.419374371034,1908
0.419496495262,1901
0.42047606476,1909
0.420527860543,1910
0.420547106217,1911
0.420770594705,1912
0.421450908569,1913
0.422514810952,1914
0.423066793666,1916
0.423182109471,1917
0.423312123942,1918
0.423379112911,1919
0.423679781084,1921
0.424215603608,1915
0.424250223741,1927
0.424295552054,1928
0.424609627739,1930
0.424624243811,1924
0.425464153703,1932
0.425563616074,1931
0.425693053322,1929
0.42589073994,1922
0.426172849146,1933
0.426537342026,1934
0.427280557981,1926
0.427741664736,1937
0.427741904734,1938
0.427904415673,1940
0.428195138474,1941
0.428671570463,1943
0.428710011975,1944
0.428782062735,1945
0.428900277648,1923
0.429201922961,1939
0.429665119909,1947
0.429683964045,1948
0.429847797563,1935
0.430052889696,1949
0.430102966674,1950
0.43015330125,1951
0.430170575893,1952
0.430432820124,1954
0.430454986856,1955
0.430591940999,1956
0.430761951194,1957
0.431013471742,1960
0.431154669927,1962
0.431172175458,1963
0.431271005648,1953
0.431382790208,1965
0.431476454943,1966
0.431609458267,1958
0.431629269082,1967
0.431810096076,1968
0.43182324872,1969
0.431923912106,1942
0.431959420035,1971
0.432159204234,1970
0.432218435815,1946
0.432296249084,1972
0.433029905463,1974
0.433048820646,1936
0.433157746693,1975
0.433639929042,1973
0.433696199977,1977
0.433735237784,1959
0.434177698187,1964
0.434519563763,1981
0.434631428539,1982
0.435047921065,1979
0.435245043503,1983
0.43567509783,1980
0.436178086558,1984
0.436291344653,1986
0.436399558796,1976
0.436706137544,1985
0.437372265742,1987
0.438005595232,1978
0.438275469369,1988
0.43836813644,1989
0.438465031353,1920
0.439030762393,1992
0.43913219606,1993
0.439468597104,1991
0.439831251228,1925
0.43988779415,1996
0.440095190347,1994
0.440798116246,1999
0.441117236628,2000
0.441339241043,2001
0.441400150929,1998
0.44157250202,2003
0.44181903045,2005
0.44245134514,2007
0.442768459445,2008
0.442850396967,2004
0.442963312998,2006
0.443704491841,2009
0.443828880655,1961
0.443872610447,2010
0.443982723572,2002
0.444021307851,1995
0.44415297665,2012
0.444382815208,2014
0.444388804464,2011
0.44441961143,2015
0.444539971681,2016
0.444613892956,2017
0.445130510913,2021
0.445322745899,1990
0.445364002444,2018
0.445392234864,2020
0.445539425526,2022
0.445736252403,1997
0.44646551387,2019
0.446666772841,2023
0.446987551629,2024
0.447197013874,2013
0.447200288834,2025
0.447338687808,2026
0.447444702254,2027
0.447689279502,2028
0.447998275418,2029
0.448337725552,2030
0.448452564488,2031
0.448528328102,2032
0.448569227205,2033
0.449441262057,2034
0.449660689238,2035
0.449886616136,2036
0.450471555469,2038
0.450483029628,2039
0.450858932413,2040
0.451003923838,2037
0.451205728606,2042
0.451315045998,2043
0.451332568988,2041
0.451505741991,2044
0.451768276309,2045
0.45225433129,2048
0.452524756757,2046
0.452632431872,2050
0.452839597981,2051
0.453131328358,2053
0.453135927329,2047
0.453935427852,2049
0.453936509133,2054
0.454283549686,2057
0.454371144362,2052
0.45447870521,2059
0.454575771027,2060
0.455057005747,2056
0.455118122306,2055
0.455339989244,2061
0.455477102662,2062
0.455538127692,2063
0.455642488714,2064
0.455660727036,2065
0.456390925848,2058
0.456548763079,2066
0.456628407919,2067
0.457093722445,2069
0.457440293301,2068
0.45810710368,2070
0.458722946574,2071
0.458858959348,2072
0.459283090915,2073
0.459401962247,2074
0.459914936955,2077
0.4600452287,2079
0.460208855468,2076
0.460277833928,2080
0.460300223568,2081
0.460913579549,2082
0.460960730016,2083
0.460988079427,2084
0.460998385207,2078
0.461341788019,2085
0.462320220826,2090
0.462513819016,2075
0.463207213462,2094
0.46325550535,2095
0.463581319467,2097
0.463828194919,2093
0.464034773669,2098
0.464359077147,2100
0.465151708035,2105
0.465271366196,2103
0.465346878383,2106
0.465769067951,2104
0.465834109138,2107
0.467066259343,2111
0.467311682283,2113
0.467383054174,2112
0.467392700483,2109
0.467506689729,2115
0.467543875943,2110
0.467574825298,2101
0.467634148891,2116
0.468355418924,2096
0.468433136278,2117
0.468456581451,2088
0.468564480746,2119
0.468697572152,2118
0.468759006033,2122
0.46880184363,2086
0.468887325233,2123
0.468971766939,2124
0.468987697033,2114
0.469290449824,2087
0.469663055354,2121
0.46998961771,2127
0.470075758285,2091
0.470205598483,2130
0.470276214616,2128
0.470356666959,2132
0.470504422542,2133
0.470662665971,2134
0.470846123205,2108
0.470976932695,2120
0.471137810032,2129
0.47122661175,2137
0.471319022801,2125
0.471363480932,2138
0.471673724707,2140
0.471726029349,2141
0.471738390229,2099
0.472257136259,2143
0.472527447404,2144
0.472688942415,2145
0.472736886796,2102
0.47283997686,2139
0.472960270536,2126
0.473118734919,2131
0.473776462436,2147
0.473891616662,2092
0.474053296455,2150
0.47411176241,2151
0.474377148854,2153
0.474385942896,2152
0.474405298356,2154
0.474409328278,2149
0.474441488766,2136
0.474494648713,2155
0.474591804778,2089
0.474889352169,2157
0.474914119326,2146
0.475092275505,2156
0.475413375801,2142
0.475505624747,2159
0.47579014547,2160
0.476163222733,2148
0.476392120965,2163
0.476510867005,2161
0.476573453822,2135
0.477138054191,2164
0.477181872948,2165
0.477197898047,2166
0.477308356055,2168
0.477431957162,2167
0.47743265728,2170
0.477477428525,2158
0.477540556371,2169
0.477885594109,2162
0.478140837432,2171
0.478532565602,2172
0.479077359118,2174
0.479295472429,2173
0.479790906733,2175
0.480084994438,2176
0.480119720998,2177
0.480316862289,2180
0.480585474553,2183
0.480684633087,2184
0.481086123703,2185
0.481222952824,2186
0.481428776035,2178
0.481490942975,2187
0.481779317535,2179
0.481935841845,2188
0.48203676829,2181
0.482266650853,2189
0.482431572759,2190
0.482469478581,2191
0.482609781634,2192
0.482661523746,2193
0.483515871479,2197
0.483604830254,2194
0.483824022369,2198
0.48387448221,2182
0.483958388637,2195
0.484366313831,2199
0.48447121047,2200
0.485058413555,2201
0.485265391028,2196
0.485577760764,2204
0.485695326063,2203
0.485907261414,2202
0.485974951673,2205
0.486102533737,2206
0.48619527339,2207
0.48651245874,2209
0.486528551012,2210
0.486876491989,2211
0.487745497601,2214
0.48787200333,2212
0.487883344003,2215
0.488675804634,2208
0.488921707037,2213
0.489045318878,2217
0.48913552163,2216
0.489243520467,2219
0.489855852032,2218
0.48990358291,2220
0.491743150174,2222
0.491773048023,2223
0.491875518934,2225
0.492194466516,2224
0.492356642516,2226
0.49237626951,2227
0.49240319207,2228
0.492528503437,2230
0.492648997741,2221
0.493822678997,2232
0.494015122567,2233
0.494016547779,2234
0.494160241417,2229
0.494653014764,2238
0.494750435243,2237
0.495236283434,2236
0.495368720572,2235
0.495450059241,2239
0.495822086414,2240
0.496019353823,2231
0.496817552387,2241
0.497756107364,2242
0.499182527265,2243
0.499352957938,2245
0.499363440027,2246
0.499429497879,2247
0.499626150737,2248
0.500152825378,2249
0.500420702622,2251
0.500771330033,2252
0.501717753458,2254
0.501780489604,2256
0.502214600696,2255
0.502474776942,2250
0.502560258832,2258
0.502931274146,2259
0.50301489278,2253
0.503059850508,2260
0.50328861403,2262
0.503567685071,2264
0.503663652891,2265
0.503801143486,2266
0.504112861525,2269
0.504477776284,2268
0.504588746968,2270
0.504740530512,2271
0.505396760306,2275
0.505813083504,2257
0.506159376546,2277
0.506208025872,2263
0.506225522703,2274
0.506607553877,2279
0.507076183894,2276
0.507113497874,2261
0.507254953469,2278
0.507625213172,2280
0.507638544309,2273
0.507661106237,2281
0.508022201629,2282
0.508562740937,2284
0.50867450161,2283
0.508940032445,2287
0.508957812463,2288
0.508959125918,2285
0.509148373959,2289
0.509271918433,2286
0.509434462798,2267
0.509924260081,2290
0.510291023535,2291
0.51039365249,2272
0.510613017437,2244
0.511113966176,2293
0.511140441521,2292
0.511511158481,2295
0.511527887737,2294
0.511807153273,2296
0.513013614768,2297
0.513953137465,2298
0.514834356098,2301
0.514907254882,2300
0.515477302256,2303
0.515605236312,2302
0.516044607875,2306
0.516081562294,2305
0.51626692695,2308
0.516581430229,2309
0.51685255303,2307
0.516880052835,2310
0.517447785724,2304
0.51752430433,2312
0.517602777307,2313
0.517692660296,2311
0.51829874155,2315
0.518457036422,2316
0.518538145698,2317
0.518965641736,2314
0.519050284284,2319
0.519075797294,2320
0.519080717124,2321
0.519108961857,2322
0.519147028641,2323
0.519486268389,2318
0.519748674604,2324
0.520079075706,2326
0.52034729866,2328
0.521332244028,2331
0.52149784484,2327
0.521695628846,2332
0.522133755038,2330
0.5223836908,2335
0.522395991391,2333
0.522523884461,2334
0.522747595204,2336
0.522798867109,2337
0.522897733189,2338
0.523169271767,2339
0.523194749813,2299
0.523196669388,2340
0.52320239313,2341
0.523793206503,2342
0.523795360027,2329
0.523811693662,2343
0.52383056324,2325
0.52428427747,2344
0.524840364451,2345
0.524969536819,2346
0.525024783864,2347
0.525487944481,2348
0.525886973523,2350
0.526198457146,2352
0.526244825441,2353
0.526401255529,2351
0.526413213908,2349
0.526640429536,2355
0.52691518708,2356
0.527184737708,2354
0.527293197569,2357
0.528309880572,2361
0.528332111998,2360
0.528447314879,2359
0.528603963394,2358
0.52882498943,2362
0.529288439105,2364
0.52944693912,2365
0.529455531842,2366
0.529911005819,2369
0.529950360994,2363
0.529966882334,2370
0.529987988445,2371
0.530635134377,2376
0.5321200347,2379
0.532531294528,2373
0.532592920755,2378
0.532673152602,2382
0.532717413322,2368
0.532717533321,2372
0.532759458412,2375
0.532798036047,2377
0.533430926707,2374
0.533452677875,2383
0.533561145588,2367
0.533875231639,2381
0.534493780077,2380
0.534500017117,2386
0.535009148165,2385
0.535216807751,2384
0.535420423312,2389
0.535532766442,2391
0.535715431577,2387
0.535872230734,2390
0.535925622374,2392
0.536063734046,2393
0.536260574273,2394
0.536433980722,2388
0.537140931638,2395
0.53749162479,2396
0.538116175359,2397
0.538897181176,2399
0.539215907442,2398
0.539418560521,2400
0.539901427159,2402
0.539955496362,2403
0.540075247556,2401
0.54051060353,2406
0.540628586124,2408
0.540917577648,2410
0.540960426521,2411
0.541238653821,2412
0.541642731289,2407
0.542313585847,2409
0.542779566069,2416
0.543142383031,2417
0.543153091628,2405
0.543682233389,2415
0.543766981553,2404
0.543802098245,2420
0.54408323614,2422
0.544183620248,2423
0.544224809043,2424
0.544270653936,2413
0.544506292459,2425
0.544617134588,2426
0.545091140092,2421
0.545156608315,2428
0.545382429088,2419
0.546438381169,2431
0.546468653425,2432
0.546570411189,2430
0.546604962838,2427
0.546947337183,2433
0.548626255825,2438
0.548746019794,2439
0.548969979384,2435
0.549140190628,2440
0.549153704775,2441
0.549426126256,2442
0.549892615573,2443
0.549900586554,2444
0.54992449766,2445
0.550192721895,2447
0.550269069026,2448
0.550550363398,2449
0.550928451287,2450
0.550930463952,2429
0.551254983742,2451
0.551280512567,2446
0.551585512641,2452
0.551641475026,2453
0.551950383378,2456
0.552254927358,2455
0.55245502096,2459
0.552610502921,2457
0.553048928687,2460
0.553193244899,2436
0.553537293476,2461
0.553864676341,2458
0.554107516308,2437
0.554223130272,2464
0.554341078268,2465
0.554485012198,2462
0.554924523107,2467
0.555442736853,2468
0.555612095518,2454
0.555926913751,2414
0.556373517405,2469
0.556825896696,2418
0.556887624702,2470
0.558212230706,2463
0.558570493948,2471
0.558668521596,2473
0.559068004294,2474
0.559475086736,2475
0.559617361506,2434
0.559772267523,2472
0.559801593496,2478
0.559806211777,2476
0.559904059275,2477
0.559990948638,2466
0.560152908656,2479
0.560743656895,2480
0.561023976905,2481
0.561337328035,2482
0.561458800552,2483
0.562090311652,2484
0.562352193221,2485
0.563073984486,2486
0.56321008003,2487
0.56388098575,2489
0.564328331189,2488
0.564493753918,2490
0.564770638,2491
0.564920559447,2492
0.565917358845,2493
0.566908626191,2494
0.567101181852,2496
0.567663632139,2497
0.567980395647,2498
0.568291005276,2499
0.568493416201,2500
0.568782851172,2501
0.568926257752,2504
0.569207592591,2507
0.569282524929,2506
0.569364264072,2508
0.569567315881,2509
0.56972006011,2511
0.569734008862,2512
0.570091922426,2505
0.570210604552,2513
0.570243159403,2514
0.570290369627,2515
0.571154125546,2517
0.571272641192,2495
0.571357009406,2518
0.571406694263,2516
0.571814502812,2510
0.571872442238,2519
0.571945534712,2520
0.571970155268,2521
0.572002095312,2502
0.572562451492,2523
0.573220123376,2522
0.573518575569,2524
0.573908411029,2525
0.57431926039,2503
0.574402740194,2526
0.575349159596,2527
0.575376913767,2528
0.575399933076,2529
0.575471576546,2530
0.575965132682,2532
0.576055461188,2534
0.576069277346,2535
0.576183037129,2536
0.576274656892,2531
0.576618448768,2537
0.576675904505,2533
0.577109766085,2540
0.577124116651,2541
0.577992784645,2543
0.578099309526,2542
0.578215893417,2544
0.578276810999,2538
0.578342189282,2546
0.579276242695,2545
0.57937614214,2548
0.580565465068,2549
0.580751781554,2550
0.580810505762,2551
0.580871548329,2552
0.581200199219,2553
0.581473007824,2539
0.581562544884,2554
0.581810481408,2555
0.581859356765,2547
0.582044955197,2556
0.582054948182,2557
0.582254334735,2558
0.582449984951,2559
0.582602369447,2561
0.582682144537,2560
0.582816894992,2562
0.582826026162,2563
0.583198155396,2564
0.583219900161,2566
0.584026272355,2568
0.584454637954,2570
0.584622576925,2571
0.584835232072,2572
0.584850939113,2573
0.584973099428,2574
0.585381625447,2567
0.585569242155,2575
0.585756437135,2576
0.585822480647,2577
0.586835714512,2579
0.586839921805,2581
0.587072286193,2569
0.587652587139,2578
0.587699063862,2583
0.5882614067,2584
0.588374422809,2585
0.588719037607,2587
0.588735504083,2588
0.589033574019,2589
0.589405118624,2565
0.589446667704,2586
0.589860539105,2582
0.590064634845,2591
0.590302959292,2592
0.590628491329,2590
0.591038750434,2593
0.591155162782,2594
0.591667579873,2597
0.591931209323,2598
0.59193565393,2599
0.592004297185,2600
0.592208574224,2596
0.592494661156,2601
0.592852767099,2602
0.592863038199,2595
0.592928468198,2580
0.593280654161,2603
0.593323384486,2604
0.593526011865,2605
0.59436640977,2607
0.594454478253,2608
0.594823619203,2609
0.595299829047,2610
0.595585036827,2606
0.596293691911,2615
0.596311117002,2614
0.596574528318,2612
0.596720984483,2616
0.597445494313,2611
0.597928275062,2613
0.598057041065,2617
0.598336039755,2618
0.599118067562,2619
0.599486561726,2620
0.599892316294,2621
0.600093872874,2622
0.600230719023,2623
0.600263501521,2624
0.600422843955,2625
0.600467063583,2626
0.600650066527,2627
0.600864004284,2628
0.601050819833,2629
0.601161747191,2631
0.601281912823,2633
0.601381755615,2632
0.601399040186,2634
0.601678579881,2635
0.602109216388,2637
0.602154195,2636
0.602180986873,2638
0.602735835845,2630
0.602912473461,2639
0.603252775623,2641
0.6033086129,2640
0.603766479985,2643
0.603922026256,2646
0.604144913251,2648
0.604202638497,2650
0.604362184154,2651
0.604500874084,2647
0.60471467899,2653
0.604790008294,2654
0.605127057025,2655
0.605497831952,2657
0.605713264291,2658
0.605791121544,2656
0.605994873637,2660
0.606012482493,2645
0.606027972436,2644
0.606263415082,2662
0.606480277384,2663
0.606756719365,2664
0.60696961122,2659
0.60733183545,2642
0.607628461798,2666
0.607659657469,2667
0.607660295622,2668
0.607739282072,2669
0.60833697603,2670
0.60857706623,2649
0.609634320465,2671
0.609659514921,2672
0.609664482071,2665
0.610149144208,2673
0.61024842733,2674
0.610868624477,2652
0.610958407994,2675
0.611260686539,2676
0.611318958126,2661
0.611442648733,2677
0.611909660315,2678
0.611929045604,2679
0.612371692345,2680
0.612404680897,2681
0.612771560226,2682
0.612879392345,2683
0.612994819498,2684
0.613606181045,2685
0.614202093189,2686
0.614421039998,2687
0.614532049615,2688
0.61479664767,2689
0.615917551167,2692
0.616186505646,2691
0.616188190638,2695
0.616218089832,2696
0.616369680245,2693
0.616508932301,2697
0.616911430942,2698
0.616921521823,2690
0.617015175579,2699
0.617089170973,2700
0.617178548051,2701
0.617317538136,2703
0.617498867946,2706
0.61754204201,2704
0.617566919796,2705
0.61778972188,2708
0.617805183628,2709
0.617863778517,2710
0.617947173987,2711
0.618192018687,2702
0.618453730484,2714
0.618588409223,2715
0.618804263907,2713
0.618895921829,2712
0.619072062228,2716
0.619490470489,2719
0.619807566451,2720
0.620064833491,2717
0.620228565064,2723
0.620398758791,2724
0.620480347029,2718
0.620768876222,2726
0.620847118645,2721
0.620915258254,2727
0.62130462348,2729
0.621482696903,2725
0.621917302588,2732
0.622258712069,2730
0.62235697014,2733
0.623227714312,2737
0.623619173468,2742
0.623809467722,2743
0.623935777694,2735
0.624043286258,2744
0.624213855474,2746
0.624222676992,2747
0.624355909102,2748
0.624538268297,2749
0.62460621092,2739
0.625022736654,2751
0.625100117341,2694
0.625144008411,2752
0.625273220127,2722
0.625401635505,2734
0.625418966762,2753
0.625549511551,2755
0.625819689691,2707
0.626029222483,2758
0.626567198557,2759
0.626583997248,2756
0.626617792375,2760
0.626631421061,2728
0.626705795132,2741
0.626706648366,2761
0.627097791162,2762
0.627213029956,2731
0.627428753552,2763
0.627641041771,2764
0.6277009163,2736
0.627842080635,2765
0.628161667535,2767
0.628415236764,2754
0.628949959964,2771
0.628958245732,2768
0.629043408477,2770
0.629393789062,2772
0.629488922592,2773
0.629526194344,2774
0.630304278839,2776
0.630350409609,2769
0.630793404085,2775
0.631025721967,2777
0.631609224926,2757
0.631719372812,2781
0.631957927783,2782
0.632006649404,2783
0.632248233096,2766
0.632720551172,2786
0.633001651983,2780
0.633180326372,2738
0.633638033088,2787
0.633649463465,2788
0.633784874703,2789
0.633870003184,2784
0.63390059107,2778
0.634077958152,2779
0.634121326689,2750
0.634327574921,2745
0.634595436242,2785
0.635139567304,2794
0.635291403086,2793
0.635300940964,2795
0.63540226995,2797
0.63606785492,2800
0.636070243435,2801
0.636146478034,2802
0.636156272764,2803
0.636541119024,2791
0.636772657876,2805
0.636934367291,2806
0.637110472031,2804
0.637437168659,2807
0.638260658642,2790
0.638657088017,2808
0.638687800577,2799
0.638692447825,2798
0.639686421231,2811
0.639745105104,2809
0.640095867508,2814
0.640407934635,2815
0.64053395255,2796
0.640651814284,2816
0.640670697035,2812
0.640778936387,2813
0.64083579065,2818
0.640849154426,2819
0.641004545827,2820
0.641293640347,2822
0.641741562337,2825
0.642282557035,2821
0.642693235999,2824
0.642758607317,2827
0.643013381518,2828
0.643126663488,2829
0.643732364543,2836
0.64413429129,2792
0.644353053253,2837
0.644450294516,2838
0.644459087714,2839
0.644916970478,2840
0.644986539998,2740
0.645291725907,2842
0.645422413733,2843
0.645647572207,2823
0.645805453575,2833
0.645817363511,2844
0.645864578975,2845
0.646158741515,2846
0.646414294552,2847
0.64643289974,2848
0.647256228815,2852
0.647262361814,2830
0.647278653744,2851
0.647504760967,2853
0.647911473834,2854
0.648218324767,2855
0.648268611484,2856
0.648326209552,2857
0.648841442035,2860
0.649128947674,2861
0.64939943891,2826
0.649515151912,2863
0.649642654652,2831
0.649663279618,2858
0.650318771841,2867
0.650904136137,2841
0.650995732622,2862
0.651408111069,2835
0.651431603943,2849
0.651527052566,2870
0.651762278192,2872
0.652457204183,2865
0.652717885439,2873
0.652991601213,2832
0.653143485325,2874
0.653291528908,2834
0.653534770868,2864
0.653580308562,2876
0.653629256249,2877
0.653761064747,2879
0.653891902542,2866
0.653913890681,2869
0.653927354305,2880
0.653955904298,2881
0.654333461457,2885
0.654716960414,2883
0.654995821039,2888
0.655563964575,2891
0.655568032218,2868
0.655971446272,2887
0.656114362415,2893
0.656194649816,2850
0.656291272561,2892
0.656557832708,2894
0.656982827748,2889
0.656983209784,2895
0.657200150404,2859
0.657487017674,2896
0.65825202342,2898
0.658270283405,2899
0.658958632757,2900
0.659046683964,2875
0.659217465087,2884
0.659544516927,2882
0.659612259505,2890
0.659722492095,2901
0.659807903182,2902
0.659869575938,2871
0.660048213663,2904
0.660526173508,2886
0.660560413446,2905
0.660803429554,2810
0.661369501624,2906
0.661440876773,2907
0.661498188339,2910
0.661574050332,2911
0.662005846486,2914
0.662048764808,2908
0.66240165896,2915
0.662647603681,2909
0.662839102949,2916
0.662915300033,2917
0.663068843731,2918
0.663168016659,2919
0.663219057807,2920
0.663278476985,2878
0.664068312002,2923
0.664075555678,2921
0.664157808822,2817
0.664496716681,2926
0.664628608047,2927
0.664724982437,2912
0.664754306448,2913
0.665108900175,2928
0.665399570024,2929
0.665458416321,2930
0.665560955901,2931
0.665572769818,2925
0.665684176142,2934
0.6657650129,2932
0.666199413009,2903
0.666297785736,2936
0.666424431779,2937
0.666430666939,2922
0.666802633967,2938
0.666890380406,2939
0.666962787667,2940
0.667066706159,2941
0.667531503639,2942
0.667549000023,2944
0.667640533466,2943
0.667668778998,2945
0.667689468621,2946
0.667872524667,2897
0.668174715938,2947
0.668213716333,2948
0.668251488739,2949
0.668279841776,2950
0.668391290639,2951
0.668477514647,2933
0.669097952424,2952
0.669113572264,2953
0.669372073329,2954
0.669579478761,2955
0.669895748538,2956
0.670070339146,2957
0.670150102541,2935
0.670634482022,2958
0.671053248217,2959
0.671057092329,2960
0.671226953321,2961
0.671467262176,2962
0.671497483052,2963
0.671716301492,2965
0.672141251395,2924
0.672240964647,2967
0.672402813303,2966
0.672795154551,2970
0.673566003453,2973
0.674119786214,2975
0.674206771858,2976
0.674273111278,2971
0.674345118544,2977
0.674355351063,2969
0.674533060135,2964
0.674538350798,2978
0.675321706622,2980
0.675791440342,2982
0.676036626879,2968
0.676154828589,2984
0.676602382526,2985
0.676622684029,2983
0.676706163762,2986
0.676809002944,2979
0.677061833834,2987
0.67717265404,2972
0.677426868764,2974
0.67823101855,2989
0.678346941234,2990
0.67843732794,2991
0.678853857444,2981
0.679216858548,2994
0.679319368043,2996
0.679527172542,2993
0.679749608555,2999
0.679854022147,2997
0.681103463194,2988
0.682170227579,2992
0.682641732621,2998
0.683307119229,2995
