time,IdealSim1.flowGenerator3.flowSynSize:vector
0.000055232,36
0.004646324222,803
0.00796552422,1
0.009805124218,6
0.014519924217,4884
0.016568324216,21
0.019358324216,7
0.020635124215,16
0.021477524214,5
0.022492724214,33
0.022799924212,12
0.02339512421,32
0.026115524208,27
0.028670324206,33
0.030337124203,506
0.031145924201,64
0.034053524201,37
0.036179924198,22
0.042037124196,53
0.043167524194,2260
0.043458955694,588
0.044344756194,14
0.044806756193,41
0.047921956193,16
0.049856356191,2
0.050663956189,59
0.053218756187,5026
0.055661956186,510
0.057620356185,36
0.058449556183,18749
0.059525988183,2896
0.061951188183,43
0.063911988182,87
0.065294388181,39
0.06637198818,7
0.067796388179,3999
0.071119188179,14
0.075541188178,1190
0.078898788178,19574
0.082726311858,22
0.083879511855,5
0.084438711855,1349
0.084742311852,52
0.085102311851,774
0.08898071185,626
0.090232343851,5197
0.090685943851,4
0.091828343849,2
0.092019175851,1389
0.09222557585,19
0.095478775849,10
0.095987575848,3
0.099382375847,5
0.102161575845,126
0.102249175844,37
0.104269975844,510
0.105035575844,1917
0.106489975844,36
0.107520775841,2634
0.107653975841,516
0.10802117584,1926
0.108772375839,2862
0.108911857682,57
0.110121457682,14
0.111817057682,3226
0.115358257681,20
0.116652080842,624
0.116689089681,2897
0.117803889681,23
0.11886228968,7
0.120219489678,6584
0.122431089677,595
0.123737889676,6090
0.126072561301,1223
0.137380805842,36
0.137587205842,1
0.137803205842,2026
0.13799178191,2
0.139557546603,1001
0.141423540396,262
0.154188299398,457
0.156369899398,20
0.156925499396,19
0.157142699395,988
0.161982299394,41
0.165387899393,15050
0.174283520319,15
0.174833120318,1262
0.175118602152,5
0.177027956795,4
0.177755475532,41
0.179031841298,44
0.184079593953,5
0.185111593952,20
0.187291993952,3743
0.189970098565,20
0.191686098565,6
0.192418098563,6
0.192732498563,3494
0.199480196624,53
0.203069558715,1
0.204865907692,4
0.209834589256,554
0.214335639773,4137
0.215663784719,15
0.220679187211,18
0.221311587211,3831
0.225001816536,20
0.226687099699,48
0.227958221771,116
0.228392449457,3
0.228565775999,95
0.231709098947,104
0.23248172219,208
0.233529254083,7
0.238972640927,122
0.241063040926,6026
0.250319793437,18
0.257562494873,666
0.26482785977,16
0.266409978061,5
0.270148728153,58
0.272884976692,36
0.279268835473,637
0.281158835472,48
0.282626435471,36
0.28268043547,5712
0.283042800827,66
0.290329568729,3
0.292499553699,1104
0.292520655469,61
0.294081542624,3
0.295536360416,474
0.295982235657,7
0.299310862041,52
0.300894741708,1283
0.31205841535,5457
0.314829849682,2
0.317803063521,118
0.322487943227,66
0.324599943226,2996
0.326868435992,3496
0.32718507729,7
0.328117744073,41
0.329917372207,7
0.33376680678,31
0.334920006779,34
0.336181206778,1482
0.336277206778,3177
0.338944917109,63
0.344837790881,9
0.348850194398,413
0.349041680119,29
0.352028480117,27
0.352239680116,101
0.355318880115,4644
0.355362589751,1006
0.357026575741,336
0.357899303046,6
0.358190903046,840
0.362380576311,615
0.363255376311,3000
0.366274999281,260
0.36649365575,388
0.368008622221,1007
0.369310131621,28
0.370905143802,27
0.373298118532,1089
0.375341447075,18
0.376921663566,28
0.386166975196,1019
0.387629775196,3252
0.387761889778,38
0.391741855453,1
0.394896655453,2961
0.395443701399,472
0.400541301398,6421
0.402306007227,49
0.403483893109,4
0.403512693108,250
0.404579069928,6
0.406925714249,1247
0.41302291304,3
0.41549251304,42
0.418517713038,28
0.419852113037,5690
0.425806977312,109
0.431916628274,35
0.432457828274,31
0.433017028272,16
0.435047428271,5326
0.435938102384,1087
0.443807514738,104
0.444259914738,1144
0.444732714737,3495
0.445931974356,21
0.449427637934,1
0.451235291932,1152
0.451856036041,225
0.456465004253,8
0.464358558178,24
0.467894728093,109
0.469779623508,53
0.470045367101,1
0.475186000627,3053
0.477030968745,727
0.477439537217,28
0.480611872128,45
0.487483531147,258
0.488275531146,3740
0.48844925345,44
0.488826053449,1098
0.489394781495,1
0.4899845399,18
0.496200811577,4736
0.49859853972,1968
0.500735727396,619
0.502132487429,78
0.506670077921,4
0.50852887792,10
0.509311277919,45
0.514365677918,7
0.522229277917,952
0.527271677915,13
0.533065277913,18811
0.535404053357,4886
0.536677856696,650
0.537723386665,44
0.54337290398,3
0.545527844951,16
0.546846213838,1037
0.54965504263,50
0.553837682129,1026
0.554852482005,14
0.560458142357,3
0.566064542356,4430
0.566232021673,744
0.56670615937,52
0.568405216511,6
0.569943083633,10
0.57081666552,1
0.572666410159,33
0.573784325323,2
0.576531346917,5
0.577269183014,2
0.577971669686,51
0.584211739929,17
0.584668653903,5
0.586398854006,20
0.589155254005,2534
0.590792322263,64
0.591465510181,16
0.592232156685,80
0.594348464546,19
0.594522464544,6
0.595356464543,16
0.595807664541,19
0.59623006454,5
0.597404864539,2174
0.598172864538,118
0.598362464536,100
0.602950064535,6556
0.603779559529,37
0.607409559528,89
0.607819959527,30
0.609472359526,1
0.612525159525,20
0.612568359524,16
0.612613959524,6648
0.614817191524,1594
0.614955661808,1346
0.615662461808,783
0.620724057316,1476
0.623451903089,203
0.623981828156,32
0.634179527882,38
0.63699512109,38
0.637496721089,1013
0.638048721088,84
0.639134721087,981
0.640189521086,38
0.640224321085,2605
0.640509382576,7
0.64093758596,29
0.641471215925,3
0.646134881833,8
0.650264694828,6
0.653728014985,2
0.656950014984,5
0.657098814983,5105
0.661633562976,16
0.662285162975,1214
0.663390362974,4115
0.665501054063,221
0.666082144985,2
0.666918544984,754
0.670006269038,88
0.671004554415,424
0.672298051271,1
0.675086584859,6
0.675126256497,4
0.675354538617,20
0.675507996184,29
0.681908796184,97
0.682729596183,19
0.683403996181,6537
0.683831268251,14
0.685852385056,4
0.69137879367,17
0.691489172563,7
0.69556300416,9
0.695788604159,13
0.697276604159,113
0.697431404158,959
0.698103165416,30
0.700590765414,3
0.702610365412,16
0.706979565409,940
0.707380365409,20
0.708233565408,48
0.709378365407,14
0.710470397407,240
0.711713597407,2270
0.712437165404,5177
0.715651891451,8
0.72272589145,1913
0.72387789145,1063
0.724937491449,6676
0.727258291448,3194
0.728801491447,1
0.736782691445,406
0.737122291443,4
0.737478691442,11892
0.738471810066,2
0.739552758795,47
0.74195889383,1611
0.744937957514,168
0.747301256103,1084
0.747632381806,98
0.748906848272,42
0.751991767337,23
0.753647926779,56
0.75849586925,5
0.759500269249,7
0.759655069247,111
0.762583069246,31
0.763040269246,51
0.763573069246,78
0.764787469245,15
0.767399869244,969
0.769715869243,503
0.771489469241,43
0.772465069239,18
0.775847869237,6
0.775861101237,3
0.778979869234,4117
0.780587869233,1095
0.781822669232,30
0.783287869231,14941
0.788935022078,15
0.789903122656,292
0.790477668779,4
0.793090872338,15
0.794577321683,5
0.798373627283,1019
0.800309896995,9
0.805254013943,3
0.809735086309,28
0.810103491855,18
0.811309087476,5
0.819707069497,1429
0.822309342235,7
0.823110053707,13
0.828304906529,344
0.830606506528,107
0.830762506526,4811
0.831929479694,53
0.833238837935,258
0.836384037932,18
0.836972037931,2127
0.840205513166,4515
0.842785701139,24
0.844530782578,3
0.845824206701,854
0.846884203205,901
0.848308931011,53
0.853841338193,9
0.855485338192,1148
0.857341770192,1
0.857402970191,913
0.857879402192,598
0.863412602191,38
0.86439300219,3706
0.865614602189,16
0.866023802188,4856
0.868533186527,858
0.871121889338,223
0.877776931238,1043
0.880699148621,34
0.88470234862,5668
0.88806508669,84
0.889422286688,14
0.897523486686,5723
0.897573375358,1
0.897852975356,4534
0.902304519091,356
0.902425719089,33
0.903611319089,20
0.904302519088,4077
0.904621751089,47
0.906421751088,9
0.908544551086,157
0.908704151085,4589
0.912944049508,2
0.914320281853,76
0.916862135138,42
0.927099142231,4581
0.928139997398,1501
0.932671990046,4226
0.933001721443,30
0.935696927937,33
0.942339027319,183
0.946947208613,2
0.948923608612,10
0.949288408611,28
0.95047400861,6
0.95077520861,6346
0.95143593235,4
0.951601680305,7
0.952480799116,50
0.952949999115,631
0.956971792317,1
0.957557190666,1
0.961193928113,43
0.969414352748,25
0.969605152746,1
0.973557952745,45
0.973571217662,11
0.974236017662,1876
0.977612752742,5
0.978584752742,25
0.97920035274,50
0.980616352739,5618
0.982264153957,6
0.982378153956,6254
0.99010067314,1524
0.990296273139,59
0.990812273138,3048
0.993409721649,26
0.993501912875,19
0.99452293356,28
0.999315733559,113
1.000994533558,5244
1.004588062683,3259
1.009285311754,17
1.012194111754,2910
1.015138608062,2229
1.017315801267,2
1.027551211672,43
1.029804811672,3591
1.030336750292,38
1.036211950292,6464
1.040296687447,73
1.043593406299,27
1.044829946424,108
1.045380746424,1325
1.045742854273,20
1.046318287145,6
1.048451080513,48
1.051330797876,133
1.052284797876,22
1.052672397876,1
1.057705197876,5717
1.059640004116,126
1.061722004116,15
1.061813204115,39
1.062889604114,17
1.066410404112,1481
1.067420804112,23
1.068487604112,16
1.068869204112,5850
1.074041540271,2610
1.075373316468,1636
1.077023316468,3192
1.077886311506,109
1.08131152181,70
1.081702207755,12
1.083161516255,13
1.087239737263,121
1.087940537263,1253
1.08816166113,198
1.090590037934,3
1.092992513253,3
1.101972067175,1
1.104353422496,37
1.104957648055,3
1.106197247968,556
1.109134376341,34
1.115794150595,107
1.116919750595,1
1.117751350595,4220
1.122634599318,31
1.123980999317,17
1.124686599315,2684
1.125798999315,1242
1.127171799315,4
1.128861399315,159
1.130070999315,8
1.132025799315,14
1.135505799314,105
1.135623363533,37
1.138232163532,1911
1.143566163532,9671
1.144002963532,27
1.144436163532,284
1.144587363532,20
1.146002163531,119
1.146792963528,667
1.148577363528,654
1.149209763526,8349
1.149947888045,1001
1.150462867529,4
1.153558183855,2
1.156354183855,2500
1.159149382997,1034
1.163293738311,1263
1.163483582558,1
1.164073982556,657
1.164498814556,24
1.167329614555,18
1.170293614554,511
1.170402814553,2623
1.170948814553,3359
1.173447467197,44
1.173586993011,42
1.182885586547,28
1.183203908759,31
1.185601482583,17
1.18729075511,35
1.188733286406,2
1.19367738426,34
1.193913429212,56
1.194280733958,23
1.19612810362,6
1.199393254896,251
1.199656056571,90
1.200154449238,38
1.201769066538,10
1.208098523778,37
1.209568523778,549
1.213425323778,14
1.213764923777,586
1.214314523777,19
1.216389323776,38
1.217421323776,8357
1.226561112507,1
1.228042687064,26
1.240095896499,15
1.242698858236,1318
1.245111587204,2
1.257490028157,2934
1.264028247502,468
1.265540247499,1214
1.266718647499,19
1.266745047498,52
1.268145447498,3517
1.269013047498,4994
1.273536286473,1
1.274304729056,17
1.278671608397,20
1.283705905042,66
1.283725105041,53
1.284963505041,2432
1.286509385706,12
1.286884985704,102
1.287526985704,4
1.288058585704,2
1.288095785703,1377
1.289528585703,52
1.289995385703,888
1.290212585703,2532
1.294493828696,41
1.296585905971,1140
1.299194553536,1
1.299926306366,98
1.301518755174,3
1.30453044184,44
1.30648139414,26
1.30781819414,1569
1.308345032286,327
1.308466275408,4
1.310534317997,1153
1.31186650611,31
1.313668493468,4
1.313861693468,705
1.314988603817,16
1.315359891894,2
1.315703091894,11
1.320819891894,19
1.329080691893,4
1.333963477563,12
1.334192677559,99
1.335301477558,456
1.335860677557,9
1.335980677556,605
1.336097109556,1571
1.338954309556,12364
1.339679109556,2636
1.340105109556,2833
1.342378334631,53
1.343595962794,44
1.344991982149,27
1.348014782149,45
1.348860782148,16
1.348948382146,3519
1.349785971954,125
1.353883971954,2274
1.354334958548,22
1.354584558548,2109
1.359152070468,7
1.365291248479,4110
1.365778254848,66
1.366636839287,44
1.370384439287,3793
1.37088904429,18
1.378676610037,15
1.379262574642,5
1.381821069426,40
1.387181702048,13
1.388816595207,46
1.389674748573,49
1.3907293274,25
1.393077271019,1
1.393173271019,858
1.400419951334,14
1.407392064646,50
1.411971324364,17
1.415341444113,524
1.416960804429,3
1.418132004429,2367
1.419780831606,36
1.419848682997,8
1.421464175495,223
1.42203873145,161
1.422081090664,16
1.428632634485,23
1.430250382641,5
1.433128562497,52
1.437060962497,1270
1.437472562497,3144
1.438645528368,15
1.438667128368,46
1.441741898402,8
1.442416313241,14
1.44373664327,250
1.444781532766,563
1.447343568132,70
1.447696195414,8
1.449806839562,423
1.450325788665,51
1.45141357705,7
1.452759484111,7
1.45502628411,1011
1.45657068411,15
1.456777084109,3
1.460246284108,52
1.465921084107,1
1.469168284105,769
1.470688684104,1236
1.472059084104,3315
1.472213884104,22
1.474333084103,24
1.474881484102,33
1.477183084101,4
1.479067084101,14696
1.480767254492,2792
1.484249500677,27
1.485292300677,63
1.485756700677,2228
1.485929038444,1
1.489902834169,265
1.490314434169,14
1.493904834169,2666
1.497152139749,268
1.500328539748,1862
1.500407739746,23
1.502434539746,5706
1.504206193166,2416
1.504352477381,5
1.507016826824,3
1.509912555472,407
1.512771691728,823
1.516010041718,691
1.517306948343,1062
1.51917809347,188
1.523837919435,35
1.530300917574,1331
1.530659220748,696
1.537900323135,2
1.54019314174,117
1.542968641722,1135
1.545142029992,21
1.546309629992,879
1.547515629992,18
1.552388829991,6646
1.553560653136,22
1.553796161833,18
1.558109561428,16
1.558467861074,306
1.562463671361,27
1.56294007136,520
1.57087073275,1193
1.571993238089,51
1.573506438088,1311
1.574090690976,41
1.575845339083,215
1.57881379398,1219
1.583695848751,3
1.58942497821,41
1.59014497821,21
1.59303577821,7
1.594716978209,28
1.599081378208,81
1.601574978206,67
1.602348978205,36
1.607272578204,329
1.608419778202,14
1.613456177237,3396
1.615682177236,72
1.620770177236,6573
1.622168210198,450
1.622402210198,53
1.629533810197,7
1.632098242197,43
1.632573409233,28
1.634276209232,1515
1.635383809231,2
1.63609300923,58
1.63858780923,9
1.644763009228,108
1.651286209227,2
1.652578641226,22
1.653211041226,6479
1.654961873226,29
1.655235473226,971
1.657786673226,46
1.661411905226,3080
1.663798705226,628
1.664781505225,841
1.665961105225,47
1.667560737225,12
1.668965937225,619
1.671016737225,1439
1.672796337225,40
1.674113937222,83
1.674313137221,8774
1.677520769221,18
1.677780001221,113
1.678897201221,47
1.68011640122,14
1.68030840122,2581
1.684714801219,15766
1.687234801218,4167
1.687418401218,2162
1.687682401217,19
1.690640401215,17
1.690866001215,16
1.692279601214,18
1.694436001213,383
1.700736001213,43
1.700872801211,14
1.701603601211,3
1.70257440121,1002
1.704403201209,51
1.708062001208,44
1.711369201206,15
1.716676801205,21
1.718718033206,834
1.719976833206,20
1.722152433205,48
1.722380433204,2931
1.724287233203,1325
1.7254104332,16812
1.725864033199,2
1.726628433198,14
1.727089233197,4340
1.727128865199,17295
1.729377697199,126
1.729736497199,4
1.730859697199,9
1.731488497199,31
1.735408897199,2211
1.736258497199,50
1.739498497199,15446
1.740386437681,1000
1.740715269681,1251
1.741549387644,51
1.741948679906,66
1.742777879906,15
1.748513879906,921
1.749050279903,18
1.749622679902,3505
1.749691317874,2
1.751646117873,1413
1.751744425741,93
1.754433625741,6
1.754614825741,730
1.756359625741,44
1.757142025741,30
1.757370025741,6164
1.7618307766,4
1.7669163766,5598
1.767172772866,15
1.770735036959,50
1.771226414059,18
1.775365138234,4
1.775799538233,637
1.777143919347,43
1.777968732783,38
1.781703577267,29
1.783186971364,5
1.785245348267,1654
1.800268170609,314
1.800279125567,3
1.80476054746,1393
1.80627390429,32
1.808773964531,650
1.809154275405,43
1.810734813191,26
1.811380413191,1109
1.812014525923,905
1.814433869896,19
1.815677069895,38
1.818781469895,2251
1.819913069895,3793
1.82386019751,434
1.82551859751,275
1.82577539751,1689
1.826089872283,1814
1.828659663788,1
1.828785663055,7
1.831713215894,4
1.831972415894,903
1.837432784381,152
1.837765414497,1
1.83994731274,561
1.848222382679,3
1.855619160639,116
1.856263776318,43
1.858298518207,104
1.859134685402,6
1.859226483386,29
1.861529259534,2
1.86958134502,1033
1.874770145019,6129
1.875536577372,33
1.875770577372,32
1.879051377372,980
1.889185377371,2057
1.89397937737,14197
1.901985824908,42
1.905339664468,42
1.908598864468,117
1.910584864467,46
1.912281664467,512
1.919187664467,12064
1.919321253673,45
1.925736735921,4
1.927930466859,1397
1.929097128245,34
1.934908728245,1197
1.942157928244,3557
1.948445928243,2
1.951809528242,420
1.95661432824,2
1.958819928238,6
1.959122328237,1160
1.961813928236,794
1.966015128235,233
1.967362728235,1
1.969157928234,604
1.971122328234,181
1.971783528233,64
1.971993528232,16201
1.972614760314,5
1.974292360312,1
1.976931160311,19
1.981878760309,17496
1.982820723846,1175
1.986604323846,51
1.989994065057,7
1.990910865054,4
1.991429265053,8
1.992242865051,1307
1.994216865051,772
1.99423966505,12
1.99539766505,215
2.001064065048,254
2.002711665046,5772
2.003444865046,3137
2.004451697046,646
2.004664097045,3591
2.005654097045,82
2.006694497044,2090
2.010089297044,4061
2.015458534684,3610
2.018576996693,741
2.021136596692,18
2.023029913756,879
2.023212313756,969
2.023910713755,2558
2.025664228691,34
2.027303428688,104
2.033310628686,17
2.035929028684,342
2.036045428683,10
2.038746628681,3776
2.042605828681,48
2.04456062868,6
2.05419782868,7
2.056807828677,1586
2.059371028677,18
2.059739428675,15536
2.061543060683,3121
2.066143860683,117
2.066230260682,388
2.067229860681,2824
2.067592260681,2290
2.06933226068,22
2.070689460679,1716
2.075202660679,19
2.079766260678,19898
2.090169063234,18
2.090881863233,58
2.090996614712,49
2.093204614712,22
2.09615901471,1332
2.097084475052,6
2.097466075052,29
2.099972907052,1149
2.100078507051,39
2.101133463223,2
2.102205063223,51
2.107559463222,16
2.113805463222,2
2.115163863221,3847
2.120153463221,21
2.12050386322,12186
2.12241309522,47
2.12283669522,4335
2.12508669522,780
2.12627709522,401
2.126786934555,2184
2.129684934555,2
2.136044934554,3154
2.136316327218,5186
2.138869927217,7
2.139035527215,53
2.143773127214,16291
2.153775677208,21
2.153812665619,24
2.159915325225,86
2.162062125223,52
2.163049725222,2524
2.163761325221,3072
2.165222594683,18
2.16619219468,615
2.166481394679,3071
2.166535341923,42
2.169461957795,285
2.171337557795,20
2.171343557793,49
2.172419957793,2941
2.173352918497,25
2.174949578599,1
2.17764189457,107
2.17946349457,14
2.180758294569,3228
2.183495529076,22
2.18728042226,52
2.18842522226,1726
2.193052768923,2111
2.19840674475,53
2.198433144749,38
2.203090344749,4115
2.203899520453,9
2.204600821667,17
2.208287731284,30
2.210944531284,3
2.213321731282,5666
2.215424818572,105
2.219191618571,31
2.224245408691,16
2.225997408688,6
2.226333408687,352
2.226901008687,4
2.227672608686,3064
2.227807008686,35
2.228612208686,2220
2.230463840686,16
2.231041040686,28
2.231965040686,22
2.232693440685,7
2.232710240684,4851
2.235874640684,5089
2.237002640684,4296
2.238526542938,10
2.245678272836,2463
2.248786183663,172
2.25446614484,5
2.256991575926,36
2.270485784166,9
2.271644984166,12
2.273251784165,1661
2.274785384165,5863
2.275036527297,40
2.277951878447,9
2.278038278446,17
2.278370678445,680
2.284630369439,104
2.284743169439,2919
2.285695962725,46
2.286384267853,27
2.290633121989,34
2.29188257687,3
2.292402433381,19
2.294175420197,16
2.298058713372,3
2.299368498647,7
2.299766898647,476
2.301208918809,49
2.306849463293,1191
2.308344003684,52
2.309552089447,11
2.312442081283,10
2.312914176569,115
2.320224238116,100
2.326545020507,4673
2.330585097664,5
2.332169097663,42
2.333538297661,127
2.33371469766,8
2.335110297659,21
2.335188297659,1671
2.339538297659,129
2.342809221337,277
2.343196853337,2
2.343763746733,5
2.344426146731,1095
2.347118485335,741
2.347610485335,13
2.349520885334,3
2.349870085333,4
2.350766485331,3408
2.351911317331,42
2.35344371733,23
2.353454517329,31
2.359866117329,158
2.362520517329,10
2.365095717328,2927
2.373871317328,36
2.375293317326,13
2.375462517325,9329
2.376274193283,9
2.379362993282,3
2.379955793282,308
2.380399793282,46
2.380853393279,1
2.381003393279,24
2.381308949322,266
2.381946181322,28
2.38336938132,1117
2.383573612074,500
2.391050993272,1819
2.394504593272,48
2.39537339327,14
2.397516593269,44
2.397556193268,1144
2.397882593267,117
2.398942193266,40
2.399504993265,43
2.403620993264,206
2.403634193263,868
2.405324993263,7
2.409290993261,23
2.409658193259,5963
2.410962593258,1
2.413541393257,18558
2.414173793257,5
2.414347793256,9045
2.417411393255,7906
2.418769825255,22
2.418829825253,23
2.419014625252,1056
2.420602225251,9
2.421504625249,15
2.423047825249,44
2.423890225248,26
2.425029025248,53
2.425717825247,323
2.425996225247,2
2.432892625247,17
2.436635425246,44
2.437269025245,11295
2.437722657244,1033
2.437870679201,6
2.442003479199,7
2.443936679198,22
2.444258279198,1
2.445824279196,50
2.446943879196,2738
2.44925108924,612
2.454537089239,528
2.461071089237,1135
2.462139089236,28
2.462747489235,6
2.463713489234,33
2.464583489234,2
2.466106289234,52
2.466718796366,2755
2.468777521234,13060
2.474089953234,2592
2.474431953234,1
2.47456964863,42
2.481565985234,520
2.483193185233,597
2.483225904571,656
2.483293104571,1534
2.48403110457,41
2.48503670457,108
2.486225904569,1025
2.487784736569,17306
2.489093936569,6
2.491510736568,370
2.491989536567,1
2.494249136567,5
2.494474736566,4870
2.496983936566,1488
2.499075536565,47
2.500342736563,25
2.502179936562,4038
2.503851536561,93
2.508272336559,254
2.508523340035,2520
2.509357340034,43
2.509845740032,396
2.510150368556,8886
2.511148768556,527
2.511838768556,1942
2.525852309506,109
2.526253109506,17
2.526305909505,1591
2.528053169527,19
2.531358340749,37
2.532836768225,89
2.537051891492,516
2.537834291491,1446
2.538285296472,75
2.539053966761,27
2.539337692424,17
2.541817518593,1
2.544750318593,2450
2.545118301135,13
2.548245935543,17
2.549770838113,17
2.550739238112,983
2.551249616779,20
2.552121568132,218
2.55798941273,1159
2.56695792217,18
2.567519626591,38
2.575260517411,53
2.579124591073,1488
2.583177161149,31
2.585708371245,28
2.58767432209,2
2.588354878985,15
2.592485744841,42
2.593652144841,1116
2.593773344841,2206
2.593995014292,22
2.599086980414,889
2.604768980414,3
2.608202180413,964
2.608618580413,9548
2.60976260491,9
2.610020021736,15
2.621011800697,12
2.623849014971,15
2.624728104067,67
2.632448663482,14
2.634433199811,19
2.640708673047,7
2.643372474389,48
2.645855214854,31
2.647993728116,893
2.648586629807,2
2.650600787725,12
2.656478983372,5
2.660297410944,532
2.661185410943,4
2.661526210939,454
2.663085010939,614
2.663550610938,10
2.664607810937,1332
2.665711810937,4319
2.671200059547,16
2.672817968474,591
2.674090852739,14
2.675507643661,143
2.678464986244,427
2.678534586241,52
2.680080186241,81
2.68021578624,743
2.68279818624,4159
2.68495558973,4
2.686435805059,21
2.68943082583,45
2.694700963058,47
2.695501363058,39
2.696247763056,2031
2.700907149795,229
2.70698775201,5
2.70976095201,4451
2.711858473715,708
2.721935956255,2
2.724212088313,46
2.725581235996,4
2.726457326423,6
2.726752212689,31
2.734600260362,1153
2.734968660362,8
2.73816546036,35
2.738418660359,14
2.748117060358,9353
2.749293053968,39
2.749893053967,57
2.750032253965,34
2.750415053964,4998
2.75181050804,41
2.752782343786,7
2.754524501733,24
2.760519615892,863
2.763965274322,26
2.766180573603,12
2.766294208158,3
2.772495839007,41
2.772620639007,368
2.777623700399,1029
2.779356875531,15
2.781749675531,139
2.78437047553,3488
2.785662593794,2962
2.795070025308,1593
2.795122179912,338
2.795796579911,21
2.79604857991,993
2.796207140755,131
2.798401940755,20
2.801809940752,2
2.802708740751,29
2.80375274075,4
2.805392640116,38
2.806639790575,878
2.807599972749,26
2.807932372748,3
2.815785172748,1215
2.816502590569,13
2.817352404747,6202
2.818107854016,4680
2.819802254016,1274
2.820646684558,44
2.821010316558,33
2.821475916558,995
2.822165916558,4
2.822980716557,21
2.823742716556,14
2.824545516555,2039
2.828113148556,4545
2.828324348556,5491
2.82902486932,4
2.829891080534,4
2.839932469957,30
2.844802069956,3554
2.844976021132,3183
2.84694343998,55
2.847033439979,807
2.850518653815,41
2.85321214605,48
2.85424300073,107
2.85694361316,6
2.858316588833,14
2.861102798106,14
2.862026411472,4
2.862304811472,804
2.866784922495,2281
2.867889085469,50
2.870887725382,18
2.870952525381,98
2.871637335524,168
2.872063751772,28
2.873430930422,5
2.878796130422,3347
2.881046563551,136
2.882394163549,1251
2.882908963549,3200
2.883758816023,5
2.888331511703,11
2.888587111701,1227
2.890329961067,1256
2.894501161067,2
2.89451914285,102
2.896778793067,4
2.896843593064,12
2.896994793064,596
2.897344025064,55
2.897632025064,54
2.902410425061,116
2.902453625059,1248
2.910280025058,32
2.911361225056,7
2.912873225056,18
2.914135625055,934
2.914570025055,4284
2.915410057055,78
2.917440457055,41
2.925446857054,15
2.926376857052,74
2.927273257051,13649
2.927953657051,11449
2.930393714451,1062
2.933427481256,2252
2.934301801529,820
2.936175588627,11
2.936920788626,1650
2.937513949967,18
2.944624007164,1
2.948791607164,2573
2.95492237438,25
2.958577574379,2539
2.960755574378,4670
2.965482374378,87
2.968574774377,698
2.969648774375,12025
2.970461434916,34
2.97405512869,396
2.974929632222,1059
2.975009915042,14
2.977226408815,780
2.978222038197,964
2.98525985777,19
2.989275057768,36
2.989289457767,1
2.994067857766,5
3.002094657766,18
3.005071857764,16
3.010407424701,10097
3.0117310247,52
3.012028257759,53
3.014790657759,860
3.017435457758,714
3.018479457758,2492
3.018483057758,4948
3.019941089758,1963
3.021285121758,14368
3.022969232695,2
3.025002930737,1204
3.027120528597,1073
3.027284509438,30
3.030077354551,37
3.035805500658,11
3.035876300658,1136
3.040447317262,1005
3.040694175637,675
3.042693329424,204
3.043723208012,131
3.045193900858,34
3.045953138333,19
3.04917817608,653
3.050132586445,3
3.050498647826,1
3.055202638879,700
3.05750873421,1166
3.060210213964,28
3.063869629743,16
3.064448029742,53
3.065704429741,822
3.065855629741,6
3.06788242974,3262
3.06877809936,5
3.068881972061,15
3.070128790385,28
3.070667612377,21
3.074304648058,11
3.078807048057,69
3.078876648056,13
3.079313448056,3809
3.079392011365,2994
3.083612746822,20
3.083834608903,7
3.083851341891,14
3.083859741891,6
3.085074363329,20
3.085930204301,292
3.090853889568,208
3.094155984317,24
3.094507584316,2
3.097741584315,43
3.097905984313,44
3.099107184312,5713
3.099872568315,41
3.101375779912,4
3.104920100128,1897
3.108122753469,127
3.10977354027,38
3.109918733527,132
3.116922647753,27
3.117513307408,27
3.122925099439,534
3.127589952125,18
3.13005496663,15
3.132358208916,22
3.133981119783,44
3.138260892655,22
3.142291692655,3568
3.143727003432,35
3.149700808203,277
3.151272051298,710
3.153548200266,77
3.153907000265,41
3.154400200264,2881
3.154549570511,42
3.156211456183,1230
3.16114862375,44
3.161781922015,43
3.168923659893,5
3.169609470643,434
3.169623863962,6
3.173435063961,6
3.17551826396,39
3.175549463959,6
3.176839463958,5716
3.17815028668,9
3.18072428668,163
3.181197086679,3777
3.185053683886,1112
3.186196083884,50
3.188492883883,2735
3.189565715884,49
3.194156915883,31
3.196033715881,46
3.20138571588,4
3.20238411588,2192
3.203579315879,507
3.204486515878,103
3.205253315878,5184
3.216532115877,52
3.216912515875,1590
3.219851315874,4
3.222302915873,14268
3.222570547875,13
3.222839347873,6
3.226242547872,4193
3.228976147871,5370
3.229886585563,2293
3.230752773222,904
3.231402516642,17
3.238126601686,96
3.238665401685,672
3.242203001685,6328
3.243366634473,66
3.253098070841,11
3.253150095348,264
3.254297295348,1
3.256600095348,690
3.257263270837,237
3.257689727348,86
3.265262927348,2093
3.265776527347,2472
3.268301327347,5582
3.268470527346,4
3.273827327346,5659
3.274217359346,3
3.276529759346,23
3.277895359345,40
3.288131359343,1
3.288797359341,1
3.293388559341,4
3.297439759339,15263
3.298062591341,38
3.29908259134,2533
3.29950019134,5532
3.30029702334,1788
3.30150422334,40
3.301834223339,2558
3.311913324682,120
3.314560746189,18
3.318611741463,46
3.318716141461,212
3.32009494146,1388
3.32091934146,2525
3.324906642415,57
3.325741321735,6
3.329501125181,2063
3.333618599204,961
3.339852599204,4660
3.340460209277,24
3.340615009276,3253
3.342158198714,48
3.343688372463,17
3.3450148339,37
3.345311233899,425
3.347461633898,2468
3.351576185563,181
3.354636785716,579
3.355535061011,4
3.356563146687,34
3.357581544509,32
3.358115202965,50
3.363398115459,61
3.364452067872,12
3.371830716443,3192
3.372061047389,20
3.372251847387,15
3.372761847386,5
3.373247847384,90
3.375299847383,7
3.380558247382,6429
3.381797624815,6
3.382475624814,5207
3.383128869801,1
3.385249204676,8
3.385602004674,93
3.386322004674,726
3.386543498265,773
3.39446964926,1
3.397227718012,1
3.397858918012,1298
3.39818278962,50
3.40461156469,15
3.407040631864,1279
3.409247214407,3
3.409745214405,645
3.412651614405,20
3.413351214404,3565
3.413437205781,1186
3.419922605263,35
3.4253964039,7
3.427585775501,389
3.436545560981,409
3.439228681717,11
3.441938676706,7
3.442549206734,23
3.443596089852,22
3.448226384924,10
3.457061740691,35
3.45993814069,5942
3.465367758217,17
3.467856558217,35
3.468720558215,4167
3.470695077181,53
3.470781477179,2305
3.476348217325,5
3.479182617325,23
3.481775817324,7
3.482500617323,8988
3.495119512701,36
3.497662312701,327
3.4980979127,53
3.501544312698,31
3.503608312697,19
3.506368312695,18
3.509503912693,43
3.509557110195,17
3.509932710195,238
3.510269544693,33
3.510538344692,12219
3.511463544691,2484
3.513212458842,1286
3.513902166925,867
3.514198845299,39
3.51511714591,1
3.516462248871,28
3.519439202036,207
3.522550456463,25
3.523622896407,2
3.5248872602,653
3.525711084703,3
3.527760033114,18
3.528544233627,18
3.533221295896,125
3.533563295896,20
3.534693695895,1499
3.536399064157,4
3.537222902902,70
3.53933666457,47
3.540662664569,4
3.540857064567,2555
3.543205179966,24
3.544055979966,2441
3.547828123528,12
3.549786523527,3102
3.550852437586,117
3.551238837585,17
3.551316837584,1545
3.557891637583,82
3.559470837582,41
3.560208837581,4912
3.560397069526,3298
3.561789997209,89
3.565105525726,46
3.566257525726,19
3.569643925724,41
3.569739925723,4375
3.573917465196,181
3.579646672004,33
3.579707872003,574
3.579847072003,16
3.580049872002,3
3.580631872,1
3.581245071999,18
3.582314271997,5042
3.584162899405,36
3.584420690601,39
3.587849121864,20
3.588644721864,26
3.591342321863,5166
3.591804269454,67
3.594462615263,1199
3.594819103808,10
3.596353903807,1071
3.600032710332,3657
3.606939894109,26
3.608707661629,1145
3.60932558459,7
3.616043876,94
3.618650150876,779
3.622803700184,10
3.624796320738,663
3.625205247691,38
3.626558539655,606
3.627379279466,995
3.630302097005,17
3.631621242114,2
3.633512680485,626
3.634113394477,46
3.634877601599,16
3.63496702378,53
3.637824731382,38
3.640749812463,62
3.641361872248,30
3.643781027546,9
3.644145803418,28
3.646532004369,337
3.651975083265,3
3.655743496059,16
3.660701015333,303
3.6642700018,8
3.675130682786,32
3.675407882786,716
3.677994678571,50
3.678022278571,206
3.679199550271,392
3.679789731964,9
3.682013215412,10
3.686965700986,85
3.687748364394,7
3.693000315377,1543
3.694284876899,51
3.694904864862,7
3.700619526935,2840
3.701046758935,12
3.701658758934,1170
3.706093653495,44
3.710392053494,38
3.713258853492,26
3.71472645349,49
3.717578853489,630
3.720496053488,5360
3.724064853488,9
3.724879653487,12111
3.725555233626,465
3.728969818703,26
3.731726283119,1893
3.734645379506,18
3.738488718401,82
3.741668718399,2264
3.742204725255,2224
3.743592467987,1340
3.744274515655,38
3.744329715654,49
3.744778515653,524
3.749523257952,171
3.750506702763,1
3.751772250325,7
3.7527487803,748
3.753923324776,51
3.754753668321,51
3.755640106621,20
3.755837550044,13
3.761568395439,2527
3.762133419546,516
3.763693018687,2556
3.767342662354,312
3.768641062354,1609
3.771960712706,809
3.774377862732,6
3.775916238134,3
3.776251925951,45
3.777161707809,1
3.78366580312,178
3.78475060312,1
3.785657803118,374
3.786236203117,7
3.787593403116,45
3.789062203114,343
3.789899803113,64
3.790408603113,95
3.790850203112,90
3.791128603112,44
3.794614603111,38
3.79751620311,133
3.797655403109,3
3.798350203107,405
3.802618603107,21
3.808370203107,5634
3.809901403107,48
3.810472603105,36
3.810632203105,110
3.812889403104,2333
3.813088603103,1008
3.817526203103,4387
3.819940603102,23
3.820501003102,3
3.8207194031,47
3.821613403099,3
3.823112235099,3
3.823467435098,6
3.823669035097,14
3.827746635097,37
3.831124635096,5
3.831875835095,5
3.834973035095,117
3.835009035095,260
3.835606635094,1013
3.836661435093,3
3.839546235092,4510
3.840085035091,19
3.84173503509,3
3.843646635088,365
3.844700235086,16
3.845386635085,12354
3.845925467086,478
3.847850267086,691
3.852073099086,4
3.852754699085,499
3.854603835082,14033
3.855371835081,31
3.85768303508,5
3.85846783508,5659
3.858485835079,3693
3.861731835079,12
3.861771435078,1
3.870224235077,16155
3.873504118203,26
3.873772918201,981
3.875937427296,3
3.880229827294,47
3.880509427292,72
3.881097427291,53
3.88116462729,1100
3.881409427289,1303
3.882333427288,49
3.882526627286,2
3.883328227285,6068
3.883562485827,4
3.893429082369,370
3.895539112211,1
3.896633029686,27
3.896698111966,3
3.898447010196,16
3.899011507433,1
3.899729050488,39
3.903927078895,31
3.904767078895,7
3.904968678894,45
3.905314278891,133
3.906881478891,36
3.90745747889,29
3.910741878889,329
3.912001910889,919
3.913350678887,80
3.913551078886,1163
3.917710278886,7602
3.922909931446,529
3.923343131443,28
3.925606331442,16
3.930930731441,17
3.931913531441,3116
3.932381531441,39
3.93336433144,4331
3.93570793144,10882
3.942829150021,3859
3.944167731919,51
3.945161821748,2
3.947559206223,1
3.949293206222,84
3.96095120622,5751
3.96140960622,3
3.962429606219,7432
3.962660849398,31
3.968277295605,2264
3.978003155856,3
3.982956755854,52
3.983827955853,1107
3.985080755852,407
3.985992755851,2
3.990647555849,5500
3.993591155849,101
3.993631955846,1
3.994243955846,11
3.994933955845,1636
3.996600755844,17
3.997695155843,299
4.004248355843,25
4.007903555841,17802
4.012855226881,5
4.019250026879,42
4.019572826878,375
4.020208826878,2832
4.023415226877,28
4.024096826875,15
4.025542826874,724
4.028180426874,1840
4.028455226874,1184
4.028508026873,48
4.028894426872,45
4.03008362687,11522
4.03209862667,54
4.037163874785,15
4.038231991994,7
4.041066419064,29
4.043110900093,30
4.04408357511,7
4.044453175109,927
4.052279995756,43
4.059017387273,846
4.059634113284,4
4.06091613405,46
4.061321043371,25
4.061559344474,41
4.063226050808,188
4.067497866675,53
4.068573066674,683
4.068594666673,35
4.070721066673,1
4.071958266672,3054
4.072949115176,18
4.073357115175,2730
4.074633909877,20
4.07651475913,4
4.078434930084,995
4.078741906357,37
4.084649155292,2
4.085529955292,2600
4.087298707585,20
4.088279107584,34
4.089386707582,50
4.089753907581,40
4.090529107579,3268
4.094818899242,32
4.099399299241,5
4.099807299239,16
4.101014499237,6474
4.101777099014,523
4.106797935368,7
4.111211367361,49
4.11271223889,1
4.115562387172,1181
4.121040419514,1109
4.121990283416,7
4.125184620396,4
4.128818220396,34
4.130420220394,12
4.131093420393,1854
4.134343020392,1314
4.13900742039,1084
4.141163820389,10924
4.141813042356,13
4.142121602975,12
4.144424857477,26
4.144583257476,1119
4.148673579124,20
4.149066692202,180
4.150621523342,15
4.156945945358,613
4.158306683799,1
4.162213237038,32
4.166591087435,34
4.16773956276,18
4.172038893723,31
4.178179684091,450
4.178933284091,4
4.178946484088,21
4.181357284087,116
4.181783284085,5441
4.182479079777,8
4.186877130859,38
4.188953309479,1
4.198802423944,26
4.199296381579,6
4.199524838413,36
4.202208525322,410
4.204918614774,1073
4.219199485827,34
4.224732720648,23
4.225954320648,52
4.227336720646,86
4.227801120645,2585
4.227831152645,20
4.230842986939,15
4.236976186938,2
4.237151386935,76
4.239072586934,665
4.240132186932,4
4.24087978693,2024
4.245058186929,983
4.248239386928,908
4.248914986928,45
4.255858186927,20
4.259525386926,4203
4.259539786925,27
4.265053786925,6102
4.271605786924,26
4.271740186921,48
4.273518586921,65
4.27627978692,45
4.280377786918,1289
4.280849386916,18
4.281398986916,41
4.281862186915,5
4.284352186913,2509
4.290689386912,5
4.290968986911,17
4.294663786909,18
4.295172586908,19
4.295788186907,33
4.295892586905,24
4.298338186904,3239
4.298748586902,23
4.2988949869,74
4.300031386899,15
4.301814586898,2875
4.301992186897,49
4.302199786896,5108
4.303073386896,937
4.304148586896,515
4.304176218896,7
4.305580186894,5
4.305744586892,3
4.307869786891,5
4.308886186891,16
4.310412586889,16
4.312070986888,17094
4.312309818888,32
4.312419018887,28
4.313652618886,7
4.313781018885,101
4.316423418885,2443
4.317223818885,53
4.321456218885,2738
4.322903418884,1233
4.324318218883,4
4.325689818882,30
4.326910218881,19023
4.33098061888,3
4.337489418877,2816
4.339362602762,27
4.339440602761,827
4.340410202761,19
4.34334180276,1584
4.346626202759,47
4.351987802759,5769
4.353271834759,16214
4.35585574986,54
4.356982774193,26
4.357289974192,714
4.367516460721,69
4.376861669353,82
4.377709964168,17
4.38439674734,22
4.385468347339,38
4.386203947338,1019
4.391228347337,501
4.392971947335,24
4.395124747334,8624
4.401693122745,2
4.402288322743,1164
4.404634322743,5290
4.405238805443,24
4.407510405441,46
4.409743605439,4
4.411405605438,6549
4.412329360002,37
4.414296160002,1012
4.414651360001,3130
4.415993470424,1085
4.418530755653,7
4.421746095862,45
4.431153704942,85
4.432753147863,15
4.435541854117,2
4.435606654116,477
4.437891871364,23
4.438263871363,25
4.439413471361,2
4.440270271361,51
4.442869471359,634
4.445394271357,17
4.446683071355,509
4.448775871355,5685
4.449301503356,2836
4.449450098076,39
4.460787213923,391
4.461819679308,1119
4.466024144068,9
4.467469059089,61
4.468491198759,28
4.470904593192,2
4.472791240319,1276
4.477393844043,6
4.478537806604,2
4.479308911499,13
4.480079649963,314
4.4884531969,25
4.49150015977,1095
4.492879211027,3
4.495303835255,1650
4.498940932389,42
4.498975732388,161
4.502660117919,51
4.505666883337,745
4.506337887008,227
4.507170708666,9
4.509114022771,39
4.511963144244,226
4.516060393996,2288
4.516653797133,42
4.518376997131,2761
4.521533549197,1
4.522385549197,2976
4.522451974471,38
4.525367601088,19
4.526714001087,2795
4.532792625307,434
4.536904324336,17
4.538413924334,2300
4.5387705617,1794
4.5388041937,4
4.539773793699,3
4.545759393697,5799
4.547457352079,40
4.548799367228,16
4.549454099621,52
4.550439063259,3
4.550621107153,3
4.559540303884,37
4.560344502968,43
4.564994648993,20
4.565415848992,2610
4.575086412929,4
4.581301242333,51
4.582654169896,45
4.586883485505,35
4.58803739861,6
4.591852322859,1153
4.593285122859,53
4.594495922857,10
4.596793922855,2
4.597113122853,29
4.599581522851,2162
4.60074312285,6409
4.603202299156,47
4.603650028904,28
4.603910035486,16
4.607468372802,34
4.618061968709,208
4.626323298837,26
4.626578368705,2
4.629599968703,5833
4.629619764136,705
4.630109364135,35
4.634672964134,39
4.637748000701,16
4.6457676007,18
4.6468320007,453
4.6475052007,3
4.6512420007,583
4.652940563928,50
4.655879363928,5424
4.656898163928,6117
4.659331795928,1876
4.660398627928,3291
4.662596963924,547
4.664356195924,185
4.665088195924,676
4.667083795923,160
4.66754816392,49
4.669619363918,5335
4.67028059592,1
4.670484595918,17
4.674115795916,883
4.677645027918,2742
4.678605027917,45
4.679233827916,4815
4.679765427916,18
4.680414627914,136
4.681619427913,3
4.683365427913,68
4.683768627912,6
4.684330227912,5278
4.684869059911,636
4.686382259911,8217
4.686540659911,9819
4.68684905991,1626
4.688679246041,1247
4.693792768143,106
4.694582368143,232
4.696262368141,55
4.697290768139,2183
4.697635594012,17
4.697855194011,664
4.699182265637,54
4.699988665635,2071
4.700657524079,20
4.706351343224,22
4.707775743222,37
4.710756543221,3
4.711516143219,52
4.711972143219,1004
4.712053743219,2788
4.716592143218,4
4.718100543217,5785
4.719109439353,3274
4.719298637093,14
4.72092321648,21
4.723722500648,1858
4.730688375146,266
4.734709183705,47
4.735139983704,4
4.735234783703,386
4.735855183702,2969
4.737513029401,132
4.737817615928,33
4.738125410297,53
4.73895971064,3
4.739930758153,266
4.742964267294,51
4.749094892701,12
4.7506020927,2435
4.751933311346,19
4.754978405266,961
4.758017500053,36
4.759528300052,3009
4.765505798312,97
4.765854720566,23
4.765996756617,6
4.767132206905,16
4.767419006904,371
4.768384504713,392
4.768520372855,129
4.775618417938,834
4.779356500058,16
4.783253402976,3244
4.784790617592,6
4.791956843727,31
4.794871320557,9
4.795261786392,45
4.797698984207,145
4.799771384205,2231
4.799934153662,15
4.800981753662,27
4.805425353662,269
4.805703753662,2279
4.806700795467,129
4.807306795466,2618
4.809003595465,36
4.812241195463,6361
4.81352859574,133
4.81682588555,124
4.81848842052,218
4.81879493215,75
4.820111992457,3
4.820649419561,20
4.824821836759,1003
4.828397210309,1287
4.829288961896,51
4.832387361895,59
4.835772561893,5630
4.837692731762,18
4.838737700817,13
4.845043850556,375
4.84957987438,1020
4.850511803182,459
4.850988447859,1
4.85380630494,39
4.855063019903,24
4.856010110271,39
4.859160656531,11
4.85970065653,121
4.860439856528,403
4.864102256527,4172
4.868059214163,2438
4.870182817405,3967
4.871654047008,159
4.872846348379,3
4.876700332428,1785
4.87760285752,895
4.880689905375,2924
4.886473192383,24
4.893073439008,23
4.911454532244,6
4.911749732243,4
4.912775732241,3
4.913976932239,809
4.914036932238,3697
4.9176241507,40
4.917836421825,53
4.918048535824,6
4.91958830723,122
4.92529070723,5120
4.932240424699,2
4.934089624698,6666
4.934185700177,16
4.93420246861,14
4.937089100329,2352
4.939924574661,1256
4.940619449377,437
4.94173882656,1
4.948359630625,376
4.952256340536,21
4.963384176762,2441
4.972772817735,1
4.98408895466,4813
4.987633782398,40
4.987913414398,113
4.988310582396,3
4.990319382394,20
4.995714582392,74
4.998265782391,14
5.001900582389,50
5.009947782388,4712
5.011355382387,42
5.012497782386,120
5.015130582385,809
5.015478582385,2400
5.019677382385,18
5.020459782384,18883
5.022879014384,4811
5.023378056078,47
5.024632254317,21
5.026966923219,30
5.029744923218,17
5.030656923216,4
5.032436523214,116
5.032448523213,4448
5.035162760796,6
5.036271560794,3108
5.036388929823,645
5.039904929822,4
5.04150332982,38
5.044043729819,6514
5.048175061,42
5.049511860998,1021
5.054483460998,2510
5.055107460997,1457
5.055612660996,6
5.058373860994,1011
5.058695460992,7149
5.060109810164,22
5.070264999242,4
5.070674651426,45
5.074285761365,46
5.076241547748,631
5.079686746727,41
5.081786531232,343
5.083356893704,520
5.08343087231,20
5.083636450526,41
5.085525687496,27
5.089408633923,696
5.096927403127,6
5.10527241018,51
5.105318010179,569
5.106402007274,652
5.109332161206,175
5.112360585879,233
5.124163523804,14
5.1335503508,7
5.140503520263,1073
5.142368320262,7
5.149012720261,792
5.149857520259,1207
5.154529120259,16
5.155103920256,386
5.156728720255,11
5.158412320254,207
5.159156320254,3529
5.159937520254,1326
5.162888320253,33
5.164595920251,16697
5.1691848601,842
5.169280270764,23
5.170111072822,61
5.177106795934,387
5.178047595933,1643
5.178794147085,206
5.179420194788,24
5.18323911603,1067
5.184567598206,46
5.184812161961,38
5.184820029071,2
5.185105781131,5
5.18552646259,38
5.191503965006,6
5.194870644718,30
5.197528644717,13
5.204414244715,2149
5.204547444713,6088
5.207228435984,1749
5.207383235983,22
5.209738835981,4905
5.211124677925,133
5.213064002789,548
5.216073693485,608
5.217741640613,182
5.221542649905,48
5.222012917376,14
5.222991401002,4
5.225713152226,9
5.225995610836,16
5.226055789762,20
5.231991250831,43
5.232200611341,62
5.236869330133,14
5.242445420852,26
5.243708344319,2
5.244314815039,47
5.24858251114,863
5.252234708202,833
5.2547283082,2701
5.254956790448,1352
5.256020440255,25
5.256545827289,73
5.260439087834,11
5.261046287833,2204
5.263207530391,38
5.264660500943,673
5.273254924163,2628
5.27400669819,1222
5.276955066591,438
5.277155983531,40
5.282394808344,112
5.285769413823,1847
5.286911767178,14
5.288519567616,33
5.288648948717,54
5.293128815659,3
5.293751615657,21
5.294060015655,48
5.297145215655,4692
5.300526061878,24
5.309468461876,3222
5.309812861875,2753
5.311631306667,2410
5.311798106667,2797
5.313612506667,1309
5.313897247649,3750
5.31493574209,577
5.315268570578,50
5.320751602655,4
5.322513202654,1749
5.323953202653,3318
5.328591879001,47
5.338927153931,2906
5.339040419672,13
5.339963219671,2288
5.348213076579,1006
5.348307012726,38
5.349355812726,6
5.350350612724,492
5.351175012723,2329
5.353298000089,26
5.354701556093,45
5.356623854421,7
5.365424692502,4
5.369529226484,322
5.373034594857,3097
5.382989407176,3
5.384322607176,2290
5.386397014445,1771
5.39105779861,2115
5.393365648448,284
5.393600339792,29
5.399649182209,122
5.400360782207,14
5.403409982207,38
5.403650049887,7
5.406285249885,1549
5.406514449884,25
5.410764849884,6015
5.412280449884,2921
5.413174449883,4397
5.417765619413,2509
5.42191393243,31
5.423248332428,195
5.424396732427,1328
5.432277132426,52
5.434897932423,10
5.435878332422,6
5.436279132422,4
5.439286332421,36
5.440356732421,30
5.44102033242,2272
5.44127833242,1537
5.44560073242,6
5.453766732418,3010
5.458657932417,45
5.458909601916,36
5.459872001916,318
5.463568001916,18
5.471630801915,16421
5.479616833915,6033
5.480315233914,7
5.480471233913,2079
5.481540465913,13
5.485578465912,5
5.485612065911,33
5.488522065911,43
5.49182446591,16756
5.49295486591,5
5.493484065909,89
5.493490065909,40
5.495960897909,5
5.496979607035,47
5.500117607035,101
5.500411607034,4760
5.501104007034,1203
5.502811639034,5599
5.503381671034,37
5.506615671033,24
5.509906071031,18
5.510434071029,5
5.512596471027,329
5.514715671025,1
5.514996471023,15963
5.51648668953,122
5.516527489529,545
5.520302689529,1756
5.520717889528,3848
5.524512582441,12
5.529421890612,34
5.534786289556,591
5.536307046729,28
5.537453046727,14
5.543430246725,50
5.545045446723,6537
5.548449709764,6
5.552769709763,8539
5.557766523667,19
5.56289788576,12
5.569863110882,1900
5.578596609164,3123
5.580712988611,17
5.584827336202,115
5.588762869462,3
5.592097783348,22
5.593058669521,7
5.593226624374,1
5.595543433031,4
5.601466345196,16
5.604280345387,25
5.607392256501,7
5.608642981736,37
5.614930492645,14
5.617867242362,703
5.621954418399,3260
5.626117218856,6
5.634018672622,1207
5.635030272621,2796
5.636740969467,669
5.641737664083,18
5.643269898818,45
5.653191364593,6
5.661821951606,1877
5.665137769111,49
5.670763369109,49
5.673883369107,29
5.675119369105,11130
5.676938162036,15
5.678967327882,19
5.681861580224,19
5.683387239609,32
5.687062839609,48
5.687288439608,1
5.687730039607,17
5.690864439607,1216
5.690881239607,1
5.691477639606,51
5.691528071606,32
5.696272871606,34
5.696533271605,20
5.696977271604,14
5.697236471604,4512
5.700534407408,3033
5.702974007407,784
5.705650007405,42
5.707609607403,13
5.709174407401,11997
5.712740382013,6
5.71347261259,6
5.71372519669,11
5.720229256755,506
5.721836056754,2074
5.725688950143,961
5.733695523177,611
5.738183624811,123
5.747522572216,17
5.747799292005,17
5.748041107102,26
5.749035941739,258
5.752888654333,1525
5.753273551325,338
5.754621601617,24
5.754889201616,78
5.755780801614,1466
5.755842205225,3
5.760218332159,20
5.765265520046,43
5.765267920046,2945
5.765351952046,37
5.773597152046,1093
5.773959552044,668
5.776207152043,17
5.777876352042,124
5.78378515204,11730
5.783886226384,2694
5.787860479011,38
5.79627367901,7675
5.799680149899,14
5.801565591939,31
5.802120706675,5
5.802732071029,6
5.806066938668,47
5.80965570471,17
5.812223226065,90
5.814464885282,4
5.815761225916,1
5.816579123646,21
5.818623226147,94
5.819962726768,945
5.820040567439,6
5.822318726613,20
5.822466326612,214
5.823543387898,520
5.827410173309,1
5.833071773309,552
5.838793373308,50
5.840047373306,3084
5.840245373306,3
5.842418573305,16
5.843000573303,134
5.843774573301,10
5.8497157733,4
5.850694973299,11509
5.851064605299,5386
5.851588439439,12
5.85226725896,28
5.860483122836,817
5.861849922835,2219
5.862414156632,4
5.871134556631,38
5.876718156629,27
5.877862956627,31
5.878786956626,3988
5.881327356625,36
5.881502556624,1202
5.881600956624,73
5.882145756623,236
5.883561756622,12263
5.89485541694,362
5.896385416939,1663
5.897094249293,47
5.904432166813,29
5.905707155492,122
5.909500331456,3102
5.910727906794,18
5.911243906793,1249
5.913326524272,5
5.913367396889,3
5.91412598164,62
5.91896456251,7
5.922570863725,29
5.926839917825,19
5.927432822151,157
5.929393095565,102
5.937714980476,17
5.938634180475,33
5.942272580473,12
5.944733780471,6134
5.947047132828,33
5.953972536801,5671
5.95564032567,1271
5.956962086663,5
5.956987286661,374
5.96129888666,33
5.963017286658,5827
5.974931580228,293
5.977239059859,608
5.985212851809,18
5.988916993568,34
5.992938539062,4
5.994957704894,7
5.996344166479,22
5.996695991415,42
5.998740617395,25
5.998817417394,452
6.000516041393,4
6.002668619012,15
6.004635175387,97
6.005751041354,52
6.006895841353,19
6.007811441351,612
6.00831664135,132
6.010908641348,37
6.012516641347,4561
6.012867264399,978
6.015160621431,50
6.01589954385,68
6.023230615613,80
6.024078658367,671
6.026577313075,33
6.030286442871,719
6.03327204287,9
6.035562842868,18
6.036060842866,4
6.036442442864,596
6.038834042863,1
6.039759242862,4789
6.041325274863,29
6.042004474863,16
6.042372874863,2586
6.043362906863,2761
6.044802906863,441
6.049184106863,42
6.050303706861,457
6.051152106861,4
6.05367810686,5201
6.054009306859,15
6.055184106857,1128
6.056822106856,50
6.058904106855,26
6.061593306854,5
6.068973306853,10522
6.070408183546,32
6.070909783543,63
6.071120983542,122
6.071573383542,48
6.075938983541,9040
6.077441457781,26
6.07779185778,3739
6.090354100464,2
6.090702374451,83
6.095530799838,25
6.096566566572,62
6.103968843685,312
6.10665567323,33
6.108964634725,525
6.113625918094,647
6.113809832896,284
6.118162067712,44
6.118265267711,552
6.119806441467,599
6.122814099622,8
6.124066246089,90
6.130075986568,3
6.136065108107,28
6.138279474104,49
6.139575874289,204
6.142532653997,463
6.153648601622,130
6.154300201621,743
6.155032201618,5036
6.155764822943,601
6.156140422942,104
6.156284422941,40
6.158934022939,263
6.160758022937,931
6.164193622937,14
6.164906422935,2
6.165813622933,8
6.167191222931,2
6.169519222929,1099
6.169587622928,52
6.169705222927,11
6.170200822925,1
6.171592822923,10929
6.171951654923,19
6.172102854922,18
6.17278925492,59
6.173493654918,5
6.177082854916,1120
6.178150854915,742
6.178551654914,3
6.180036054913,60
6.184358454912,8834
6.184821494474,76
6.189044834241,37
6.189965234241,1228
6.190246699622,1354
6.191040861796,398
6.195427523794,1154
6.19630684701,5
6.198006047008,4
6.201000047007,4831
6.201742324085,19
6.202697524085,1067
6.203223102362,50
6.207108859192,22
6.209800459191,4250
6.210560051772,1101
6.213503875042,134
6.216971875041,3947
6.217623555941,38
6.222949949852,1082
6.224652749851,1993
6.224715982809,285
6.229257982808,929
6.229971982806,3255
6.23023137348,7
6.232190973479,19
6.234457773478,4
6.236167773478,4
6.236466414805,39
6.237403614804,1794
6.238769214804,1
6.239419614803,6
6.244322814802,15
6.245478414801,5
6.2482876148,15
6.249730014799,32
6.254747214798,47
6.256840014795,588
6.259843614794,20
6.260410014792,27
6.26123681479,20
6.264007614788,7876
6.264617214787,2169
6.265152414787,28
6.268582014787,48
6.270520014787,17
6.272446014786,3
6.274093614785,130
6.279295614783,838
6.281040414783,8433
6.283830446783,4853
6.284448446782,2
6.284711246781,1
6.287546846781,7476
6.288007678781,1310
6.288116910781,43
6.288905310781,2
6.28933491078,19
6.291254910779,3858
6.297056942779,2
6.297586142777,579
6.299644142776,654
6.302693342775,19343
6.304420844299,3027
6.308251978014,2472
6.310105884496,1141
6.311245953692,37
6.313616669718,24
6.314088162831,11
6.321298985672,24
6.321812585671,1311
6.323106829729,2095
6.330389255306,2
6.330527890011,22
6.331864540609,5
6.341992510451,4672
6.342245779131,2385
6.344383131802,686
6.345532731801,53
6.3471287318,46
6.348148731799,33
6.355000731797,41
6.355046331794,52
6.355665952683,30
6.355734352681,25
6.36047795268,736
6.36230198468,107
6.36360161668,42
6.364391976856,3094
6.36586724868,3069
6.36843768068,16
6.37045608068,5807
6.37075131268,9741
6.380654403545,162
6.384957366754,932
6.391036390445,69
6.394752790444,877
6.395047990442,1160
6.395055342035,25
6.398375590441,146
6.40053679044,4
6.402406390439,12
6.402553990438,15
6.404243590436,53
6.407116390435,36
6.409224790433,1165
6.411508390432,15
6.415915656454,1347
6.422351256454,129
6.424204056453,11
6.424914488453,3410
6.425411288453,29
6.431346488453,2
6.438121990424,49
6.438537222424,3
6.438831222423,20
6.439158854423,15737
6.444381254423,1
6.444992054422,1540
6.447152054422,22
6.448551254421,30
6.45220525442,3
6.45222805442,4915
6.45298285442,35
6.453183254419,2535
6.455759654418,20
6.458207654416,7
6.458568854414,28
6.465844454412,483
6.46688485441,4063
6.46704205441,46
6.46916725441,12
6.473298854408,19
6.474413654407,116
6.475534454407,4960
6.477106486407,50
6.477618886405,42
6.477938086403,3607
6.482464518403,5
6.482530518402,6067
6.483137750402,365
6.483413750402,6166
6.484733782402,3047
6.485470582402,37
6.489395782402,40
6.4930137504,1054
6.498399382398,1
6.500181382396,5890
6.504261414396,1362
6.504727014396,2373
6.507475046396,17699
6.509128646396,2219
6.509425014395,31
6.510052614395,5105
6.511824853463,41
6.514223653462,1630
6.514558453462,3144
6.519680287319,5554
6.521228531698,34
6.525448051057,5
6.529848925773,16
6.530310925772,5
6.53045252577,3733
6.531790868431,72
6.53332686843,19
6.533666468428,41
6.537752468427,69
6.538179668424,174
6.544017668424,8
6.547885268423,625
6.549895268422,30
6.552645668419,304
6.552771668417,3686
6.554049668416,1117
6.554986868415,3145
6.555217268415,7254
6.555269954233,28
6.559639300415,15
6.559779700414,4405
6.559890100413,2928
6.563914813956,88
6.568909129755,27
6.576547514421,8
6.57681391442,44
6.583692314418,41
6.583778714416,10411
6.591240551858,6
6.592089481847,4
6.594512205626,9
6.599639805625,12
6.602233005623,6593
6.607719619336,13
6.608259957093,125
6.609311008173,104
6.609908608172,37
6.610050208171,619
6.611407860977,1131
6.614129570004,17
6.614775170001,2800
6.617098619535,2539
6.618082214529,48
6.618487075007,292
6.62321666494,46
6.624698948405,2
6.625705278148,14
6.626261517283,52
6.630522275779,362
6.634705460348,6
6.638196260347,2598
6.640177382154,1
6.640375382153,23
6.641491382152,1232
6.645139382151,17
6.64804578215,18
6.648627782148,15
6.649639382146,9
6.651666182144,3
6.652052582142,1
6.65721618214,48
6.658270982138,4
6.658731782138,12946
6.660977048054,3171
6.662041977615,3
6.662956377613,18
6.663682377611,19
6.664743177609,29
6.665764377607,347
6.666883977605,6555
6.668674869821,366
6.669523834129,20
6.670718476219,19
6.670924508173,18
6.675784980875,25
6.676293935065,123
6.676581978773,48
6.676844120881,31
6.677945082575,18
6.681326366213,684
6.685201668178,47
6.687789108013,49
6.689887752509,69
6.693340346144,311
6.695912897233,1
6.700387578465,28
6.704573852747,26
6.704606903901,20
6.706303514864,20
6.708690397901,6
6.708994119509,9
6.711206007963,14
6.714645207962,482
6.716225607961,1431
6.71873000796,5100
6.722003043312,12
6.728892243311,2566
6.72980184331,28
6.731415843308,2007
6.735444243307,50
6.736164243307,19
6.737222643306,5145
6.737581256811,34
6.73945805681,19
6.744290456809,4913
6.745611930621,5036
6.747411855074,78
6.747566655072,2423
6.751951047159,12
6.755699847158,40
6.756531447156,873
6.759965847155,212
6.760651047154,6472
6.761085724793,12
6.764666200903,33
6.77636269771,18
6.777592697709,48
6.778589897707,87
6.782721497706,5590
6.783824175222,817
6.785609775221,374
6.787370175219,47
6.791142975218,619
6.791606175217,22
6.798705375217,6378
6.809016691965,6557
6.810853462997,9827
