time,DctcpSim1.flowGenerator3.flowSynSize:vector
1,1.0
2,3157.0
3,5.0
4,224.0
5,4.0
6,127.0
7,13.0
8,359.0
9,769.0
10,45.0
11,9.0
12,7.0
13,2419.0
14,20.0
15,46.0
16,1311.0
17,1.0
18,15.0
19,448.0
20,396.0
21,40.0
22,6458.0
23,1466.0
24,2550.0
25,297.0
26,18.0
27,2.0
28,2257.0
29,52.0
30,606.0
31,2909.0
32,943.0
33,25.0
34,25.0
35,6083.0
36,22.0
37,2106.0
38,15.0
39,1096.0
40,261.0
41,16.0
42,1923.0
43,1229.0
44,35.0
45,4.0
46,9.0
47,27.0
48,562.0
49,2568.0
50,1327.0
51,3148.0
52,7.0
53,1609.0
54,1989.0
55,13.0
56,3011.0
57,20.0
58,21.0
59,48.0
60,282.0
61,11023.0
62,35.0
63,41.0
64,17.0
65,40.0
66,344.0
67,2625.0
68,1975.0
69,27.0
70,3.0
71,7.0
72,869.0
73,227.0
74,23.0
75,5.0
76,672.0
77,5644.0
78,6.0
79,5.0
80,7.0
81,209.0
82,48.0
83,3755.0
84,728.0
85,47.0
86,372.0
87,3.0
88,2226.0
89,215.0
90,1791.0
91,1.0
92,116.0
93,24.0
94,32.0
95,2730.0
96,16.0
97,84.0
98,6.0
99,2.0
100,17.0
101,10.0
102,8.0
103,352.0
104,14.0
105,15.0
106,20.0
107,21.0
108,53.0
109,375.0
110,8.0
111,42.0
112,5.0
113,4.0
114,3.0
115,23.0
116,20.0
117,49.0
118,1.0
119,2018.0
120,7.0
121,33.0
122,19.0
123,29.0
124,5.0
125,2380.0
126,394.0
127,42.0
128,16.0
129,5.0
130,6215.0
131,19.0
132,5975.0
133,3.0
134,120.0
135,36.0
136,1567.0
137,31.0
138,5402.0
139,86.0
140,43.0
141,2.0
142,149.0
143,5.0
144,110.0
145,15.0
146,22.0
147,694.0
148,26.0
149,3.0
150,215.0
151,1211.0
152,983.0
153,44.0
154,1390.0
155,274.0
156,9.0
157,5.0
158,17.0
159,28.0
160,40.0
161,138.0
162,6.0
163,2134.0
164,851.0
165,403.0
166,2398.0
167,19.0
168,120.0
169,9.0
170,27.0
171,20.0
172,67.0
173,31.0
174,51.0
175,49.0
176,2052.0
177,6334.0
178,32.0
179,11951.0
180,544.0
181,1.0
182,1037.0
183,999.0
184,1540.0
185,3.0
186,1419.0
187,6118.0
188,354.0
189,3756.0
190,1.0
191,1255.0
192,4248.0
193,2.0
194,83.0
195,57.0
196,46.0
197,26.0
198,6.0
199,2695.0
200,3099.0
201,7.0
202,2.0
203,36.0
204,8.0
205,4721.0
206,3.0
207,1921.0
208,19.0
209,20.0
210,2260.0
211,45.0
212,26.0
213,19.0
214,2.0
215,3848.0
216,60.0
217,49.0
218,929.0
219,47.0
220,337.0
221,4993.0
222,17.0
223,57.0
224,3.0
225,6.0
226,37.0
227,32.0
228,3944.0
229,212.0
230,7.0
231,22.0
232,276.0
233,224.0
234,40.0
235,16.0
236,1435.0
237,351.0
238,3.0
239,44.0
240,3115.0
241,3702.0
242,42.0
243,12.0
244,22.0
245,2942.0
246,52.0
247,2.0
248,35.0
249,23.0
250,943.0
251,3304.0
252,21.0
253,3869.0
254,107.0
255,17880.0
256,31.0
257,7.0
258,16129.0
259,35.0
260,49.0
261,32.0
262,6.0
263,2934.0
264,6.0
265,94.0
266,2.0
267,1061.0
268,17.0
269,43.0
270,41.0
271,101.0
272,38.0
273,30.0
274,14.0
275,2353.0
276,1277.0
277,1244.0
278,3.0
279,6.0
280,17.0
281,6328.0
282,3.0
283,19.0
284,3485.0
285,1419.0
286,164.0
287,597.0
288,128.0
289,24.0
290,33.0
291,60.0
292,5.0
293,25.0
294,2.0
295,53.0
296,43.0
297,6.0
298,17.0
299,38.0
300,60.0
301,111.0
302,2646.0
303,18.0
304,48.0
305,24.0
306,3495.0
307,21.0
308,4.0
309,15.0
310,132.0
311,5572.0
312,4514.0
313,41.0
314,9.0
315,261.0
316,1409.0
317,925.0
318,53.0
319,2008.0
320,212.0
321,4.0
322,6546.0
323,8255.0
324,1093.0
325,3.0
326,687.0
327,1033.0
328,5252.0
329,18668.0
330,2134.0
331,2585.0
332,1780.0
333,3713.0
334,3916.0
335,23.0
336,1265.0
337,2768.0
338,40.0
339,144.0
340,728.0
341,9.0
342,2.0
343,26.0
344,2937.0
345,1976.0
346,45.0
347,1010.0
348,1.0
349,6.0
350,5884.0
351,5.0
352,16.0
353,686.0
354,718.0
355,13.0
356,37.0
357,6.0
358,10201.0
359,20.0
360,2.0
361,18.0
362,2267.0
363,127.0
364,1.0
365,1174.0
366,2.0
367,42.0
368,5367.0
369,4.0
370,1057.0
371,132.0
372,16.0
373,3797.0
374,69.0
375,24.0
376,8.0
377,43.0
378,1200.0
379,4.0
380,4.0
381,16.0
382,5.0
383,1325.0
384,480.0
385,5.0
386,6.0
387,1206.0
388,251.0
389,9637.0
390,16.0
391,32.0
392,20.0
393,4240.0
394,1586.0
395,2817.0
396,37.0
397,47.0
398,1497.0
399,22.0
400,4884.0
401,1.0
402,6.0
403,4589.0
404,44.0
405,3.0
406,6478.0
407,12606.0
408,80.0
409,25.0
410,1233.0
411,14.0
412,41.0
413,134.0
414,356.0
415,1.0
416,63.0
417,87.0
418,96.0
419,16.0
420,82.0
421,14.0
422,29.0
423,76.0
424,32.0
425,19.0
426,7.0
427,46.0
428,20.0
429,1057.0
430,8.0
431,31.0
432,30.0
433,3288.0
434,11.0
435,434.0
436,2.0
437,13.0
438,50.0
439,4.0
440,20.0
441,2583.0
442,37.0
443,55.0
444,55.0
445,1319.0
446,327.0
447,9.0
448,620.0
449,19.0
450,17.0
451,1215.0
452,419.0
453,8923.0
454,53.0
455,43.0
456,20.0
457,4.0
458,25.0
459,2.0
460,6.0
461,4.0
462,20.0
463,9.0
464,496.0
465,5667.0
466,9047.0
467,36.0
468,47.0
469,20.0
470,32.0
471,13.0
472,3232.0
473,10.0
474,53.0
475,2809.0
476,117.0
477,3282.0
478,910.0
479,5.0
480,40.0
481,134.0
482,16.0
483,1.0
484,2.0
485,1058.0
486,65.0
487,22.0
488,32.0
489,28.0
490,4.0
491,28.0
492,1001.0
493,471.0
494,91.0
495,1236.0
496,6.0
497,48.0
498,49.0
499,1556.0
500,3.0
501,58.0
502,3.0
503,14.0
504,34.0
505,34.0
506,7951.0
507,131.0
508,1584.0
509,266.0
510,5075.0
511,25.0
512,1014.0
513,27.0
514,1946.0
515,89.0
516,1.0
517,3.0
518,30.0
519,41.0
520,5880.0
521,640.0
522,73.0
523,15259.0
524,15.0
525,18.0
526,74.0
527,807.0
528,1563.0
529,750.0
530,2709.0
531,15.0
532,6.0
533,132.0
534,3224.0
535,28.0
536,1311.0
537,4.0
538,47.0
539,614.0
540,32.0
541,4244.0
542,20.0
543,471.0
544,17.0
545,375.0
546,2043.0
547,4.0
548,119.0
549,2.0
550,1183.0
551,53.0
552,441.0
553,21.0
554,1640.0
555,561.0
556,447.0
557,8.0
558,9.0
559,23.0
560,2.0
561,65.0
562,24.0
563,8.0
564,29.0
565,162.0
566,1147.0
567,586.0
568,6.0
569,52.0
570,20.0
571,432.0
572,61.0
573,14160.0
574,301.0
575,4150.0
576,20.0
577,42.0
578,535.0
579,1.0
580,2147.0
581,6683.0
582,1121.0
583,42.0
584,2328.0
585,92.0
586,5021.0
587,53.0
588,575.0
589,133.0
590,11.0
591,100.0
592,3456.0
593,577.0
594,5060.0
595,68.0
596,535.0
597,8.0
598,93.0
599,1245.0
600,26.0
601,20.0
602,5092.0
603,46.0
604,6.0
605,651.0
606,3628.0
607,4114.0
608,306.0
609,791.0
610,833.0
611,2632.0
612,855.0
613,1.0
614,6.0
615,19.0
616,63.0
617,687.0
618,2.0
619,21.0
620,15.0
621,1675.0
622,35.0
623,544.0
624,2911.0
625,47.0
626,3.0
627,2367.0
628,453.0
629,416.0
630,916.0
631,65.0
632,18216.0
633,3310.0
634,3367.0
635,1181.0
636,75.0
637,18.0
638,29.0
639,1182.0
640,75.0
641,25.0
642,14.0
643,3.0
644,41.0
645,1272.0
646,1205.0
647,47.0
648,31.0
649,1718.0
650,3189.0
651,8.0
652,132.0
653,4054.0
654,62.0
655,47.0
656,326.0
657,3538.0
658,1058.0
659,2978.0
660,2.0
661,240.0
662,35.0
663,4413.0
664,47.0
665,5.0
666,1189.0
667,11.0
668,1135.0
669,19318.0
670,3.0
671,2.0
672,1146.0
673,2161.0
674,40.0
675,7.0
676,16.0
677,455.0
678,36.0
679,14.0
680,97.0
681,1136.0
682,5889.0
683,24.0
684,536.0
685,16.0
686,28.0
687,4.0
688,981.0
689,4.0
690,33.0
691,29.0
692,629.0
693,884.0
694,2537.0
695,622.0
696,1393.0
697,935.0
698,27.0
699,21.0
700,5034.0
701,515.0
702,11.0
703,42.0
704,54.0
705,35.0
706,42.0
707,45.0
708,18.0
709,37.0
710,5.0
711,43.0
712,1645.0
713,50.0
714,38.0
715,14.0
716,20.0
717,15.0
718,5582.0
719,1114.0
720,73.0
721,472.0
722,1750.0
723,3976.0
724,2.0
725,8.0
726,17.0
727,2.0
728,7.0
729,432.0
730,2.0
731,5.0
732,4344.0
733,2113.0
734,972.0
735,28.0
736,19.0
737,43.0
738,25.0
739,2646.0
740,1.0
741,18.0
742,6.0
743,1.0
744,836.0
745,329.0
746,627.0
747,4.0
748,568.0
749,3112.0
750,5.0
751,88.0
752,243.0
753,24.0
754,14.0
755,14685.0
756,1241.0
757,384.0
758,4.0
759,2631.0
760,6.0
761,6.0
762,37.0
763,46.0
764,545.0
765,6.0
766,4884.0
767,29.0
768,1.0
769,366.0
770,3.0
771,21.0
772,3.0
773,72.0
774,5.0
775,19.0
776,14.0
777,731.0
778,48.0
779,6.0
780,564.0
781,19.0
782,3153.0
783,385.0
784,13.0
785,6509.0
786,917.0
787,47.0
788,1.0
789,53.0
790,2881.0
791,578.0
792,617.0
793,12.0
794,3146.0
795,37.0
796,7.0
797,46.0
798,8.0
799,2.0
800,4.0
801,29.0
802,4.0
803,258.0
804,21.0
805,25.0
806,4.0
807,3787.0
808,17.0
809,9.0
810,58.0
811,103.0
812,450.0
813,43.0
814,3.0
815,1306.0
816,1077.0
817,5.0
818,3185.0
819,13.0
820,26.0
821,2544.0
822,17.0
823,722.0
824,4.0
825,4.0
826,1268.0
827,73.0
828,29.0
829,40.0
830,281.0
831,23.0
832,28.0
833,63.0
834,77.0
835,6.0
836,31.0
837,607.0
838,2.0
839,2161.0
840,4.0
841,234.0
842,105.0
843,49.0
844,43.0
845,6077.0
846,38.0
847,29.0
848,18.0
849,6.0
850,14.0
851,26.0
852,11.0
853,45.0
854,2477.0
855,8.0
856,1375.0
857,121.0
858,1.0
859,299.0
860,40.0
861,414.0
862,186.0
863,7884.0
864,2838.0
865,12.0
866,37.0
867,2714.0
868,52.0
869,1161.0
870,1329.0
871,6.0
872,1050.0
873,24.0
874,7.0
875,6653.0
876,2839.0
877,20.0
878,21.0
879,210.0
880,4.0
881,17.0
882,270.0
883,6699.0
884,14586.0
885,6570.0
886,3.0
887,30.0
888,4.0
889,2594.0
890,3.0
891,9.0
892,24.0
893,16.0
894,212.0
895,5.0
896,17.0
897,29.0
898,25.0
899,14422.0
900,279.0
901,446.0
902,14.0
903,6.0
904,41.0
905,6.0
906,48.0
907,106.0
908,31.0
909,125.0
910,17.0
911,5.0
912,2235.0
913,32.0
914,166.0
915,797.0
916,17853.0
917,547.0
918,24.0
919,4964.0
920,21.0
921,2839.0
922,3.0
923,5.0
924,655.0
925,2499.0
926,43.0
927,88.0
928,77.0
929,17.0
930,2198.0
931,2780.0
932,9.0
933,831.0
934,3025.0
935,1053.0
936,14.0
937,1323.0
938,2025.0
939,783.0
940,47.0
941,28.0
942,7.0
943,715.0
944,931.0
945,4809.0
946,1201.0
947,8525.0
948,110.0
949,29.0
950,16.0
951,822.0
952,32.0
953,603.0
954,3.0
955,431.0
956,5040.0
957,3.0
958,22.0
959,3558.0
960,1451.0
961,403.0
962,1027.0
963,30.0
964,20.0
965,51.0
966,2813.0
967,194.0
968,15.0
969,15.0
970,38.0
971,459.0
972,32.0
973,16046.0
974,32.0
975,232.0
976,19.0
977,3392.0
978,11702.0
979,1649.0
980,21.0
981,12.0
982,273.0
983,420.0
984,50.0
985,15.0
986,294.0
987,30.0
988,20.0
989,6.0
990,839.0
991,34.0
992,16.0
993,218.0
994,4.0
995,524.0
996,893.0
997,9.0
998,177.0
999,4.0
1000,19.0
1001,11692.0
1002,531.0
1003,29.0
1004,23.0
1005,3.0
1006,88.0
1007,5.0
1008,18.0
1009,10.0
1010,3.0
1011,15.0
1012,31.0
1013,560.0
1014,1865.0
1015,46.0
1016,363.0
1017,126.0
1018,651.0
1019,22.0
1020,296.0
1021,1988.0
1022,20.0
1023,4.0
1024,5060.0
1025,5287.0
1026,710.0
1027,27.0
1028,16.0
1029,45.0
1030,51.0
1031,31.0
1032,3297.0
1033,752.0
1034,1.0
1035,7.0
1036,16.0
1037,4.0
1038,15.0
1039,14.0
1040,4688.0
1041,3.0
1042,2.0
1043,17519.0
1044,41.0
1045,57.0
1046,1491.0
1047,7384.0
1048,13193.0
1049,94.0
1050,173.0
1051,49.0
1052,8.0
1053,3576.0
1054,6415.0
1055,7.0
1056,51.0
1057,2.0
1058,93.0
1059,12.0
1060,48.0
1061,112.0
1062,7.0
1063,2045.0
1064,260.0
1065,47.0
1066,18.0
1067,10.0
1068,42.0
1069,2952.0
1070,35.0
1071,36.0
1072,877.0
1073,111.0
1074,1.0
1075,2568.0
1076,25.0
1077,2.0
1078,333.0
1079,780.0
1080,1425.0
1081,1962.0
1082,1738.0
1083,7.0
1084,42.0
1085,294.0
1086,101.0
1087,14.0
1088,50.0
1089,31.0
1090,307.0
1091,10.0
1092,289.0
1093,1214.0
1094,51.0
1095,15449.0
1096,1.0
1097,2.0
1098,6757.0
1099,4.0
1100,10.0
1101,3174.0
1102,37.0
1103,748.0
1104,19.0
1105,1058.0
1106,1595.0
1107,4.0
1108,9637.0
1109,173.0
1110,50.0
1111,20.0
1112,5.0
1113,2794.0
1114,22.0
1115,1546.0
1116,422.0
1117,29.0
1118,33.0
1119,13.0
1120,14.0
1121,2.0
1122,5.0
1123,1458.0
1124,92.0
1125,167.0
1126,6.0
1127,5091.0
1128,703.0
1129,3882.0
1130,25.0
1131,927.0
1132,4.0
1133,37.0
1134,16.0
1135,19.0
1136,21.0
1137,73.0
1138,45.0
1139,4.0
1140,2752.0
1141,629.0
1142,3122.0
1143,15762.0
1144,53.0
1145,17.0
1146,7.0
1147,19.0
1148,1006.0
1149,600.0
1150,15.0
1151,21.0
1152,19.0
1153,1248.0
1154,1181.0
1155,2742.0
1156,1465.0
1157,8.0
1158,6.0
1159,369.0
1160,3.0
1161,265.0
1162,14399.0
1163,38.0
1164,946.0
1165,12809.0
1166,2025.0
1167,4.0
1168,2102.0
1169,3193.0
1170,3778.0
1171,766.0
1172,43.0
1173,293.0
1174,17.0
1175,1031.0
1176,25.0
1177,3.0
1178,7.0
1179,4.0
1180,23.0
1181,18.0
1182,41.0
1183,46.0
1184,39.0
1185,15.0
1186,11.0
1187,1891.0
1188,75.0
1189,84.0
1190,3.0
1191,13.0
1192,1066.0
1193,19551.0
1194,1548.0
1195,6.0
1196,30.0
1197,132.0
1198,472.0
1199,16.0
1200,427.0
1201,4927.0
1202,348.0
1203,7.0
1204,7.0
1205,403.0
1206,771.0
1207,3.0
1208,10371.0
1209,56.0
1210,26.0
1211,343.0
1212,661.0
1213,1146.0
1214,1.0
1215,3645.0
1216,1404.0
1217,1.0
1218,4611.0
1219,2559.0
1220,4025.0
1221,6625.0
1222,13434.0
1223,858.0
1224,10.0
1225,573.0
1226,4368.0
1227,4.0
1228,204.0
1229,15.0
1230,14.0
1231,311.0
1232,6487.0
1233,15.0
1234,108.0
1235,1697.0
1236,726.0
1237,2632.0
1238,20.0
1239,11378.0
1240,2893.0
1241,2250.0
1242,46.0
1243,20.0
1244,16.0
1245,4.0
1246,5.0
1247,5.0
1248,3159.0
1249,18.0
1250,2026.0
1251,1649.0
1252,20.0
1253,3333.0
1254,2414.0
1255,1.0
1256,96.0
1257,3.0
1258,9.0
1259,74.0
1260,2575.0
1261,1330.0
1262,245.0
1263,4356.0
1264,37.0
1265,3.0
1266,3.0
1267,4.0
1268,156.0
1269,15.0
1270,15.0
1271,2338.0
1272,72.0
1273,6.0
1274,876.0
1275,3181.0
1276,3037.0
1277,3.0
1278,66.0
1279,861.0
1280,502.0
1281,2.0
1282,1230.0
1283,17.0
1284,4495.0
1285,22.0
1286,1.0
1287,24.0
1288,46.0
1289,53.0
1290,628.0
1291,10.0
1292,236.0
1293,11881.0
1294,251.0
1295,14.0
1296,14926.0
1297,50.0
1298,18.0
1299,48.0
1300,1120.0
1301,207.0
1302,198.0
1303,35.0
1304,50.0
1305,3291.0
1306,20.0
1307,3452.0
1308,19.0
1309,15.0
1310,1083.0
1311,5.0
1312,50.0
1313,2867.0
1314,20.0
1315,531.0
1316,4.0
1317,4796.0
1318,3561.0
1319,30.0
1320,50.0
1321,391.0
1322,2.0
1323,5.0
1324,20.0
1325,1206.0
1326,17350.0
1327,18233.0
1328,1027.0
1329,124.0
1330,564.0
1331,5252.0
1332,50.0
1333,41.0
1334,103.0
1335,95.0
1336,2920.0
1337,54.0
1338,1.0
1339,10.0
1340,70.0
1341,395.0
1342,239.0
1343,32.0
1344,51.0
1345,85.0
1346,4.0
1347,33.0
1348,106.0
1349,65.0
1350,222.0
1351,3.0
1352,2428.0
1353,43.0
1354,814.0
1355,4.0
1356,2639.0
1357,1.0
1358,19.0
1359,1230.0
1360,5.0
1361,3778.0
1362,1281.0
1363,53.0
1364,1452.0
1365,1912.0
1366,562.0
1367,9410.0
1368,48.0
1369,3256.0
1370,18828.0
1371,2.0
1372,3153.0
1373,40.0
1374,12.0
1375,6363.0
1376,396.0
1377,4216.0
1378,6216.0
1379,5.0
1380,41.0
1381,5755.0
1382,1336.0
1383,53.0
1384,216.0
1385,5.0
1386,47.0
1387,3362.0
1388,619.0
1389,2932.0
1390,3.0
1391,2780.0
1392,10906.0
1393,5337.0
1394,1008.0
1395,33.0
1396,10.0
1397,103.0
1398,559.0
1399,6.0
1400,1021.0
1401,5886.0
1402,52.0
1403,4.0
1404,2201.0
1405,981.0
1406,31.0
1407,596.0
1408,11.0
1409,20.0
1410,4756.0
1411,3283.0
1412,1117.0
1413,29.0
1414,30.0
1415,5.0
1416,20.0
1417,2028.0
1418,49.0
1419,4.0
1420,1.0
1421,10.0
1422,40.0
1423,51.0
1424,6.0
1425,43.0
1426,5504.0
1427,20.0
1428,23.0
1429,5.0
1430,197.0
1431,2599.0
1432,18.0
1433,14.0
1434,5534.0
1435,132.0
1436,615.0
1437,405.0
1438,15.0
1439,13.0
1440,1725.0
1441,4150.0
1442,17.0
1443,750.0
1444,11.0
1445,2906.0
1446,359.0
1447,21.0
1448,36.0
1449,4767.0
1450,31.0
1451,28.0
1452,20.0
1453,97.0
1454,6191.0
1455,613.0
1456,1174.0
1457,32.0
1458,20.0
1459,2673.0
1460,129.0
1461,1071.0
1462,1.0
1463,50.0
1464,4.0
1465,488.0
1466,1497.0
1467,14.0
1468,320.0
1469,370.0
1470,2.0
1471,11037.0
1472,2822.0
1473,13.0
1474,1236.0
1475,39.0
1476,21.0
1477,22.0
1478,10.0
1479,6.0
1480,7.0
1481,336.0
1482,7.0
1483,5018.0
1484,21.0
1485,42.0
1486,55.0
1487,7.0
1488,3200.0
1489,30.0
1490,18665.0
1491,18.0
1492,4842.0
1493,15.0
1494,616.0
1495,5.0
1496,1258.0
1497,52.0
1498,2980.0
1499,417.0
1500,261.0
1501,845.0
1502,6285.0
1503,266.0
1504,4306.0
1505,25.0
1506,148.0
1507,4.0
1508,8.0
1509,40.0
1510,19.0
1511,11.0
1512,14.0
1513,40.0
1514,21.0
1515,1326.0
1516,507.0
1517,6.0
1518,43.0
1519,1418.0
1520,22.0
1521,48.0
1522,1310.0
1523,828.0
1524,629.0
1525,6.0
1526,911.0
1527,29.0
1528,608.0
1529,885.0
1530,69.0
1531,5233.0
1532,40.0
1533,6280.0
1534,4.0
1535,317.0
1536,1322.0
1537,18.0
1538,85.0
1539,5.0
1540,15.0
1541,20.0
1542,568.0
1543,33.0
1544,34.0
1545,1.0
1546,19.0
1547,2083.0
1548,40.0
1549,52.0
1550,2006.0
1551,398.0
1552,675.0
1553,98.0
1554,20.0
1555,1406.0
1556,399.0
1557,6303.0
1558,18.0
1559,269.0
1560,768.0
1561,2641.0
1562,6.0
1563,459.0
1564,30.0
1565,398.0
1566,50.0
1567,960.0
1568,361.0
1569,5225.0
1570,763.0
1571,4.0
1572,8.0
1573,999.0
1574,19.0
1575,33.0
1576,6.0
1577,42.0
1578,4393.0
1579,1104.0
1580,8.0
1581,80.0
1582,334.0
1583,1.0
1584,1.0
1585,11.0
1586,6324.0
1587,14.0
1588,49.0
1589,2446.0
1590,1.0
1591,6.0
1592,719.0
1593,1998.0
1594,51.0
1595,321.0
1596,44.0
1597,1498.0
1598,2.0
1599,2118.0
1600,2230.0
1601,802.0
1602,1.0
1603,721.0
1604,45.0
1605,17.0
1606,13.0
1607,2813.0
1608,5.0
1609,27.0
1610,1024.0
1611,2.0
1612,5.0
1613,17.0
1614,1183.0
1615,244.0
1616,398.0
1617,1218.0
1618,6514.0
1619,20.0
1620,988.0
1621,513.0
1622,943.0
1623,15.0
1624,18.0
1625,34.0
1626,730.0
1627,18.0
1628,95.0
1629,46.0
1630,13.0
1631,23.0
1632,18.0
1633,4.0
1634,19.0
1635,655.0
1636,1840.0
1637,475.0
1638,5.0
1639,11.0
1640,918.0
1641,13.0
1642,5.0
1643,5.0
1644,14.0
1645,724.0
1646,432.0
1647,2.0
1648,2.0
1649,19.0
1650,74.0
1651,5543.0
1652,12605.0
1653,922.0
1654,37.0
1655,11.0
1656,2199.0
1657,1167.0
1658,90.0
1659,1.0
1660,3220.0
1661,3.0
1662,241.0
1663,39.0
1664,1273.0
1665,15975.0
1666,13.0
1667,4.0
1668,877.0
1669,824.0
1670,65.0
1671,53.0
1672,6260.0
1673,2376.0
1674,5.0
1675,2940.0
1676,23.0
1677,4778.0
1678,98.0
1679,3022.0
1680,5585.0
1681,27.0
1682,36.0
1683,210.0
1684,127.0
1685,37.0
1686,31.0
1687,7.0
1688,28.0
1689,24.0
1690,4.0
1691,2031.0
1692,76.0
1693,1048.0
1694,1033.0
1695,31.0
1696,901.0
1697,3401.0
1698,14.0
1699,3700.0
1700,874.0
1701,31.0
1702,2526.0
1703,31.0
1704,3.0
1705,281.0
1706,3216.0
1707,22.0
1708,19.0
1709,31.0
1710,532.0
1711,529.0
1712,6030.0
1713,35.0
1714,45.0
1715,2917.0
1716,1294.0
1717,6451.0
1718,2.0
1719,296.0
1720,45.0
1721,10.0
1722,21.0
1723,24.0
1724,46.0
1725,120.0
1726,1975.0
1727,1001.0
1728,11.0
1729,90.0
1730,15.0
1731,10.0
1732,12.0
1733,74.0
1734,3.0
1735,6506.0
1736,42.0
1737,7.0
1738,1006.0
1739,4180.0
1740,11.0
1741,14.0
1742,17.0
1743,1122.0
1744,8480.0
1745,29.0
1746,1697.0
1747,16.0
1748,1206.0
1749,40.0
1750,5962.0
1751,16.0
1752,3.0
1753,18.0
1754,5.0
1755,19.0
1756,6485.0
1757,32.0
1758,1704.0
1759,360.0
1760,9.0
1761,2274.0
1762,2.0
1763,3171.0
1764,1222.0
1765,862.0
1766,6.0
1767,47.0
1768,1677.0
1769,92.0
1770,36.0
1771,2977.0
1772,3.0
1773,2.0
1774,2.0
1775,15.0
1776,480.0
1777,17.0
1778,792.0
1779,5608.0
1780,20.0
1781,2172.0
1782,5.0
1783,2330.0
1784,3159.0
1785,4.0
1786,1.0
1787,194.0
1788,2.0
1789,29.0
1790,2767.0
1791,896.0
1792,8.0
1793,2045.0
1794,2.0
1795,7.0
1796,6134.0
1797,126.0
1798,7.0
1799,6.0
1800,311.0
1801,82.0
1802,3500.0
1803,518.0
1804,17.0
1805,2568.0
1806,37.0
1807,18.0
1808,743.0
1809,190.0
1810,6.0
1811,11.0
1812,1.0
1813,5201.0
1814,3.0
1815,5493.0
1816,21.0
1817,16.0
1818,49.0
1819,3200.0
1820,8.0
1821,13.0
1822,4.0
1823,16.0
1824,49.0
1825,27.0
1826,121.0
1827,41.0
1828,5.0
1829,3575.0
1830,22.0
1831,23.0
1832,436.0
1833,11.0
1834,2859.0
1835,3019.0
1836,73.0
1837,15.0
1838,12.0
1839,1103.0
1840,1149.0
1841,10.0
1842,132.0
1843,1052.0
1844,5577.0
1845,3107.0
1846,533.0
1847,16231.0
1848,1072.0
1849,295.0
1850,49.0
1851,53.0
1852,5.0
1853,1.0
1854,8.0
1855,52.0
1856,16.0
1857,868.0
1858,369.0
1859,3937.0
1860,14.0
1861,441.0
1862,5.0
1863,2.0
1864,595.0
1865,1662.0
1866,43.0
1867,48.0
1868,672.0
1869,1062.0
1870,40.0
1871,1301.0
1872,34.0
1873,14.0
1874,2121.0
1875,199.0
1876,1150.0
1877,22.0
1878,1535.0
1879,2288.0
1880,20.0
1881,8750.0
1882,3.0
1883,13.0
1884,3799.0
1885,3.0
1886,105.0
1887,1850.0
1888,3676.0
1889,764.0
1890,15.0
1891,19.0
1892,298.0
1893,4.0
1894,77.0
1895,935.0
1896,14.0
1897,48.0
1898,65.0
1899,28.0
1900,16.0
1901,7499.0
1902,9.0
1903,6.0
1904,31.0
1905,3.0
1906,496.0
1907,2382.0
1908,5732.0
1909,12094.0
1910,22.0
1911,10.0
1912,46.0
1913,50.0
1914,531.0
1915,19.0
1916,277.0
1917,424.0
1918,47.0
1919,554.0
1920,19.0
1921,45.0
1922,39.0
1923,12410.0
1924,77.0
1925,53.0
1926,13.0
1927,21.0
1928,27.0
1929,191.0
1930,4912.0
1931,8.0
1932,5.0
1933,3.0
1934,299.0
1935,58.0
1936,99.0
1937,30.0
1938,1.0
1939,5785.0
1940,7017.0
1941,39.0
1942,4.0
1943,2227.0
1944,19.0
1945,11.0
1946,6.0
1947,2674.0
1948,29.0
1949,2.0
1950,15.0
1951,51.0
1952,2.0
1953,24.0
1954,25.0
1955,1.0
1956,19.0
1957,16.0
1958,48.0
1959,20.0
1960,97.0
1961,2071.0
1962,5136.0
1963,16.0
1964,2.0
1965,2.0
1966,3419.0
1967,17.0
1968,1333.0
1969,4545.0
1970,3029.0
1971,195.0
1972,4.0
1973,16.0
1974,19.0
1975,45.0
1976,16.0
1977,626.0
1978,23.0
1979,846.0
1980,45.0
1981,3086.0
1982,21.0
1983,365.0
1984,109.0
1985,1812.0
1986,19.0
1987,54.0
1988,78.0
1989,945.0
1990,472.0
1991,25.0
1992,1099.0
1993,4061.0
1994,27.0
1995,1149.0
1996,103.0
1997,379.0
1998,19.0
1999,254.0
2000,1287.0
2001,1.0
2002,317.0
2003,41.0
2004,606.0
2005,97.0
2006,38.0
2007,89.0
2008,73.0
2009,32.0
2010,39.0
2011,20.0
2012,2405.0
2013,30.0
2014,3091.0
2015,2999.0
2016,403.0
2017,39.0
2018,37.0
2019,19.0
2020,5.0
2021,18.0
2022,2992.0
2023,4624.0
2024,12.0
2025,486.0
2026,59.0
2027,12.0
2028,243.0
2029,4.0
2030,43.0
2031,17012.0
2032,36.0
2033,3.0
2034,37.0
2035,2.0
2036,20.0
2037,16.0
2038,36.0
2039,420.0
2040,7.0
2041,52.0
2042,1.0
2043,4883.0
2044,4.0
2045,4.0
2046,3.0
2047,1656.0
2048,54.0
2049,10.0
2050,45.0
2051,619.0
2052,2458.0
2053,42.0
2054,1290.0
2055,59.0
2056,1062.0
2057,17.0
2058,4.0
2059,2700.0
2060,5467.0
2061,15.0
2062,5514.0
2063,440.0
2064,94.0
2065,35.0
2066,15.0
2067,6.0
2068,712.0
2069,5.0
2070,23.0
2071,640.0
2072,17.0
2073,2.0
2074,282.0
2075,90.0
2076,592.0
2077,2.0
2078,2.0
2079,52.0
2080,21.0
2081,15.0
2082,19.0
2083,430.0
2084,6.0
2085,3995.0
2086,40.0
2087,32.0
2088,1910.0
2089,55.0
2090,2.0
2091,1270.0
2092,4.0
2093,2442.0
2094,10.0
2095,3.0
2096,304.0
2097,4883.0
2098,3409.0
2099,252.0
2100,18.0
2101,206.0
2102,6.0
2103,38.0
2104,727.0
2105,6.0
2106,10.0
2107,29.0
2108,16058.0
2109,361.0
2110,9.0
2111,874.0
2112,3.0
2113,6.0
2114,3.0
2115,944.0
2116,2090.0
2117,39.0
2118,6.0
2119,1928.0
2120,28.0
2121,3918.0
2122,101.0
2123,18.0
2124,570.0
2125,15.0
2126,476.0
2127,721.0
2128,1212.0
2129,6.0
2130,32.0
2131,9.0
2132,6.0
2133,4.0
2134,6.0
2135,2.0
2136,6.0
2137,52.0
2138,5.0
2139,994.0
2140,5.0
2141,77.0
2142,332.0
2143,326.0
2144,105.0
2145,16.0
2146,39.0
2147,43.0
2148,105.0
2149,12.0
2150,15.0
2151,47.0
2152,12.0
2153,21.0
2154,144.0
2155,28.0
2156,3691.0
2157,184.0
2158,238.0
2159,623.0
2160,10.0
2161,5.0
2162,14.0
2163,17423.0
2164,5.0
2165,3.0
2166,8.0
2167,21.0
2168,47.0
2169,21.0
2170,6107.0
2171,2690.0
2172,6.0
2173,31.0
2174,43.0
2175,1433.0
2176,41.0
2177,15.0
2178,69.0
2179,11.0
2180,107.0
2181,6.0
2182,6066.0
2183,542.0
2184,1083.0
2185,526.0
2186,3157.0
2187,1502.0
2188,3120.0
2189,1.0
2190,7.0
2191,66.0
2192,6.0
2193,531.0
2194,11.0
2195,106.0
2196,506.0
2197,112.0
2198,2742.0
2199,5379.0
2200,14.0
2201,7.0
2202,19.0
2203,24.0
2204,20.0
2205,3278.0
2206,44.0
2207,26.0
2208,7.0
2209,543.0
2210,12856.0
2211,2493.0
2212,25.0
2213,997.0
2214,3086.0
2215,6268.0
2216,31.0
2217,1203.0
2218,7.0
2219,3146.0
2220,1437.0
2221,50.0
2222,104.0
2223,5312.0
2224,1.0
2225,694.0
2226,14.0
2227,15.0
2228,608.0
2229,2789.0
2230,2071.0
2231,18.0
2232,2760.0
2233,6.0
2234,15.0
2235,2965.0
2236,1138.0
2237,36.0
2238,1341.0
2239,9.0
2240,730.0
2241,145.0
2242,16.0
2243,105.0
2244,1183.0
2245,1059.0
2246,3679.0
2247,787.0
2248,216.0
2249,3186.0
2250,22.0
2251,19.0
2252,16.0
2253,7.0
2254,1.0
2255,1038.0
2256,2747.0
2257,47.0
2258,1.0
2259,28.0
2260,3.0
2261,17.0
2262,509.0
2263,657.0
2264,1606.0
2265,21.0
2266,97.0
2267,130.0
2268,6568.0
2269,13.0
2270,182.0
2271,5.0
2272,6896.0
2273,33.0
2274,3778.0
2275,3278.0
2276,14.0
2277,124.0
2278,116.0
2279,38.0
2280,402.0
2281,5.0
2282,31.0
2283,1284.0
2284,2.0
2285,7.0
2286,6987.0
2287,1.0
2288,47.0
2289,5.0
2290,440.0
2291,336.0
2292,2819.0
2293,45.0
2294,1630.0
2295,41.0
2296,13.0
2297,15.0
2298,23.0
2299,74.0
2300,147.0
2301,45.0
2302,32.0
2303,4.0
2304,42.0
2305,54.0
2306,13.0
2307,3.0
2308,1105.0
2309,412.0
2310,5413.0
2311,4.0
2312,1234.0
2313,27.0
2314,1475.0
2315,3863.0
2316,363.0
2317,36.0
2318,30.0
2319,820.0
2320,2472.0
2321,31.0
2322,3425.0
2323,50.0
2324,10.0
2325,101.0
2326,581.0
2327,4777.0
2328,1.0
2329,620.0
2330,39.0
2331,3.0
2332,1259.0
2333,2.0
2334,1112.0
2335,52.0
2336,47.0
2337,16.0
2338,2436.0
2339,1882.0
2340,1615.0
2341,53.0
2342,978.0
2343,632.0
2344,741.0
2345,6069.0
2346,602.0
2347,508.0
2348,3749.0
2349,13.0
2350,3616.0
2351,22.0
2352,1.0
2353,2.0
2354,6.0
2355,4.0
2356,19.0
2357,5651.0
2358,5112.0
2359,26.0
2360,24.0
2361,34.0
2362,5.0
2363,34.0
2364,813.0
2365,22.0
2366,1666.0
2367,52.0
2368,83.0
2369,1910.0
2370,4.0
2371,1849.0
2372,30.0
2373,53.0
2374,5.0
2375,108.0
2376,297.0
2377,673.0
2378,874.0
2379,7.0
2380,550.0
2381,52.0
2382,35.0
2383,1.0
2384,3.0
2385,1262.0
2386,45.0
2387,34.0
2388,2948.0
2389,630.0
2390,2256.0
2391,7.0
2392,31.0
2393,2692.0
2394,48.0
2395,15.0
2396,43.0
2397,42.0
2398,850.0
2399,67.0
2400,5.0
2401,43.0
2402,17.0
2403,446.0
2404,873.0
2405,32.0
2406,32.0
2407,37.0
2408,5.0
2409,6.0
2410,4306.0
2411,4704.0
2412,2.0
2413,33.0
2414,1015.0
2415,53.0
2416,3644.0
2417,114.0
2418,1642.0
2419,87.0
2420,136.0
2421,16.0
2422,2023.0
2423,18.0
2424,903.0
2425,5.0
2426,613.0
2427,56.0
2428,99.0
2429,11.0
2430,214.0
2431,4.0
2432,1059.0
2433,32.0
2434,13.0
2435,10.0
2436,5.0
2437,232.0
2438,24.0
2439,1072.0
2440,1028.0
2441,4.0
2442,4615.0
2443,128.0
2444,5.0
2445,47.0
2446,5137.0
2447,17809.0
2448,1195.0
2449,782.0
2450,16.0
2451,23.0
2452,150.0
2453,19.0
2454,12.0
2455,53.0
2456,5.0
2457,47.0
2458,156.0
2459,3.0
2460,17.0
2461,544.0
2462,3.0
2463,18.0
2464,1.0
2465,7.0
2466,2933.0
2467,359.0
2468,16.0
2469,19.0
2470,3975.0
2471,6.0
2472,20.0
2473,32.0
2474,1023.0
2475,27.0
2476,34.0
2477,7.0
2478,19.0
2479,5251.0
2480,713.0
2481,1028.0
2482,114.0
2483,12.0
2484,2266.0
2485,19723.0
2486,85.0
2487,29.0
2488,1.0
2489,17.0
2490,2464.0
2491,32.0
2492,2996.0
2493,53.0
2494,6582.0
2495,92.0
2496,4.0
2497,104.0
2498,45.0
2499,1219.0
2500,30.0
2501,2.0
2502,19.0
2503,6189.0
2504,4.0
2505,50.0
2506,3857.0
2507,128.0
2508,1785.0
2509,22.0
2510,20.0
2511,711.0
2512,13017.0
2513,2519.0
2514,51.0
2515,18399.0
2516,9.0
2517,201.0
2518,173.0
2519,31.0
2520,3.0
2521,1152.0
2522,1295.0
2523,49.0
2524,18.0
2525,27.0
2526,44.0
2527,70.0
2528,50.0
2529,1368.0
2530,1026.0
2531,18.0
2532,1045.0
2533,43.0
2534,23.0
2535,556.0
2536,15.0
2537,19.0
2538,4.0
2539,18893.0
2540,819.0
2541,16.0
2542,5.0
2543,2123.0
2544,664.0
2545,264.0
2546,583.0
2547,34.0
2548,44.0
2549,17.0
2550,16.0
2551,16.0
2552,30.0
2553,19.0
2554,446.0
2555,3180.0
2556,1539.0
2557,44.0
2558,44.0
2559,2.0
2560,1328.0
2561,1671.0
2562,2866.0
2563,393.0
2564,4.0
2565,83.0
2566,33.0
2567,6.0
2568,17.0
2569,9.0
2570,24.0
2571,822.0
2572,54.0
2573,40.0
2574,37.0
2575,46.0
2576,7.0
2577,30.0
2578,290.0
2579,30.0
2580,9.0
2581,31.0
2582,193.0
2583,127.0
2584,5070.0
2585,1603.0
2586,530.0
2587,394.0
2588,20.0
2589,1930.0
2590,54.0
2591,1.0
2592,12228.0
2593,1172.0
2594,49.0
2595,27.0
2596,32.0
2597,11.0
2598,7.0
2599,867.0
2600,96.0
2601,4272.0
2602,16.0
2603,15.0
2604,366.0
2605,15547.0
2606,387.0
2607,570.0
2608,12341.0
2609,8.0
2610,3363.0
2611,3602.0
2612,13.0
2613,27.0
2614,17.0
2615,15.0
2616,1269.0
2617,5937.0
2618,1.0
2619,3969.0
2620,4.0
2621,1081.0
2622,88.0
2623,3.0
2624,4461.0
2625,6534.0
2626,1232.0
2627,46.0
2628,1.0
2629,8182.0
2630,38.0
2631,8.0
2632,8627.0
2633,14.0
2634,43.0
2635,4313.0
2636,27.0
2637,2087.0
2638,40.0
2639,339.0
2640,72.0
2641,119.0
2642,1087.0
2643,365.0
2644,49.0
2645,11.0
2646,6374.0
2647,19.0
2648,4.0
2649,43.0
2650,609.0
2651,4793.0
2652,14.0
2653,28.0
2654,2915.0
2655,63.0
2656,2908.0
2657,18.0
2658,11220.0
2659,50.0
2660,28.0
2661,5109.0
2662,36.0
2663,3.0
2664,20.0
2665,4.0
2666,3246.0
2667,2944.0
2668,1167.0
2669,222.0
2670,3447.0
2671,3226.0
2672,30.0
2673,54.0
2674,1.0
2675,478.0
2676,5378.0
2677,8826.0
2678,53.0
2679,5296.0
2680,4.0
2681,3825.0
2682,1435.0
2683,573.0
2684,17.0
2685,657.0
2686,17.0
2687,463.0
2688,19.0
2689,309.0
2690,16144.0
2691,6642.0
2692,64.0
2693,1225.0
2694,7.0
2695,1469.0
2696,20.0
2697,1438.0
2698,382.0
2699,38.0
2700,4.0
2701,13.0
2702,12.0
2703,3057.0
2704,5067.0
2705,3414.0
2706,6202.0
2707,4919.0
2708,17.0
2709,17115.0
2710,8.0
2711,16.0
2712,74.0
2713,16.0
2714,1742.0
2715,115.0
2716,4.0
2717,15.0
2718,5.0
2719,28.0
2720,2843.0
2721,41.0
2722,31.0
2723,6109.0
2724,101.0
2725,6851.0
2726,2232.0
2727,1312.0
2728,5.0
2729,39.0
2730,14.0
2731,51.0
2732,4625.0
2733,46.0
2734,53.0
2735,20.0
2736,543.0
2737,1360.0
2738,20.0
2739,4098.0
2740,138.0
2741,84.0
2742,27.0
2743,9.0
2744,706.0
2745,72.0
2746,18.0
2747,2507.0
2748,6.0
2749,34.0
2750,4972.0
2751,32.0
2752,20.0
2753,3330.0
2754,104.0
2755,85.0
2756,579.0
2757,4421.0
2758,2.0
2759,724.0
2760,25.0
2761,7308.0
2762,493.0
2763,2605.0
2764,6064.0
2765,1258.0
2766,727.0
2767,1309.0
2768,12.0
2769,128.0
2770,1.0
2771,2107.0
2772,45.0
2773,17.0
2774,37.0
2775,37.0
2776,22.0
2777,6260.0
2778,20.0
2779,6651.0
2780,15.0
2781,19.0
2782,6.0
2783,4789.0
2784,24.0
2785,31.0
2786,6.0
2787,54.0
2788,1486.0
2789,28.0
2790,46.0
2791,4.0
2792,14.0
2793,54.0
2794,35.0
2795,21.0
2796,3.0
2797,20.0
2798,5776.0
2799,3.0
2800,1389.0
2801,2846.0
2802,145.0
2803,5750.0
2804,5420.0
2805,1.0
2806,5.0
2807,7.0
2808,3.0
2809,1113.0
2810,2987.0
2811,44.0
2812,13.0
2813,169.0
2814,8.0
2815,48.0
2816,91.0
2817,36.0
2818,14.0
2819,22.0
2820,438.0
2821,3.0
2822,50.0
2823,848.0
2824,5668.0
2825,5499.0
2826,3264.0
2827,1008.0
2828,32.0
2829,24.0
2830,12.0
2831,2116.0
2832,1045.0
2833,3275.0
2834,17.0
2835,36.0
2836,4308.0
2837,7.0
2838,2065.0
2839,461.0
2840,1033.0
2841,10.0
2842,15.0
2843,4091.0
2844,2.0
2845,58.0
2846,381.0
2847,34.0
2848,997.0
2849,4.0
2850,12.0
2851,15.0
2852,551.0
2853,338.0
2854,5.0
2855,44.0
2856,8.0
2857,17.0
2858,10.0
2859,2830.0
2860,50.0
2861,1789.0
2862,49.0
2863,10.0
2864,1633.0
2865,1990.0
2866,1030.0
2867,26.0
2868,3965.0
2869,27.0
2870,952.0
2871,105.0
2872,54.0
2873,3.0
2874,64.0
2875,13.0
2876,613.0
2877,4360.0
2878,53.0
2879,29.0
2880,36.0
2881,20.0
2882,7.0
2883,1001.0
2884,42.0
2885,22.0
2886,25.0
2887,1175.0
2888,6549.0
2889,400.0
2890,59.0
2891,2551.0
2892,18.0
2893,509.0
2894,19.0
2895,16.0
2896,372.0
2897,40.0
2898,3484.0
2899,354.0
2900,15.0
2901,5110.0
2902,17.0
2903,28.0
2904,4218.0
2905,1012.0
2906,2677.0
2907,3.0
2908,18.0
2909,10.0
2910,72.0
2911,5635.0
2912,194.0
2913,1050.0
2914,402.0
2915,13.0
2916,10414.0
2917,946.0
2918,369.0
2919,2970.0
2920,2805.0
2921,1402.0
2922,1.0
2923,4.0
2924,4702.0
2925,732.0
2926,7.0
2927,2971.0
2928,15.0
2929,43.0
2930,3956.0
2931,43.0
2932,6.0
2933,2885.0
2934,23.0
2935,51.0
2936,122.0
2937,7.0
2938,7.0
2939,152.0
2940,1200.0
2941,5907.0
2942,1084.0
2943,1790.0
2944,12.0
2945,958.0
2946,20.0
2947,49.0
2948,26.0
2949,32.0
2950,108.0
2951,42.0
2952,4142.0
2953,20.0
2954,2866.0
2955,482.0
2956,596.0
2957,12479.0
2958,8491.0
2959,2577.0
2960,1254.0
2961,40.0
2962,64.0
2963,79.0
2964,2.0
2965,1427.0
2966,38.0
2967,40.0
2968,1112.0
2969,6.0
2970,71.0
2971,18.0
2972,11.0
2973,6.0
2974,98.0
2975,2780.0
2976,174.0
2977,215.0
2978,32.0
2979,1279.0
2980,16.0
2981,1.0
2982,632.0
2983,873.0
2984,55.0
2985,126.0
2986,20.0
2987,44.0
2988,7.0
2989,490.0
2990,88.0
2991,3000.0
2992,30.0
2993,2.0
2994,2225.0
2995,1085.0
2996,2378.0
2997,839.0
2998,757.0
2999,6450.0
3000,1223.0
