time,PerHopSim1.flowGenerator3.flowCompletionTime:vector
0.000072342905,7.23429e-05
0.00500173335,0.00322806
0.007979290178,2.73479e-05
0.00981863023,4.64703e-05
0.016080661135,0.014247
0.016585710032,7.9566e-05
0.019372717173,4.96238e-05
0.02065490957,8.7483e-05
0.02149238295,4.32025e-05
0.022519462755,0.000155385
0.022817671682,7.08667e-05
0.023419494501,0.000150253
0.026137776341,0.000130104
0.028701790727,0.000199243
0.030651181577,0.00244018
0.031194670244,0.000364567
0.034092746908,0.000268976
0.036206018407,0.000167725
0.04209257314,0.000445501
0.043974650021,0.00404613
0.04438487351,0.000116313
0.044715830374,0.0131776
0.044868827854,0.000270475
0.04794446595,0.000126789
0.049868541769,3.42911e-05
0.050715261923,0.000415825
0.056647481721,0.00344556
0.057703302498,0.00030824
0.05785493759,0.0285397
0.062093184944,0.000308243
0.062913749673,0.0167404
0.064076532802,0.000488812
0.065373087816,0.000229985
0.066394819943,5.82225e-05
0.071173148119,0.000115244
0.073110051502,0.0718034
0.076682618923,0.01997
0.077710940648,0.00646367
0.082783959908,0.000225308
0.083899045217,6.5329e-05
0.084935334846,0.000588174
0.087952817254,0.00712694
0.090230921267,0.0110106
0.090714661175,6.84799e-05
0.091845992471,4.29701e-05
0.091912523332,0.00779698
0.092331090717,0.000269994
0.095538860676,0.000149207
0.096013004588,5.55487e-05
0.097772995791,0.015989
0.099412881587,8.91965e-05
0.102424893796,0.000617062
0.102721067146,0.00195831
0.106638609474,0.00773409
0.106735612454,0.00063714
0.109453837086,0.000932038
0.110266254811,0.000238904
0.110393359109,0.00807141
0.115131268861,0.0263884
0.115538204489,0.000310602
0.117475298581,0.0468618
0.117848721185,0.026618
0.118018312275,0.000308586
0.118924252593,9.82998e-05
0.120318026837,0.0352029
0.121251218886,0.00762917
0.122241473443,0.0374367
0.126249998948,0.00525782
0.126683138935,0.0400124
0.13050641651,0.0325842
0.132815273725,0.00822234
0.135070933015,0.117261
0.137496824332,0.000213881
0.13760017142,2.689e-05
0.138011113074,3.37632e-05
0.140787491846,0.0591575
0.142526961082,0.00142985
0.143377905406,0.00503359
0.144172740465,0.00886917
0.144880733721,0.0411159
0.154331377579,0.00125071
0.156390487755,0.000102835
0.156946049509,9.94625e-05
0.157461027135,0.00275494
0.162006171268,0.000133252
0.167837330781,0.0223767
0.174299281349,6.29399e-05
0.17504488127,0.00176219
0.175135498152,3.4928e-05
0.177045452795,3.4328e-05
0.177773302852,7.90593e-05
0.179050098467,8.30892e-05
0.184094661331,3.85615e-05
0.185128845991,7.6905e-05
0.187873141173,0.00512678
0.189987501884,7.6924e-05
0.191700018893,3.93616e-05
0.192430790415,3.89868e-05
0.193294632685,0.00482337
0.19949974334,9.51787e-05
0.203081686715,2.536e-05
0.204883403692,3.4328e-05
0.209996440812,0.00130788
0.215028522228,0.00614451
0.215677886681,4.4134e-05
0.220696213323,7.19981e-05
0.221887842189,0.00521309
0.225016634913,5.08504e-05
0.22670593,8.84623e-05
0.227986795316,0.000179806
0.228410145457,3.3328e-05
0.228591340601,0.000151597
0.231735953096,0.000163686
0.232523477771,0.000303388
0.233544435793,3.56137e-05
0.239020060596,0.000351302
0.241968534791,0.00830113
0.250334325248,4.81638e-05
0.257669874068,0.000918611
0.264842105015,4.54772e-05
0.266426874061,3.4928e-05
0.270168991284,0.000101895
0.272902087597,7.23429e-05
0.279462709744,0.00173454
0.28118462978,0.000152605
0.282648808302,0.000120253
0.283152370673,0.000200802
0.283770248865,0.00883945
0.290347264729,3.3328e-05
0.292558345489,0.000186522
0.292715523716,0.0016104
0.294099238624,3.3328e-05
0.295616229275,0.000660701
0.295997417367,3.56137e-05
0.299330265474,9.38354e-05
0.301090526514,0.00174742
0.312852263398,0.00735428
0.314846745682,3.1328e-05
0.317831923632,0.000182492
0.322528934367,0.000288671
0.325483769294,0.00650586
0.327207984457,4.33392e-05
0.327874787523,0.00723438
0.328135571393,7.90593e-05
0.329932553917,3.56137e-05
0.333790682618,0.000146223
0.334945684323,0.000158646
0.336643237895,0.00411499
0.336992634772,0.00640946
0.338965896655,0.000108612
0.344851033145,3.60743e-05
0.348969520174,0.00110936
0.349074048177,0.000113385
0.352048609781,0.000113138
0.352295917222,0.000330549
0.355694073915,0.00272552
0.356328240338,0.00845539
0.357086671546,0.000475328
0.357915871338,4.20448e-05
0.358340909015,0.00118324
0.362568862874,0.00167554
0.363800621397,0.00490128
0.366362163655,0.000663196
0.366617530727,0.000859507
0.368164860919,0.00137667
0.369326096262,6.15966e-05
0.37092096516,6.02534e-05
0.373466106436,0.00148682
0.375355978886,4.81638e-05
0.376937628207,6.15966e-05
0.386470390385,0.00276091
0.387829792836,0.000125535
0.388344407073,0.00585786
0.391753816614,2.60551e-05
0.395927248475,0.00192573
0.396109657542,0.00741943
0.4019973245,0.0120965
0.402324980811,8.98056e-05
0.403498746011,3.58652e-05
0.403575020137,0.000385159
0.404595165928,3.5328e-05
0.407116340867,0.00169906
0.413039363869,3.5464e-05
0.415516148761,0.000136287
0.418537300414,9.78653e-05
0.420733427988,0.00782695
0.425834547876,0.000170403
0.431938364934,0.000117441
0.432478195912,0.000106004
0.433032971822,6.62512e-05
0.436701446631,0.00859245
0.436944444041,0.00274757
0.443865430895,0.000442135
0.444624672633,0.00324964
0.445448922811,0.00642944
0.445946936016,5.21937e-05
0.449439765934,2.536e-05
0.451412306665,0.00157145
0.451900227433,0.000326223
0.456479200253,3.5828e-05
0.464373949687,5.62235e-05
0.467922298657,0.000170403
0.469799170224,9.51787e-05
0.470057495101,2.536e-05
0.475635396343,0.00412503
0.477147088203,0.00100055
0.477455501858,6.15966e-05
0.48063027258,8.44325e-05
0.48760588207,0.00106194
0.488531273995,0.000198898
0.489409300444,2.77509e-05
0.489487433448,0.00685673
0.489621007148,0.00333419
0.489999071711,4.81638e-05
0.497522696062,0.00701712
0.499553494487,0.00332859
0.50083637229,0.000855477
0.50215561622,0.000128761
0.50668597312,3.7392e-05
0.508543594092,4.99509e-05
0.509335936744,0.000143592
0.514379795596,4.18727e-05
0.522514718412,0.00258118
0.527288752959,7.36862e-05
0.537916544488,0.00025799
0.538596019474,0.00271019
0.539869452225,0.0341906
0.540009296955,0.0140361
0.54339059998,3.3328e-05
0.545542090196,4.54772e-05
0.547006751026,0.00141697
0.549674159497,9.11489e-05
0.553996643204,0.00140219
0.554866440684,4.27907e-05
0.560473981447,3.42024e-05
0.566612648682,0.00202226
0.566794070287,0.000162343
0.567105744909,0.00710963
0.568421312511,3.5328e-05
0.569956475633,3.7424e-05
0.57082879352,2.536e-05
0.572683091215,6.83131e-05
0.573801221323,3.1328e-05
0.576548242917,3.4928e-05
0.577286079014,3.1328e-05
0.577990929836,9.24921e-05
0.584226128457,4.68205e-05
0.584685549903,3.4928e-05
0.586417314549,7.75057e-05
0.589549987353,0.00347757
0.590813445092,0.000109955
0.591479755426,4.54772e-05
0.592279234367,0.00029911
0.594366703359,9.81815e-05
0.594537332355,4.63515e-05
0.595375566799,8.64546e-05
0.595826910041,9.85474e-05
0.596242974549,4.14474e-05
0.598285325149,0.00628141
0.598406252655,0.000554359
0.598525884164,0.000445508
0.60384980014,0.000170403
0.60578795943,0.0137843
0.607446920491,0.000262541
0.607840333621,0.000103847
0.609484375195,2.60469e-05
0.612549435574,0.000138993
0.61259796261,0.000126511
0.617055088339,0.0068294
0.617162414174,0.00620663
0.617845578785,0.00355475
0.618683761845,0.0157658
0.620947495741,0.00200667
0.623492942255,0.000296671
0.623998365929,6.69698e-05
0.634196925353,7.50295e-05
0.637028543153,0.000225344
0.638021092739,0.00342689
0.638172740479,0.000438369
0.639617610583,0.00341704
0.640211348178,0.000124824
0.640530880721,4.19301e-05
0.640991626835,0.000100873
0.641068161979,0.00658827
0.641488911925,3.3328e-05
0.646149077833,3.5828e-05
0.650280790828,3.5328e-05
0.65374424585,3.21418e-05
0.656963235561,4.14933e-05
0.658617635227,0.00781285
0.661650495432,8.61951e-05
0.662654739434,0.00331788
0.664971339516,0.00817021
0.665544672323,0.00032085
0.666098320985,3.25738e-05
0.667054312196,0.001061
0.670030830659,0.000142194
0.671077259124,0.000593537
0.672310179271,2.536e-05
0.675102680859,3.5328e-05
0.675143752497,3.4328e-05
0.675369356994,5.08504e-05
0.675527590769,0.000101142
0.681948340334,0.000284002
0.682746250472,7.38254e-05
0.683863667578,6.12313e-05
0.684479028037,0.00912346
0.685869881056,3.4328e-05
0.691393182198,4.68205e-05
0.691504354273,3.56137e-05
0.695577076694,4.75365e-05
0.695804091548,5.84369e-05
0.697337729094,0.000478582
0.697803959746,0.00242939
0.698126236429,0.000119922
0.700604498729,3.57014e-05
0.702633996558,0.00012714
0.707428025625,0.000153342
0.707571827405,0.00513534
0.708272814059,0.000278959
0.70939843822,0.000112431
0.710626396353,0.00133449
0.713444404146,0.0115114
0.715680573172,8.40231e-05
0.717834919633,0.0219878
0.724947795805,0.00717186
0.725532162573,0.0127371
0.728815147044,2.70951e-05
0.730223620583,0.0321736
0.730892298277,0.0173144
0.736910633755,0.00111387
0.737137447769,3.59134e-05
0.738489964933,3.25869e-05
0.73963427973,0.000149953
0.744365155249,0.00435149
0.74519916534,0.00047484
0.745251088946,0.0337536
0.747468527592,0.0014801
0.747658376257,0.000155626
0.748924818875,8.04026e-05
0.752007015563,5.48802e-05
0.753667903344,9.92086e-05
0.758509457532,3.71304e-05
0.759513953149,5.03575e-05
0.759706853917,0.000342181
0.762603615451,0.000106881
0.763067048152,0.000160462
0.763608416841,0.000233425
0.764803913194,6.39141e-05
0.76768928606,0.00262604
0.769943060896,0.00204844
0.77152019343,0.000195721
0.772485631935,9.59082e-05
0.775860602477,4.59932e-05
0.77587671543,3.7328e-05
0.780947559108,0.0130758
0.781574659014,0.00414103
0.781842192319,0.000103238
0.786644565889,0.0298743
0.78894912404,4.4134e-05
0.789956914009,0.000416223
0.790495164779,3.4328e-05
0.7931049743,4.4134e-05
0.794594217683,3.4928e-05
0.798531585377,0.00139279
0.800323139259,3.60743e-05
0.805271709943,3.3328e-05
0.80975105095,6.15966e-05
0.810118023666,4.81638e-05
0.811325983476,3.4928e-05
0.819923773621,0.00194354
0.822324523945,3.56137e-05
0.823123869103,4.14474e-05
0.828415980741,0.000947972
0.830648348376,0.000310252
0.831560405545,0.00713633
0.831953936521,0.000143289
0.833360318831,0.001061
0.836402754397,9.43467e-05
0.837696584521,0.00586658
0.841268205203,0.00902712
0.842801092648,5.62235e-05
0.844548478578,3.3328e-05
0.846075854488,0.00131488
0.847162433624,0.00140386
0.848328477727,9.51787e-05
0.853857315322,6.88319e-05
0.856327215728,0.00388391
0.857355139717,2.76628e-05
0.858125063726,0.00492187
0.858471271434,0.00340116
0.863439630398,0.000174432
0.865651323873,8.68832e-05
0.865941609938,0.0126647
0.867941089617,0.0139926
0.868904086715,0.00141253
0.871165794164,0.000323537
0.878009522176,0.00149622
0.880721177183,0.00011491
0.886191162813,0.00834925
0.888111650135,0.000360262
0.889438645395,7.77795e-05
0.897585554913,2.64087e-05
0.900025991253,0.0133714
0.901352827941,0.0162854
0.902492848297,0.000198657
0.902615255921,0.00159824
0.903631259184,0.000102678
0.904708529509,0.000210701
0.906447267824,5.86608e-05
0.908811472253,0.000655136
0.909999733442,0.013004
0.912214911961,0.0111872
0.912960945508,3.1328e-05
0.914343124078,0.000126074
0.916880105741,8.04026e-05
0.929070817963,0.00878891
0.92924633915,0.00474957
0.933057070687,0.000103381
0.93424853072,0.00724057
0.935713608993,6.83131e-05
0.942377200825,0.000269806
0.946963313691,3.18497e-05
0.948939572206,5.15774e-05
0.949307657341,9.82524e-05
0.950487085381,3.90891e-05
0.951456884631,3.77843e-05
0.951624085058,4.28368e-05
0.951818052508,0.00874928
0.952506674594,0.000157718
0.953072333582,0.000957566
0.956983920317,2.536e-05
0.957569318666,2.536e-05
0.961212041999,8.17459e-05
0.969441023195,0.000155135
0.969617945198,2.6813e-05
0.973591246944,9.25478e-05
0.97359821148,0.000275572
0.975097311866,0.00773253
0.977626991238,4.24489e-05
0.978607420279,0.000123223
0.979232890309,0.00022297
0.982284597579,4.6774e-05
0.982608472181,0.0169754
0.984471169668,0.0178586
0.990402376486,0.000259059
0.990642123342,0.00421029
0.991508515343,0.00627747
0.993425399724,5.89101e-05
0.993516587969,4.95071e-05
0.994542683658,9.829e-05
0.999359645438,0.000326224
1.002594122091,0.00840842
1.005875625647,0.00553919
1.009301916967,6.8752e-05
1.012796318371,0.00413264
1.015653455778,0.00320168
1.017332697267,3.1328e-05
1.027581237337,0.000195362
1.030409574582,0.000175498
1.030912828507,0.00689085
1.037704361602,0.0107804
1.040319099823,0.000122044
1.043609227657,6.02534e-05
1.044873230552,0.000313814
1.045610829764,0.00196772
1.04575767265,5.08504e-05
1.046334383145,3.5328e-05
1.048469910814,8.84623e-05
1.051380816564,0.00038113
1.052303652023,8.26955e-05
1.052683704617,2.536e-05
1.058606135054,0.00797857
1.059687443703,0.000361808
1.061738089535,6.57896e-05
1.061850600326,0.000147896
1.062907045282,8.80865e-05
1.0668563778,0.0040339
1.067440453507,0.000113985
1.068507895827,8.779e-05
1.072495371591,0.013537
1.077253169883,0.0100229
1.077330723553,0.00719734
1.0780601008,0.000316621
1.07945708313,0.0097718
1.081333504337,0.000118015
1.081715879868,4.01041e-05
1.083175331651,4.14474e-05
1.087286102086,0.000348577
1.0883741295,0.00212202
1.088434440425,0.000550011
1.090607733934,3.3328e-05
1.093010209253,3.3328e-05
1.101984195175,2.536e-05
1.104370676684,7.36862e-05
1.104975344055,3.3328e-05
1.106288866033,0.00077085
1.10915120068,6.96563e-05
1.11583583967,0.000310407
1.116931838787,2.536e-05
1.119710482761,0.00746356
1.122664363089,0.000187951
1.124001000366,0.000111298
1.126853732604,0.00965548
1.126922571281,0.00511786
1.12718706129,3.98172e-05
1.128942837575,0.000664127
1.130085978273,5.3553e-05
1.132045826391,9.58506e-05
1.135589003591,0.000611624
1.135677461871,0.00025915
1.139103573938,0.00795607
1.144061180313,0.000166243
1.144656261299,0.000128122
1.144958493605,0.00125192
1.146223111973,0.000660876
1.148291886208,0.00325775
1.150419223869,0.00357607
1.150489979205,4.39437e-05
1.152794597768,0.00469114
1.153007011839,0.035368
1.153574367398,3.19918e-05
1.155932482352,0.029092
1.15813267517,0.00479892
1.159438320712,0.00154177
1.163492887869,2.54715e-05
1.164027125794,0.00326062
1.164552636166,0.000149932
1.164596643459,0.00284469
1.167347263574,9.38582e-05
1.170524147895,0.00208159
1.171569164901,0.00854233
1.172237737535,0.010241
1.173465724366,8.30892e-05
1.173604963614,8.04026e-05
1.182901551188,6.15966e-05
1.183220303249,6.56265e-05
1.185615871111,4.68205e-05
1.187307722732,7.09996e-05
1.188750182406,3.1328e-05
1.193694208599,6.96563e-05
1.193933405777,9.92086e-05
1.194295982184,5.48802e-05
1.19614419962,3.5328e-05
1.199441171646,0.000361149
1.199680904758,0.00014488
1.200171846709,7.50295e-05
1.201782458538,3.7424e-05
1.208120135745,0.000122258
1.209738623488,0.00149863
1.213442975016,7.85481e-05
1.213956363874,0.00162983
1.214331846268,7.48466e-05
1.216411079569,0.000124769
1.218889404717,0.0130337
1.226573240507,2.536e-05
1.228058365139,5.89101e-05
1.240109998461,4.4134e-05
1.242899657947,0.00179443
1.245128483204,3.1328e-05
1.258707430622,0.00556743
1.264307062759,0.00253486
1.266148915167,0.0055529
1.266740627839,0.000122811
1.266788630214,0.000266919
1.269837877305,0.0122605
1.270976955756,0.0151339
1.273548414473,2.536e-05
1.274319117584,4.68205e-05
1.278686426774,5.08504e-05
1.283748747376,0.00027025
1.28376638782,0.000245215
1.286051135072,0.00490966
1.286526383749,7.0721e-05
1.286949368273,0.000441276
1.287541801187,3.94964e-05
1.288072060448,3.34901e-05
1.289330939504,0.0051034
1.28956176167,0.000232069
1.290693983457,0.00306625
1.291385748669,0.00769039
1.294511656016,7.90593e-05
1.296761201308,0.00155533
1.299206681536,2.536e-05
1.299952300817,0.000155626
1.301536451174,3.3328e-05
1.304548699009,8.30892e-05
1.306501054572,9.36783e-05
1.308180126413,0.00229396
1.30848727927,3.78359e-05
1.30856132223,0.000620722
1.310711476013,0.00157279
1.3118829006,6.56265e-05
1.313685638742,3.76914e-05
1.313989214261,0.000996353
1.315002849062,4.54772e-05
1.315376286386,3.22122e-05
1.315718269194,5.3088e-05
1.320836595008,7.40628e-05
1.329095844075,4.72863e-05
1.333985107073,0.000145003
1.334310423358,0.000970817
1.335728060767,0.00385386
1.335879556397,9.00781e-05
1.336522807424,0.00487856
1.337201204038,0.00983498
1.341603391644,0.0141697
1.342539348095,0.000236645
1.342602001459,0.0146182
1.343268244294,0.0279588
1.343614219963,8.30892e-05
1.34501140983,9.53996e-05
1.348039169771,0.000144126
1.348877209559,6.61709e-05
1.350000051138,0.000525425
1.350069376273,0.00547943
1.354381074616,0.00011078
1.355427428458,0.00630869
1.355672049267,0.00553712
1.359167252178,3.56137e-05
1.365930912768,0.00025349
1.366146935923,0.00579972
1.366661490023,0.000141221
1.370926413581,7.10013e-05
1.371235336682,0.00548893
1.378690711999,4.4134e-05
1.379279470642,3.4928e-05
1.381838753463,7.7716e-05
1.387195517444,4.14474e-05
1.388835138942,8.57757e-05
1.389693722157,8.98056e-05
1.390744862192,5.75668e-05
1.393089960289,2.65334e-05
1.393326314111,0.00120188
1.400433910013,4.27907e-05
1.407411181513,9.11489e-05
1.411985712892,4.68205e-05
1.415500411977,0.0008646
1.416976841821,3.496e-05
1.418591280646,0.00339211
1.419797942511,7.23429e-05
1.419862878997,3.5828e-05
1.421508080321,0.000323537
1.42207375273,0.000240253
1.422116600971,6.67423e-05
1.428647882711,5.48802e-05
1.430267278641,3.4928e-05
1.433155591589,0.000163133
1.43743661025,0.0034347
1.438152548099,0.00606322
1.438661535287,6.39738e-05
1.438699284055,0.000123388
1.441756094402,3.5828e-05
1.44243027192,4.27907e-05
1.443784416737,0.000359805
1.444874153812,0.000780253
1.447365550659,0.000118015
1.447710391414,3.5828e-05
1.449879400988,0.000592193
1.450345048815,9.24922e-05
1.45142875876,3.56137e-05
1.452774471282,5.00927e-05
1.455341609979,0.00276546
1.456586664517,6.37467e-05
1.456792591132,3.44407e-05
1.460272464318,0.000162647
1.465934092125,2.65258e-05
1.469629458578,0.00416441
1.471357175518,0.00605688
1.472259552609,0.000109955
1.47337326875,0.0116968
1.474351210814,8.71999e-05
1.474903131345,0.000112524
1.477197192045,3.89699e-05
1.483430472806,0.00769605
1.484304466513,0.000131391
1.485405958947,0.000275904
1.485761540302,0.0338517
1.485941467413,2.5661e-05
1.487566775857,0.00461571
1.490024980555,0.000829955
1.490331173456,7.78071e-05
1.494737136882,0.00643393
1.497278635327,0.00110174
1.500455558317,0.000144818
1.501247426602,0.00582092
1.504375892781,4.14474e-05
1.505364252847,0.0156533
1.506209321157,0.00618276
1.507034522824,3.3328e-05
1.50998282437,0.000570701
1.512901566354,0.00112951
1.516190853756,0.00102204
1.517568925304,0.00154841
1.519216983391,0.000276522
1.523854887057,7.09996e-05
1.530685825433,0.00247654
1.53097326246,0.00164967
1.537917219135,3.1328e-05
1.540221858568,0.000181149
1.543143220644,0.00154861
1.545163183221,0.00010679
1.546585850822,0.00242644
1.547532702992,7.12059e-05
1.553523713183,0.0102393
1.553575758079,5.35369e-05
1.553810693644,4.81638e-05
1.558119815277,5.58858e-05
1.558540870341,0.000472641
1.562482920026,9.56926e-05
1.563044380331,0.000778741
1.571053622086,0.00162652
1.572020267569,0.00016059
1.573725004995,0.001871
1.574108518296,7.90593e-05
1.575888097645,0.000312791
1.579000408674,0.00166145
1.583713544751,3.3328e-05
1.589448873222,0.000133738
1.590163474269,8.01453e-05
1.593052453472,5.15269e-05
1.594741240924,0.000135567
1.599139869825,0.000457165
1.601624638373,0.000380147
1.602382106919,0.00021444
1.607565608741,0.0026695
1.608445634664,0.000137963
1.615857672534,0.000788617
1.617151789298,0.0210577
1.622572234046,0.00058483
1.622908342938,0.00432362
1.628270723055,0.0375462
1.629551218982,8.28682e-05
1.632153302429,0.0004225
1.632612095254,0.000279969
1.635401340231,3.92102e-05
1.636238259594,0.000639611
1.636617129558,0.013353
1.638606748547,0.00010185
1.644880592518,0.00103247
1.65130109025,4.0361e-05
1.652615343796,0.00028083
1.655041457096,0.000365885
1.657128889128,0.0104483
1.657934685379,0.000756721
1.66609563431,0.00975972
1.666274417584,0.000826011
1.667265983406,0.0627684
1.667617611831,0.000190545
1.667928792928,0.0127589
1.668257976681,0.0331365
1.670991749413,0.00839301
1.672905207,0.000496953
1.67432850415,0.00101808
1.675102459448,0.0192811
1.677571818916,0.000231039
1.678090978784,0.00131795
1.679026029502,0.000585435
1.680160188005,0.00018569
1.687194728232,0.0315214
1.687803009289,0.000220343
1.690164066939,0.0865012
1.690728824169,0.000179679
1.690947404703,0.000167751
1.69237091794,0.000186641
1.693421451414,0.0221666
1.695821406614,0.00323337
1.696777037532,0.0461544
1.700850755785,0.0004307
1.700925618828,0.000162063
1.701623349894,4.75406e-05
1.704595135838,0.000565931
1.70523867995,0.00813219
1.706224111535,0.117238
1.708110177217,0.000372249
1.71139401774,0.000141025
1.716712941183,0.000242543
1.719574501038,0.0075057
1.720009797497,0.000206819
1.722211636437,0.000468028
1.725883106302,3.73618e-05
1.725972336149,0.0115757
1.726200799167,0.0239174
1.726664120681,0.000114509
1.72976712223,5.10638e-05
1.729940532359,0.000877021
1.730906671701,9.01892e-05
1.731633187207,0.000267454
1.733056772213,0.0332466
1.736483650779,0.000356101
1.7420353455,0.00055919
1.74253490368,0.00075631
1.742907397517,0.000176549
1.746545034928,0.00930863
1.74662699194,0.0165909
1.749185202681,0.000231447
1.749287564468,0.012008
1.749711543448,3.82921e-05
1.75245897143,0.00101661
1.75448821479,8.72245e-05
1.754564295982,0.00973531
1.756735042206,0.000492129
1.757401310838,0.000342128
1.759760876668,0.151304
1.760021597849,0.00718107
1.760928617485,0.0138629
1.761860677067,5.03499e-05
1.763137677732,0.154757
1.767262907798,0.000120167
1.769946989064,0.0282515
1.770952665816,0.000289661
1.771310781346,0.000117999
1.775389772397,4.60282e-05
1.777390169867,0.000309883
1.778186266034,0.000275165
1.778591001291,0.0035787
1.781834925732,0.00017818
1.782860242321,0.038599
1.783212405404,4.3466e-05
1.786307546323,0.108772
1.786622972456,0.026447
1.787701491884,0.00445298
1.800295365434,3.42719e-05
1.800350467749,0.000471129
1.804972093396,0.00189518
1.806290442063,6.69698e-05
1.808879051198,0.000897119
1.809172389291,8.17459e-05
1.810756884898,0.00012659
1.811716918277,0.00217134
1.812344205905,0.00192571
1.814453619709,9.83908e-05
1.815703555349,0.000174432
1.819468278943,0.00617604
1.820837713615,0.00827108
1.82405759454,0.00177124
1.825648048509,0.00113009
1.826383635811,0.00537227
1.826733525673,0.00556369
1.828671791788,2.536e-05
1.828800844765,3.56137e-05
1.831729501392,3.70407e-05
1.832128306721,0.00126232
1.837466516114,0.000228164
1.837777542497,2.536e-05
1.84003964722,0.000777566
1.848240078679,3.3328e-05
1.855647734184,0.000179806
1.856281890204,8.17459e-05
1.858325372356,0.000163686
1.859150781402,3.5328e-05
1.85924259131,6.29399e-05
1.861546155534,3.1328e-05
1.86988825175,0.00279787
1.875599678057,0.000154308
1.875833415814,0.000151322
1.877102143336,0.0125236
1.879489243843,0.00280128
1.889787508694,0.00554978
1.897562398708,0.0259631
1.902003795511,8.04026e-05
1.905362906601,0.000135739
1.908644547104,0.000337639
1.910609601359,0.000146527
1.912440496613,0.00139878
1.919399877062,0.000144655
1.921167774335,0.0173533
1.925754231921,3.4328e-05
1.928142585927,0.00190055
1.929119188724,0.000115004
1.93543396332,0.00464148
1.943967205845,0.0127676
1.948461214647,3.21318e-05
1.952002383404,0.00171576
1.956630052643,3.41589e-05
1.958835488419,5.37419e-05
1.959818316537,0.00495325
1.962346767177,0.00346052
1.966126798825,0.000960713
1.967377220427,2.89182e-05
1.969440277247,0.0024705
1.97121216409,0.000751695
1.971823469329,0.000280646
1.972634130773,4.28721e-05
1.974306550724,2.74709e-05
1.976973111741,9.90232e-05
1.978607998862,0.0500137
1.983893239543,0.00484794
1.986719904945,0.000429298
1.990020763254,9.11835e-05
1.990928988741,5.92111e-05
1.991458585798,0.000101801
1.994291387494,0.000158403
1.995935135934,0.0114504
1.996366417343,0.0025304
1.99674132862,0.00781013
2.001693165753,0.00259297
2.006295143885,0.00104316
2.007036722138,0.00687226
2.013630831826,0.029598
2.015797035186,0.0215201
2.017270658026,0.0337698
2.021275961348,0.000256174
2.021833631306,0.0832089
2.02338231157,0.0462316
2.023973213055,0.00807439
2.025918666349,0.000428026
2.028068471645,0.00127479
2.028415150073,0.00963809
2.028924603678,0.0414679
2.029119236505,0.010487
2.033375815046,0.000156685
2.036101057086,0.000112833
2.037069412375,0.00279159
2.037416242896,0.0232148
2.038031154616,0.0340783
2.042703294922,0.000280637
2.044581179482,5.32896e-05
2.04681865978,0.0221034
2.054217041609,7.80512e-05
2.058185845493,0.00985002
2.059397159731,0.000163024
2.065030482267,0.0191268
2.066409753845,0.00111607
2.067317116677,0.00325876
2.069437290017,0.00019522
2.072726007184,0.0199827
2.072907671649,0.0163497
2.075269275051,0.000123512
2.075595524071,0.0103095
2.090234521951,0.00014044
2.09110229337,0.00053788
2.0911920068,0.00047251
2.093283918653,0.000195132
2.097120489937,7.99669e-05
2.097381226407,0.0914955
2.097588906876,0.000306499
2.100243970884,0.000435328
2.101150293258,3.84839e-05
2.101574230575,0.011096
2.102387364883,0.000496075
2.10413214042,0.0101725
2.107601156197,0.000146837
2.113820623999,3.91569e-05
2.12024132746,0.000253329
2.122650726502,0.000584611
2.129023262014,0.0054039
2.129708972805,4.31824e-05
2.129813231905,0.00970567
2.13003278437,0.035002
2.136111495967,0.0229667
2.138403439471,0.0394266
2.138918614335,7.64943e-05
2.139349823624,0.000452405
2.149454431212,0.124352
2.149831725034,0.0266796
2.152985799208,0.0417665
2.15385961432,0.000121169
2.153914227092,0.000145993
2.160205855033,0.000712457
2.162239994004,0.000437206
2.164933620419,0.082753
2.165313314233,0.000165755
2.166820285664,0.000355776
2.169115325503,0.0044352
2.171135887541,0.0023694
2.171461706753,0.000206061
2.17163514006,0.000445486
2.172512024004,0.0170897
2.173498130913,0.000187244
2.174964709925,2.83633e-05
2.175108552539,0.0199909
2.178112519394,0.000738276
2.178408863011,0.0197071
2.179515617207,9.65633e-05
2.183596199879,0.000139103
2.183603371695,0.0151638
2.187445763713,0.00030126
2.189110299032,0.0123948
2.19118943699,0.102114
2.192165880137,0.00589229
2.19432563373,0.0038181
2.198440285891,0.000205968
2.198467145104,0.00017497
2.203733886727,0.00571237
2.203912762717,3.60743e-05
2.204615210195,4.68205e-05
2.208308179016,0.000103547
2.210959813225,3.36713e-05
2.215636662151,0.000725244
2.216319208019,0.0103883
2.219224514075,0.000227086
2.224274663427,0.000169846
2.22601428458,7.33998e-05
2.226658140781,0.00289549
2.226915452512,5.13482e-05
2.227872736466,0.000301201
2.230524473909,0.000148262
2.230556616713,0.0140452
2.231103619651,0.000207187
2.231623327079,0.0182511
2.231988875449,0.00013978
2.232708283088,5.77106e-05
2.237212560229,0.0249594
2.238564838834,6.23279e-05
2.239965612484,0.0251738
2.240872354079,0.0181482
2.246043131582,0.00333249
2.248822781056,0.000255029
2.25448304084,3.4928e-05
2.257008686831,7.23429e-05
2.270501198448,5.86412e-05
2.27166193866,7.05867e-05
2.273761516317,0.00453965
2.275107317104,0.000130822
2.27598727877,0.0102811
2.277966577732,4.7335e-05
2.278054620255,6.83131e-05
2.278511918673,0.00101247
2.284671682398,0.000302445
2.28520090391,0.00410337
2.28571450646,8.57757e-05
2.286400089211,6.02534e-05
2.290649946328,6.96563e-05
2.29190027287,3.3328e-05
2.292417108475,4.95071e-05
2.294189665442,4.54772e-05
2.298076409372,3.3328e-05
2.299384494041,4.39332e-05
2.299863549604,0.000694283
2.301227892393,8.98056e-05
2.307032066063,0.00162383
2.308363407117,9.38354e-05
2.309565618277,3.87608e-05
2.312455473283,3.7424e-05
2.312942606831,0.000178462
2.320250519133,0.000158313
2.327226534683,0.00630115
2.330600303851,3.86362e-05
2.332198772722,0.000190771
2.333604722427,0.000534512
2.333730574118,5.43225e-05
2.335133989356,0.000134206
2.336083945284,0.00542465
2.339642443574,0.000885896
2.343018646074,0.00188125
2.343208997957,3.32343e-05
2.343777881239,5.88963e-05
2.345320785727,0.00687787
2.347646047905,0.000107391
2.3477682547,0.00444176
2.349534191338,3.65032e-05
2.349884762744,4.24584e-05
2.351995916772,0.0002477
2.35290549494,0.0171583
2.353471322911,0.000173396
2.353485987745,0.000220007
2.359988797066,0.00108018
2.362538071655,8.74138e-05
2.367072462044,0.0146964
2.373917538913,0.000327586
2.375318455611,0.000141758
2.376306705597,0.000114147
2.379382146883,5.90432e-05
2.38058601549,0.000693392
2.380867728911,2.96439e-05
2.380907184189,0.00386956
2.381097515882,0.000360241
2.382070078957,0.000429627
2.382179002654,0.00367418
2.385050726775,0.00651055
2.386100079068,0.0123433
2.392520847766,0.0581435
2.39462438754,0.000531295
2.395416152302,0.000167353
2.39577958346,0.0198344
2.397583885704,0.000545643
2.398079918152,0.00133553
2.399042946179,0.000444691
2.399612498387,0.000477566
2.400197330857,0.0115466
2.403838342958,0.00195484
2.404823883199,0.00808766
2.405341477166,7.58165e-05
2.409322545779,0.000203466
2.410970904246,2.54004e-05
2.414199849246,6.01621e-05
2.417541784917,0.0507483
2.418888404939,0.000216253
2.418955934967,0.000230438
2.420659890241,0.000111357
2.421601115062,0.000176943
2.423317666425,0.000489792
2.424053572073,0.000298632
2.425302688918,0.00939411
2.425360306826,0.000656769
2.426013429206,3.77976e-05
2.427371963642,0.00328094
2.429678495084,0.0723801
2.432959860172,0.000176885
2.434860495286,0.0673295
2.436748206111,0.000398674
2.437908993869,7.57511e-05
2.439078856964,0.111337
2.440404078998,0.00786528
2.442026692626,6.58647e-05
2.443990365805,0.00016852
2.444272172589,2.80763e-05
2.445931238967,0.000356014
2.451169646458,0.00413346
2.453585694,0.0170278
2.455922125798,0.00329555
2.462238282814,0.000243789
2.462778340298,6.82429e-05
2.463369216163,0.00775511
2.46378695821,0.000242343
2.464598741191,3.3856e-05
2.466224699131,0.000438498
2.46695118907,0.085478
2.472347687234,0.0174837
2.474444111398,2.5769e-05
2.474721385431,0.000365369
2.483699730003,0.0065874
2.484342690906,0.000565966
2.485755316015,0.00787715
2.485839188011,0.00146174
2.485898456084,0.0208776
2.486001837813,0.00851835
2.489084216889,0.0155537
2.489134309783,7.91953e-05
2.490472403366,0.0112521
2.492001065083,2.74047e-05
2.493020903878,0.00350865
2.494275419388,6.45176e-05
2.49935562161,0.000459732
2.500496627167,0.000254433
2.503282109869,0.0128437
2.504400667223,0.000893654
2.509734335996,0.000593069
2.51007364075,0.00303126
2.513153791915,0.00490048
2.515807248947,0.00610894
2.515949874854,0.0454114
2.521513943052,0.101949
2.524034032505,0.0231122
2.524138847064,0.036098
2.524160656737,0.0179349
2.52618631543,0.00060673
2.526311880768,0.000111298
2.528142632474,0.000124295
2.530870767854,0.00664929
2.531474703329,0.000172795
2.533098850763,0.000380915
2.537508468128,0.062348
2.538151541449,0.118922
2.538329873367,0.00252792
2.538464169712,0.000280905
2.539104753367,9.52186e-05
2.539374753281,6.94929e-05
2.539664870421,0.00420301
2.541829774593,2.59383e-05
2.545145069896,0.00335398
2.545148962916,5.82938e-05
2.548260324071,4.68205e-05
2.549788188239,6.92098e-05
2.550909797556,0.00138859
2.551264435156,5.08504e-05
2.552164756543,0.00031682
2.558167430444,0.00158085
2.566972453981,4.81638e-05
2.567537024062,7.50295e-05
2.575280064127,9.51787e-05
2.579349748894,0.00202279
2.583193555639,6.56265e-05
2.585724335886,6.15966e-05
2.58769121809,3.1328e-05
2.588368980947,4.4134e-05
2.592515215968,0.000190833
2.594008972764,0.00310042
2.594064126666,0.000107544
2.594332926566,0.00461801
2.599353714674,0.00241144
2.604785012162,3.48485e-05
2.608490557804,0.00261298
2.609786657087,4.68842e-05
2.610053970433,6.39807e-05
2.610383042782,0.0154793
2.62102547281,4.01041e-05
2.623863116933,4.4134e-05
2.624749656745,0.000113985
2.632462622161,4.27907e-05
2.634447874905,4.95071e-05
2.640723854757,3.56137e-05
2.64339130469,8.84623e-05
2.645871609344,6.56265e-05
2.648133632552,0.00122354
2.648603525807,3.1328e-05
2.650614459838,4.01041e-05
2.656495879372,3.4928e-05
2.660606861663,0.00180499
2.661200411445,4.63872e-05
2.661910740985,0.0022494
2.663467596315,0.00283097
2.663565570267,6.27988e-05
2.665270333859,0.00496447
2.666812566042,0.00985239
2.671214304792,4.54772e-05
2.672914601444,0.000817865
2.674104811418,4.27907e-05
2.675540085847,0.000216074
2.678595729564,0.000300351
2.678695517484,0.00138656
2.680126929419,0.000349211
2.680545250812,0.00237352
2.683628027761,0.00741187
2.68497308573,3.4328e-05
2.686450766719,5.21937e-05
2.689449226282,8.44325e-05
2.694726730788,0.000149873
2.695524472111,0.0001284
2.696595036674,0.00291171
2.700951914319,0.000331597
2.707002675559,3.81422e-05
2.710424010921,0.00602829
2.711971870796,0.000975029
2.721952852255,3.1328e-05
2.724230632048,8.57757e-05
2.725598731996,3.4328e-05
2.726473422423,3.5328e-05
2.726768607179,6.56265e-05
2.734942810259,0.00312116
2.734983102309,4.46807e-05
2.73818656773,0.000117062
2.738433562997,6.02951e-05
2.749366371387,0.000178692
2.750009504941,0.000264234
2.750122283194,0.000182778
2.751439926572,0.0199141
2.75188321647,0.00013394
2.752803365346,4.14536e-05
2.752846487248,0.0125007
2.754539893242,5.62235e-05
2.760655221838,0.00118324
2.763980952397,5.89101e-05
2.766194245716,4.01041e-05
2.766311904158,3.3328e-05
2.772518490589,0.000132956
2.772703831653,0.000592025
2.777823389843,0.00144652
2.779374244861,6.50646e-05
2.781821847884,0.000583045
2.785561628427,0.00785118
2.786718169555,0.00706641
2.795341357863,0.00183703
2.795847600412,0.000137775
2.79587326608,0.00439727
2.796382265636,0.000583208
2.796745906692,0.00412576
2.798422050687,0.000102004
2.801824110653,3.18975e-05
2.802736540429,0.000176174
2.803766695826,4.58634e-05
2.805431049364,0.000275599
2.807349773989,0.00491277
2.807632862687,0.000227645
2.807945822174,4.18503e-05
2.816545800312,0.00017274
2.817294610537,0.0101646
2.820866662542,0.000493024
2.82118497345,0.000380795
2.82219546681,5.90062e-05
2.822199199826,0.0119567
2.823085480379,0.000216104
2.823451165611,0.0263142
2.823800072802,0.000133055
2.824247264626,0.00938218
2.8259280244,0.0328037
2.82814578519,0.015024
2.829049210094,4.11728e-05
2.829911884662,3.76361e-05
2.832544825151,0.0259418
2.832917271329,0.0300912
2.8399567038,0.000142682
2.845842440041,0.0090084
2.845982004656,0.00853482
2.846970701944,0.000170841
2.847186912975,0.0012059
2.850536481135,7.90593e-05
2.853230976351,8.84623e-05
2.854270284728,0.000167716
2.85695970916,3.5328e-05
2.858330547512,4.27907e-05
2.861116756785,4.27907e-05
2.862039528069,3.47176e-05
2.862446517282,0.00112934
2.867123703735,0.00308801
2.867908202336,9.11489e-05
2.870905111398,7.16969e-05
2.87099507937,0.000199786
2.871673359785,0.000249656
2.872079716413,6.15966e-05
2.873444340312,3.71729e-05
2.880068038207,0.00671874
2.8811167576,0.000569877
2.883085479155,0.00387235
2.883778450823,3.76668e-05
2.884127697964,0.00815717
2.888349520195,8.09429e-05
2.889127112417,0.00356163
2.890892467048,0.00424524
2.894513298227,3.24216e-05
2.894592913475,0.000489003
2.89679205311,5.21937e-05
2.896870644518,0.000126075
2.897483403585,0.000484731
2.897610793729,0.00324198
2.897753690906,0.000464342
2.902503084198,0.000799228
2.903341140981,0.00738632
2.910311596842,0.000234077
2.911376971874,6.56265e-05
2.912897661349,0.000140885
2.91470586422,0.00513804
2.915559687673,0.000441624
2.917046501495,0.021114
2.917470316619,0.000187618
2.92546430155,8.25085e-05
2.926419328793,0.000320683
2.934616155698,0.00550887
2.936243823803,0.000106169
2.937424544364,0.0455401
2.937565563574,0.0514128
2.937618903508,0.000138586
2.938252777066,0.00506821
2.940823432912,0.0102256
2.941047735642,0.00613818
2.9446368217,2.66358e-05
2.950069034107,0.00760506
2.954949013646,0.000155302
2.959867054052,0.0104725
2.962866638101,0.0175817
2.9655194533,0.00025681
2.968786318267,0.00189847
2.970523183234,0.00011458
2.973043150155,0.0295496
2.974169135047,0.00100324
2.975041995369,6.09123e-05
2.975196440924,0.00195764
2.977458415379,0.00134684
2.978506157045,0.00162575
2.985280112624,9.89901e-05
2.989302008236,0.00016718
2.989303240236,2.75389e-05
2.994081901209,4.34106e-05
3.002116463969,0.000117756
3.005093186364,0.000126172
3.011869877462,0.000533761
3.012176257397,0.000551194
3.016547285389,0.00743693
3.019125046428,0.00631077
3.019805040847,0.0398511
3.021658278472,0.0172463
3.022737215112,0.0271882
3.022987409947,3.26093e-05
3.023356370156,0.0132798
3.027287855059,0.00374176
3.027397300778,0.000160823
3.029276149155,0.00345525
3.029693884635,0.0512261
3.030094608739,7.36862e-05
3.035820478489,5.30859e-05
3.036069434815,0.00158757
3.040743723346,0.00208324
3.040966411752,0.00166907
3.042734511873,0.000298014
3.043753930802,0.000199955
3.045210725197,6.96563e-05
3.045967813427,4.95071e-05
3.049283692596,0.000901149
3.050150282445,3.3328e-05
3.050510775826,2.536e-05
3.055314889696,0.000964283
3.057687754905,0.00159025
3.060226178605,6.15966e-05
3.063887541275,8.60882e-05
3.064483258232,0.000235724
3.065877118447,4.715e-05
3.06600452954,0.0023748
3.068531388162,0.00567099
3.06879499536,3.4928e-05
3.068896074023,4.4134e-05
3.070144755026,6.15966e-05
3.070682574037,5.21937e-05
3.074321567825,6.67871e-05
3.078848630447,0.000301375
3.078905583035,8.59267e-05
3.080367298044,0.00822812
3.080434818979,0.0093462
3.083627565199,5.08504e-05
3.083851696903,4.48509e-05
3.083855296903,4.952e-05
3.083880278153,4.57683e-05
3.085089181706,5.08504e-05
3.085983995654,0.000416223
3.090895645149,0.000303388
3.094175168156,8.76204e-05
3.094524911792,3.32655e-05
3.097765569312,0.000139
3.097931961172,0.000143028
3.099944126995,0.000132791
3.100082362941,0.00800241
3.101393275912,3.4328e-05
3.105203860696,0.00257219
3.108152903127,0.000194582
3.109787609038,9.09008e-05
3.109967720261,0.000244619
3.116938469111,6.02534e-05
3.117529128766,6.02534e-05
3.123013565278,0.000741298
3.127604483936,4.81638e-05
3.130069068592,4.4134e-05
3.132373313859,5.35369e-05
3.133999376952,8.30892e-05
3.138278314408,8.20327e-05
3.142832180624,0.00486652
3.143743971054,7.09996e-05
3.149752450311,0.000396074
3.151476290349,0.00155667
3.153582284529,0.000229823
3.153930194881,0.000133214
3.154623354512,0.000136216
3.155363366861,0.0050804
3.156726910404,0.00200349
3.161166880919,8.30892e-05
3.161800035901,8.17459e-05
3.168940555893,3.4928e-05
3.169639118691,4.57844e-05
3.169764187335,0.000811149
3.173448560798,3.87608e-05
3.175541373936,0.000128114
3.175569576432,4.61658e-05
3.178175119283,5.80141e-05
3.17877687183,0.00942544
3.180782231145,0.000460701
3.184523243044,0.00849339
3.186293280015,0.000288647
3.186755643153,0.00467188
3.189663571792,0.000284656
3.191734914698,0.00991286
3.194180991242,0.000146519
3.19607040514,0.000267536
3.201399041298,4.2347e-05
3.203681833982,0.00947433
3.20414058447,0.00260931
3.204555222726,0.000449269
3.208029711352,0.0187696
3.216582005337,0.000369333
3.217841973257,0.00814441
3.219865075697,4.242e-05
3.222604030427,9.08585e-05
3.222861797552,5.37383e-05
3.231271849771,0.0209866
3.231503983237,0.000133899
3.23495792179,0.00553238
3.237153865523,0.0130429
3.237759517544,0.0276173
3.238306141989,0.000536418
3.240040145493,0.00311764
3.240704033207,0.056532
3.243475881414,0.000200479
3.247356762848,0.0136906
3.253120712336,0.000120995
3.253391219072,0.00187944
3.254307319252,2.62051e-05
3.257421155182,0.0053554
3.257637430038,0.00213755
3.257877775331,0.000846545
3.26699501614,0.0148951
3.26772762361,0.0167625
3.268486632427,4.21461e-05
3.271603329883,0.0237565
3.274234685427,3.55734e-05
3.276578454103,0.000115094
3.277220686893,0.0267094
3.27791892307,0.00013093
3.28814480458,2.74918e-05
3.288810159689,2.65407e-05
3.293402807141,4.65792e-05
3.298148659468,0.000323998
3.30134830298,0.013729
3.301685075714,0.000288387
3.303111394669,0.0111975
3.303550272207,0.0228511
3.306451487078,0.0123174
3.308445970518,0.0519778
3.311942471359,0.000185179
3.314575278,4.81638e-05
3.318650107834,0.000268745
3.318832861002,0.000947728
3.320559031405,0.00412252
3.321559914085,0.0056698
3.324926762263,0.000100552
3.325757417735,3.5328e-05
3.329808670727,0.00279518
3.334043369011,0.00280804
3.340509553445,0.000118123
3.341383530948,0.011473
3.341929655849,0.00852188
3.342177029015,8.84623e-05
3.343702760991,4.68205e-05
3.345042619252,0.000171001
3.345459011582,0.00122712
3.347919374006,0.00399537
3.351614072503,0.000267119
3.35473169929,0.000801746
3.355552557011,3.4328e-05
3.356579971026,6.96563e-05
3.357598082282,6.69698e-05
3.358134319832,9.11489e-05
3.363418808439,0.000105925
3.364465739985,4.01041e-05
3.372106549581,0.000128082
3.372289105745,0.000101696
3.372781156736,4.712e-05
3.373410422381,0.00894534
3.373418768649,0.000505617
3.375314122563,4.96567e-05
3.381817632376,4.63258e-05
3.382953381328,0.018102
3.383141310588,2.56728e-05
3.384857962352,0.0132772
3.385263383395,5.35369e-05
3.385660835325,0.000404546
3.386769861889,0.00217109
3.386942601402,0.00218474
3.39448177726,2.536e-05
3.397239547584,2.58725e-05
3.398073831175,0.00179175
3.398201906487,9.11489e-05
3.404625666652,4.4134e-05
3.407409720895,0.00204672
3.409259606075,3.471e-05
3.409951012153,0.00177285
3.412672335438,0.000103334
3.413877260731,0.00325169
3.414467105268,0.00770032
3.419939572885,7.09996e-05
3.42541158561,3.56137e-05
3.427653465305,0.000546522
3.436616116445,0.000573387
3.439242210547,3.87608e-05
3.441953858416,3.56137e-05
3.44256445496,5.48802e-05
3.443611194795,5.35369e-05
3.448239776924,3.7424e-05
3.457083495042,0.000116884
3.460820645194,0.00807294
3.465385196915,6.92759e-05
3.467882191449,0.000162575
3.469966435385,0.00711031
3.470721755728,0.000165488
3.471906219321,0.00480397
3.4763643737,3.9824e-05
3.479200252524,8.48659e-05
3.481789933334,4.25588e-05
3.483990367735,0.0123474
3.495141805154,0.00012016
3.497767754926,0.000901747
3.498124899438,0.000165533
3.501564878413,0.000106905
3.503625474569,7.44934e-05
3.506386952568,9.38406e-05
3.509542357458,0.000261516
3.509588987428,0.00013117
3.510067718082,0.00107824
3.510296744206,0.000156426
3.514132744757,0.00847538
3.514370505935,0.000230493
3.515129285743,2.53718e-05
3.516501376721,0.00401404
3.516530448007,0.023907
3.516583351647,0.000166735
3.516697438536,0.00555861
3.519480814334,0.000302044
3.522565991255,5.75668e-05
3.523639792407,3.1328e-05
3.524992776716,0.000901149
3.525728780703,3.3328e-05
3.527774564925,4.81638e-05
3.528558765438,4.81638e-05
3.533268771371,0.000359162
3.533580413062,7.66989e-05
3.534972022263,0.00227516
3.536416560157,3.4328e-05
3.537244885429,0.000118015
3.539361769348,0.000149704
3.540676271607,3.51664e-05
3.541440970754,0.00373514
3.543224442741,8.80425e-05
3.544628284778,0.00354834
3.547845037333,7.01305e-05
3.551071046515,0.00065008
3.551278984409,0.000111331
3.5514305853,0.00682929
3.552303673985,0.00515458
3.557938416943,0.000352347
3.559499961191,0.000187116
3.561569546741,0.00907811
3.561933822027,0.000262657
3.562543809355,0.0135466
3.565130272666,0.000147175
3.566274749814,7.46385e-05
3.569667713892,0.000133125
3.570430666646,0.00609797
3.573955352136,0.000267119
3.579672284057,0.000154564
3.579883382561,8.57758e-05
3.579930468134,0.00165472
3.580066407209,3.50078e-05
3.580643621064,2.60847e-05
3.581262673728,7.18998e-05
3.583215944055,0.0077717
3.58418001031,7.23429e-05
3.584438231355,7.63728e-05
3.587866990297,7.70111e-05
3.588663557159,9.32606e-05
3.591915645384,0.000203808
3.592242031164,0.00717814
3.594807200209,0.00192742
3.594846018591,6.23121e-05
3.597063499532,0.00287803
3.600936327723,0.00602525
3.606955572184,5.89101e-05
3.608883673381,0.00156204
3.6093407663,3.56137e-05
3.616069297319,0.000150253
3.61877372105,0.0010704
3.622817092184,3.7424e-05
3.624903270084,0.000914581
3.625222645162,7.50295e-05
3.62674261802,0.00130251
3.627639905532,0.00185186
3.630316485533,4.68205e-05
3.631638138114,3.1328e-05
3.63361432836,0.00086488
3.634131938212,8.57757e-05
3.634891846844,4.54772e-05
3.634986570496,9.51787e-05
3.637842128853,7.50295e-05
3.640770648726,0.000107268
3.641378123455,6.42832e-05
3.64379426981,3.60743e-05
3.644161768059,6.15966e-05
3.646592243457,0.000476671
3.651992779265,3.3328e-05
3.655757741304,4.54772e-05
3.660756382799,0.000430999
3.6642841978,3.5828e-05
3.675151471563,0.000109372
3.675539817195,0.00104757
3.678020446616,0.000157186
3.678083548927,0.000386502
3.679267669924,0.000550552
3.679802974228,3.60743e-05
3.682026607412,3.7424e-05
3.686989832758,0.000138164
3.687763546104,3.56137e-05
3.693233353763,0.00209667
3.694304137049,9.24921e-05
3.694920046572,3.56137e-05
3.701076774263,6.99752e-05
3.70147158833,0.00466209
3.702265579881,0.00243926
3.706118220286,0.000141554
3.710419238528,0.000174549
3.713281386882,0.000126933
3.714758336266,0.000218814
3.717861671151,0.00256134
3.722188505032,0.0154734
3.724079347475,4.76465e-05
3.72625815298,0.00127295
3.72823543357,0.0253206
3.728985496778,5.89101e-05
3.732009470555,0.00256682
3.734659911317,4.81638e-05
3.73853535835,0.000351861
3.742628336614,0.00615445
3.743249076869,0.00642278
3.744357077347,0.000217069
3.744439128915,0.000275008
3.745047805168,0.00330697
3.745347035162,0.00132335
3.749559712062,0.000253686
3.750518830763,2.536e-05
3.751787432035,3.56137e-05
3.752867908701,0.00102876
3.753942584926,9.24921e-05
3.754772928471,9.24922e-05
3.755654924998,5.08504e-05
3.75585136544,4.14474e-05
3.762645380201,0.00210319
3.762664329451,0.00571117
3.764540624783,0.00578804
3.767443170612,0.000861105
3.768945097854,0.00262727
3.77208858137,0.0011107
3.774393958732,3.5328e-05
3.775933934134,3.3328e-05
3.776270326403,8.44325e-05
3.777173835809,2.536e-05
3.783779471345,0.000977459
3.784764123693,2.69711e-05
3.785890747281,0.00204036
3.786250760123,5.85962e-05
3.787636968364,0.000313234
3.789285198947,0.00192531
3.789944646278,0.000363891
3.790480877322,0.000539414
3.790929072156,0.000522242
3.791174548916,0.000267723
3.794651622716,0.000274324
3.797638266454,0.00108971
3.797672660796,4.60618e-05
3.798736485166,0.0029962
3.802644015874,0.000186857
3.810030269958,0.000497685
3.810566218347,0.000402871
3.810913577388,0.001143
3.814100348537,0.0336588
3.814923100954,0.00838725
3.815710521985,0.0174032
3.819993021052,0.000173203
3.820516753556,4.21861e-05
3.820823609162,0.000344648
3.821628214196,4.22088e-05
3.822353946637,0.029568
3.823125389212,4.03847e-05
3.823482304767,6.09312e-05
3.823688224983,0.000114521
3.827788492931,0.00031719
3.831139529861,6.47276e-05
3.831893111909,6.50511e-05
3.835119176255,0.00127566
3.835298310102,0.00262206
3.836559456295,0.00872273
3.836672320287,4.14516e-05
3.840138581229,0.000196965
3.841749413909,4.77841e-05
3.844649280075,0.00399007
3.844760723892,0.000221536
3.847249834667,0.00538758
3.848323150481,0.0340391
3.849815258335,0.00705062
3.852090426201,5.42757e-05
3.853813454635,0.00406682
3.855485842489,0.000271501
3.857706417954,5.76289e-05
3.861748131082,0.0821957
3.861783584931,2.61337e-05
3.861805078659,0.000114019
3.866141077962,0.028047
3.867118730484,0.0425922
3.868809268722,0.0892619
3.873561276284,0.000160443
3.875514130137,0.00388684
3.875953437816,3.49813e-05
3.880345172915,0.000366743
3.880676820635,0.000541158
3.881209527202,0.000376325
3.882545251274,3.48426e-05
3.882556958258,0.000352683
3.883245776126,0.00626479
3.883588313384,4.26596e-05
3.883845109522,0.00711104
3.893102401603,0.0212198
3.894040220764,0.00106717
3.894946847251,0.0739966
3.895551240211,2.536e-05
3.896648851044,6.02534e-05
3.896715807966,3.3328e-05
3.898461255441,4.54772e-05
3.899023635433,2.536e-05
3.899746591242,7.63728e-05
3.903948600763,0.000107117
3.90478126741,4.20849e-05
3.904999713468,0.000205483
3.905395892506,0.000583487
3.906906981586,0.000167073
3.907482495582,0.000164758
3.910989534913,0.00223009
3.912611536963,0.00526394
3.913407871203,0.000450389
3.914276374207,0.00633258
3.922169899375,0.0217337
3.923406837075,0.000207684
3.923633361953,0.00327246
3.925627160287,0.000107298
3.930950391319,0.000111955
3.932460222715,0.000230428
3.933901702571,0.0139337
3.936164855142,0.0177176
3.941904431127,0.0369909
3.944254982062,0.000160482
3.945180497615,3.31079e-05
3.945379277965,0.00719296
3.947570330966,2.54019e-05
3.94934075302,0.000360013
3.96142536768,3.41893e-05
3.962668811897,0.0156406
3.962746585498,0.000134968
3.964439226926,0.0179661
3.968613641034,0.00306518
3.97801849509,3.61282e-05
3.982997505511,0.000301057
3.984489692579,0.00479331
3.98543550089,0.00190476
3.986007236969,3.222e-05
3.993332247325,0.0177974
3.993643816231,2.60062e-05
3.993691916056,0.000474516
3.994259812848,6.68846e-05
3.996279964377,0.00543059
3.996618236262,6.94285e-05
3.997792211459,0.000825925
4.004266584351,8.98322e-05
4.012874006201,4.17832e-05
4.017419565719,0.0422016
4.019285249553,0.0002465
4.019759176641,0.00159949
4.023419802213,0.0105251
4.023475653186,0.000205092
4.024118134298,0.000121224
4.026309570817,0.00386277
4.028622882863,0.000277865
4.02903897552,0.000263707
4.029408066324,0.0055888
4.02984430224,0.00831986
4.032189512048,0.000167717
4.036943358596,0.0295758
4.037177976747,4.4134e-05
4.038247173704,3.56137e-05
4.041082526988,6.29399e-05
4.0431271513,6.42832e-05
4.044099122496,4.37034e-05
4.044615621149,0.00130128
4.052298109642,8.17459e-05
4.059150557408,0.0011604
4.059651609284,3.4328e-05
4.060934677785,8.57757e-05
4.061336578163,5.75668e-05
4.061577171794,7.90593e-05
4.063264940729,0.000276522
4.067531880655,0.000235471
4.068629037528,0.000208716
4.0689246967,0.00233084
4.070734799518,2.77422e-05
4.07298964045,9.5588e-05
4.0730247091,0.00759327
4.074364916783,0.00651943
4.074648728254,5.08504e-05
4.07653225513,3.4328e-05
4.078589449386,0.00136055
4.078759160545,7.36862e-05
4.084664187377,3.1392e-05
4.08593139737,0.00354187
4.087317149969,7.74337e-05
4.088300289887,0.000114456
4.089412502731,0.000157346
4.089777875761,0.000130835
4.091089056815,0.00469038
4.094840242797,0.000109119
4.099412727045,3.71669e-05
4.099823485106,6.6447e-05
4.102566300697,0.00142883
4.102724776101,0.00957271
4.106813117078,3.56137e-05
4.111230340945,8.98056e-05
4.11272436689,2.536e-05
4.115743557112,0.0016104
4.121211273078,0.00151369
4.122005465126,3.56137e-05
4.125199920175,3.68491e-05
4.128843953347,0.000158966
4.130437924351,7.17642e-05
4.13188786708,0.00531779
4.134977419124,0.00379987
4.139329462761,0.00293566
4.14184391973,5.85094e-05
4.142150658975,5.5488e-05
4.143776703379,0.0209273
4.144444177563,9.2643e-05
4.145081030551,0.00188981
4.148688397501,5.08504e-05
4.149104435859,0.000265776
4.150635625304,4.4134e-05
4.157045730554,0.000847417
4.158318811799,2.536e-05
4.162229774811,6.69698e-05
4.166607911774,6.96563e-05
4.167754094571,4.81638e-05
4.172055288213,6.56265e-05
4.178320471921,0.00123168
4.17894737461,3.89501e-05
4.178965104509,8.94074e-05
4.181402780968,0.000335457
4.182501586485,4.41387e-05
4.182743514271,0.00823226
4.18689452833,7.50295e-05
4.188965437479,2.536e-05
4.198818102019,5.89101e-05
4.199312477579,3.5328e-05
4.199541949318,7.23429e-05
4.202279224069,0.000574731
4.20508431015,0.00146533
4.219216310166,6.96563e-05
4.224750930478,8.46045e-05
4.225981208937,0.000162543
4.227372850227,0.000253743
4.227867178405,7.75585e-05
4.228296996978,0.00382111
4.230858428229,6.30224e-05
4.236988972957,3.73907e-05
4.237239480178,0.000738698
4.239759437844,0.00535209
4.240147366661,5.4433e-05
4.242802248672,0.011268
4.246381211321,0.00825934
4.249019003236,0.000381599
4.249250159026,0.00692266
4.25588063837,0.000154091
4.25957183168,0.000202221
4.262675071128,0.0272589
4.269019229483,0.0352457
4.27163880101,0.00022656
4.271795821888,0.000382695
4.273583684871,0.000542081
4.276329249292,0.00038106
4.280895840862,0.000186069
4.281497808884,0.000401798
4.281613245535,0.00949913
4.281876555559,5.82378e-05
4.28682335295,0.0172508
4.290703713746,5.76136e-05
4.290993655689,0.000157444
4.294691043139,0.000166887
4.29520102016,0.000174906
4.295832617953,0.00030128
4.295938354785,0.000236876
4.298812749987,0.000266691
4.299074450997,0.000749341
4.300074891543,0.000157784
4.302149716975,0.000534283
4.302237396255,0.0241969
4.304223151865,9.18791e-05
4.305519343804,0.00825202
4.305611142486,6.97973e-05
4.305765282421,4.70959e-05
4.306105301998,0.0221179
4.306478390694,0.00478127
4.307891334307,6.54212e-05
4.3086093794,0.0380075
4.308908403376,0.000146492
4.310435789446,0.00014733
4.312394914463,0.000297409
4.312498443295,0.000269608
4.313675038288,8.35352e-05
4.314001736298,0.000846498
4.317406784469,0.00044674
4.322343469061,0.0187238
4.324343401689,5.06721e-05
4.325831839242,0.000260126
4.326628326777,0.00917588
4.327139824769,0.0197669
4.331001153241,4.14754e-05
4.333128713467,0.102654
4.33946236801,0.000271884
4.340509150276,0.00019915
4.341741541375,0.00644814
4.346842434796,0.000397052
4.347129140195,0.0179225
4.348183560189,0.0113586
4.354197630245,0.119249
4.356018571486,0.000239654
4.357069836796,0.000160303
4.359326552798,0.00294261
4.361420199718,0.027172
4.367630092279,0.000208464
4.369422168645,0.0648344
4.376885371276,0.000134134
4.377724352696,4.68205e-05
4.384416424948,0.000110734
4.385496138299,0.000176015
4.386538169522,0.0028709
4.391383499941,0.00136861
4.392993825893,0.000118847
4.398789304837,0.0172042
4.401707836125,3.30721e-05
4.402990894281,0.0049081
4.405288615447,0.00011919
4.407595564303,0.000207344
4.409669873914,0.0170524
4.409759273205,4.08257e-05
4.41240685293,0.000220942
4.416389662676,0.00458175
4.418568324968,5.80013e-05
4.419528836558,0.0048494
4.419815035221,0.0119989
4.420224710999,0.0229719
4.421764496314,8.44325e-05
4.431177836714,0.000138164
4.432767249825,4.4134e-05
4.43555803611,3.25667e-05
4.435703906386,0.000690084
4.43791126323,8.56241e-05
4.438283183825,9.0509e-05
4.439430172238,3.28448e-05
4.440296427459,0.000160081
4.443149443462,0.0020631
4.445414088991,0.000111341
4.446921357729,0.00210423
4.449570280767,0.000179015
4.450818054297,0.0133054
4.450883578591,0.0087771
4.46090871328,0.000918331
4.462063911126,0.00192066
4.466037386332,3.60743e-05
4.467489752069,0.000105925
4.4685071634,6.15966e-05
4.470921489192,3.1328e-05
4.472986022144,0.00173801
4.477409940043,3.5328e-05
4.478554702604,3.1328e-05
4.479322726895,4.14474e-05
4.480136593542,0.000445776
4.488468731692,5.75668e-05
4.491669007372,0.00149488
4.492896907027,3.3328e-05
4.495552204922,0.0022404
4.498964988689,0.000136148
4.499034781874,0.000320681
4.502679378069,9.24922e-05
4.505785581889,0.00102473
4.506382364966,0.00032891
4.50718395093,3.60743e-05
4.509131563525,7.63728e-05
4.512007478919,0.000327567
4.516731940298,0.000190814
4.516791181602,0.00454682
4.519445372227,0.00551441
4.521545916536,2.64747e-05
4.522519764766,0.000125422
4.523249304283,0.00445419
4.525384832699,7.41823e-05
4.527147162463,0.00382799
4.532866762846,0.00060697
4.536923369035,9.03579e-05
4.538826801745,4.30679e-05
4.539254853733,0.00543816
4.539789872212,3.49826e-05
4.539848826948,0.0050743
4.547229536364,0.0084634
4.547475036116,7.7716e-05
4.548813612473,4.54772e-05
4.549473503054,9.38354e-05
4.550456759259,3.3328e-05
4.550638803153,3.3328e-05
4.559557558072,7.36862e-05
4.560362616854,8.17459e-05
4.565012678634,7.691e-05
4.565821303013,0.00357949
4.575103908929,3.4328e-05
4.581320502483,9.24922e-05
4.582672570348,8.44325e-05
4.586900453127,7.09996e-05
4.58805349461,3.5328e-05
4.592195310304,0.00312127
4.593311404481,0.000165029
4.594510742752,6.15967e-05
4.596809672764,3.37408e-05
4.597136775052,0.00013855
4.600247144298,0.00592561
4.602237864171,0.0133172
4.603220986174,8.7119e-05
4.603665993545,6.15966e-05
4.603924280731,4.54772e-05
4.607485197141,6.96563e-05
4.618221525989,0.00141593
4.626364093725,0.000294948
4.626590182316,3.78167e-05
4.630244802803,0.00043675
4.630504080639,0.00713876
4.634774902552,0.000434937
4.635733926293,0.02807
4.637775196954,0.000187319
4.645811350612,0.000304224
4.647523608712,6.16856e-05
4.647565806918,0.00645471
4.652163839809,0.00820457
4.653021950834,0.00068571
4.663558059161,0.0257962
4.665627488134,0.00876851
4.665646039536,0.00307415
4.667084700774,0.0550423
4.667890058804,0.000778186
4.668153898795,0.00241964
4.668996388942,0.0417228
4.669020854612,0.0106339
4.669279742477,0.0586765
4.670292476622,2.8639e-05
4.670535543768,0.000198586
4.676352040913,0.00895663
4.678769305268,0.000441872
4.679507735077,0.0598924
4.679839269145,0.000198518
4.680897466866,0.00130541
4.681636292164,4.92015e-05
4.683618347989,0.000749273
4.683795034549,7.96813e-05
4.685856226411,0.0308714
4.687009292136,0.00592919
4.690046573851,0.0545197
4.693161250209,0.0134506
4.694457879395,0.000930848
4.695968639908,0.00195443
4.696216099723,0.0567676
4.696543227585,0.000490008
4.696545627585,0.00937481
4.697720440353,0.000156388
4.699494930657,0.0004538
4.700636552716,0.00464379
4.700781738609,0.000160247
4.702121246823,0.0820291
4.703071868026,0.0907088
4.706311078508,0.0128267
4.706415020467,0.000153481
4.707585163539,0.0107861
4.707802527325,0.000171038
4.710769327562,3.68217e-05
4.711557659632,0.000300544
4.712495551554,0.00421921
4.715801053277,0.0118074
4.716605919371,3.87101e-05
4.719348164932,7.83598e-05
4.720992487203,0.000106503
4.722822602277,0.010594
4.724080959695,0.0205772
4.725531816632,0.00405095
4.730738441141,0.000381298
4.734741828312,0.000211655
4.735152261722,3.85309e-05
4.735387090845,0.00115911
4.736392834642,0.00465008
4.737543895474,0.000201298
4.737834296984,6.83131e-05
4.738144957013,9.51787e-05
4.73897740664,3.3328e-05
4.739980824148,0.000381298
4.742983527444,9.24922e-05
4.749110164692,5.54803e-05
4.750980151475,0.00333249
4.75194798644,4.95071e-05
4.755128052946,0.00131488
4.758040115039,0.000120361
4.759989355517,0.00413309
4.76553164948,0.000154283
4.765869968792,5.48802e-05
4.766012852617,3.5328e-05
4.767149207922,6.71031e-05
4.767503077152,0.000566502
4.768508973292,0.000630901
4.768624438096,0.000300897
4.775749868677,0.00114428
4.779371553907,4.74858e-05
4.783747065582,0.00440569
4.784806713592,3.5328e-05
4.791973238217,6.56265e-05
4.794884562821,3.60743e-05
4.795280186844,8.44325e-05
4.797773046622,0.000605879
4.799973523001,0.000120904
4.801043798496,0.000200625
4.801248009584,0.00598266
4.805590812784,0.00146596
4.806939326058,0.000713343
4.807334225812,0.0102765
4.808856166012,0.0109941
4.809025372593,0.000119358
4.813737325418,0.000380362
4.814566099042,0.0155417
4.816855605359,0.000190552
4.818531608931,0.00031682
4.818817631092,0.000124731
4.820129688457,3.3328e-05
4.820664237938,5.08504e-05
4.824977502325,0.0013713
4.828593568247,0.00175279
4.829315571676,0.000160034
4.832417043365,0.000182177
4.836637606561,0.00777708
4.837707263573,4.81638e-05
4.838751516213,4.14474e-05
4.845109534398,0.000527716
4.849737975757,0.00139413
4.850589522796,0.000640552
4.851000575859,2.536e-05
4.853823845694,7.63728e-05
4.855078411412,5.62235e-05
4.856027651025,7.63728e-05
4.859176965744,5.40397e-05
4.859764260671,0.000480205
4.860597089979,0.00125522
4.86624411613,0.00943189
4.869490975627,0.00796339
4.871902077899,0.000450863
4.872088905537,0.00999652
4.872864044379,3.3328e-05
4.877441758899,0.00349906
4.878150623814,0.0026706
4.881530295681,0.00479442
4.886488583892,5.62235e-05
4.893088687234,5.48802e-05
4.911468227492,3.90822e-05
4.911765210789,3.63474e-05
4.912787487893,3.37647e-05
4.914229842893,0.0022135
4.914749667882,0.00616917
4.917641834737,7.7716e-05
4.917855968541,9.51787e-05
4.918064631824,3.5328e-05
4.919634779682,0.000351201
4.926066386696,0.00708411
4.932257338575,3.33756e-05
4.934224676177,7.6208e-05
4.934239512227,7.78756e-05
4.935996380258,0.00992639
4.938321746433,0.00406708
4.940123207246,0.00171786
4.940723569013,0.000640552
4.94175095456,2.536e-05
4.94842545775,0.000529059
4.952271302196,5.21937e-05
4.963745883282,0.00330294
4.972784945735,2.536e-05
4.985271424128,0.0069701
4.987657970019,0.000131414
4.987973720919,0.000342742
4.988325607837,3.34715e-05
4.990336418933,7.69975e-05
4.995748480687,0.000222614
4.998282839085,7.84341e-05
5.001935325272,0.000224523
5.011456018323,0.000280217
5.012573435798,0.0151736
5.012735219159,0.000933492
5.015961196773,0.00468893
5.017639658295,0.0111358
5.019696715352,9.56185e-05
5.02352069313,0.000211069
5.024701432863,0.000106411
5.027065254798,0.000182251
5.029560763283,0.0176266
5.029785849113,0.000112217
5.030676471519,4.38367e-05
5.031110768997,0.0468334
5.032499724073,0.000490942
5.035184390014,5.8974e-05
5.037600957027,0.00350114
5.039925906816,4.25761e-05
5.041513661282,0.0133109
5.041610183302,0.000209831
5.043629170152,0.0187767
5.048266655694,0.000302764
5.051633172154,0.00586014
5.055646766409,6.02598e-05
5.058907683006,0.00874954
5.060221414256,0.0144926
5.060237867507,0.000166489
5.061590932333,0.00565445
5.062748569032,0.0299969
5.066261196541,0.0246634
5.070282495242,3.4328e-05
5.070693051878,8.44325e-05
5.0743043051,8.57757e-05
5.076343912038,0.000871596
5.079704574047,7.90593e-05
5.081847630018,0.000484731
5.083464846125,0.000743984
5.083471425713,7.65854e-05
5.083654277846,7.90593e-05
5.085541508854,6.02534e-05
5.089520311608,0.00095891
5.096943499127,3.5328e-05
5.105298482522,0.000160276
5.1054302611,0.000874283
5.106507380507,0.000899805
5.109369188448,0.000259059
5.112405923535,0.00033697
5.124177482483,4.27907e-05
5.13356553251,3.56137e-05
5.140823429884,0.0029061
5.142383464088,4.3424e-05
5.149477865869,0.00361124
5.150501221388,0.00507049
5.154549495441,0.000106395
5.155291815543,0.00160881
5.156746110453,8.00714e-05
5.158542112415,0.00113283
5.160961782653,0.00569109
5.161192521742,0.0133304
5.162910392818,0.000112373
5.168498306944,0.0342996
5.169325775767,8.5137e-05
5.16954889759,0.00138647
5.170131765802,0.000105925
5.177229351807,0.00106274
5.178364393953,0.00277083
5.1788356161,0.000300701
5.179435586297,5.62235e-05
5.183403951708,0.00145727
5.184586141941,8.57757e-05
5.184829559432,7.50295e-05
5.184836765885,3.23688e-05
5.185122677131,3.4928e-05
5.185543860061,7.50295e-05
5.191520061006,3.5328e-05
5.194890670133,0.000103238
5.197544787848,7.37099e-05
5.205671782914,0.00919382
5.207457524949,0.000138602
5.207602736387,0.0158497
5.209008739888,0.00747127
5.21133407708,0.000381031
5.212154791006,0.0145636
5.21315447459,0.000760104
5.216172762266,0.000840701
5.217779670836,0.000268462
5.221561480206,8.84623e-05
5.222026876055,4.27907e-05
5.223008897002,3.4328e-05
5.22572639449,3.60743e-05
5.226009856081,4.54772e-05
5.226070608139,5.08504e-05
5.232009364717,8.17459e-05
5.232221447604,0.000107268
5.236883288812,4.27907e-05
5.242461098927,5.89101e-05
5.243725240319,3.1328e-05
5.244333502057,8.7119e-05
5.248718117086,0.00118324
5.252601150268,0.00253191
5.255640695153,0.00656802
5.255696978858,0.00393822
5.256035975047,5.75668e-05
5.256568239665,0.000122044
5.260456794183,5.50049e-05
5.2613922794,0.00302202
5.263224927862,7.50295e-05
5.264768883119,0.000928014
5.274011484644,0.00464219
5.274582134446,0.00277987
5.277029777262,0.000612343
5.277173667568,7.7716e-05
5.282422808757,0.000174432
5.286046010241,0.00250503
5.286925725857,4.27907e-05
5.288536248672,6.83131e-05
5.288673617828,0.000120701
5.293143394884,3.54341e-05
5.293773181339,0.000107006
5.294092564224,0.000215106
5.300589389328,0.000242774
5.301378320147,0.0127807
5.313148730099,0.0189419
5.313230214988,0.0203847
5.314840426654,0.0173449
5.315393331211,0.0198209
5.315530059552,0.000333521
5.317036166742,0.00280486
5.317081943212,0.00815067
5.317900479969,0.0221645
5.320764204314,3.74579e-05
5.323039051223,0.00474306
5.324759940048,0.00691357
5.328610566019,8.7119e-05
5.339072377304,7.41188e-05
5.339798921277,0.0061074
5.340741915975,0.00530033
5.348375558549,0.000175267
5.348578505635,0.00207906
5.34936970586,4.55701e-05
5.350512840118,0.00136526
5.351792956828,0.00458158
5.353313678164,5.89101e-05
5.354719956545,8.44325e-05
5.356639036131,3.56137e-05
5.365442188502,3.4328e-05
5.369622510435,0.000707716
5.373548789835,0.00446463
5.383004744328,3.43885e-05
5.385014270452,0.0035177
5.387018311877,0.00282093
5.391372794872,0.00286503
5.393418293537,0.000405477
5.393616447716,6.29399e-05
5.399728419016,0.000624112
5.400380583213,9.62913e-05
5.403447391319,0.000273835
5.403666181701,6.56317e-05
5.406572448249,0.000187979
5.407290993635,0.00803419
5.413656450137,0.0186225
5.414280656192,0.0131341
5.416048560395,0.0174301
5.418798015222,0.00405523
5.421937339204,0.000146848
5.423343727209,0.000807119
5.424837567456,0.00391837
5.432320413838,0.000301605
5.434915331697,8.61806e-05
5.435892929961,5.94744e-05
5.436295861275,4.93179e-05
5.439323679814,0.000262774
5.440389036628,0.000221483
5.442289782777,0.00842932
5.442376758531,0.0114835
5.445615478693,5.23518e-05
5.455513070719,0.0127812
5.458700538826,0.000321378
5.45895003014,0.000266099
5.460084850125,0.00184983
5.463588212359,0.000118299
5.480349668635,9.09144e-05
5.481610814878,0.000157425
5.485322265117,0.0162505
5.485602330778,6.92013e-05
5.485737909044,0.000338381
5.488679699933,0.000423008
5.488884308878,0.0358451
5.490125376177,0.0713363
5.492973330388,5.25549e-05
5.493583191344,0.000341196
5.493678436469,0.000677391
5.495981795325,5.98248e-05
5.497084631027,0.000398345
5.500331636615,0.000831298
5.503597989755,0.00031682
5.50373320598,0.00837603
5.506727095691,0.000180571
5.509993817868,0.000141782
5.510019547536,0.0327231
5.510457817554,4.75372e-05
5.510487038326,0.0854286
5.513190794291,0.00178874
5.513822131013,0.0361453
5.514728497051,2.61512e-05
5.516731157283,0.000838631
5.517569111619,0.00280859
5.523403945655,0.00770138
5.524556632618,7.04822e-05
5.525949611154,0.0149326
5.52948379523,0.000114737
5.533261075039,0.0665966
5.534959400242,0.00115234
5.536327772243,9.89923e-05
5.537468254166,6.02895e-05
5.543463286422,0.000223146
5.547198795451,0.0129414
5.548463980124,3.95437e-05
5.555118740954,0.0152323
5.557781198761,4.95071e-05
5.562911557873,4.01041e-05
5.570147301299,0.00257622
5.57905603469,0.00421906
5.580727377139,4.68205e-05
5.584855766464,0.000178462
5.588780565462,3.3328e-05
5.592112888291,5.35369e-05
5.593073851231,3.56137e-05
5.593238752374,2.536e-05
5.595560929031,3.4328e-05
5.601480590441,4.54772e-05
5.604295880179,5.75668e-05
5.607407438211,3.56137e-05
5.608660235924,7.36862e-05
5.614944451324,4.27907e-05
5.617979923028,0.000968313
5.622433473696,0.00440309
5.626133314856,3.5328e-05
5.63437651777,0.0032656
5.635627251087,0.00541861
5.636848778511,0.000922641
5.641752195894,4.81638e-05
5.64328829927,8.44325e-05
5.653207460593,3.5328e-05
5.6623723299,0.00304881
5.665163477658,0.0001553
5.670789146926,0.000155122
5.673902876964,0.000100728
5.676971069974,6.29399e-05
5.677118833346,0.0157779
5.678982002976,4.95071e-05
5.681876255318,4.95071e-05
5.683411263819,0.00015034
5.687102576889,0.000279251
5.687299321307,2.60994e-05
5.687751943807,0.000111961
5.690893584307,2.57063e-05
5.691596532052,0.000399793
5.691613419221,0.00027607
5.691687445481,0.00529716
5.696304316775,0.000203594
5.69655682851,0.000128548
5.696996082175,9.57083e-05
5.699524278247,0.0166339
5.702912039004,0.0118559
5.703827846226,0.00274651
5.705673523579,0.000136066
5.707625339353,5.80106e-05
5.712461269454,0.0292969
5.712756478013,3.5328e-05
5.71348870859,3.5328e-05
5.71373872552,3.87608e-05
5.720386047234,0.00138314
5.722234515946,0.00351249
5.725838597823,0.00131488
5.733795021807,0.000844731
5.738213201337,0.000189209
5.747536960744,4.68205e-05
5.747813680533,4.68205e-05
5.748056785177,5.89101e-05
5.74908486147,0.000370552
5.753328851498,0.00230863
5.753562726039,0.000739207
5.754640535286,8.82906e-05
5.754923942547,0.00023301
5.755860204362,3.36311e-05
5.756065701125,0.00219053
5.760233150536,5.08504e-05
5.765298846705,0.000202641
5.765430566202,0.000191853
5.766194725678,0.00557684
5.774079355498,0.0037383
5.774330823168,0.00261191
5.776223515399,6.88593e-05
5.777941319956,0.000522543
5.784784986167,0.00743879
5.786759586644,0.023656
5.787883596055,0.0001252
5.797407440538,0.0104074
5.799694108578,4.27907e-05
5.801581986429,6.56265e-05
5.802137602675,3.4928e-05
5.802748167029,3.5328e-05
5.806085625686,8.7119e-05
5.809670093238,4.68205e-05
5.812248074252,0.00014488
5.814482381282,3.4328e-05
5.815773353916,2.536e-05
5.816594085306,5.21937e-05
5.818648647466,0.000150253
5.820060243624,3.89082e-05
5.820140977452,0.00132428
5.822335178579,7.63728e-05
5.8225286434,0.000361149
5.823629847775,0.000722492
5.827422056461,2.5704e-05
5.833320075034,0.00224673
5.83883238476,0.000288854
5.840260301397,3.69434e-05
5.841541586418,0.0105217
5.84243792617,8.73523e-05
5.843070055025,0.000562245
5.843790587021,6.18343e-05
5.849729943318,3.99559e-05
5.851633012811,7.10054e-05
5.852356548997,0.000134922
5.853633161917,0.0163191
5.854229554034,0.0281142
5.860729877427,0.00221862
5.862431686762,3.86353e-05
5.862570563174,0.00438187
5.871162546171,0.000174934
5.876741202528,0.000130489
5.87788987228,0.000148487
5.88057084594,0.0116241
5.881356097177,0.000168368
5.881699379043,0.000346471
5.882565627963,0.0010141
5.882859839044,0.00448115
5.886474756897,0.0244398
5.894971382004,0.00099612
5.896704353922,0.00276697
5.897112936311,8.7119e-05
5.904448274737,6.29399e-05
5.905736588735,0.000187865
5.910183482921,0.00441758
5.910744981706,7.18812e-05
5.911704222613,0.00199875
5.913343420272,3.4928e-05
5.913385092889,3.3328e-05
5.914146817903,0.000107268
5.91897974422,3.56137e-05
5.922586971649,6.29399e-05
5.926854592919,4.95071e-05
5.927467270299,0.00023488
5.929419663148,0.000161
5.93773164992,6.9008e-05
5.938654625086,0.000111298
5.942288504858,5.56029e-05
5.945675624833,0.00840708
5.947063813884,6.83131e-05
5.955696487384,0.00854118
5.956981267862,4.69348e-05
5.957613034434,0.0015447
5.958058402987,0.00408611
5.961320521274,0.000112452
5.964968820371,0.00960277
5.974985514864,0.000417567
5.97733812864,0.000840701
5.98522738362,4.81638e-05
5.988933817907,6.96563e-05
5.992956035062,3.4328e-05
5.994972886604,3.56137e-05
5.996359271422,5.35369e-05
5.996713962018,8.04026e-05
5.998759937563,9.07574e-05
5.998913208672,0.000686223
6.000533537393,3.4328e-05
6.002682720974,4.4134e-05
6.004661026555,0.000154283
6.005777418227,0.000163
6.006916547985,9.91192e-05
6.008008611918,0.00170398
6.008378008423,0.000389765
6.010935456927,0.000152979
6.013517305352,0.00269967
6.01386529495,0.00870949
6.015179738298,9.11489e-05
6.015921239811,0.000115328
6.02325403097,0.000131447
6.024186753977,0.000925328
6.026593994131,6.83131e-05
6.030504371272,0.00195459
6.033287406159,6.85994e-05
6.035585426534,0.000139569
6.036078188993,5.4205e-05
6.03689755987,0.00347474
6.038845464225,2.68988e-05
6.041396126698,0.000252295
6.042045963757,0.000148139
6.043972407499,0.0172692
6.045284378433,0.0143757
6.046086573246,0.00293303
6.046520759437,0.0154079
6.049218582031,0.000245944
6.050524533553,0.00192922
6.051166278942,3.92647e-05
6.05404595372,0.00010071
6.056807120233,0.00506346
6.056960566669,0.000328908
6.058960578741,0.000160318
6.059476647663,0.023653
6.061607880968,4.35674e-05
6.070475738574,0.000193606
6.071043100649,0.000444409
6.071360793518,0.000768278
6.071670754336,0.000280063
6.077527612976,0.000160098
6.079276484778,0.0388764
6.083620857998,0.0133782
6.084096354649,0.0290938
6.090370996464,3.1328e-05
6.090726219657,0.000135477
6.09554633463,5.75668e-05
6.096587402835,0.000107268
6.104025500698,0.000443089
6.106672354286,6.83131e-05
6.109051811017,0.000729208
6.113821112304,0.00114563
6.113972657812,0.000683657
6.118187226652,0.000141873
6.11837794085,0.000845905
6.119904220701,0.000828611
6.122828295622,3.5828e-05
6.124091094276,0.00014488
6.130093682568,3.3328e-05
6.136081072748,6.15966e-05
6.138298447688,8.98056e-05
6.139617056738,0.000298014
6.142610946743,0.000645925
6.153716588834,0.00054629
6.15478509432,0.002651
6.156465293708,0.000288564
6.156520310778,0.000641345
6.156729047934,0.00287986
6.157303836433,0.0100789
6.159058244536,0.00097354
6.161088089181,0.00278578
6.164209725607,6.05883e-05
6.164922833609,3.26115e-05
6.165828043993,4.5206e-05
6.167205456795,3.24434e-05
6.169648131996,0.00023085
6.169733283514,6.60167e-05
6.169935830066,0.00310165
6.170212383999,2.578e-05
6.17199340236,9.88372e-05
6.172142481263,9.46024e-05
6.172896731223,0.000261036
6.173514106941,4.38229e-05
6.178573316647,3.9694e-05
6.179420881249,0.00539489
6.179876126305,0.0038789
6.180144932705,0.000263988
6.180474982591,0.0265834
6.184945370961,0.000227108
6.189121320594,0.000220169
6.192538601644,0.0054558
6.192680996134,0.00212977
6.193074402906,0.00586734
6.193246317597,0.0223003
6.195766419736,0.00198893
6.196321007706,3.74492e-05
6.198022834625,3.7392e-05
6.20178369088,9.79191e-05
6.202467415727,0.0075586
6.203308148571,0.000157078
6.203497688319,0.0021214
6.207126627697,8.25187e-05
6.211058281111,0.00696985
6.211366004216,0.00271278
6.213554072513,0.000383761
6.217583889525,0.00552725
6.217658976556,9.30526e-05
6.223424183397,0.0038031
6.224875967043,0.00117045
6.225474825995,0.00625451
6.229800198165,0.00396806
6.230254088676,6.63907e-05
6.232237774086,0.000147602
6.234044680957,0.0132707
6.234470142572,4.16747e-05
6.236180142463,4.59859e-05
6.236505360333,0.000281883
6.238783145745,2.78994e-05
6.239439050653,5.98232e-05
6.239806960597,0.00968064
6.244345803832,0.000120894
6.245491639936,5.48207e-05
6.248307448708,0.000120161
6.249767234615,0.000276709
6.254809178798,0.00052144
6.257448795013,0.00542433
6.259872791056,0.000206465
6.260446373126,0.0002717
6.261271037924,0.000207538
6.265255631368,0.000282335
6.266783418024,0.0177754
6.268689393917,0.000405288
6.27056476084,0.000156861
6.27245938292,4.15658e-05
6.273728693622,0.0479218
6.274328444062,0.00131569
6.280129888484,0.00701427
6.28446438676,3.57172e-05
6.284723133974,2.78202e-05
6.288353860463,0.000421199
6.288923294938,3.65612e-05
6.289451489301,0.000195759
6.292027909687,0.010692
6.292162489967,0.0389868
6.292780798224,0.058284
6.296283738001,0.0530598
6.297071334521,3.17438e-05
6.298593815078,0.025706
6.298894124548,0.00271446
6.300662865484,0.00298731
6.308526529788,0.0100577
6.311408525246,0.000219004
6.313404892402,0.00468024
6.313694474935,0.000118637
6.314131003614,6.80728e-05
6.314710245364,0.0094367
6.321352500345,0.000150351
6.321388912283,0.0924279
6.323242474672,0.00427272
6.324493526565,0.00517633
6.330406151306,3.1328e-05
6.330542994954,5.35369e-05
6.331881436609,3.4928e-05
6.343825369347,0.00707322
6.344071107092,0.0103106
6.345235488397,0.00250981
6.345559411426,0.000165317
6.347153719574,0.000146938
6.348174471494,0.000155079
6.355048491891,0.000350389
6.355105027529,0.000429449
6.355705188676,0.000242718
6.35577597577,0.00021611
6.361013765412,0.0049626
6.362388864258,0.000738288
6.363643465473,0.000302996
6.366359832824,0.0175583
6.367837482947,0.017472
6.36845642451,8.83447e-05
6.37324545275,0.0254527
6.375137635588,0.0327369
6.380689568108,0.000241597
6.385102859227,0.00127592
6.391067781694,0.000208136
6.395111064573,0.000155355
6.3951834586,0.00359864
6.395544477089,0.00437479
6.39842850585,0.000414905
6.400553528483,3.76132e-05
6.402423404468,7.04351e-05
6.402571840039,8.25022e-05
6.404278621287,0.000236016
6.407148049868,0.000214416
6.41004067391,0.00513256
6.411530525033,0.000119851
6.416833960408,0.00741258
6.422455601712,0.000885724
6.424222796106,9.49824e-05
6.425477022395,0.000214086
6.427475663224,0.0185325
6.431359344125,4.01554e-05
6.438201078647,0.000672533
6.438553865736,5.56076e-05
6.438868419275,0.000283619
6.444393936771,2.75597e-05
6.447250847746,0.000339145
6.447885004127,0.0187876
6.448638888034,0.000418595
6.452226840922,5.67202e-05
6.453127156355,0.000484538
6.455869789826,0.000284763
6.458247567578,0.000107262
6.458719824375,0.000394767
6.458856775296,0.0303722
6.463011757839,0.0455017
6.467256247156,0.000699771
6.467410534193,0.00678572
6.467539004397,0.0783998
6.469207965258,0.000163607
6.47335828788,0.000249765
6.474716155553,0.00142629
6.477299938802,0.000619259
6.477787226934,0.000528682
6.477994450814,0.0491401
6.482491950597,8.25308e-05
6.484676256916,0.00419786
6.485746733074,0.000462608
6.488828140452,0.0590725
6.489253371476,0.0425669
6.48963009624,0.000482702
6.495393903204,0.0350075
6.498412672092,2.84641e-05
6.499228637445,0.0120515
6.500528607803,0.0715237
6.501886604116,0.0726344
6.508965132267,0.0143506
6.509616819167,0.000349797
6.512130852941,0.000511742
6.514620661528,0.0252072
6.518520686811,0.0228864
6.521513458468,0.000337759
6.523363446417,0.0154173
6.52345836414,0.0629914
6.525482778101,5.2759e-05
6.527439353629,0.0274957
6.529729731277,0.0473276
6.529906979234,0.000107363
6.530335929374,4.8051e-05
6.532108763998,0.000502551
6.53341655543,0.000146978
6.533851610426,0.000295394
6.538087119967,0.000756807
6.539005932376,0.00173944
6.543147053005,0.142081
6.544054087945,0.000102066
6.550053678768,0.00041715
6.550501718496,0.00669067
6.553819364041,0.00373325
6.554118009038,0.0441194
6.554894570223,0.0289709
6.555420494394,0.000280172
6.557714223929,0.011677
6.559714723729,0.000139532
6.564524900089,0.000727718
6.565146194338,0.0278262
6.566232076536,0.0312068
6.569030768821,0.000166071
6.569460820327,0.0206475
6.57101446728,0.0309637
6.574978640127,0.0438526
6.57656498718,4.81326e-05
6.576837470223,0.000141128
6.583716448066,0.000133573
6.587261483204,0.0161176
6.591256647858,3.5328e-05
6.592106977847,3.4328e-05
6.594528501661,4.87996e-05
6.599655720717,5.56074e-05
6.603220761811,0.00894859
6.607733434732,4.14474e-05
6.608289820185,0.000191895
6.609366717419,0.000440417
6.609936151878,0.000198616
6.610356984514,0.00198921
6.611885472296,0.00345484
6.614148376252,9.15292e-05
6.616214489553,0.00642655
6.618173002684,0.00016042
6.618394398972,0.00511301
6.618699400871,0.000574758
6.623235208675,8.57757e-05
6.624715844405,3.1328e-05
6.625719236827,4.27907e-05
6.626280920716,9.38354e-05
6.630586096942,0.000510253
6.634719174574,3.98148e-05
6.639208003826,0.00491298
6.640188919344,2.55407e-05
6.640396459383,0.000114504
6.642127238963,0.00364013
6.645155085876,6.83131e-05
6.648063213061,7.18819e-05
6.648644880174,6.41388e-05
6.649656126818,4.99313e-05
6.651680498965,3.35447e-05
6.652064410752,2.57545e-05
6.657253339322,0.0002786
6.658283943308,4.25736e-05
6.66206238798,3.84604e-05
6.66301871142,0.000117247
6.663557216618,0.0116498
6.663725976724,0.000100274
6.664801914788,0.000140076
6.66591931305,0.029252
6.666217298114,0.00129742
6.669230258012,0.00100662
6.669564709969,7.69078e-05
6.670757545309,7.39011e-05
6.670963051166,7.2175e-05
6.67163182175,0.0170983
6.675800515667,5.75668e-05
6.676323511591,0.000189209
6.676600809074,8.84623e-05
6.676860515371,6.56265e-05
6.677959614386,4.81638e-05
6.681436324502,0.00094279
6.685220355196,8.7119e-05
6.687808081597,8.98056e-05
6.689909591753,0.000116671
6.693396859874,0.000441746
6.695925025233,2.536e-05
6.700403543106,6.15966e-05
6.704589530822,5.89101e-05
6.704637752193,6.92803e-05
6.706318333241,5.08504e-05
6.708706493901,3.5328e-05
6.709007361773,3.60743e-05
6.711222032416,6.12342e-05
6.714865904551,0.00196562
6.71672663876,0.00452896
6.71978794873,0.00951797
6.722019258488,6.98097e-05
6.729865077555,0.000207208
6.730355369581,0.00925362
6.733135998387,0.00906485
6.735482584023,0.000289083
6.736185205179,0.000122044
6.737653244203,0.000204811
6.739502849371,0.000124251
6.740425866755,0.0197093
6.747653288132,0.000440461
6.748903996206,0.0197948
6.750056253324,0.0193772
6.750867739555,0.00778792
6.751967643757,5.72758e-05
6.755730635334,0.00018463
6.756807728763,0.0024344
6.760037382061,0.000592194
6.761115038906,5.57461e-05
6.761838597527,0.010352
6.764682881959,6.83131e-05
6.776379097812,7.14305e-05
6.777617435966,0.000151842
6.77862741605,0.000257403
6.784745536728,0.00332793
6.785350685745,0.0110184
6.786165186398,0.00150044
6.787401824871,0.000211408
6.79150597652,0.00280617
6.791637363735,0.000145587
6.804479257242,0.0242743
6.812909458999,0.0225936
6.815333947995,0.0298437
