time,IdealSim1.flowGenerator3.flowCompletionTime:vector
0.000016323164,1.63232e-05
0.000475432005,0.000298064
0.000807350673,1.21564e-05
0.000991309965,1.4094e-05
0.001473588008,0.00129023
0.001667626462,1.70121e-05
0.001946624836,1.43155e-05
0.002074304379,1.75617e-05
0.002158544085,1.3626e-05
0.002260063762,2.3656e-05
0.002290783701,1.61032e-05
0.002350303551,2.33794e-05
0.002622342506,2.15753e-05
0.002877821647,2.75668e-05
0.003048143252,0.000227043
0.003125384538,4.23742e-05
0.003416504035,3.41269e-05
0.003628903646,2.50743e-05
0.004214502888,4.97956e-05
0.004334862891,0.00118104
0.004361982859,0.00036913
0.004445502819,1.86468e-05
0.004491222752,3.13874e-05
0.004802982382,2.12147e-05
0.004996182007,1.27569e-05
0.005077181936,4.72382e-05
0.005379101433,0.00244758
0.00558862102,0.000268429
0.00577282085,3.33146e-05
0.006026620349,0.00140929
0.006050383547,0.00591971
0.006205783013,2.72888e-05
0.006401862376,4.30903e-05
0.006540341907,2.60316e-05
0.006648101518,1.44418e-05
0.006868780651,0.00119751
0.00712269881,1.69084e-05
0.007564898802,0.000440171
0.008285737143,2.98719e-05
0.008323537148,0.00654253
0.00839862933,1.52577e-05
0.008489949328,5.52333e-05
0.008638629201,0.000556041
0.008758562427,0.000836534
0.008985962309,0.000574408
0.009079802289,1.51842e-05
0.009193802214,1.35e-05
0.009237722202,3.16125e-05
0.00938160207,0.0012032
0.009560162045,2.11966e-05
0.009568442039,0.00250709
0.009609842033,1.40964e-05
0.009948961986,1.65935e-05
0.010227121852,0.000150846
0.010236601853,5.58187e-05
0.010442161857,0.00055171
0.01066416185,5.43146e-05
0.010687801853,0.00181351
0.010800484942,0.00056829
0.010918084872,6.5905e-05
0.010953364864,0.00183029
0.010977364863,0.00246586
0.011024524858,2.17897e-05
0.01109880486,0.00261833
0.011372524315,0.00270545
0.011546403998,2.36437e-05
0.011680206947,0.000318002
0.011793966898,2.29942e-05
0.011813406873,0.00202118
0.011897046584,1.44513e-05
0.012302045743,0.00413905
0.012321485714,0.000222267
0.012658083739,0.0022816
0.012717414907,0.000258122
0.013748878899,2.05845e-05
0.013769518778,1.21906e-05
0.013801918561,0.000271561
0.013810098189,1.23632e-05
0.013966553659,0.000132122
0.014153153777,4.34429e-05
0.015429743132,0.000121677
0.015647782083,1.90168e-05
0.015703341929,1.86832e-05
0.01573226186,0.000261653
0.016209017978,2.17261e-05
0.016572974996,0.00202691
0.017439151221,1.55171e-05
0.017499510769,0.000171242
0.01752266021,1.26032e-05
0.017713595675,1.24832e-05
0.017786347512,1.69232e-05
0.017913984085,1.72832e-05
0.018418758299,1.31483e-05
0.018521957509,1.67634e-05
0.018750795653,0.000476159
0.019007808636,1.67508e-05
0.019179407263,1.33415e-05
0.019252606709,1.34264e-05
0.019300246363,0.00045312
0.019958819609,1.83631e-05
0.02031775587,1.21232e-05
0.020497390765,1.24832e-05
0.020994258371,0.000125403
0.02144975984,0.000561359
0.021577178456,1.38032e-05
0.022078715411,1.62939e-05
0.02214735489,0.000479879
0.022510981633,1.44032e-05
0.022679509921,1.77632e-05
0.022806622061,2.59231e-05
0.022850044942,1.23632e-05
0.022870377505,2.64031e-05
0.02318170979,2.44831e-05
0.023258972011,3.6963e-05
0.023363725401,1.28432e-05
0.023908059802,4.11839e-05
0.024122498066,0.000755757
0.025042779325,1.41632e-05
0.025767048821,9.19225e-05
0.026493585961,1.39232e-05
0.026651797801,1.26032e-05
0.027025672757,1.89631e-05
0.027299297633,1.63232e-05
0.027937680578,0.000164863
0.028126679102,2.34766e-05
0.028273437965,2.05825e-05
0.028295037836,0.000801957
0.028315080016,1.99231e-05
0.029043756869,1.23632e-05
0.029260754265,0.000150242
0.029263705485,2.65231e-05
0.029418954259,1.23632e-05
0.029564435567,6.88827e-05
0.029609023558,1.28432e-05
0.029941886152,1.82431e-05
0.030104008101,0.000169697
0.031216636078,0.000666838
0.031493784966,1.22432e-05
0.031791106234,2.61631e-05
0.032259592268,3.55659e-05
0.032474391425,0.0005766
0.032706640202,0.0006426
0.032729307722,1.28432e-05
0.032822574366,1.69232e-05
0.033002537213,1.28432e-05
0.033387478589,2.30327e-05
0.033502798209,2.40944e-05
0.033636117706,0.000383293
0.033651117632,0.0005928
0.033905291647,1.95631e-05
0.034494579079,1.30832e-05
0.034895819027,0.000109803
0.034914967527,1.89012e-05
0.035213645143,2.0098e-05
0.035238365091,4.18283e-05
0.035550243548,0.000253388
0.035572323415,0.000785039
0.035713457238,5.23229e-05
0.035800729701,1.33471e-05
0.035835289464,0.000119522
0.036248855354,0.000159523
0.036341734631,0.0004518
0.036638299668,6.84029e-05
0.036665565187,8.97628e-05
0.036811661215,0.000132842
0.036941813134,1.53632e-05
0.037101314353,1.52432e-05
0.037340610764,0.000142682
0.037544944689,1.41632e-05
0.037702966328,1.53632e-05
0.03862749548,0.000256548
0.038779174267,0.00053052
0.03879130894,2.08832e-05
0.039184983773,1.22076e-05
0.039505862877,0.000636841
0.039560568303,0.000160417
0.040077524046,0.00108744
0.040241400673,1.78832e-05
0.040359189078,1.2901e-05
0.04036362906,4.4643e-05
0.040468706986,1.27232e-05
0.040703370177,0.000161642
0.04131309122,1.27012e-05
0.041560049255,2.2063e-05
0.041862566812,1.86233e-05
0.042012205616,0.000721558
0.042591497622,2.50831e-05
0.043202459699,2.03673e-05
0.043256579329,1.93601e-05
0.04331249893,1.58269e-05
0.043547937504,0.000737038
0.043626209151,0.000206522
0.044391548654,4.92191e-05
0.044440388503,0.000302885
0.044493068115,0.00059112
0.044603997414,1.45232e-05
0.044953563792,1.21232e-05
0.045134328041,0.000150242
0.045196403379,3.9003e-05
0.045657300417,1.29632e-05
0.046446655793,1.48832e-05
0.0468002727,2.50831e-05
0.046988762297,1.83631e-05
0.047015336709,1.21232e-05
0.047529397009,0.00037836
0.047713896147,9.92425e-05
0.047754753693,1.53632e-05
0.048071987167,1.74032e-05
0.048759149958,0.000104756
0.048841949665,0.00057888
0.048858560788,2.53232e-05
0.048906272498,0.00027759
0.048950278148,1.21232e-05
0.049009253972,1.41632e-05
0.049630876421,0.000580318
0.049874837688,0.000252347
0.05008437212,8.62826e-05
0.050224048664,2.13631e-05
0.050677806979,1.29489e-05
0.05086368549,1.43212e-05
0.050941924934,2.26904e-05
0.05144736078,1.35685e-05
0.052233835228,0.000240481
0.052738071629,1.6565e-05
0.053374789028,0.0028069
0.053587080495,0.000989758
0.053678585019,9.00025e-05
0.053783138622,1.72832e-05
0.054348090395,1.23632e-05
0.054563584479,1.39232e-05
0.054697700346,0.000138722
0.054976304213,1.80031e-05
0.055394567186,0.000135122
0.055496048186,1.36832e-05
0.056056613862,1.2636e-05
0.056628049806,0.000628439
0.056644801423,0.000185762
0.056681415885,1.82431e-05
0.056851321645,1.27232e-05
0.057005108353,1.32032e-05
0.057092466551,1.21232e-05
0.057277440982,1.59632e-05
0.05738923253,1.22432e-05
0.057663934686,1.26032e-05
0.057737718299,1.22432e-05
0.057807966917,1.81231e-05
0.058431973975,1.40432e-05
0.058477665385,1.26032e-05
0.058650685158,1.67043e-05
0.058931722867,0.000324481
0.059090032162,1.96831e-05
0.059157351002,1.39232e-05
0.059234015648,3.60032e-05
0.059445645646,1.87935e-05
0.059463045631,1.39475e-05
0.059546445356,1.75341e-05
0.059591565246,1.8729e-05
0.059633805127,1.36524e-05
0.0597728846,0.000572493
0.059828084351,4.2895e-05
0.059850644309,4.26067e-05
0.060377800275,0.00117744
0.060391995623,2.40559e-05
0.060751752764,3.33148e-05
0.060792792502,1.91439e-05
0.060958031176,1.21983e-05
0.061263310268,2.2266e-05
0.061268350271,2.12051e-05
0.061467070207,0.00117528
0.061590486098,0.000567917
0.061608006077,0.000512428
0.06165456574,0.000225483
0.062083204255,0.000189122
0.062355990105,3.6363e-05
0.062408982783,1.58432e-05
0.06342875275,1.65632e-05
0.063710311305,2.99913e-05
0.06376335128,0.000303931
0.063815551238,4.2114e-05
0.063934230796,0.000314174
0.06402975009,2.10977e-05
0.06405398994,0.000606001
0.06406245825,1.35632e-05
0.064104558567,1.54832e-05
0.064157921589,1.23632e-05
0.064624288175,1.29632e-05
0.065037269476,1.27232e-05
0.065383599074,1.23887e-05
0.065705796502,1.36223e-05
0.065735076433,0.000654598
0.066174153538,1.77235e-05
0.066242913303,0.000309227
0.066373232269,0.000693119
0.066560905185,3.8523e-05
0.066619014436,1.24397e-05
0.066708053746,0.000108722
0.067011426815,2.25631e-05
0.067111255017,6.28828e-05
0.067240605126,1.21232e-05
0.067519458479,1.27232e-05
0.067523785645,1.28432e-05
0.067546253841,1.44032e-05
0.067562688077,2.00432e-05
0.068201674392,3.52406e-05
0.068283753779,1.65113e-05
0.068372073095,0.000836517
0.068393926811,1.36832e-05
0.068596038501,1.24832e-05
0.06914867935,1.40432e-05
0.069160437249,1.35632e-05
0.069567100278,1.41463e-05
0.069589660154,1.50947e-05
0.069738579722,5.2665e-05
0.069775779619,0.000238322
0.069821142592,2.05112e-05
0.07006990161,1.30219e-05
0.07027186108,2.11754e-05
0.070710820194,0.000467171
0.070748740148,2.12718e-05
0.070834180075,3.47945e-05
0.070948660048,2.00594e-05
0.071060023038,0.000130832
0.071202342929,0.00100905
0.071362665979,0.00177795
0.071576025551,1.63705e-05
0.072319905133,0.0010404
0.072407868174,0.000630274
0.072590264951,0.00278526
0.072778427416,0.00142064
0.07289098653,1.21813e-05
0.073689100336,0.000109424
0.073723060109,1.29067e-05
0.073837059211,0.00268731
0.073857981004,1.22432e-05
0.073966075832,1.76432e-05
0.074206687772,0.000205322
0.074504595583,3.2163e-05
0.074740924526,0.000142082
0.074774038082,2.37631e-05
0.074901484785,1.70432e-05
0.07520997671,1.47632e-05
0.075375592621,1.87231e-05
0.075860385501,1.31528e-05
0.075960824776,1.44652e-05
0.075979904748,4.34375e-05
0.076269102421,1.9429e-05
0.076314822142,2.41635e-05
0.076368221826,3.07227e-05
0.076489540882,1.5541e-05
0.076750779725,0.000244456
0.076982379361,0.000192918
0.077159738735,2.72915e-05
0.077257298405,1.8326e-05
0.077595577055,1.41161e-05
0.077597137054,1.31983e-05
0.077933139645,0.00114596
0.078081339077,0.000337976
0.078193058227,1.91628e-05
0.078411576458,0.00273455
0.078904302192,1.38032e-05
0.079001111973,4.70429e-05
0.079058566873,1.24832e-05
0.079319887218,1.38032e-05
0.079468532163,1.26032e-05
0.079848161709,0.000134282
0.08004178969,1.30832e-05
0.080536201391,1.23632e-05
0.080984308602,1.53632e-05
0.081021149167,1.41632e-05
0.081141708742,1.26032e-05
0.08198150552,0.000183482
0.082241734216,1.28432e-05
0.082321805357,1.35632e-05
0.082841287771,9.44869e-05
0.083071446011,3.76364e-05
0.083097845843,0.000655438
0.083203747916,2.26831e-05
0.083334683512,0.000104752
0.083649202278,1.83615e-05
0.08372600201,0.000543001
0.084049347144,0.000825239
0.084289370089,1.48832e-05
0.084463878254,1.23632e-05
0.084593219817,0.000117122
0.08470461942,0.000128762
0.084841693048,1.83631e-05
0.085394933144,1.60848e-05
0.08556393456,0.000319604
0.085744897405,1.21497e-05
0.085759881877,0.000439563
0.085807540573,0.000300529
0.086351981609,2.54618e-05
0.086467781178,0.00114009
0.086572170781,1.57267e-05
0.086640810261,0.00124596
0.086864117794,0.000114962
0.08712298871,3.8763e-05
0.08778849208,0.000137162
0.088080692979,2.00662e-05
0.088488569632,0.000704378
0.088817306887,4.2168e-05
0.088953026392,1.69398e-05
0.089768183281,1.22687e-05
0.089775983267,0.00126924
0.089812706376,0.00114725
0.090241223914,0.000139523
0.090256011113,2.6592e-05
0.090371930711,1.90726e-05
0.090478490387,2.87075e-05
0.090497450359,0.000797882
0.090652969123,1.41084e-05
0.090865247563,4.96139e-05
0.090929207082,0.000826439
0.091305204948,1.22432e-05
0.091442828109,2.11231e-05
0.091697013471,1.70432e-05
0.092720709665,0.000692519
0.092828398293,0.000378722
0.093286994834,0.000586199
0.093310972114,1.56032e-05
0.09358049276,1.59632e-05
0.094244702548,3.3963e-05
0.09470551764,1.23712e-05
0.094903156054,1.43566e-05
0.094939635829,1.86953e-05
0.095058194898,1.33953e-05
0.095109914519,0.000803037
0.095154393231,1.24832e-05
0.095170968023,1.28432e-05
0.095258879665,2.3984e-05
0.095311199281,9.97226e-05
0.09570797923,1.21232e-05
0.095766519065,1.21232e-05
0.096130192768,1.71632e-05
0.096952234117,2.36453e-05
0.096971554091,1.24409e-05
0.097366474028,3.42101e-05
0.097368154029,1.82841e-05
0.097444234028,0.000707755
0.097772192718,1.37385e-05
0.097869392399,2.09727e-05
0.097930952267,2.99602e-05
0.098096791629,0.00153348
0.098237193764,1.34114e-05
0.098283753428,0.0016225
0.09902086479,0.000377682
0.099042534877,2.82032e-05
0.099101627508,0.000578523
0.099351772138,1.51232e-05
0.099363151268,1.64432e-05
0.099463093113,1.86537e-05
0.099942369284,3.90271e-05
0.100131848116,0.000713278
0.10048580301,0.00045216
0.100939330683,1.60142e-05
0.101235608266,0.00036924
0.101524658577,0.000279481
0.101742380124,1.22432e-05
0.102765918554,2.7331e-05
0.102994877652,0.00059268
0.103044473607,2.1066e-05
0.103646388643,0.000953997
0.104040468671,2.07631e-05
0.104370140602,1.52432e-05
0.104493793796,3.78522e-05
0.10455715332,0.000192842
0.104585085407,1.44032e-05
0.104642628708,1.27232e-05
0.104855908003,1.77632e-05
0.105143879344,4.39107e-05
0.105239278622,1.7183e-05
0.105278038351,1.22039e-05
0.105797514074,0.000734757
0.105974799979,4.22364e-05
0.106182998315,1.57683e-05
0.106195718313,2.54479e-05
0.106299757544,1.78617e-05
0.106655436114,0.000373188
0.106752875461,2.02286e-05
0.10685955509,1.75445e-05
0.106951714758,0.00105588
0.107522952904,0.000799922
0.10758773124,0.000574393
0.107758129872,0.000789601
0.107799431041,2.50831e-05
0.108141952111,2.04031e-05
0.108181020763,1.34432e-05
0.108326951612,1.35632e-05
0.108734773033,4.10205e-05
0.108815652474,0.000190442
0.108837765916,4.9323e-05
0.10906980379,1.23632e-05
0.109310051322,1.23632e-05
0.110208006716,1.21232e-05
0.110446142212,1.64432e-05
0.110506564802,1.23632e-05
0.11063052424,7.87226e-05
0.1109242376,1.60832e-05
0.111590212219,3.7669e-05
0.111702771333,1.21235e-05
0.111818330959,0.000593639
0.112274258389,2.66172e-05
0.112408898348,1.99281e-05
0.112506578323,0.000786753
0.112607017956,0.000426547
0.112727977137,1.32527e-05
0.112896936721,6.90657e-05
0.113017896278,1.46537e-05
0.113213375859,1.83783e-05
0.11356137574,6.36378e-05
0.113575295738,3.34646e-05
0.113841695714,0.000726946
0.114414333482,2.48397e-05
0.114474093437,2.12795e-05
0.114491253414,0.00272736
0.114496416607,0.000125759
0.114611019526,5.47959e-05
0.114693699233,0.000190285
0.114873198502,0.000188883
0.11505802123,1.34177e-05
0.115079861191,0.00239581
0.115087788015,0.000277442
0.115366618209,1.23807e-05
0.115651615886,0.000318241
0.115925737265,0.000136082
0.116340172853,0.000263522
0.11635903807,1.22964e-05
0.116423718047,0.000248523
0.116460681176,2.04107e-05
0.116743760073,1.84195e-05
0.117040159653,0.000195904
0.117070999577,0.000768317
0.117130999129,0.000931322
0.117355546675,1.72832e-05
0.117371029846,1.85737e-05
0.118299358626,1.53632e-05
0.118331190844,1.57232e-05
0.118570948241,1.40432e-05
0.118739875476,1.62032e-05
0.118884128638,1.22432e-05
0.119378538392,1.60832e-05
0.119402142865,1.87231e-05
0.119438873372,1.47632e-05
0.119623610356,1.27232e-05
0.119950125238,4.21229e-05
0.119976405567,2.28031e-05
0.120026244885,1.65632e-05
0.120187706643,1.32032e-05
0.120820650555,2.08627e-05
0.120967649931,0.000143651
0.12135332724,1.68846e-05
0.121390887135,0.000158234
0.121442246777,1.65468e-05
0.121649725137,2.10941e-05
0.121783524074,0.00119795
0.122666911249,1.21232e-05
0.12281506868,1.51232e-05
0.124020389634,1.38032e-05
0.124280684505,0.000170162
0.124521958718,1.22432e-05
0.125759799882,0.0004458
0.12641362231,0.000236402
0.126567641336,0.000508039
0.126682600965,2.08193e-05
0.12668572096,3.35498e-05
0.126837763576,0.00108003
0.126934300555,0.00135
0.127364428646,1.21232e-05
0.127441272888,1.40432e-05
0.127877960819,1.44032e-05
0.128381388537,3.35388e-05
0.128383548534,3.14313e-05
0.128515428352,0.000401281
0.128661711027,1.61448e-05
0.128702034225,5.1225e-05
0.128763474024,1.32435e-05
0.128816517222,1.26602e-05
0.128847230775,0.000424476
0.128963510419,3.05411e-05
0.1290284302,0.000265657
0.129066229937,0.000696695
0.129460182828,1.69232e-05
0.129669389457,0.000148802
0.129930255352,1.21232e-05
0.130003430538,2.37631e-05
0.130162675514,1.23632e-05
0.13046384414,1.72832e-05
0.130658938954,1.82013e-05
0.130798017847,0.000209402
0.130847222902,5.31629e-05
0.130857787536,1.28432e-05
0.131064230646,0.000150362
0.13119745058,1.57232e-05
0.131377648797,1.28541e-05
0.131402368642,0.000103082
0.131509660365,1.39232e-05
0.131546789158,1.23817e-05
0.131581108934,1.45908e-05
0.132092784741,1.65315e-05
0.132918859073,1.40033e-05
0.133406898548,2.28882e-05
0.133431618537,9.76579e-05
0.133543698535,0.000356278
0.133597098533,1.81507e-05
0.133615218533,0.000450794
0.133631538527,0.000894916
0.133968378504,0.00243743
0.134012061571,0.00126869
0.134060061223,0.00126168
0.13424863341,1.83631e-05
0.134370396235,1.72832e-05
0.134509997916,1.83969e-05
0.134812275494,2.27711e-05
0.134896874857,1.5771e-05
0.1349218347,0.00046284
0.134989397562,4.1935e-05
0.13541983567,0.000507962
0.13544429408,1.72647e-05
0.135490373747,0.000476881
0.135926007039,1.28432e-05
0.136539920737,0.000505199
0.136588625419,2.08831e-05
0.136674483298,2.24564e-05
0.137060040136,0.000485399
0.137099704411,1.41632e-05
0.137878460988,1.38032e-05
0.137937057459,1.26032e-05
0.138192906902,1.68032e-05
0.138728970191,1.35632e-05
0.138892459474,1.75232e-05
0.138978274808,1.78832e-05
0.139083732715,1.50032e-05
0.139318526317,1.21836e-05
0.139333526244,0.000121082
0.140052795119,1.36832e-05
0.140750006414,1.80031e-05
0.141207932419,1.40432e-05
0.141544943888,8.13627e-05
0.141706879091,1.26909e-05
0.141834798077,0.000314881
0.141988883124,1.63232e-05
0.141996508291,1.38032e-05
0.142157217326,3.8763e-05
0.142214672984,3.1323e-05
0.14222070905,1.57232e-05
0.142874063425,1.47632e-05
0.143035838259,1.26032e-05
0.143323655445,2.44096e-05
0.143716893489,0.000316703
0.143768853108,0.00055992
0.143875352803,1.55967e-05
0.143878352791,2.07632e-05
0.144184989832,1.29632e-05
0.14425243131,1.36832e-05
0.144384464077,4.2003e-05
0.144488952713,7.95626e-05
0.144745156743,2.04031e-05
0.144780419533,1.29632e-05
0.144991483533,6.27628e-05
0.145043378815,1.81231e-05
0.145152157698,1.28432e-05
0.145286747793,1.43099e-05
0.145517026886,0.000259412
0.145667865696,1.55739e-05
0.145688505579,1.26905e-05
0.146035422791,2.44411e-05
0.146603020039,1.22634e-05
0.146929872279,0.000383367
0.147084552256,0.000554522
0.147225074942,0.00105743
0.147234698813,1.9739e-05
0.147444100392,1.76993e-05
0.147498940018,1.98792e-05
0.147729098755,1.32765e-05
0.148026937566,0.00283595
0.148149442694,0.000576
0.148435749022,1.84414e-05
0.148540028268,2.70228e-05
0.148597267842,0.000302161
0.148603703843,1.21232e-05
0.149001082455,8.15799e-05
0.149042242354,1.69057e-05
0.149408480881,0.000578161
0.149726010914,0.000108322
0.150050969746,0.000508319
0.15005384974,2.27757e-05
0.150290178339,0.00131909
0.150446537093,1.30926e-05
0.15046513699,0.000462481
0.150712482679,1.23632e-05
0.15100205514,6.08428e-05
0.151287968349,0.000110762
0.15161180348,9.49225e-05
0.151746325659,0.000144274
0.151928609159,3.4563e-05
0.152394591908,1.62032e-05
0.153040890427,0.000219962
0.153082121378,0.000149763
0.153800832311,1.22432e-05
0.154030114057,2.60431e-05
0.154307663037,0.000148202
0.154525001894,1.93625e-05
0.154645361444,0.00022942
0.154762360538,1.62108e-05
0.155264076409,0.000935637
0.155366865291,1.46432e-05
0.155390416165,1.41632e-05
0.155821756127,1.53632e-05
0.155862985801,5.61629e-05
0.156257167008,1.84443e-05
0.156310206618,8.36427e-05
0.157097872082,0.000155162
0.157210123752,2.4156e-05
0.157366842497,0.000181442
0.157419869056,1.69232e-05
0.157595333693,3.7803e-05
0.157892178179,0.000158282
0.158380384872,1.23632e-05
0.158953297506,2.1784e-05
0.159025296979,1.69641e-05
0.159314495586,1.44029e-05
0.159482614978,2.20475e-05
0.15991893437,5.06639e-05
0.160168294279,4.38451e-05
0.160245814218,2.90476e-05
0.160738054016,0.000248443
0.160852894015,2.21268e-05
0.161379337212,0.00176992
0.161578900407,7.19949e-05
0.16214355701,0.0030711
0.162238717008,0.000380244
0.162254197008,5.54566e-05
0.162964117006,1.72819e-05
0.163220797005,4.77167e-05
0.163268317004,3.51044e-05
0.163443277007,0.00111686
0.163549477002,1.3264e-05
0.163620037,6.01721e-05
0.163869757,1.92672e-05
0.164487036999,0.000102225
0.165139716933,1.3644e-05
0.165268431116,3.49797e-05
0.165387471009,0.00493772
0.165506990964,3.94338e-05
0.165547910932,0.000879853
0.165789590898,7.17944e-05
0.166184750905,0.00267261
0.166396670898,0.000763079
0.166500350899,0.00098336
0.166607150852,6.23102e-05
0.16676735071,2.46441e-05
0.166913990576,0.000654117
0.167124590563,0.00154246
0.167290910521,5.00852e-05
0.167422430426,9.13883e-05
0.167521190414,0.0071549
0.167762806376,2.87284e-05
0.167790046355,0.000112744
0.167900446296,5.63869e-05
0.168022126277,2.46765e-05
0.168080393476,0.00251306
0.168677513477,0.00977894
0.168783353474,2.50868e-05
0.168817193478,0.00375493
0.168817673474,0.00169219
0.169074953457,2.00389e-05
0.169097513417,1.9548e-05
0.169238753375,2.03257e-05
0.169454392968,0.00019559
0.170084512379,4.25068e-05
0.170099331328,2.29757e-05
0.170171211327,1.36304e-05
0.170274291331,0.000563643
0.170451115572,4.81951e-05
0.170816995567,4.32028e-05
0.171147595567,2.22963e-05
0.171678595544,3.15558e-05
0.171884155531,0.000677275
0.172008595528,2.82977e-05
0.172226275528,5.19147e-05
0.172264795528,0.00203646
0.172449115528,0.00100945
0.172597675247,1.31008e-05
0.172675195127,2.02339e-05
0.172727395046,0.0118817
0.172785598245,0.00280458
0.172866481157,0.0120285
0.172948560651,4.22095e-05
0.172984560406,1.29546e-05
0.173096759873,1.51116e-05
0.173159639708,2.30664e-05
0.173558878097,0.00055527
0.173636757549,2.40025e-05
0.174093356758,0.000369716
0.174163076533,0.000435115
0.174176996527,2.9381e-05
0.17421347972,3.56203e-05
0.174290279471,1.71946e-05
0.174361919224,0.00660835
0.174862198104,0.0003793
0.174915851443,2.04759e-05
0.174979931417,1.26063e-05
0.175200731299,5.64953e-05
0.175281851274,0.00111231
0.175288451276,0.000581883
0.175454095229,1.39962e-05
0.175477255185,0.000193203
0.175646772494,2.24811e-05
0.175725011924,1.90936e-05
0.175880890676,0.00145477
0.176193876295,1.28436e-05
0.176707832064,0.000690238
0.176728077271,1.38032e-05
0.177084303645,1.80032e-05
0.177133441387,1.41632e-05
0.177547313542,1.29391e-05
0.177596153187,9.49226e-05
0.177725191891,1.71632e-05
0.17780767324,1.65632e-05
0.178181157697,1.54832e-05
0.178329497131,1.26032e-05
0.178537613172,0.000212762
0.180037616746,4.96829e-05
0.180038712553,1.26032e-05
0.180486853353,0.000179162
0.180638190397,1.58432e-05
0.180888195803,9.00025e-05
0.180926227497,1.71632e-05
0.181084280501,2.1251e-05
0.181152440269,0.000197882
0.181221251747,0.000179402
0.18145418594,1.8663e-05
0.181578505528,2.55932e-05
0.181896144256,0.000566921
0.182014703319,0.00075804
0.182396819151,0.000168183
0.182562658922,0.000110863
0.182595538838,0.000494402
0.18263238619,0.000515402
0.182876766377,1.21232e-05
0.182889486299,1.29632e-05
0.183182120897,1.28748e-05
0.183213440687,0.000126842
0.183754078286,3.0243e-05
0.183787341448,1.21232e-05
0.184005530713,7.93226e-05
0.184833038264,1.23632e-05
0.185572715947,2.59231e-05
0.185637177588,1.71632e-05
0.185840651716,2.44831e-05
0.185924268534,1.27232e-05
0.18593656831,1.86032e-05
0.186163725951,1.22432e-05
0.186968931376,0.000259893
0.187498608376,0.00104076
0.18756445591,1.99189e-05
0.187587855799,1.96464e-05
0.187915934096,0.000247138
0.188929447759,0.000505674
0.189441123546,0.00228119
0.190209382448,1.70432e-05
0.190544765227,2.20485e-05
0.190870682679,3.99919e-05
0.19106928112,2.29737e-05
0.19123896027,0.000134789
0.191948274455,2.27523e-05
0.191962554388,0.00158111
0.192584473588,1.24832e-05
0.192803845288,0.000179642
0.192920512448,2.0094e-05
0.193501670905,0.000422422
0.194231989402,0.00111203
0.194855506857,1.25986e-05
0.195191626137,0.000162964
0.195672224906,1.26355e-05
0.195892904877,1.47302e-05
0.195929667817,0.000443161
0.196197071413,0.000308447
0.196612390082,9.57815e-05
0.19674702973,1.21995e-05
0.196929309705,0.000232332
0.19712298922,7.69423e-05
0.197189109091,3.48267e-05
0.197265788824,0.00440636
0.197272748801,1.36229e-05
0.197440150701,1.22427e-05
0.197703908575,1.64997e-05
0.198339427642,0.000434898
0.198397267601,0.00453479
0.1986713261,4.22654e-05
0.199010445948,1.7488e-05
0.199101832215,1.48545e-05
0.199154152214,1.84738e-05
0.199243072214,0.000794595
0.19943471221,2.14137e-05
0.199442392209,0.000549272
0.199554832203,0.00017123
0.2001171522,0.000207133
0.200390632204,0.00198735
0.200506672201,0.000490226
0.2005958322,7.06342e-05
0.200600632202,0.00225055
0.200686915398,0.00297185
0.20081243836,0.00138474
0.201159961557,0.00241429
0.201790920082,0.00139563
0.201944070923,0.000354188
0.202124399697,2.2421e-05
0.202329153391,0.000451448
0.20235371927,0.000490496
0.202477198807,0.00105705
0.202577158609,2.80946e-05
0.202740971117,6.16027e-05
0.20334180166,1.98886e-05
0.203603641294,0.000175859
0.203616225583,1.74032e-05
0.203901484467,0.00142996
0.204271326245,2.90605e-05
0.20446680549,1.40165e-05
0.205430524056,1.6625e-05
0.205693684056,0.000860102
0.205947964054,2.45504e-05
0.206215684055,0.00162532
0.206639097105,0.000109729
0.206642097108,0.00605352
0.206682297107,0.000276462
0.206921099833,0.00164677
0.206946486332,2.22794e-05
0.206964726309,0.00130893
0.207194888621,0.000666283
0.20753112589,1.65496e-05
0.208166160649,0.00565595
0.20902770015,1.8292e-05
0.209098980035,4.25387e-05
0.209112621432,4.06718e-05
0.209331173543,2.22948e-05
0.20963930114,0.000591483
0.209719247144,1.51948e-05
0.209757242477,2.90017e-05
0.210020642185,3.97779e-05
0.210021362185,0.000625398
0.210123961995,1.27811e-05
0.210231361859,4.22329e-05
0.21076656079,2.11288e-05
0.211391400047,1.32533e-05
0.211560960053,0.00205788
0.212025963245,2.71634e-05
0.212130963248,0.0039129
0.212252283244,4.56717e-05
0.212336283248,0.0024386
0.212553126445,0.00054237
0.212646006442,0.00028407
0.2127283263,0.00141385
0.212979366272,1.27872e-05
0.213639726247,0.00132452
0.213683766115,0.00256184
0.213897844388,1.36324e-05
0.213917047557,2.73057e-05
0.214453923134,0.00554635
0.215388367699,1.45232e-05
0.215394466537,1.76432e-05
0.216002330815,5.29911e-05
0.216217099302,3.68205e-05
0.216321259277,0.000779026
0.216396019018,0.00088425
0.216533058174,1.83023e-05
0.216633617807,0.000165606
0.216668417611,2.19666e-05
0.216693257455,0.000823081
0.216956995222,8.03465e-05
0.217144553795,1.89892e-05
0.217145153796,2.61884e-05
0.217265392893,0.00042144
0.217346091824,1.50032e-05
0.217505757858,1.21232e-05
0.217774988802,3.75645e-05
0.217957267347,1.5362e-05
0.218097426231,0.00042588
0.218360352885,1.46432e-05
0.218738841449,2.43911e-05
0.218858720502,0.000231361
0.219316074781,0.000265321
0.219851474273,2.80425e-05
0.219854714273,2.54968e-05
0.220327273635,0.000525122
0.220400752036,1.30832e-05
0.220470882149,1.40432e-05
0.220839571203,1.9108e-05
0.221105249044,1.26348e-05
0.221372247528,0.000779158
0.221553400839,6.2259e-05
0.221930080295,3.03375e-05
0.222435282775,2.4801e-05
0.222610482774,1.63943e-05
0.222647442775,0.000271177
0.222700842774,1.44323e-05
0.222793962773,3.68092e-05
0.222825762774,0.00148854
0.22289212586,0.00124099
0.223057242619,1.96215e-05
0.223115082567,2.54393e-05
0.22320712252,2.22129e-05
0.223280082488,1.50252e-05
0.223343322465,0.002118
0.223646564451,0.00216738
0.223763326778,0.00149092
0.223863454283,1.32032e-05
0.22457862482,0.000307561
0.224889418194,3.2643e-05
0.225457414479,1.26032e-05
0.225709957556,1.63232e-05
0.227059374977,1.51192e-05
0.227175294561,1.61594e-05
0.227343173914,0.000420987
0.227501932642,0.000931317
0.22751657582,1.89263e-05
0.227805987486,1.40632e-05
0.227816547466,1.79167e-05
0.227857110404,0.000107166
0.228473834113,3.69104e-05
0.228490514026,0.00038076
0.228580396226,1.75232e-05
0.228649226758,1.52432e-05
0.229074112164,1.60832e-05
0.229199057684,1.23632e-05
0.229251043319,1.42832e-05
0.229428342003,1.39232e-05
0.229816671334,1.23632e-05
0.229947649715,1.35936e-05
0.229992889389,7.59627e-05
0.230131691831,1.78832e-05
0.230695745138,0.000154922
0.230845200316,1.82431e-05
0.230966008933,1.33232e-05
0.231255008118,1.32032e-05
0.231302217541,2.58031e-05
0.232033223711,2.40031e-05
0.232665297377,0.000572759
0.233069307412,1.31406e-05
0.233227706828,2.69067e-05
0.233364506497,5.74854e-05
0.233382386484,1.47613e-05
0.233521706233,2.17279e-05
0.233550266208,0.000484337
0.233964746042,8.90913e-05
0.234291628927,0.000177889
0.234330721698,1.31453e-05
0.234387241693,1.53432e-05
0.234463201697,0.00061891
0.234728401169,0.000395752
0.234771841131,1.79755e-05
0.234963121103,1.33523e-05
0.234997921075,1.36906e-05
0.235109041052,0.00153432
0.235201923974,2.71023e-05
0.235355163817,2.53711e-05
0.235356243818,2.96458e-05
0.235997403479,0.000106542
0.236262602964,1.75372e-05
0.236530322434,0.00129271
0.237398045474,3.90502e-05
0.237540230538,2.25608e-05
0.237639230527,1.99747e-05
0.237730190504,0.00429246
0.237947033695,1.47233e-05
0.238012193692,0.000308431
0.238052273691,6.30114e-05
0.238096193658,1.23852e-05
0.23811227366,3.85462e-05
0.23814803683,0.000297555
0.238205516798,4.14716e-05
0.238380716636,0.000526698
0.238399556618,0.00102388
0.239159516618,0.001565
0.239461316619,5.20074e-05
0.239548316616,2.34367e-05
0.239762636582,5.88123e-05
0.239782196576,0.000917125
0.239803556565,0.000129118
0.239905316563,4.5491e-05
0.239961116562,4.76233e-05
0.24037271656,0.000184366
0.240385196561,0.000711574
0.24054335656,1.67905e-05
0.240940436559,2.85285e-05
0.241043396562,0.00436405
0.241107116453,1.25661e-05
0.241428835813,1.48671e-05
0.241556275576,0.00582644
0.241574395551,0.00880017
0.241890835471,2.36203e-05
0.241898035471,2.54858e-05
0.241938598647,0.0051855
0.242006761766,0.000415903
0.242070841731,1.59884e-05
0.242161321691,1.89045e-05
0.242315761622,3.29742e-05
0.242399641571,2.41475e-05
0.242513761416,4.34077e-05
0.242584561297,0.000175459
0.24261024127,1.26781e-05
0.243300121193,2.18237e-05
0.243674122641,3.91694e-05
0.243799162639,1.58384e-05
0.243799282644,0.000545402
0.24420092503,0.00605361
0.244211845013,1.57622e-05
0.24440444497,2.22604e-05
0.244436724944,1.23153e-05
0.244593324869,3.58024e-05
0.244875684511,0.0012199
0.244978767708,0.000275149
0.245464646525,0.000201989
0.2461180453,0.000556635
0.246224845248,2.53959e-05
0.246285805217,1.47955e-05
0.246382045159,2.75837e-05
0.246469165133,1.26766e-05
0.246621444946,4.28249e-05
0.246703404803,0.00121701
0.247184367755,0.00522784
0.247454007554,1.21733e-05
0.247474407555,3.88059e-05
0.247621611464,0.00111953
0.248167374228,0.000456142
0.248331414219,0.000543598
0.248334930221,0.000586582
0.248418693417,4.10209e-05
0.248423811021,0.00107076
0.248514210188,7.64656e-05
0.248658213114,0.000736186
0.248920853676,1.53422e-05
0.24920969361,1.23276e-05
0.249211133611,0.000259909
0.249436373609,1.52834e-05
0.24956957361,0.00764665
0.249791816368,0.00273797
0.249876296345,0.000832451
0.24991841951,2.88306e-05
0.250045139069,2.09197e-05
0.250407178781,5.64775e-05
0.250561498757,0.00175741
0.250838101448,0.000133863
0.250951621289,3.74946e-05
0.251050933808,0.000225603
0.251113714154,0.00102153
0.251219434131,0.000249603
0.25138083673,0.000758259
0.251449859976,0.00393381
0.252596029709,3.80712e-05
0.252636109443,1.60512e-05
0.252652189361,0.000230042
0.252816116933,1.42832e-05
0.253146634037,1.64432e-05
0.253294476733,2.26831e-05
0.253715988349,0.000135793
0.253799627703,0.000253442
0.253839329572,2.10031e-05
0.253916196649,1.52432e-05
0.253944569225,1.40432e-05
0.254192551847,1.21682e-05
0.254491229409,0.000312121
0.2545226301,1.35632e-05
0.254835393537,1.40432e-05
0.254987883629,1.59858e-05
0.255090122828,0.000138002
0.255135761657,1.44032e-05
0.255222956595,3.8163e-05
0.255809740114,0.000151082
0.256706592199,1.41632e-05
0.256762762621,1.65632e-05
0.257536851688,1.83631e-05
0.257923257619,0.000190562
0.258328516083,1.57232e-05
0.258581637096,1.53632e-05
0.258778232207,1.22432e-05
0.258846287883,1.38032e-05
0.259259372897,2.69346e-05
0.259379612447,0.000288757
0.259397132353,0.000425641
0.259411021407,1.53632e-05
0.259919495453,0.000225268
0.260487690772,1.26744e-05
0.260831008925,0.000243251
0.260888848494,0.00139847
0.260987060482,1.30832e-05
0.261012802158,1.38032e-05
0.262111980057,1.34432e-05
0.262395701482,1.38032e-05
0.262483610339,2.00431e-05
0.263255666334,1.36832e-05
0.263454119962,1.42832e-05
0.264081667297,1.28432e-05
0.26434804739,1.77632e-05
0.264596321454,1.57232e-05
0.264810171918,0.000119162
0.264869462978,1.22432e-05
0.26507087876,1.34432e-05
0.265658698332,1.26032e-05
0.266040539199,0.000160352
0.266129339069,1.39366e-05
0.266169659013,0.000203525
0.266325178988,0.000261517
0.266365738882,1.54617e-05
0.266486338431,0.000455752
0.266602257516,0.00090624
0.267130805938,1.39232e-05
0.267292596256,8.29226e-05
0.267419885259,1.36832e-05
0.267561564223,2.91631e-05
0.267857297321,0.000126402
0.267866141044,3.66031e-05
0.268018816828,4.10449e-05
0.268041976783,0.000224804
0.268305614637,0.000683999
0.268506358969,1.24832e-05
0.268654380484,1.45232e-05
0.268953882538,1.74032e-05
0.269480895514,2.32098e-05
0.269560934936,2.13277e-05
0.269646374276,0.000278041
0.27010151475,3.9483e-05
0.270709573055,1.31197e-05
0.27099229075,0.000552719
0.271196646663,9.69625e-05
0.272204395623,1.22432e-05
0.272432008785,1.75232e-05
0.272568923595,1.24832e-05
0.272656532636,1.27232e-05
0.272686021237,1.57232e-05
0.273470824636,0.00028866
0.273507664388,1.38222e-05
0.27382734181,2.03912e-05
0.273852661663,1.53349e-05
0.274865576685,0.00171299
0.27494010145,2.13335e-05
0.275000101058,2.55739e-05
0.275016061018,2.21105e-05
0.275094300418,0.00105972
0.275191850763,1.69232e-05
0.275289034371,1.28432e-05
0.275463250149,1.48832e-05
0.276062760726,0.000115562
0.276407327406,1.51232e-05
0.276628857348,1.34432e-05
0.276640460812,1.26032e-05
0.27726038363,2.18302e-05
0.277278263532,6.70828e-05
0.27777316901,0.000135482
0.27794645088,1.55329e-05
0.278185850011,6.19697e-05
0.278464248903,0.000693205
0.278592416589,0.00062724
0.279517801043,0.000370202
0.279524337441,0.000173905
0.279590337235,1.93547e-05
0.279627297215,0.000365282
0.279640740427,6.08347e-05
0.279850979275,1.89746e-05
0.280191777908,1.25566e-05
0.280281657663,2.5621e-05
0.28038605745,1.39742e-05
0.280549977182,3.44321e-05
0.280684856955,0.000441156
0.280770900091,3.03784e-05
0.280804020093,1.36229e-05
0.281595059988,0.000882061
0.281661059963,2.3754e-05
0.281889179952,0.00217548
0.281921699954,0.00260927
0.282030419954,0.00100617
0.282075299937,3.79361e-05
0.282111899928,3.14821e-05
0.282204419763,0.000717911
0.282227342957,1.36969e-05
0.282308822911,2.18853e-05
0.282385142871,1.84411e-05
0.282522062845,0.00120988
0.28288614138,0.00222584
0.282913744453,1.29407e-05
0.282914344451,0.00263174
0.282999908049,1.24832e-05
0.284004045496,2.26433e-05
0.284494603504,0.0008112
0.284517398992,0.00077268
0.284705143261,2.51572e-05
0.284719543192,0.000121442
0.28506266534,1.69232e-05
0.285332014557,1.77632e-05
0.285435099966,2.48431e-05
0.28570516131,1.27232e-05
0.285842458869,1.36832e-05
0.286121079796,1.36832e-05
0.286213440569,1.29595e-05
0.286246680343,0.000114962
0.286689289968,0.000285721
0.286799708496,1.80032e-05
0.287099572488,1.6231e-05
0.28711121244,3.16831e-05
0.287174533384,3.2163e-05
0.287217175149,1.53632e-05
0.287353892988,1.31763e-05
0.287901209695,0.00056628
0.288115454361,6.07663e-05
0.288253813836,0.000332501
0.288321493323,0.00072444
0.288386681597,1.26032e-05
0.288843950462,1.70927e-05
0.288872270438,0.000315722
0.28904999297,0.00038527
0.289460874063,1.27864e-05
0.289462914066,5.2523e-05
0.289688754055,1.47681e-05
0.289695954058,2.14971e-05
0.289722714056,0.000285833
0.289749594055,4.97268e-05
0.289776354054,4.74192e-05
0.290251553235,8.11676e-05
0.290268833226,0.000673351
0.291038513093,3.07612e-05
0.291146872901,1.57384e-05
0.291298312633,2.2635e-05
0.291430552387,0.00047377
0.291492232361,0.00189898
0.291551752279,3.99459e-05
0.291754911543,2.66416e-05
0.292555428279,1.7249e-05
0.292648428051,3.85634e-05
0.292806827443,0.00419155
0.292868630228,0.00368019
0.293050170383,0.000139442
0.293353545873,0.000293761
0.293446379332,0.000127922
0.293628357827,1.45924e-05
0.293708277213,0.000217322
0.293762194978,1.41632e-05
0.294473199391,1.21808e-05
0.294895359163,0.000648962
0.295503036531,2.36654e-05
0.295871316506,0.000931858
0.296098115612,0.00156962
0.296559031908,3.27676e-05
0.296868270079,0.000179485
0.297005428987,0.00265607
0.297056943457,1.60832e-05
0.297416312473,9.97228e-05
0.297509162164,0.000185282
0.29751335149,1.52432e-05
0.297733440101,0.000122282
0.297838402856,0.000150362
0.298536902358,1.87901e-05
0.298938300788,2.4818e-05
0.298939740788,1.21707e-05
0.299417462051,1.3613e-05
0.300220261459,2.03906e-05
0.300518101316,2.13999e-05
0.301097964569,0.00310257
0.301183884566,5.02729e-05
0.301215119107,5.26128e-05
0.301505039111,0.000594003
0.301758567761,0.00047714
0.301877727542,0.00143653
0.301881567534,0.00232667
0.30202940695,0.00102175
0.302177005772,0.00433022
0.302307723267,1.22432e-05
0.302511091869,0.000156482
0.302722851786,0.000140762
0.302739250913,1.56032e-05
0.303018535418,1.64432e-05
0.303591348982,1.46097e-05
0.303603828929,0.000155642
0.304055530721,0.000189482
0.304085616888,0.000155883
0.304280132738,3.6483e-05
0.30438312067,2.77231e-05
0.304530190051,1.60832e-05
0.304606113814,1.42832e-05
0.304928616955,9.03625e-05
0.305024058641,1.23632e-05
0.305060664781,1.21232e-05
0.305531063187,9.60025e-05
0.305761672255,0.000151922
0.306031821368,1.53632e-05
0.306397762258,1.76169e-05
0.306455602145,3.08488e-05
0.306588441643,0.000225468
0.306596961614,1.39648e-05
0.306815479859,0.00052944
0.306888609931,1.26032e-05
0.306900677191,1.54832e-05
0.30702367901,1.53632e-05
0.307077561216,1.45232e-05
0.307441263045,1.5785e-05
0.307891501321,3.67758e-05
0.307899848821,1.78832e-05
0.307951931853,0.00084307
0.307965131794,0.000751214
0.308372074662,1.44032e-05
0.308394260882,1.35763e-05
0.308396060877,1.54832e-05
0.308397374188,1.39232e-05
0.308518236312,1.44032e-05
0.308603820138,4.70429e-05
0.309096188748,3.6963e-05
0.309426516733,1.7762e-05
0.309461556494,1.23919e-05
0.309784953893,2.2297e-05
0.309803317066,2.44237e-05
0.309942032736,0.000734038
0.30999805679,1.69232e-05
0.310148377987,1.24832e-05
0.310502808115,0.000239641
0.310823075219,2.72431e-05
0.310988153989,1.84832e-05
0.311008073221,3.57631e-05
0.311703064748,1.52432e-05
0.311762130713,1.52432e-05
0.312303309409,7.60827e-05
0.312769795194,1.41632e-05
0.313016296648,1.38032e-05
0.313246620869,1.46432e-05
0.313408911934,1.72832e-05
0.313836889051,1.72609e-05
0.314245365698,0.0004488
0.314383500308,1.62032e-05
0.314980880543,4.52429e-05
0.31513800442,0.000146042
0.315365617848,3.03717e-05
0.31540149764,2.17996e-05
0.315470737157,2.20233e-05
0.315473257147,0.00044496
0.315632379121,0.000160037
0.316125662331,1.72832e-05
0.316188992158,1.71632e-05
0.316903165984,1.26032e-05
0.316973368815,1.40354e-05
0.316983328816,8.8025e-05
0.317354303267,1.33233e-05
0.31756262162,2.12956e-05
0.317566341612,1.40006e-05
0.317745623963,0.000810481
0.317825827513,1.4117e-05
0.318083225581,5.10726e-05
0.318172144891,0.000569159
0.318516167297,0.000307791
0.318630406946,2.99437e-05
0.318867286011,0.000685081
0.318967368669,2.94771e-05
0.319426486852,2.30396e-05
0.319614166794,3.38799e-05
0.320149366765,1.36973e-05
0.320258326547,0.000837576
0.320373766521,0.000220639
0.320459446367,4.8851e-05
0.320558206007,0.0016322
0.321664001106,4.27339e-05
0.32170420105,0.000734445
0.321996044244,1.37787e-05
0.322269524206,1.8207e-05
0.322295564175,1.47582e-05
0.32237728415,0.00396008
0.32272000401,0.00169148
0.323018057626,0.00200384
0.32310145733,0.000690362
0.323153060216,1.60518e-05
0.323160860184,0.000218306
0.323823457098,4.64847e-05
0.32388093691,0.000188687
0.324240093969,0.000873477
0.324347463381,1.99231e-05
0.325320604558,2.06329e-05
0.325326500697,0.000175323
0.325440409222,1.22978e-05
0.325677889224,0.000471314
0.325740172418,0.000190185
0.325781812422,7.86894e-05
0.326548012419,0.00133802
0.326601532337,0.00150502
0.32685665231,0.00207197
0.326858092308,1.36437e-05
0.327414653238,0.00236353
0.327432533142,1.26219e-05
0.327663771288,1.74353e-05
0.32780033024,2.1531e-05
0.328823925058,1.21938e-05
0.328890765032,1.24031e-05
0.329349764706,1.41419e-05
0.329821484574,3.90184e-05
0.329971964576,0.00121003
0.329981924578,0.0043351
0.330020927775,0.00195101
0.330100487495,0.000909101
0.330161207079,2.15382e-05
0.330264526269,0.000851115
0.331202132348,2.64031e-05
0.3314668746,1.41632e-05
0.331871973041,3.38367e-05
0.331885116398,9.66031e-05
0.3320265357,0.000382885
0.332114375019,0.000525364
0.332501464184,1.88431e-05
0.332584932167,1.27232e-05
0.332960910455,0.000259561
0.333372657909,0.000249125
0.333999655348,0.0010086
0.334056817961,1.76749e-05
0.334086697763,0.00074592
0.334226619823,1.77632e-05
0.334379637229,1.40432e-05
0.334512282864,2.51211e-05
0.334545522777,0.000122334
0.334765960991,0.000373561
0.335168418375,3.3723e-05
0.335474477992,8.14826e-05
0.335564306097,1.24832e-05
0.335667114634,1.60832e-05
0.335768954418,1.58432e-05
0.335822320246,1.80032e-05
0.336350611484,1.93231e-05
0.336456006775,1.34432e-05
0.337207926928,0.000761418
0.337219181916,2.13351e-05
0.337236101913,1.73609e-05
0.337287101756,1.36981e-05
0.337335581738,4.42665e-05
0.337540780943,1.43344e-05
0.338091938699,0.0016068
0.338190558476,1.34278e-05
0.338294477661,0.0011364
0.338323686979,1.21232e-05
0.338535720144,1.47355e-05
0.338573520123,4.78912e-05
0.338649359859,0.000189483
0.33867690917,0.000201123
0.339457764925,1.21232e-05
0.339733571023,1.22035e-05
0.339802090503,0.000173882
0.339829078912,1.80032e-05
0.340471956454,1.38032e-05
0.340714861907,0.000178562
0.340935519984,1.30304e-05
0.340988919813,0.000171104
0.341275958338,1.90582e-05
0.341365478016,0.000302921
0.341377957963,0.00070128
0.342003060491,1.62032e-05
0.342550440383,1.28432e-05
0.342769377161,5.86828e-05
0.343665355689,6.10828e-05
0.34393366816,1.33232e-05
0.344204667663,1.28432e-05
0.34426572065,1.47632e-05
0.344370408963,1.46432e-05
0.344833438482,1.32032e-05
0.345716970518,2.03094e-05
0.346010008127,0.000735237
0.346547573754,1.59817e-05
0.34679645209,2.44904e-05
0.346897251722,0.000611639
0.347080305667,2.46789e-05
0.347108745481,0.000398521
0.347645617825,1.31629e-05
0.347929055537,1.75169e-05
0.348188373433,1.3636e-05
0.348277052745,0.00111275
0.349522749235,2.05847e-05
0.349777027494,9.04267e-05
0.349820587235,2.46506e-05
0.350165224444,1.94271e-05
0.350371622793,1.65247e-05
0.350647620859,1.83097e-05
0.350961179777,3.30956e-05
0.350967504961,2.17232e-05
0.351008630969,0.000109683
0.351037742937,2.37111e-05
0.351138062618,0.00187571
0.351240542243,0.000674806
0.3514384847,0.000324602
0.351439804528,2.58032e-05
0.351464375893,0.000215642
0.35152251459,1.21232e-05
0.351657024859,1.53632e-05
0.351954719996,3.6843e-05
0.352265845621,1.50032e-05
0.352373089638,1.22432e-05
0.352499525367,9.03625e-05
0.352581908467,1.23632e-05
0.352786803293,1.41632e-05
0.352865223344,1.41632e-05
0.353332929286,4.19684e-05
0.353367129071,1.67577e-05
0.35349096809,0.000221282
0.353650706411,1.24832e-05
0.35373309022,2.04031e-05
0.353944465155,2.32586e-05
0.354077064104,1.29536e-05
0.354107303904,0.000336721
0.354331316258,1.76762e-05
0.354421795555,0.000313801
0.354793609965,1.61193e-05
0.354994849524,0.00053472
0.355096043559,5.39469e-05
0.355134683474,1.79182e-05
0.355158683425,0.000443774
0.355799960497,4.13535e-05
0.35595787995,2.65954e-05
0.356075239512,0.000826096
0.356078479499,0.00117876
0.356189799631,2.26831e-05
0.356521351983,2.30422e-05
0.356636551092,1.654e-05
0.356975188361,2.17294e-05
0.357000988197,0.000567719
0.357402546338,3.3723e-05
0.35797546432,2.36923e-05
0.357983984321,0.00015641
0.357996944299,1.71836e-05
0.358015784197,1.26443e-05
0.358073983764,1.22301e-05
0.358135303321,1.62259e-05
0.358271502237,0.000727078
0.358427089904,1.63232e-05
0.358452869021,1.66832e-05
0.358795709895,1.6712e-05
0.358875269308,1.82397e-05
0.359155827021,0.000649438
0.359191226878,2.00431e-05
0.359457060327,0.000169082
0.359492710031,1.43394e-05
0.359666592556,0.000248045
0.360029907381,0.0005388
0.360704789384,1.51232e-05
0.360881565017,0.000149402
0.360943358452,1.28432e-05
0.361615187506,2.32831e-05
0.361875814308,0.000105482
0.362291170008,1.32032e-05
0.36249043141,9.15625e-05
0.362531324731,1.65632e-05
0.362666653359,0.000122643
0.362754126952,0.000175322
0.363041009683,1.40432e-05
0.363172924209,1.22432e-05
0.363362067422,8.71226e-05
0.363422139401,1.75232e-05
0.363498560143,1.39232e-05
0.363512182326,2.30431e-05
0.3637932731,1.65632e-05
0.364085781184,1.94431e-05
0.364146987194,1.56032e-05
0.364388902745,1.30832e-05
0.364425380313,1.53632e-05
0.364664000099,5.24429e-05
0.365208308323,1.23632e-05
0.365585149589,1.39232e-05
0.36608090123,4.83629e-05
0.366437800172,1.29632e-05
0.367523867788,1.96579e-05
0.367556987563,0.000107762
0.367810267668,2.39416e-05
0.367814467651,4.4763e-05
0.367930754635,5.90428e-05
0.367989773187,1.30832e-05
0.368212121531,1.32032e-05
0.368707370013,2.22031e-05
0.368785636432,1.28432e-05
0.369310829994,0.000197162
0.369439287638,1.81231e-05
0.369501286479,1.28432e-05
0.370072749853,0.0003918
0.370115474229,1.47943e-05
0.37018747368,0.000204842
0.370620162753,2.24961e-05
0.371050000805,2.55319e-05
0.371336679699,2.12343e-05
0.37148343921,2.9487e-05
0.371768679015,0.000238646
0.372074797791,0.00140329
0.372417274997,1.41049e-05
0.372548074115,0.00225659
0.372591042897,9.25227e-05
0.372907781844,1.51232e-05
0.373183426418,0.000239161
0.373475337932,1.41632e-05
0.373859670978,4.13213e-05
0.37418126969,0.000533881
0.374244470434,0.000561841
0.37438323157,0.000209148
0.374438251456,2.42506e-05
0.374445815299,2.94032e-05
0.374496818174,9.44498e-05
0.374963125624,3.2523e-05
0.375061470275,1.21232e-05
0.375188025025,1.28432e-05
0.375287717282,0.000103802
0.375403132426,1.81231e-05
0.375486166781,1.81231e-05
0.375574810642,1.44032e-05
0.375594554991,1.35632e-05
0.376167637299,0.000472321
0.376227741754,0.000173523
0.376389099627,0.000513841
0.376745065703,8.68592e-05
0.376880304627,0.000248522
0.377206870461,0.000109082
0.377448586267,1.27232e-05
0.37760242381,1.23632e-05
0.37763599255,1.74032e-05
0.377726970779,1.21232e-05
0.378377379761,9.71785e-05
0.378485884138,1.21689e-05
0.378578742608,0.000193704
0.3786343058,1.50894e-05
0.378770259316,3.78859e-05
0.3789191121,0.000183123
0.379000662139,4.25866e-05
0.379052862045,5.87157e-05
0.379097985173,5.73022e-05
0.379124885711,3.42032e-05
0.379472267981,3.45381e-05
0.379762187769,0.000107332
0.379776467768,1.38079e-05
0.379850267769,0.00027624
0.380272547767,2.68319e-05
0.380909627768,0.00286547
0.381001187767,4.79292e-05
0.381058227947,4.18932e-05
0.381077307947,0.00010025
0.381321147946,0.00149041
0.381339507938,0.000685923
0.381801870356,0.00252328
0.382004790306,2.28085e-05
0.382060950278,1.34935e-05
0.382084950256,3.70541e-05
0.382172190097,1.35896e-05
0.382321828534,1.33281e-05
0.382357588493,1.54511e-05
0.382377391688,2.00213e-05
0.382785391532,3.82612e-05
0.383123191529,1.57113e-05
0.383198311528,1.55055e-05
0.383508151411,0.0001238
0.383511991407,0.000244366
0.3835778714,0.000794199
0.383676871398,1.37845e-05
0.384021751398,2.75897e-05
0.384036151401,0.00260775
0.384184231397,1.40684e-05
0.384377551303,0.00031163
0.384480751276,2.68325e-05
0.384615151261,0.000428926
0.384755311265,0.00680007
0.384834271263,0.000557808
0.385218030967,1.44159e-05
0.385288230969,0.000313568
0.385551633679,3.01996e-05
0.385649793504,0.00769506
0.385779153474,1.42746e-05
0.385953153448,0.00214375
0.385957713449,0.00350506
0.386183914875,1.48089e-05
0.386187868323,1.21232e-05
0.387149063613,0.00505404
0.387361210972,2.11277e-05
0.387391690897,0.000228962
0.387604540298,1.26946e-05
0.388033779535,3.59366e-05
0.3880638995,5.03333e-05
0.388120422645,3.71024e-05
0.388134702621,0.000436604
0.388162785753,0.000489379
0.388244145174,2.37177e-05
0.388263465066,1.24242e-05
0.388367504254,1.29389e-05
0.388391744103,0.00120348
0.389353707866,5.64028e-05
0.38956471122,1.21232e-05
0.389674102941,1.52432e-05
0.389680851193,1.26032e-05
0.389855501003,1.39232e-05
0.389911950742,1.21232e-05
0.389983705009,1.66832e-05
0.39040350502,1.93566e-05
0.390487504378,1.35861e-05
0.390510904331,3.14813e-05
0.390547387528,6.6147e-05
0.390698946999,2.49561e-05
0.390756546842,2.47731e-05
0.391084869869,0.000208926
0.391216869622,0.00048211
0.391346109516,5.03613e-05
0.39137466949,0.00058029
0.391822027678,0.0017784
0.392301789523,0.0002657
0.392345229469,2.53141e-05
0.392571549428,1.95632e-05
0.393103989386,2.01457e-05
0.393213069361,0.00121627
0.393248949319,2.59698e-05
0.393365468885,0.00152075
0.39364338662,0.00315204
0.394293711143,0.000475079
0.39442757314,1.81231e-05
0.394526982172,1.22432e-05
0.394766719943,1.2227e-05
0.394940119394,4.20454e-05
0.396113114558,0.00141029
0.396151754291,1.26365e-05
0.396271753343,0.00162444
0.396280484908,1.93232e-05
0.396838527296,0.000283681
0.397811114299,1.28776e-05
0.398306473586,3.68287e-05
0.398397313495,0.000427675
0.398522473468,0.0001694
0.398610193154,1.26915e-05
0.399091751199,0.00153827
0.399369913438,4.81735e-05
0.3993739042,1.21232e-05
0.399435107208,1.58144e-05
0.399515746923,0.000430809
0.399670905698,1.60249e-05
0.399780345135,8.37165e-05
0.400435659749,1.79845e-05
0.400903896546,0.0033821
0.401296318826,1.30965e-05
0.401935796596,3.19216e-05
0.40197083657,0.000154868
0.402040316332,0.000750845
0.402352314935,2.52588e-05
0.402420482793,2.07918e-05
0.40257084251,0.000326163
0.402837125677,0.000684681
0.402864245671,2.97439e-05
0.402870965672,0.000489039
0.402900248772,2.27219e-05
0.403116127024,0.00237937
0.403220662613,1.84831e-05
0.403727187463,1.38032e-05
0.403833999192,1.28432e-05
0.404117441877,1.54832e-05
0.404321889979,1.56032e-05
0.404419156886,1.3615e-05
0.404461516584,0.000130082
0.405238799532,1.71632e-05
0.405912537881,0.000113522
0.405974211324,1.24832e-05
0.406102413359,1.75232e-05
0.406142904312,1.50032e-05
0.406166734406,1.69232e-05
0.406333404892,3.4563e-05
0.406760585403,3.09444e-05
0.40687062527,2.85931e-05
0.406875305261,0.000215919
0.407082990641,1.22849e-05
0.407221350115,0.000678207
0.40730570948,1.63042e-05
0.407370268993,0.000585721
0.407474190967,1.44032e-05
0.407662275909,1.24832e-05
0.407854292013,0.000131402
0.407884990598,1.64432e-05
0.408475713657,1.24341e-05
0.40856919293,0.000330241
0.408740670037,1.66984e-05
0.408838709305,2.0126e-05
0.408949468482,2.39528e-05
0.408986188266,2.14842e-05
0.409085307492,0.00044544
0.409492688576,1.95762e-05
0.409950724814,1.31688e-05
0.409991524542,1.58207e-05
0.410131083453,0.000815877
0.410197149378,8.34027e-05
0.410690593529,1.28432e-05
0.411131936687,1.78832e-05
0.411282023888,1.21232e-05
0.411567037536,0.000153722
0.412114840842,0.000145082
0.412209828334,1.28432e-05
0.412529260107,1.2953e-05
0.412892618111,2.41194e-05
0.41305281751,1.62015e-05
0.413127337251,0.000470329
0.413448219163,0.000330464
0.413911536436,0.000272156
0.414154294464,0.00186936
0.414192104222,1.35632e-05
0.414222960285,1.34432e-05
0.414453284754,1.81313e-05
0.414474524628,0.000155402
0.414878157892,1.44032e-05
0.41491746904,3.3603e-05
0.415072952319,1.38032e-05
0.415705393922,8.55626e-05
0.415841468378,1.21232e-05
0.416232123671,1.58432e-05
0.416669908709,1.60832e-05
0.416784756258,1.41632e-05
0.417214689341,1.57232e-05
0.417828765811,0.000119886
0.417904125256,1.32828e-05
0.417905445257,1.78755e-05
0.41814652346,3.9791e-05
0.418207123007,0.000755998
0.418258707969,1.29632e-05
0.418698513047,1.65632e-05
0.418906130946,1.21232e-05
0.419891042368,1.51232e-05
0.419940438151,1.27232e-05
0.419963283805,1.63232e-05
0.420231652122,6.12028e-05
0.420502660404,0.000140762
0.421930748548,1.60832e-05
0.422484071882,1.74393e-05
0.422606230966,2.43644e-05
0.422744469952,3.25593e-05
0.422795709595,1.67476e-05
0.422815509481,0.000367921
0.42309509841,1.55578e-05
0.423708416821,1.32586e-05
0.423727256811,7.71786e-05
0.423921176814,0.000480442
0.424024257039,1.49637e-05
0.42410501704,0.000951595
0.424523457041,0.00071127
0.424837737039,0.000604987
0.424902656985,3.89165e-05
0.42559625559,2.36009e-05
0.425964774882,2.78138e-05
0.425982294874,0.00244068
0.426536814849,0.00315947
0.427171492928,3.02688e-05
0.427186732928,4.54202e-05
0.427362472899,5.83126e-05
0.427638712898,4.38939e-05
0.428053072895,0.000841661
0.428095552894,2.45757e-05
0.428150632897,4.10318e-05
0.428196952896,1.51211e-05
0.428465512894,0.00150825
0.429079792891,1.51829e-05
0.429107272889,2.36517e-05
0.429476872893,2.44573e-05
0.429527752888,2.51415e-05
0.429589672889,3.65391e-05
0.429601676087,3.15282e-05
0.429878756072,0.00207471
0.42988811606,3.35102e-05
0.429907916058,7.54051e-05
0.43001399606,2.22853e-05
0.430212716054,5.11727e-05
0.430228796055,0.00183006
0.43028243606,0.00322225
0.43034669273,0.00061996
0.430428892597,1.57653e-05
0.430461292558,0.00029158
0.430568692343,1.45578e-05
0.430585372338,1.35537e-05
0.430797652021,1.50607e-05
0.430899292019,2.31009e-05
0.431051932018,2.30861e-05
0.431245852017,3.61015e-05
0.431257686715,3.48032e-05
0.431376532016,1.73817e-05
0.431402572017,8.70482e-05
0.431449492017,0.00840204
0.431733174702,0.00137121
0.4317394147,4.34103e-05
0.432241133681,0.00150384
0.432324846767,0.000579602
0.432442496442,1.32235e-05
0.432579895963,2.27246e-05
0.432847614899,0.0093528
0.433108853509,1.28857e-05
0.433768731871,0.000848073
0.433947171557,2.81232e-05
0.433960971557,0.000431631
0.434051934736,2.09347e-05
0.434356374712,0.000673878
0.434673296708,2.87584e-05
0.435228174448,0.00180336
0.435481735635,0.00502296
0.435596374932,1.84831e-05
0.435709076955,1.81236e-05
0.435745196705,0.000106802
0.436762446003,2.02831e-05
0.437696966853,2.18431e-05
0.437781796399,1.40432e-05
0.43845047273,1.99036e-05
0.438557632389,2.56201e-05
0.438638392104,0.000271665
0.439133628528,0.00013214
0.439307987302,2.04894e-05
0.439562866292,0.00140435
0.440180109401,1.2633e-05
0.440242389376,0.00043411
0.440537348232,2.04057e-05
0.440537468234,0.00127572
0.440761749708,2.29277e-05
0.440985068699,1.32239e-05
0.441248107848,2.95168e-05
0.441279794708,0.00155452
0.441473473953,0.000292682
0.441589029832,0.000807417
0.441671585973,0.000203642
0.441863875558,1.28432e-05
0.442185409541,1.74032e-05
0.443126170409,2.22031e-05
0.443286114771,1.38032e-05
0.443564984983,1.2438e-05
0.443576624935,7.52427e-05
0.443799986852,1.74229e-05
0.443837186617,1.79191e-05
0.443952145711,1.2413e-05
0.444037825098,2.41904e-05
0.444297744031,0.00018911
0.444550223249,1.99485e-05
0.444681756194,0.000200043
0.444941545416,0.00119028
0.444961108584,2.1982e-05
0.44498810517,0.000777457
0.446089521002,9.04828e-05
0.446198166811,0.000183842
0.446613214397,1.30832e-05
0.446757705847,1.93231e-05
0.446859919847,1.53632e-05
0.447101259317,1.22432e-05
0.447289922755,0.000165122
0.447750184398,1.27232e-05
0.447864580658,1.22432e-05
0.447941691136,1.35632e-05
0.448018764682,4.96829e-05
0.448856119665,1.50032e-05
0.449160814882,0.000143402
0.449298721099,1.23632e-05
0.449541181875,0.000210002
0.449904893101,2.20091e-05
0.449910533078,3.9123e-05
0.45027681174,1.81231e-05
0.450577487588,0.000101402
0.450644588473,3.9243e-05
0.450727870857,1.30832e-05
0.450922202238,1.66832e-05
0.451207114198,3.9123e-05
0.451616837112,0.000392401
0.451676178427,2.20658e-05
0.451859296953,0.0004662
0.452164152647,1.22085e-05
0.452257991944,0.00037848
0.452260437409,2.10032e-05
0.452547558429,1.64934e-05
0.452687597313,0.00035568
0.453290062096,6.40828e-05
0.453701230775,1.79297e-05
0.453855790183,0.000474121
0.453891694483,1.33211e-05
0.453909454461,0.000432001
0.453988096013,1.2607e-05
0.454609450886,0.000732837
0.454756535167,1.68032e-05
0.454890736706,1.39232e-05
0.45495620991,1.82431e-05
0.455054706322,1.23632e-05
0.455072910712,1.23632e-05
0.455964830351,1.64432e-05
0.456045250253,1.71632e-05
0.456510262634,1.66858e-05
0.45655778229,0.000333601
0.457519441288,1.24832e-05
0.458140924182,1.81231e-05
0.458276216944,1.74032e-05
0.458699148515,1.62032e-05
0.458814539855,1.27232e-05
0.459196031004,0.000288627
0.459339309914,2.46724e-05
0.459460389036,1.54744e-05
0.45969018813,1.25949e-05
0.459722108089,2.22855e-05
0.459979747067,0.000547594
0.460112106015,0.00122004
0.460331029868,1.76432e-05
0.460375802862,1.53632e-05
0.460401803532,1.39232e-05
0.460757637246,1.60832e-05
0.461816992893,0.000136434
0.46264312803,3.62135e-05
0.462668515749,1.32792e-05
0.462976057284,0.000639526
0.462978337286,0.00221194
0.46302166048,4.08552e-05
0.463478140478,4.41439e-05
0.463785340461,2.65526e-05
0.464587420287,3.67076e-05
0.464694820292,0.00058371
0.46476118029,1.4988e-05
0.465137863481,0.000741937
0.465304903481,7.12794e-05
0.465627103485,0.00442287
0.465733423483,0.0046731
0.465960223484,0.00218404
0.466079146674,0.00335178
0.466282306483,0.000596409
0.466448782714,0.000191594
0.466529302707,0.000690603
0.466719349502,0.000145924
0.466766869477,5.56822e-05
0.46701130947,0.00504978
0.467038789465,1.24057e-05
0.467060029463,2.63337e-05
0.46743383266,0.000694291
0.467803552661,0.00230507
0.467871349403,3.8606e-05
0.467969509227,0.00441682
0.467988349219,2.42742e-05
0.46805626922,9.70636e-05
0.46817231231,1.36032e-05
0.468347272305,6.03648e-05
0.468387472306,1.5937e-05
0.468515272308,0.00457042
0.468516224374,0.000408214
0.468716872306,0.00670766
0.468741592306,0.00750528
0.468777107473,0.000806046
0.468912803425,0.000195722
0.469390076672,3.73735e-05
0.469469036297,6.76149e-05
0.469637035134,3.17132e-05
0.469776354938,1.99497e-05
0.469780794931,0.000432361
0.469818118031,0.000218842
0.469928997211,2.48842e-05
0.470040476333,0.000360573
0.470076552387,1.44032e-05
0.470645932966,1.97791e-05
0.470788372478,2.52236e-05
0.471086452313,1.32017e-05
0.471162444293,3.67327e-05
0.47121332749,0.000385693
0.471232287463,0.000832925
0.471669982163,1.32612e-05
0.471861141418,0.00151077
0.471942260806,1.52803e-05
0.471958340723,0.00073548
0.472103121627,1.45232e-05
0.472383048206,0.000234961
0.473079637248,4.39229e-05
0.47348171617,2.86988e-05
0.473524796045,1.3423e-05
0.473541476027,0.000118677
0.473608915517,0.00043464
0.473762102808,2.78431e-05
0.473792561559,1.59632e-05
0.473823340976,1.83631e-05
0.473906771061,1.23632e-05
0.474003875549,4.39229e-05
0.474307226678,1.81231e-05
0.474920288085,1.48196e-05
0.475076406836,0.000311641
0.475204131115,1.42832e-05
0.475508639565,0.000127322
0.47581254825,2.05729e-05
0.475969026998,0.0003834
0.476561379734,2.36431e-05
0.476596272033,1.47632e-05
0.476610475655,1.27232e-05
0.476724020553,1.58101e-05
0.47675810032,6.44428e-05
0.47684925008,6.14428e-05
0.476868237156,3.58831e-05
0.477572640959,0.000112082
0.477946449989,1.40432e-05
0.478341537054,0.0004074
0.478489861753,1.27232e-05
0.479206484341,1.57232e-05
0.479497932046,1.30832e-05
0.479536978594,1.74032e-05
0.479780700341,6.39836e-05
0.480005940145,2.06783e-05
0.480019980146,0.000493445
0.480109023287,2.47059e-05
0.480553334774,0.000140849
0.480603771276,0.000897999
0.480680811197,5.82129e-05
0.480767690887,0.000981482
0.480911176473,2.0575e-05
0.481271893519,0.00136946
0.481363659441,2.79631e-05
0.481693388431,2.68831e-05
0.481859641834,3.8163e-05
0.48189029314,2.10031e-05
0.482021999242,1.23632e-05
0.482075741936,1.44032e-05
0.482492982672,0.000132362
0.482850519743,0.000166442
0.482939695892,2.41421e-05
0.483249533419,2.60468e-05
0.483598850559,0.000712798
0.483780073158,1.41632e-05
0.483884570068,1.35632e-05
0.48451518468,5.70028e-05
0.484968786418,0.000134402
0.485061979859,6.70827e-05
0.485109644784,1.21232e-05
0.485391430455,1.66832e-05
0.485517101966,1.48832e-05
0.485611810988,1.66832e-05
0.485926863716,1.45711e-05
0.48598086363,5.24581e-05
0.486058383359,0.000124196
0.486464222288,0.000783
0.486834719686,0.000681961
0.487052478481,0.00084324
0.487176204541,3.1083e-05
0.487295434834,1.23632e-05
0.487680831457,0.000286561
0.487777084877,0.000229082
0.488089387633,0.0004158
0.488658119214,1.48832e-05
0.489318143877,1.47632e-05
0.491156250844,1.33363e-05
0.491185770652,1.28843e-05
0.491288370161,1.29978e-05
0.491412089697,0.000210456
0.491434289563,0.00057624
0.49177321503,1.68032e-05
0.491794442129,1.83631e-05
0.491815653576,1.27232e-05
0.491969630349,4.12724e-05
0.492545265603,0.000647038
0.493234837338,1.2441e-05
0.493425155803,0.000818157
0.49343177001,1.69232e-05
0.49343296686,1.68032e-05
0.493724447731,0.000298981
0.49400325621,0.000162722
0.4940727445,6.44428e-05
0.494184682655,1.21232e-05
0.494846762686,5.71228e-05
0.495236434032,1.45232e-05
0.496349215235,0.000304921
0.497288081772,1.21232e-05
0.498419690653,0.000589558
0.498774175491,2.15199e-05
0.498805738609,4.26407e-05
0.498841855157,1.26415e-05
0.499042733554,1.67914e-05
0.499582249184,2.96626e-05
0.499837367482,1.6927e-05
0.500200846092,2.97659e-05
0.501016364219,0.00127638
0.501146323783,2.87436e-05
0.50126080373,8.0631e-05
0.501529366394,0.000402139
0.501577729591,0.00092734
0.501978407997,1.82983e-05
0.502140767372,0.00371303
0.502354125692,2.31633e-05
0.502366485641,0.00117306
0.50247402541,1.45232e-05
0.502707490598,1.91902e-05
0.502985288995,1.79258e-05
0.503076488671,1.32252e-05
0.503254448153,5.35699e-05
0.50327724811,0.000791999
0.503527073976,1.45324e-05
0.503657753952,0.000247773
0.503692193861,0.000871921
0.504001194589,1.28615e-05
0.504161153346,2.11181e-05
0.504501591935,0.00122642
0.504828234479,3.18453e-05
0.504964674455,0.000387371
0.505468674241,0.00089579
0.505528434044,0.00051262
0.505571993738,1.33431e-05
0.505848232498,0.000254584
0.505955271657,0.00179549
0.506021780994,1.46432e-05
0.50703729992,1.24832e-05
0.507078265097,1.74032e-05
0.50743937609,1.75232e-05
0.507634954143,8.77226e-05
0.507979474631,1.69232e-05
0.50818945278,5.31629e-05
0.50834648885,7.44027e-05
0.508356167211,1.66832e-05
0.508374445011,1.69232e-05
0.508563368722,1.52432e-05
0.508951662696,9.55225e-05
0.509703540306,1.27232e-05
0.510538040481,2.42198e-05
0.510545840449,9.02426e-05
0.510651000075,9.02425e-05
0.510944015945,3.3003e-05
0.511246858354,3.9963e-05
0.512427152366,1.36832e-05
0.513365835073,1.28432e-05
0.514061147855,0.000269415
0.514247626358,1.36224e-05
0.514912063426,0.000325401
0.514999217181,0.000456144
0.515463735629,1.94256e-05
0.515523945046,0.000155644
0.515683545022,1.69411e-05
0.51585214479,0.000111217
0.515950784766,0.00116457
0.51601990453,0.000492835
0.516299622282,1.98203e-05
0.51651370055,0.00309383
0.516929285168,0.000113042
0.516941408367,1.73445e-05
0.517021907221,1.93231e-05
0.517721478728,0.000104818
0.51782095795,0.000261602
0.517890214502,3.6723e-05
0.517952819454,1.48832e-05
0.518334710536,0.000140042
0.518467559774,1.75232e-05
0.518492016158,1.65632e-05
0.518492802905,1.23632e-05
0.518521378108,1.26032e-05
0.518563446221,1.65632e-05
0.519161196494,1.27232e-05
0.519497861913,1.91187e-05
0.5197636602,1.65524e-05
0.520457918749,0.000810122
0.520490142765,0.00131484
0.520750360937,0.000596614
0.520751680938,1.97886e-05
0.521006558911,0.00124744
0.521123267659,2.79631e-05
0.52131719973,7.77627e-05
0.52161816874,8.49626e-05
0.521784963879,3.3843e-05
0.522165064942,1.77632e-05
0.522212091723,1.36832e-05
0.522309940096,1.24832e-05
0.522582115213,1.30832e-05
0.522610361067,1.39232e-05
0.522618658956,1.66832e-05
0.52320992504,1.71632e-05
0.523230861072,1.94431e-05
0.523697732999,1.36832e-05
0.524255342059,1.51232e-05
0.524381634429,1.22432e-05
0.524442281456,1.76432e-05
0.524869050251,0.000115562
0.525234269283,0.000227346
0.525487228281,0.000579961
0.525515477854,0.000339602
0.525612844,1.50032e-05
0.525665382655,2.07631e-05
0.526054707079,1.45282e-05
0.526120826579,0.000283801
0.526331553001,1.65632e-05
0.526476849421,9.27625e-05
0.527336289788,0.000399361
0.527416868598,0.000236642
0.527706306221,6.45628e-05
0.527726398313,1.68032e-05
0.528250280722,2.54431e-05
0.528587739535,0.000233641
0.528701976703,1.36832e-05
0.528862756728,1.59632e-05
0.528881121538,2.58299e-05
0.529323678017,1.28819e-05
0.52938595784,1.93403e-05
0.529416797834,2.9052e-05
0.529802357785,0.000942599
0.530063474779,2.88133e-05
0.53101339478,0.00172884
0.531022086149,0.0016014
0.531199445774,0.0014499
0.531223850294,0.00166661
0.531401329607,0.000508202
0.531442852593,0.00186926
0.531514213633,9.10826e-05
0.531537657007,1.80032e-05
0.532085958876,1.32842e-05
0.532265718179,0.00043612
0.532415116985,0.00063048
0.532869987853,1.76432e-05
0.533903512487,0.00053436
0.533916029045,1.62032e-05
0.534017274892,0.000473116
0.534832106651,0.000182162
0.534845100853,2.50717e-05
0.534946380149,1.39666e-05
0.535049459772,0.000134702
0.535146299016,0.000425161
0.535340599982,1.51232e-05
0.535480955564,1.74032e-05
0.535673185435,1.28432e-05
0.536553269246,1.24832e-05
0.536963722326,7.22429e-05
0.537319656389,0.00041124
0.538309739485,1.27039e-05
0.538453858428,0.000304201
0.538661299674,0.000241561
0.539116577746,0.000265801
0.53934736456,4.60829e-05
0.53937083395,1.54832e-05
0.539975714949,6.52842e-05
0.54004688335,1.84542e-05
0.5403519229,3.45673e-05
0.540375802883,1.57479e-05
0.54065108234,0.000725402
0.540664885529,2.64386e-05
0.541103845504,0.00160045
0.541255284925,0.00114063
0.541351767421,0.00148993
0.541787359432,0.000313081
0.542202191101,2.3142e-05
0.542335630886,8.19701e-05
0.542457670429,0.00036575
0.543238507495,3.66266e-05
0.543500587267,1.76722e-05
0.543598688796,1.53432e-05
0.543639008741,1.43544e-05
0.543939488185,3.33976e-05
0.544046288024,2.95327e-05
0.544127167884,0.00103785
0.54415308786,0.000767042
0.544570930551,1.46179e-05
0.545391130371,0.00111794
0.545876773536,3.88575e-05
0.545902933534,3.45404e-05
0.546002173355,0.000178671
0.546367336534,2.03452e-05
0.547312336008,0.00543343
0.548043135134,1.72597e-05
0.548044335138,0.00274042
0.548110171037,0.00120299
0.54816489416,1.95552e-05
0.54856856548,1.52525e-05
0.548572765481,3.28127e-05
0.54886304815,3.73789e-05
0.549306687257,1.46097e-05
0.549320247258,0.0068144
0.549360090445,3.5891e-05
0.549365370446,6.52659e-05
0.549606810317,1.46133e-05
0.549708450189,3.98216e-05
0.550022489687,7.24558e-05
0.550143209465,0.00241356
0.550150529449,0.000614812
0.550353208699,2.50918e-05
0.550376488655,0.00260881
0.550672409512,1.7757e-05
0.551001446839,1.62433e-05
0.551054126456,1.30984e-05
0.551270485849,0.00013028
0.551482405018,1.21704e-05
0.551674055232,8.48026e-05
0.551737055131,0.000261003
0.551899538299,0.00523309
0.552149500507,0.000579244
0.552211296875,0.00110959
0.552462058232,1.34432e-05
0.552952989027,1.60832e-05
0.553489428365,0.000108723
0.553641503268,1.86253e-05
0.553756102379,1.53059e-05
0.554353818993,2.9805e-05
0.554551338223,0.0011256
0.554855886324,1.34427e-05
0.555318362522,0.00132971
0.555787452347,1.42832e-05
0.556300588564,1.34432e-05
0.556997109188,0.000240001
0.557870457793,0.00038676
0.558082098844,1.40432e-05
0.558493533505,2.58031e-05
0.558887086943,1.23632e-05
0.559220578312,1.46432e-05
0.559316666945,1.28432e-05
0.559333462436,1.21232e-05
0.559565143299,1.24832e-05
0.560157434503,1.39232e-05
0.560438834513,1.50032e-05
0.560750025643,1.28432e-05
0.560875098136,1.64432e-05
0.56150384925,1.36832e-05
0.561797523533,9.63625e-05
0.562206238579,0.0004032
0.562622521879,1.27232e-05
0.563412665303,0.000301574
0.563519224467,0.00049836
0.563684896277,9.22825e-05
0.56418456639,1.41632e-05
0.564337789836,1.74032e-05
0.565329936453,1.27232e-05
0.566192993283,0.000260641
0.566524574052,2.37563e-05
0.567087129464,2.3727e-05
0.567399126944,1.8912e-05
0.567544325786,0.00141023
0.567704616188,1.38032e-05
0.567907532769,1.42832e-05
0.568196958003,1.42832e-05
0.568349523689,2.34313e-05
0.568717082437,3.47498e-05
0.568739642411,1.23202e-05
0.56878392237,1.99241e-05
0.569099162344,1.23745e-05
0.569107562329,0.000468533
0.569158412602,3.87387e-05
0.569164458099,3.07232e-05
0.569638175753,2.81035e-05
0.569664095708,2.12676e-05
0.56970873567,1.86983e-05
0.569773655645,0.00148461
0.57008973438,0.000984125
0.570308256642,0.000200123
0.570575734505,2.19888e-05
0.570771812935,1.50801e-05
0.570983851219,0.00266741
0.571284838195,1.27232e-05
0.571358061253,1.27232e-05
0.571383319658,1.33232e-05
0.572033724934,0.000133434
0.572199803602,0.000327601
0.572579694053,0.000127322
0.573380351706,8.53226e-05
0.573829162358,2.67631e-05
0.574763057204,1.40432e-05
0.574790729183,1.40432e-05
0.574814910684,1.51232e-05
0.574914393915,4.29629e-05
0.575299663909,0.000197642
0.575343554795,6.12029e-05
0.575472959572,1.77351e-05
0.575500922705,3.18295e-05
0.575595358741,1.27014e-05
0.575603158709,0.000215642
0.576032633195,1.44032e-05
0.576537349099,2.77286e-05
0.5765375891,0.0004758
0.576551392292,2.7521e-05
0.577370551836,0.000336446
0.577410391722,0.000238501
0.577631429948,1.59643e-05
0.577798349008,5.64713e-05
0.578411906504,0.000677287
0.578433626375,0.00212327
0.578796847232,2.10076e-05
0.579643560228,0.000943556
0.579978814975,1.36832e-05
0.580167359162,1.57232e-05
0.580222870662,1.26032e-05
0.580284007096,1.27232e-05
0.580617493819,1.76432e-05
0.580976370454,1.40432e-05
0.581233122516,2.28031e-05
0.581457288524,1.24832e-05
0.58158692259,1.21232e-05
0.581668712343,1.45232e-05
0.58187312252,2.32831e-05
0.582007071731,0.000125402
0.582015456737,1.33232e-05
0.582242672564,1.6792e-05
0.582262832448,4.6083e-05
0.582365138269,7.44027e-05
0.582751816261,1.2181e-05
0.583317973269,0.000210639
0.583890131496,3.57785e-05
0.584023811471,0.000921826
0.584035571469,1.32357e-05
0.584252770637,1.77132e-05
0.5843112642,6.04832e-05
0.584388373577,1.54983e-05
0.584982251158,1.32524e-05
0.585120610634,0.00250908
0.585155770392,0.00142436
0.585169643931,1.34432e-05
0.585237525868,1.53632e-05
0.586059111197,0.000207985
0.586201190065,0.000382321
0.58625221536,1.29102e-05
0.587124249107,2.54879e-05
0.587682606871,2.15355e-05
0.58779708649,2.29479e-05
0.587905686321,0.00101101
0.588143525433,2.47525e-05
0.588178205393,4.29146e-05
0.588181445387,0.000343577
0.588236275475,8.1123e-05
0.588400447091,0.00219695
0.5894963413,9.88151e-05
0.589654740032,0.000261002
0.589720224882,1.76432e-05
0.590454016652,1.54832e-05
0.590581515427,2.66431e-05
0.590963235546,0.000386646
0.591083589854,1.62798e-05
0.59114058943,0.000170042
0.591343452422,1.26032e-05
0.591347779685,1.26032e-05
0.591423398102,1.94431e-05
0.591907256244,1.28432e-05
0.592267886343,1.54832e-05
0.592694791763,1.42832e-05
0.592754082058,3.0843e-05
0.592950109454,2.42431e-05
0.593782297702,1.60335e-05
0.59387421702,1.98843e-05
0.594238054052,1.47639e-05
0.594500371917,0.000773517
0.594715513249,1.59632e-05
0.595408048009,0.000692518
0.595585631298,0.000188402
0.595707007922,1.35746e-05
0.595710127923,0.000103294
0.596140687667,1.98808e-05
0.596336166089,0.000799561
0.597503957729,4.71629e-05
0.597734705377,8.49626e-05
0.598532085162,1.41632e-05
0.598902499322,1.60832e-05
0.599304653902,1.24832e-05
0.599506570482,1.28432e-05
0.599645216625,1.46432e-05
0.599680399099,1.70432e-05
0.599884861345,1.79433e-05
0.599897941288,7.52427e-05
0.600062404135,1.24832e-05
0.600277661886,1.38032e-05
0.600474317441,2.36431e-05
0.600585903701,2.44618e-05
0.600700383066,1.86402e-05
0.600795542721,0.00016508
0.600842462514,4.36382e-05
0.601101660484,2.34127e-05
0.601305659687,0.000790079
0.601326325519,0.000244562
0.601526862093,1.80032e-05
0.601600754317,2.01631e-05
0.602333861481,2.16031e-05
0.602422505166,9.63625e-05
0.602668531274,1.59632e-05
0.603039442029,0.000184463
0.603338001458,1.61208e-05
0.603566964235,2.23785e-05
0.603616834583,1.44362e-05
0.603659554584,0.000317272
0.603894203738,1.23472e-05
0.604020566699,0.00135025
0.604143396899,2.90138e-05
0.60421100642,2.12239e-05
0.604279646304,0.00118877
0.604392686145,0.0012814
0.604505369313,0.000190015
0.604929087795,3.1824e-05
0.60504404777,0.000184516
0.605126007484,1.33061e-05
0.605413527267,1.90029e-05
0.605454927243,0.00187257
0.605574567056,0.000400201
0.605693006687,2.98408e-05
0.605901205908,2.11799e-05
0.606170124845,1.36935e-05
0.60700460142,0.00296459
0.607051612482,2.33993e-05
0.607101772387,4.19033e-05
0.607125532363,6.62808e-05
0.607168252306,2.91831e-05
0.607758049937,2.12984e-05
0.607758169939,0.00225791
0.607878772234,0.00085451
0.609046210044,1.22432e-05
0.609081037362,2.19631e-05
0.609563879958,1.50032e-05
0.609667456595,1.94431e-05
0.610407684056,4.94429e-05
0.61067636729,1.59632e-05
0.610907262947,7.50027e-05
0.611373391163,0.000105843
0.611397183006,6.82829e-05
0.611827006299,2.2471e-05
0.61184272622,8.95226e-05
0.611991443547,8.38826e-05
0.612292209954,1.29632e-05
0.612417424518,2.28031e-05
0.613018398653,1.23632e-05
0.613617310782,1.53632e-05
0.613838747361,1.78832e-05
0.613968387224,3.6483e-05
0.614264064936,6.75627e-05
0.615375655639,5.86258e-05
0.615448015505,0.000234606
0.61552388214,0.000801385
0.615597201887,0.000212283
0.615627841828,3.99452e-05
0.61564251613,2.48432e-05
0.615904203493,9.57331e-05
0.61609020277,0.000259971
0.616430160001,1.52463e-05
0.616501439459,1.24172e-05
0.616592158762,1.3875e-05
0.616729917809,1.26165e-05
0.616968116926,0.000284699
0.616972316927,3.05888e-05
0.616982760125,1.60334e-05
0.617030883024,1.22226e-05
0.617208242048,1.87855e-05
0.617223871075,1.90832e-05
0.61729680508,3.32356e-05
0.617330524992,0.00194137
0.6173601648,1.31364e-05
0.617719083576,0.000316485
0.617829483167,0.00022976
0.617866082915,1.27206e-05
0.618014401789,2.63073e-05
0.618501957852,3.01316e-05
0.618570837329,0.00147624
0.618915282614,2.51674e-05
0.619010922268,0.000302642
0.619044468679,0.000323762
0.619114885781,5.97628e-05
0.619553551226,0.000175802
0.619641483812,1.3128e-05
0.619811402451,1.28582e-05
0.620126999873,0.000636118
0.620185032131,1.6455e-05
0.620285951342,0.000148322
0.620333110186,1.80032e-05
0.620721683433,1.72725e-05
0.621001521671,0.000592679
0.621077484338,0.000212162
0.621361186442,4.41553e-05
0.621713383558,0.000507719
0.621773155556,1.65632e-05
0.622305794169,0.000343686
0.622481473902,0.000559442
0.622484918009,0.000114367
0.622936597128,0.000353384
0.62303452031,1.57505e-05
0.6230538403,0.000976445
0.623230003448,2.09862e-05
0.623456683419,1.38366e-05
0.62362756308,1.41474e-05
0.62365840308,3.60554e-05
0.623777082862,0.000764451
0.623887722834,1.21982e-05
0.623952642804,1.47201e-05
0.624443202569,2.07116e-05
0.624558522359,1.48404e-05
0.624839681817,2.09531e-05
0.624983681689,3.46291e-05
0.62548540164,5.66278e-05
0.625696001627,0.000493555
0.625995041628,2.8409e-05
0.626051801627,3.43343e-05
0.626134601623,2.82516e-05
0.626494001624,0.0015932
0.626519441626,0.00393875
0.626529164815,3.18352e-05
0.626868884198,4.04736e-05
0.62706292384,2.21338e-05
0.627255283469,1.35018e-05
0.627420283401,0.000119008
0.6279419234,0.000630362
0.628217083403,0.0047674
0.628456003399,1.31364e-05
0.628466563401,0.00314899
0.628481803395,1.2272e-05
0.628830660068,3.73939e-05
0.628857645914,0.00453526
0.628863525901,0.00072994
0.628901219907,1.25465e-05
0.628944299806,1.87268e-05
0.629200378792,0.0019116
0.629716603989,1.26449e-05
0.629773123805,0.000155157
0.629977843472,0.000210288
0.63048988139,0.00759378
0.630591284062,0.000744403
0.63086791533,0.000340561
0.631021387308,0.000148922
0.631135395332,1.64432e-05
0.631372466947,1.48832e-05
0.631419616272,1.33232e-05
0.632140697489,2.04825e-05
0.632195657312,0.000298682
0.632330480936,0.000398761
0.633049725528,1.22432e-05
0.63306394898,1.50032e-05
0.633197254055,1.26032e-05
0.634210046373,0.000833999
0.634240775529,0.000565561
0.634449097778,0.00017653
0.634564056924,2.46475e-05
0.634723655691,2.29775e-05
0.634825655082,2.37158e-05
0.635510853957,4.10437e-05
0.63551604104,4.84832e-05
0.635577394302,3.11473e-05
0.635585389761,2.94032e-05
0.636058552916,0.000453437
0.636240874041,7.58164e-05
0.636371035698,3.69887e-05
0.63646383368,0.00158368
0.636614313655,0.00157776
0.636854397775,1.75898e-05
0.637084076871,0.0023048
0.637135559742,0.00289549
0.638076240192,3.1443e-05
0.638506535743,0.000123842
0.639114437541,2.8473e-05
0.639486077298,0.000327595
0.639516437258,2.08663e-05
0.639520997259,0.000404028
0.639848357976,4.69979e-05
0.640064476229,1.28847e-05
0.640251435291,1.61384e-05
0.640266795285,1.78615e-05
0.640435154714,3.08942e-05
0.640722434446,2.90711e-05
0.640936974197,0.000446163
0.641161637136,2.05697e-05
0.641604676241,0.000662538
0.642246195368,8.92076e-05
0.642431238217,1.84568e-05
0.642517804879,0.00162348
0.642552124823,2.58312e-05
0.643145644662,1.37258e-05
0.643823167854,7.03133e-05
0.643864691044,1.48652e-05
0.643894091042,3.5611e-05
0.644297531047,0.00538362
0.644449210898,1.25732e-05
0.644557570803,0.00164783
0.644726290761,3.51205e-05
0.644865610663,4.35813e-05
0.645232090297,1.50782e-05
0.645313450264,4.91885e-05
0.645332290264,0.00358129
0.645395410249,0.00254695
0.645586930246,2.84276e-05
0.645831370245,1.73397e-05
0.645867370243,3.48645e-05
0.646595770225,0.000533288
0.646716853354,6.12057e-05
0.646800613283,0.00391518
0.646927213258,2.27774e-05
0.647340733227,2.98809e-05
0.647453293123,0.000124307
0.647668453114,0.00469288
0.647721373107,5.33051e-05
0.647772733105,4.68786e-05
0.647871853109,0.00320321
0.6482574131,1.64711e-05
0.648336133088,0.000288294
0.64840165309,0.00550117
0.648481573091,0.00555635
0.648562332993,3.39205e-05
0.648574212994,0.00253557
0.648950295749,3.55563e-05
0.649314135749,0.000596418
0.649850655442,1.22346e-05
0.650243775444,0.00419708
0.650470698641,0.00100924
0.65052385864,0.00158251
0.650960661271,3.39591e-05
0.651029661272,0.00146623
0.65108294127,0.0109764
0.651198144301,3.62333e-05
0.651254268472,0.00301406
0.651563148448,0.000768529
0.651626988234,0.00163263
0.652113944227,0.00111408
0.652133653135,1.60832e-05
0.6525556051,1.26032e-05
0.652995689331,1.57277e-05
0.653041889003,1.31012e-05
0.653066848847,0.000474479
0.65318988637,2.92651e-05
0.65334348516,1.65274e-05
0.653377444969,2.18233e-05
0.653786042937,5.30116e-05
0.653830922873,0.000104274
0.654412442064,1.72398e-05
0.65480160206,0.000420497
0.655000322056,3.66692e-05
0.655275362055,0.000266751
0.655305362059,0.00180284
0.655425362055,0.00082164
0.655529761872,0.00179777
0.655542245068,2.82128e-05
0.655607525043,0.00249492
0.655974723585,1.72044e-05
0.656033403393,0.00202832
0.656049003315,0.00116767
0.656402281307,2.25631e-05
0.656901712948,1.52432e-05
0.657665546956,1.38615e-05
0.657692186829,2.25526e-05
0.658380021189,2.17336e-05
0.658404861034,0.00129047
0.659134855179,1.27232e-05
0.65921974818,1.24832e-05
0.65946202038,1.40502e-05
0.65997477617,1.47648e-05
0.660244893971,0.000817677
0.66078276192,1.35632e-05
0.660836795584,2.70031e-05
0.660941900557,4.92705e-05
0.661001660403,2.79068e-05
0.661023863602,0.000187086
0.66116322518,0.000320162
0.661423754671,1.807e-05
0.661522394312,0.000543601
0.661744899465,0.000416761
0.661819021404,1.77632e-05
0.661862747209,5.02829e-05
0.662332466448,1.75232e-05
0.662480694838,1.22432e-05
0.6625813278,1.36832e-05
0.662636951676,1.82431e-05
0.663063027215,5.54428e-05
0.663481345707,1.34097e-05
0.663841223437,0.000411721
0.664028536727,1.21989e-05
0.664048456724,2.02612e-05
0.664167136281,0.000318425
0.66452473337,1.60561e-05
0.664815371018,1.62379e-05
0.664873570598,1.54965e-05
0.664974729814,1.41103e-05
0.665177408179,1.27127e-05
0.665216047963,1.21823e-05
0.665732406928,3.4933e-05
0.665837766899,1.36299e-05
0.666046086876,0.00237935
0.666173529617,0.000982788
0.666215049326,1.26566e-05
0.666306368634,1.62222e-05
0.666379088098,1.65178e-05
0.666485047295,1.88634e-05
0.666587166841,9.51788e-05
0.666794765163,0.00134141
0.666878286616,5.59228e-05
0.666963183392,1.44032e-05
0.667082647602,1.42832e-05
0.667103250799,1.41632e-05
0.667589298062,1.50032e-05
0.667640193383,2.67631e-05
0.667668997829,1.77632e-05
0.667695212057,1.57232e-05
0.667805308239,1.41632e-05
0.668143435937,9.40825e-05
0.66853096677,1.76432e-05
0.668789710752,1.78832e-05
0.668999575181,2.02831e-05
0.669344834303,4.93229e-05
0.669602089722,1.21232e-05
0.670049557818,1.53632e-05
0.670468185248,1.51232e-05
0.67047353037,1.66832e-05
0.670641151466,1.44032e-05
0.670879839784,1.27232e-05
0.670910211941,1.30832e-05
0.67113140004,1.53202e-05
0.67147531896,0.000185291
0.671636958338,0.00041719
0.671898196213,0.000871199
0.672211103654,1.61588e-05
0.672905422838,0.000795248
0.672990982787,2.51959e-05
0.673166902582,0.000759787
0.673555232803,3.58827e-05
0.673627112759,2.07967e-05
0.673762472723,0.00169081
0.673773032701,2.81894e-05
0.673956635233,1.87754e-05
0.67448283377,0.00157191
0.674616873264,0.00154896
0.674751995516,3.07128e-05
0.674809595088,0.000501613
0.67520590435,1.48676e-05
0.675580781882,2.61813e-05
0.675667541572,0.000230209
0.676007379002,6.28602e-05
0.676095698317,0.000947037
0.676119372467,1.34432e-05
0.676477420057,1.59632e-05
0.677647068106,1.63014e-05
0.677770067181,2.35077e-05
0.677869786489,3.27851e-05
0.678331544681,0.000898318
0.678413016727,0.000271256
0.678571775887,0.000105301
0.678747815273,2.87736e-05
0.679125094595,0.000255114
0.679171464958,2.22872e-05
0.679973137746,0.00195264
0.680950293727,0.00191871
0.681142939358,0.00259392
