time,PerHopSim1.flowGenerator3.flowSynId:vector
0.000357994651,0
0.004876296214,2
0.00819493952,4
0.010116188374,5
0.015322638112,3
0.016862111296,6
0.019667861946,8
0.020923913254,9
0.02178651814,10
0.022737199198,11
0.023098248709,12
0.023634735898,13
0.026380613972,14
0.028918420838,16
0.030712941158,15
0.03140537138,18
0.034307611118,20
0.03641767743,21
0.042276229336,23
0.043822605694,19
0.043871123214,22
0.044629282478,24
0.045037382274,25
0.048185279654,27
0.050136931562,28
0.050915128404,29
0.055259387356,17
0.056369292044,30
0.05786940542,32
0.061288912894,26
0.06224500078,33
0.064258842326,34
0.065585559904,35
0.06623038569,1
0.066681598626,36
0.071258855446,31
0.071411052008,38
0.075867024052,39
0.083006744864,44
0.084174843838,45
0.085105885518,47
0.087225958058,41
0.088634164272,40
0.090979987494,52
0.091111895904,46
0.092105972536,54
0.092525994724,55
0.095747095958,56
0.096279569596,43
0.096283201596,57
0.099667557588,60
0.100679979444,37
0.102537191132,62
0.102569719132,61
0.105593540984,59
0.106810967372,65
0.109191154186,63
0.10951241695,66
0.11043175051,67
0.11150020457,51
0.112482760158,7
0.113727096246,53
0.115079524314,49
0.11564561035,69
0.116650355522,48
0.11811892138,70
0.118514572612,68
0.119172196414,71
0.119950687278,50
0.123033506862,58
0.123965523238,72
0.129282907358,73
0.130272634964,42
0.132470491558,64
0.137655312654,75
0.137816753774,76
0.138278677905,77
0.13836252701,74
0.139798580599,78
0.14165501321,79
0.154450292848,81
0.156704909768,83
0.157220173284,84
0.157568451308,82
0.16224033908,85
0.166532946412,80
0.174591388817,87
0.175294875993,86
0.175438182769,88
0.177342452788,89
0.178052644688,90
0.17932560999,91
0.184393665183,93
0.185420751285,94
0.188009193665,92
0.190266355201,96
0.192002623694,97
0.192733995506,98
0.193672238439,95
0.19976362842,99
0.203297686711,100
0.205180403685,101
0.210044893208,102
0.214863580146,103
0.215987080701,104
0.220980625507,106
0.221802980607,105
0.225321112513,107
0.226976295648,108
0.228187805637,109
0.228699253127,110
0.228909104339,111
0.231938527557,112
0.232712496352,113
0.233853007215,114
0.239221834643,116
0.241603535201,115
0.250640822755,117
0.257799194639,118
0.265150455751,119
0.266729274053,120
0.270426355154,121
0.273187739343,122
0.279539643435,124
0.281400488745,125
0.282914011497,126
0.283356815419,127
0.283627432861,123
0.290635264723,128
0.292728033905,129
0.292759524663,130
0.294387238618,131
0.295770576086,132
0.296305988789,133
0.299595943869,134
0.301379585944,135
0.312357101074,136
0.315116745677,137
0.318032673263,138
0.322746253505,141
0.325006155681,139
0.327509402453,142
0.327640640153,140
0.328414913229,143
0.330241125339,144
0.334059655328,147
0.335152305884,148
0.336684193316,146
0.336809138868,145
0.339216708287,149
0.345162953541,150
0.349026099774,151
0.349318610611,153
0.352304766021,154
0.352571645069,155
0.355657851249,156
0.356484642047,152
0.357259005967,157
0.358216506316,159
0.358837513708,158
0.362633174379,161
0.363740103401,160
0.366475172301,162
0.366938165758,163
0.368430081696,164
0.369621541895,165
0.371217595342,166
0.373540291072,167
0.375662476393,168
0.37723307384,169
0.386444237634,171
0.388080426468,172
0.388213989766,170
0.392005564511,175
0.395283009149,173
0.395866129099,176
0.401353443747,174
0.402594054215,177
0.403734145093,178
0.403795315288,179
0.404901165919,180
0.407169930993,181
0.413326097984,183
0.415753068754,184
0.418826468588,185
0.420772247898,182
0.426036470612,186
0.4321797011,188
0.4327374546,189
0.433320548595,190
0.436589722698,187
0.437073687158,191
0.444063453268,194
0.444671714214,193
0.44538126608,192
0.446250356052,195
0.44965576593,196
0.451478279566,197
0.452087030149,198
0.456789700242,199
0.464674054151,200
0.468124221393,201
0.470063055304,202
0.470273495097,203
0.475453583399,204
0.477268457729,205
0.477750947491,206
0.480904501428,207
0.487766059213,210
0.488700272855,208
0.488741072855,211
0.489561401081,209
0.489623295117,212
0.490305569218,213
0.496501955181,214
0.499093136149,215
0.500971819076,216
0.502386644922,217
0.506984156317,219
0.508844524695,220
0.509590091699,221
0.514688480893,222
0.522482725297,223
0.527572280035,225
0.536107612913,218
0.537863947137,226
0.538056806477,227
0.538587974658,224
0.543678599974,228
0.545850440932,229
0.547327845524,230
0.549941938577,231
0.554079039575,232
0.555176406565,233
0.560761414631,235
0.566660609695,236
0.566781209061,234
0.567058974061,237
0.568727312502,238
0.57026837962,239
0.571044793516,240
0.572972469771,241
0.574071221318,242
0.576850642909,243
0.577556079009,244
0.578257412732,245
0.584533577093,246
0.584987949895,247
0.5867067053,249
0.589627466816,248
0.591062943196,250
0.591788106162,251
0.592401312666,252
0.594625013957,255
0.594833626355,256
0.595649705585,257
0.596083883437,258
0.596539062347,259
0.598423976915,254
0.598581327769,260
0.598802108361,261
0.604082287879,263
0.605636867275,253
0.607666081023,264
0.608096610357,265
0.609701549271,266
0.612804093223,269
0.612849725223,270
0.616532722755,267
0.616858909065,268
0.617872882493,271
0.618697785085,262
0.620971236862,272
0.623682612561,273
0.624288974121,274
0.634480065956,275
0.63726636317,279
0.637827852372,277
0.638290067096,280
0.639682120568,278
0.64045112546,281
0.640834411668,282
0.641204128296,276
0.641247958336,283
0.641776911919,284
0.646459577822,285
0.650586790819,286
0.654014755367,288
0.657261162553,290
0.658066566323,287
0.661944448405,292
0.662681770007,291
0.664715835033,289
0.665731996419,293
0.666367075183,295
0.667389328155,294
0.670248601366,296
0.671238123185,297
0.672526179267,298
0.67540868085,299
0.67544075249,300
0.675674474584,301
0.675783851984,303
0.682164837528,304
0.683028315406,305
0.684155275244,306
0.684660683833,302
0.686166881049,307
0.691700630834,308
0.691812925695,309
0.695877881826,311
0.696098085446,312
0.69752804333,314
0.698141243196,310
0.698363977785,315
0.700890924778,317
0.702898703058,320
0.707332827756,319
0.707631196511,321
0.708479124764,322
0.709655652672,323
0.710790708701,324
0.712698114716,318
0.715964119925,328
0.716865014527,313
0.724293853999,326
0.724458072605,329
0.728097584827,316
0.729031472817,330
0.729505725451,327
0.737060293915,331
0.737434628615,332
0.738760896933,333
0.739847076679,334
0.741731391845,325
0.743168466902,335
0.745168214156,336
0.747543363953,337
0.747862853235,338
0.74920288709,339
0.752308245935,340
0.75392787991,341
0.758815394198,343
0.759818569826,345
0.759946847602,344
0.76285545779,346
0.763275017206,347
0.763803945504,348
0.765094481734,349
0.767691194918,350
0.769969172436,352
0.771739966858,353
0.772753795078,354
0.776157258782,355
0.776160884658,356
0.780330007282,351
0.781370500504,357
0.782096969502,358
0.786270672296,342
0.78925831806,359
0.79013498361,360
0.790792164772,361
0.79341416832,362
0.794896617675,363
0.798614894163,364
0.800635059655,365
0.805559709937,366
0.810046496583,367
0.810424521173,368
0.811628383468,369
0.819953640957,370
0.822633095367,371
0.823434518931,372
0.828571956905,374
0.830879818411,375
0.831462647473,373
0.832172321187,376
0.833478695999,379
0.836664645391,380
0.837832436219,377
0.841141314219,378
0.843101197112,381
0.844836478572,382
0.846054582671,383
0.847332358793,384
0.848592362807,385
0.854179146315,389
0.855630442315,386
0.857570109033,392
0.857726546035,387
0.858422010707,391
0.863667119679,393
0.865311427165,388
0.865930571739,394
0.867243897848,390
0.868772370389,395
0.87135285757,396
0.87801850863,397
0.881004391182,399
0.885410345146,398
0.888359798248,402
0.889714714626,403
0.897827893032,405
0.89888892565,401
0.89904597859,400
0.902538018504,406
0.902696546504,408
0.903884957102,409
0.90492013096,410
0.906738141124,411
0.90742954166,404
0.908814519554,412
0.911192504706,407
0.913230945503,413
0.914576798874,414
0.917158173956,415
0.927352069777,416
0.928537121791,417
0.933318291851,419
0.933456577521,418
0.936002987549,420
0.942569478031,421
0.947234544139,423
0.949238902813,424
0.949566896377,425
0.950789511398,426
0.951751044936,427
0.951926499653,428
0.951950580543,422
0.952711469084,430
0.953361590912,429
0.957199920313,431
0.957785318662,432
0.961488833383,433
0.969705574648,437
0.969846198648,438
0.973795171986,439
0.973854099986,440
0.974806513436,436
0.97792273125,441
0.978841049046,442
0.979458810164,443
0.981733925238,434
0.982585520922,444
0.9840348945,435
0.990368986904,446
0.990595821446,447
0.991430320592,445
0.993723202245,448
0.993822093073,449
0.994825894288,451
0.99958247294,452
1.00213741055,450
1.005490179648,453
1.009588031976,455
1.012674789252,454
1.015636756244,456
1.017602697262,457
1.027847948302,460
1.03017153479,458
1.03059362035,461
1.036985736154,459
1.040556739563,462
1.043905857839,463
1.045081183548,465
1.046077329094,466
1.046136838484,464
1.046640383136,467
1.048740276462,468
1.051612289838,470
1.052588760602,471
1.052900554282,472
1.058408446867,469
1.059923812326,474
1.062027151356,475
1.062082855936,476
1.063222116864,477
1.066816399974,478
1.06768757237,480
1.068775294844,481
1.072471585852,473
1.076815875982,479
1.076956262822,483
1.07830052679,484
1.079334724044,482
1.081575103471,485
1.08202710374,486
1.083485981479,487
1.087484948167,489
1.088591874005,488
1.088608706005,490
1.090895733928,491
1.093298209247,492
1.102200195171,493
1.10465507524,494
1.105263344049,495
1.106432524554,496
1.1094393429,497
1.116063378005,499
1.117149556585,500
1.119073645855,498
1.122888202427,504
1.124254947171,505
1.125914229709,501
1.126679513193,503
1.127533271041,507
1.129100996187,508
1.130380369203,509
1.132315597619,511
1.135745607343,512
1.135878480181,513
1.138821128277,510
1.144284660807,515
1.144901596523,516
1.145183755439,514
1.146386654071,518
1.148319011387,517
1.149676043351,502
1.150267940231,519
1.150778413335,521
1.151935643266,520
1.153186195265,506
1.153844339149,523
1.156847556773,522
1.159390843947,524
1.163410032901,525
1.163709120899,529
1.164326387795,526
1.164759406661,530
1.167613387637,531
1.170548274877,532
1.171261216489,528
1.172024154491,527
1.173741235889,533
1.173884220189,534
1.183196996821,535
1.183512133765,536
1.185923319747,537
1.18759462252,538
1.189020182401,539
1.193982350819,540
1.194193382343,541
1.194597212556,542
1.196450199611,543
1.199624585392,544
1.199993255531,545
1.200454987312,546
1.202094362525,547
1.208357923268,549
1.209930783712,550
1.213717576148,552
1.214152871883,551
1.214612724392,553
1.216645666134,554
1.218712495622,548
1.226789240503,555
1.22835616766,556
1.240419192481,557
1.242943993578,558
1.245398483199,559
1.257747922955,560
1.264281093175,564
1.265913371965,563
1.266988314367,565
1.266991914367,566
1.269071879381,562
1.270209598361,561
1.273764414469,567
1.27462656622,568
1.278990904374,569
1.283944820564,571
1.283984452564,572
1.285466468644,570
1.286808219232,575
1.28724007156,576
1.28783531607,577
1.28834141647,579
1.289251295506,574
1.289779095005,580
1.290872913218,578
1.291616315342,573
1.294790997852,581
1.296828738349,582
1.299422681532,583
1.300156777795,584
1.301824451168,585
1.304824210532,586
1.306775149476,588
1.308314273306,587
1.308785277464,590
1.308852934218,589
1.310777318569,591
1.312174731116,592
1.313981346334,594
1.314222733934,593
1.315311199798,595
1.315647182154,597
1.31601648476,598
1.321117873832,599
1.32942018904,603
1.33420792875,607
1.33444732648,606
1.33566856731,605
1.336139955684,608
1.33643210292,604
1.336668675018,600
1.340874432872,601
1.341251669528,596
1.341779280694,602
1.342661766427,609
1.343889731486,610
1.345273987577,612
1.348275800393,613
1.349178351719,614
1.350052446035,611
1.35016787172,616
1.354627576358,618
1.355314380592,615
1.355650108968,617
1.3594758236,619
1.365572506717,620
1.366045399283,621
1.366904468863,623
1.371068672961,622
1.371211118993,624
1.378999906019,625
1.379581870634,626
1.382119365383,627
1.387506167272,628
1.389108082478,629
1.389962795561,630
1.391043823372,631
1.393307025965,633
1.393485308789,632
1.400743875894,634
1.407678960593,635
1.412293161528,636
1.415563652279,637
1.417264122777,639
1.418853093467,638
1.420084578992,640
1.420173378986,641
1.421695143727,642
1.422268897526,643
1.422404445531,644
1.428949113083,645
1.430569678633,646
1.433385593303,648
1.437321900561,649
1.438185510219,647
1.438934615639,650
1.438950889485,651
1.442066594391,652
1.442740237801,653
1.443967960828,654
1.445016899918,655
1.447607149793,656
1.448020891403,657
1.450040395394,658
1.450611531711,659
1.451737330182,660
1.453086184007,663
1.455428540781,662
1.456877198443,664
1.457080547201,665
1.460517520123,666
1.466187788019,670
1.469530115229,669
1.471160303901,668
1.472518776909,671
1.472819616023,667
1.474643693645,672
1.475164732649,673
1.477507898073,675
1.482907697805,674
1.483446833501,661
1.484553461073,677
1.485574039353,678
1.486159559177,679
1.487038890363,676
1.490145764533,681
1.490609571105,683
1.494302351929,680
1.497416645055,685
1.500694092627,687
1.500897103771,684
1.504045861017,682
1.504675773683,688
1.505619067237,686
1.507322522818,689
1.510145904296,690
1.51301042276,691
1.516247064934,692
1.517729277368,693
1.519408608872,694
1.524141786845,695
1.530510215592,696
1.531069319108,697
1.53818721913,698
1.540422738544,699
1.54321140941,700
1.545446139224,703
1.546691496366,702
1.547817087694,704
1.553288634148,701
1.553878094577,705
1.554117191151,706
1.558417757409,707
1.558919635082,708
1.562775970095,710
1.563376643903,709
1.571114250842,711
1.572277881837,713
1.573985061687,712
1.574387860132,714
1.576076203811,715
1.57905764846,716
1.584001544745,717
1.589678289342,719
1.590456849294,720
1.593347339112,722
1.594975097294,723
1.599325390144,725
1.6018198192,726
1.602593905018,727
1.607525356814,730
1.608671467298,731
1.614835424014,724
1.615921661118,734
1.622692428186,735
1.622735566382,736
1.623738689308,721
1.629813869354,738
1.632335178586,739
1.632810480748,740
1.634854784004,737
1.63568057048,742
1.63633994691,743
1.638855003598,744
1.645002446894,745
1.651563622148,748
1.65280912929,749
1.655228284816,750
1.656019795456,746
1.656416935722,729
1.658023192626,755
1.663158587362,741
1.664337638262,754
1.665637935402,751
1.666240713836,757
1.667796985394,758
1.669595644666,756
1.67201941945,753
1.673033544426,760
1.674356776422,761
1.677776597474,763
1.678197788024,762
1.6786817891,728
1.679183960098,765
1.680348423918,766
1.682485534594,752
1.687985332434,767
1.689747970916,759
1.69049206579,747
1.69090452871,768
1.691136784191,769
1.692552409532,770
1.692602841532,718
1.694684689026,771
1.700981161156,774
1.701119312178,775
1.701899338052,776
1.703087770354,772
1.704642065718,778
1.708300740246,779
1.711615095508,780
1.716911290416,783
1.71905994826,781
1.720211967102,784
1.72239189684,785
1.723455534956,777
1.72502386379,782
1.726148357932,786
1.726908900332,787
1.729180656266,773
1.72998363416,788
1.730048136583,789
1.731167556612,791
1.731810756266,792
1.733764244426,733
1.735644281462,732
1.736566485054,793
1.73962443299,790
1.74175063256,794
1.741960726358,796
1.742414810244,798
1.743067497276,795
1.743084601262,799
1.749333143736,803
1.749976715574,804
1.750220447292,801
1.752249188718,805
1.75474466549,807
1.755781751158,802
1.75675799426,808
1.757481747658,806
1.757493811658,809
1.759335586956,797
1.762141927253,811
1.762553001664,764
1.767496567512,812
1.768787921656,800
1.771064177602,813
1.77156096466,814
1.772518926035,810
1.775676936654,816
1.776266407658,815
1.777438824617,817
1.778269270857,818
1.782013935303,819
1.783506267356,820
1.785734962699,821
1.800500316199,822
1.800582744271,823
1.805006653152,824
1.806581050255,825
1.809010457289,826
1.809449180675,827
1.811044576547,830
1.811675453653,828
1.812557261777,829
1.814744915754,833
1.815918903624,834
1.819353701576,832
1.820711440098,831
1.824138772384,837
1.825765716326,838
1.826256062756,835
1.826834606578,836
1.828887791784,839
1.829109416187,840
1.832025493018,842
1.832451023851,841
1.837662834015,843
1.837993542493,844
1.840182654016,845
1.848528078673,846
1.855848744505,847
1.856558681588,848
1.858527946817,849
1.859456781393,850
1.859536841422,851
1.861816155529,852
1.869835341844,854
1.875485175048,853
1.875804231002,856
1.876040512969,857
1.879319005072,858
1.889466661828,859
1.895507053678,855
1.902281863726,860
1.905590129234,862
1.908863045014,863
1.910855122976,864
1.9125610406,865
1.919634480736,866
1.920613457894,861
1.926051231914,867
1.928176624303,868
1.929377693285,870
1.935167147033,871
1.942762033707,872
1.948731403515,874
1.952064993631,875
1.956904035807,877
1.959124554389,878
1.959592750655,876
1.962327880633,879
1.966255447153,880
1.967598601815,882
1.969526574331,881
1.971361189995,883
1.972052007461,884
1.972930018755,885
1.974522038967,886
1.975076482481,869
1.977233078395,887
1.983559038523,889
1.986913060751,893
1.990279365821,896
1.991203626929,897
1.991706783039,898
1.994504327307,900
1.994881245771,892
1.996262825583,895
1.996294374909,899
1.998005886105,873
2.001313761979,902
2.005482204949,903
2.006255061179,905
2.008788707399,891
2.011037425835,890
2.011209688907,901
2.012087911697,888
2.016405260429,894
2.020351493463,908
2.021388760385,911
2.024743692123,910
2.025126991271,909
2.025949057381,904
2.025986385381,914
2.027668166203,915
2.029038716321,907
2.033576416269,916
2.036177839143,917
2.036339297849,918
2.040991007373,912
2.042868896481,919
2.044869310994,920
2.054484440957,924
2.057221922735,922
2.059606805223,926
2.062628098147,921
2.066547164661,929
2.067057756735,927
2.069648271401,930
2.070721224421,923
2.071216090187,925
2.074503978721,928
2.075512308043,931
2.077853270059,906
2.090463767171,934
2.091190860295,936
2.091310538437,937
2.093464908199,938
2.095725845071,913
2.097382688577,941
2.097731712531,942
2.09867345919,935
2.100346145197,944
2.101415466977,945
2.101569474177,939
2.102442857288,946
2.107816690848,947
2.114085478693,950
2.117848834016,940
2.120388560462,951
2.122707272203,953
2.126279902194,943
2.127047003415,952
2.127595918444,955
2.129716802049,949
2.129969119029,956
2.139187970998,957
2.139519141886,958
2.141549625974,954
2.142809581563,948
2.143044529699,932
2.151780314149,933
2.154094058904,959
2.154124561592,960
2.160166056073,964
2.162304186861,965
2.163556032547,962
2.164392953643,961
2.165548946309,967
2.166572579551,966
2.166855029293,968
2.167864341657,963
2.169707131051,970
2.171563925175,971
2.171611298006,972
2.173168724391,969
2.173667414469,973
2.175177706595,974
2.177901188838,976
2.179771830328,977
2.181473712074,975
2.183812970517,978
2.187553916678,980
2.18890804493,979
2.193308164099,981
2.198640877834,983
2.198685309834,984
2.203713784118,982
2.204224683113,985
2.204922658831,986
2.20856291514,988
2.21124833007,989
2.21497386947,987
2.215730108376,993
2.219428547912,995
2.2244903863,998
2.22628567051,999
2.22670889138,997
2.227197098178,1000
2.228070667852,1001
2.229585528394,994
2.229973636554,991
2.23073060483,1002
2.231296595554,1003
2.232205918267,1004
2.232996222372,1005
2.235360251472,990
2.238219185152,992
2.23885591916,1006
2.239741260394,996
2.245938222188,1007
2.249016492057,1008
2.254785440832,1009
2.257294338577,1010
2.270823051424,1013
2.2719443384,1014
2.273812157216,1012
2.275370431494,1015
2.27586197577,1011
2.278268332791,1017
2.278342410753,1018
2.278887033145,1016
2.284903132159,1020
2.285056520405,1019
2.285987449996,1021
2.286696719393,1022
2.290938088548,1023
2.292188272864,1024
2.292722613579,1025
2.294498016178,1026
2.298364409366,1027
2.299685691173,1029
2.300228085053,1028
2.301496965797,1030
2.307092955509,1031
2.308628591972,1032
2.309877276343,1033
2.31276737727,1034
2.313143747497,1035
2.320453634036,1036
2.326833562839,1037
2.330899676704,1039
2.332422426804,1041
2.333797259131,1042
2.33402401416,1043
2.335385917854,1045
2.336413004856,1040
2.339795581488,1048
2.343053099226,1049
2.343478810662,1050
2.34405740313,1052
2.344988859628,1047
2.347615019207,1051
2.34789183628,1053
2.349820088779,1054
2.350176744263,1055
2.351942805073,1046
2.352190244425,1056
2.353700782601,1058
2.353710382601,1059
2.360110090127,1061
2.362801017152,1062
2.365855345733,1057
2.374103151753,1065
2.375533562185,1067
2.376553754609,1069
2.379655930429,1073
2.380711591183,1070
2.380739223183,1074
2.381081216327,1076
2.381276488605,1075
2.382103420692,1071
2.382244501349,1078
2.384580612825,1044
2.384796573665,1072
2.385355579812,1066
2.393193737315,1068
2.394742732543,1080
2.395607674209,1081
2.397761309135,1084
2.398206844267,1083
2.398522092395,1079
2.399172232077,1085
2.399733837507,1086
2.403867515075,1087
2.404321179073,1082
2.405610494043,1088
2.409522148059,1089
2.411188899929,1090
2.412735376817,1063
2.414479359247,1091
2.419090815927,1093
2.419141343927,1060
2.419156975927,1094
2.420898253019,1097
2.421798369807,1098
2.423438561197,1099
2.423507381295,1092
2.423836113369,1038
2.424178330347,1100
2.425334279285,1102
2.426118971591,1064
2.426278402651,1103
2.426531919631,1101
2.433151064529,1105
2.436876521611,1106
2.438176081691,1108
2.438298075925,1104
2.442307963473,1109
2.444201887681,1110
2.444487660195,1111
2.446128719124,1112
2.450985453687,1113
2.451622695206,1077
2.451851984861,1107
2.454792401029,1114
2.461358969227,1116
2.462376539079,1117
2.46305159563,1118
2.463951863103,1119
2.464867996663,1120
2.466369369425,1122
2.467851852217,1115
2.474665555819,1126
2.474926840215,1125
2.479301241153,1121
2.482841981145,1128
2.484459880265,1132
2.484520506977,1130
2.484712268084,1129
2.485707411899,1133
2.487404990444,1124
2.488824560137,1131
2.489400569577,1135
2.489438967631,1096
2.492217022045,1138
2.492248434459,1136
2.494549358492,1139
2.499479141594,1140
2.500297516903,1137
2.500658938009,1141
2.504424691972,1143
2.50490391875,1123
2.509221814955,1145
2.509784725584,1147
2.511851018985,1146
2.514132527759,1148
2.515141747853,1134
2.516948346424,1095
2.517486916772,1142
2.518392981458,1144
2.521880191146,1127
2.526121456062,1150
2.526554851788,1151
2.526779227679,1149
2.528373349725,1152
2.531659993493,1153
2.533077915853,1154
2.537293351404,1156
2.538297632068,1155
2.538604107292,1157
2.539366418301,1158
2.539659529588,1159
2.542045775969,1161
2.545244244611,1160
2.545443560511,1162
2.548567772707,1163
2.550075459175,1165
2.551194984085,1164
2.551568912756,1166
2.552352471674,1167
2.55823249093,1168
2.567278951488,1169
2.567820164665,1170
2.575543949207,1171
2.579371925875,1172
2.583485386155,1173
2.586019781519,1174
2.587961218085,1175
2.588678174967,1176
2.592723862475,1179
2.594055973475,1178
2.594308201188,1177
2.594312455733,1180
2.599339403076,1182
2.605071718262,1183
2.608469357632,1184
2.60960811932,1181
2.61008776757,1185
2.610343317718,1186
2.621336696682,1187
2.624172310953,1188
2.624995208967,1189
2.632772588042,1190
2.634753380009,1191
2.641032426179,1192
2.643661670338,1193
2.64616343986,1194
2.648233370932,1195
2.648873525802,1196
2.65092568371,1197
2.656798279364,1198
2.660547511762,1200
2.6615085135,1204
2.66191108415,1201
2.663542717002,1203
2.663854445994,1205
2.66534758561,1202
2.666629644212,1199
2.671522655528,1206
2.67305369789,1207
2.674414777299,1208
2.675737576853,1209
2.678715235378,1211
2.678841331378,1213
2.68032849048,1214
2.680895104768,1212
2.683683662168,1210
2.685270085723,1215
2.686754186755,1216
2.68972345513,1217
2.69496509036,1219
2.695786206646,1220
2.696869612914,1218
2.701138195655,1221
2.707303072792,1223
2.710275966966,1222
2.712095716877,1224
2.72222285225,1225
2.724503575584,1226
2.725895731989,1227
2.726779422414,1228
2.727060437695,1229
2.73486181723,1231
2.735285876558,1232
2.738440674186,1233
2.738727002982,1234
2.749461134636,1230
2.749569377568,1236
2.750122448337,1237
2.75030202412,1238
2.751872797892,1235
2.75210870305,1239
2.753106096918,1240
2.754839997706,1241
2.760758864444,1242
2.764278754918,1243
2.766505469588,1244
2.766599904152,1245
2.772776154991,1247
2.772884401847,1246
2.777865096659,1248
2.779663946677,1250
2.782050752971,1252
2.785291888429,1249
2.786587264811,1251
2.795283902776,1253
2.795388430776,1256
2.79607425006,1257
2.796635826526,1258
2.796698925178,1254
2.798702541126,1260
2.802096367132,1261
2.80298589454,1263
2.804054868678,1265
2.805633162796,1266
2.80721945273,1262
2.80784024868,1269
2.808226147364,1270
2.816237675506,1268
2.81673573269,1274
2.820490206464,1259
2.821010556866,1271
2.821025324673,1275
2.821357669685,1276
2.822469963633,1277
2.823268959293,1278
2.823367452273,1255
2.823369852273,1273
2.824021199979,1279
2.826791559383,1272
2.829340182978,1280
2.830207043781,1281
2.830951919859,1267
2.831482091591,1264
2.840205784581,1284
2.845135360223,1282
2.845568360027,1283
2.847182778064,1286
2.847338238936,1285
2.850815822971,1287
2.853501341999,1288
2.854472468154,1289
2.857265709151,1290
2.858640513393,1291
2.861426722666,1292
2.862337200726,1294
2.862782138567,1293
2.867042517131,1295
2.868175981416,1296
2.871169444537,1297
2.8711880758,1298
2.871867592166,1299
2.872375162046,1300
2.873744656606,1302
2.879588498908,1301
2.881311801844,1305
2.883009006706,1304
2.88395753716,1303
2.884079011052,1306
2.888620652215,1310
2.888916780731,1307
2.890853703073,1309
2.894756564589,1312
2.894805828589,1314
2.897100171093,1317
2.897123099093,1318
2.897622151161,1313
2.897646183161,1319
2.897980735481,1320
2.902643215673,1321
2.903147795683,1316
2.910531480015,1323
2.911656429131,1324
2.913118253475,1325
2.914648989771,1322
2.915750044083,1326
2.915981891153,1315
2.917701302165,1327
2.925736664323,1328
2.926620576385,1329
2.931392924305,1308
2.931848304399,1311
2.933085123023,1330
2.935561588881,1332
2.936497239025,1334
2.937281968897,1331
2.937843028781,1335
2.938759336248,1333
2.944866191522,1338
2.949244251918,1336
2.955170601388,1341
2.958992655884,1340
2.961537274476,1339
2.96575820134,1342
2.968822213832,1343
2.970803790534,1344
2.97149551232,1337
2.974261648966,1345
2.975334550886,1347
2.975446300716,1346
2.977435299503,1348
2.978650211581,1349
2.985536948169,1352
2.989517898813,1353
2.989528730813,1354
2.994377097543,1355
3.002355308607,1357
3.005338722117,1359
3.012040382991,1362
3.012372894933,1363
3.013502648549,1351
3.015763095457,1360
3.018034928331,1364
3.019675341783,1358
3.019951891647,1356
3.021443185693,1361
3.023258355843,1365
3.023958290847,1350
3.025547770083,1366
3.027362506377,1367
3.027594938346,1368
3.030379007295,1369
3.036118004032,1371
3.03615688937,1370
3.040648026646,1372
3.041147055156,1373
3.042924051834,1374
3.043952985948,1375
3.045498867417,1376
3.046273318531,1377
3.049414707652,1378
3.050438282439,1379
3.050726775822,1380
3.055439778537,1381
3.057751902976,1382
3.060521624238,1383
3.064184261369,1386
3.064710843835,1387
3.066172871817,1388
3.066198358651,1385
3.068700235161,1384
3.069097395352,1389
3.069205268043,1390
3.070440200659,1391
3.070985994073,1392
3.074606078852,1395
3.079064990526,1396
3.079172790422,1397
3.079970903626,1393
3.080122533814,1394
3.083932042799,1398
3.084151395934,1400
3.084158767362,1399
3.084175837882,1401
3.085393659306,1402
3.086162065255,1403
3.09108466373,1404
3.094445121813,1406
3.094792974241,1407
3.098025380923,1408
3.098187817923,1409
3.099959126035,1405
3.100170810557,1410
3.101690275905,1411
3.105172726572,1412
3.108352479653,1413
3.110055386935,1414
3.110282219279,1415
3.117235099293,1416
3.117825758948,1417
3.123160091389,1418
3.127910981443,1419
3.130378262612,1420
3.132675650357,1421
3.134274888475,1422
3.138553875981,1424
3.142774883357,1423
3.144030870842,1425
3.149932475087,1426
3.151450508694,1427
3.153803675168,1429
3.154155382054,1430
3.154845609329,1431
3.155511769153,1428
3.157057536433,1432
3.161442392442,1433
3.162076827285,1434
3.169244084159,1435
3.169995384211,1438
3.170231965346,1436
3.173751252699,1439
3.17579192228,1440
3.175865373831,1441
3.17846534575,1443
3.17945624478,1437
3.180968396456,1444
3.185519680762,1442
3.186495019308,1448
3.18687781142,1446
3.189873846512,1450
3.191415395614,1445
3.194412411098,1451
3.196275765616,1453
3.201690094228,1454
3.203014092215,1452
3.204076133404,1455
3.204720203482,1456
3.207022372744,1449
3.21678443177,1460
3.217273759649,1457
3.22015516242,1461
3.222868338042,1462
3.223150939658,1463
3.229155111788,1459
3.231741763082,1466
3.233398015578,1447
3.23411651433,1465
3.23462915644,1458
3.23518590792,1464
3.238434646194,1469
3.239032108912,1468
3.243675235576,1470
3.24429744077,1467
3.253421679623,1477
3.253445743623,1474
3.254524844209,1478
3.257160329001,1475
3.257604248135,1479
3.258039795171,1481
3.266074798563,1476
3.266669849041,1473
3.268776705483,1482
3.269389754191,1471
3.274521166913,1483
3.275312045229,1472
3.276828219929,1484
3.278173118423,1485
3.288377567111,1488
3.289025499049,1489
3.293690411461,1491
3.298345554901,1493
3.300406432303,1487
3.301182712623,1486
3.301856428071,1494
3.302275153287,1490
3.304609161289,1480
3.305228955743,1492
3.3121429603,1495
3.314881775507,1496
3.318892904497,1500
3.318973400497,1499
3.320564728047,1498
3.321616283491,1497
3.325185433139,1501
3.326063417726,1502
3.329755899333,1503
3.333899508434,1505
3.340214428848,1504
3.340768232498,1507
3.34141849052,1506
3.342447394663,1508
3.344010209627,1509
3.345277992148,1512
3.345656032896,1511
3.348039424066,1510
3.351806610399,1513
3.354872359876,1514
3.355849557004,1515
3.356868113246,1516
3.357888690474,1517
3.358402098912,1518
3.363672244235,1519
3.364777962843,1520
3.372376484945,1524
3.372548308945,1525
3.372629276099,1521
3.373071364728,1526
3.373523589729,1527
3.375609375712,1528
3.381614665478,1522
3.38211733217,1529
3.383358998436,1530
3.38399085827,1523
3.385600752488,1533
3.38594495367,1534
3.386720154572,1531
3.387199528914,1532
3.394697777256,1535
3.39745739533,1537
3.398337939454,1536
3.398471364832,1538
3.404934860672,1539
3.407280270064,1540
3.409548778558,1543
3.410141933314,1542
3.412972086238,1545
3.413902011312,1544
3.414675833756,1541
3.420226472673,1546
3.425720157032,1547
3.427818891441,1548
3.436778935681,1549
3.439553868613,1550
3.442262429838,1551
3.442865685332,1552
3.443913531293,1553
3.448551680911,1554
3.457358943989,1556
3.460436452329,1555
3.465670235843,1558
3.468143696349,1560
3.469563596889,1557
3.470937636169,1561
3.471860873857,1559
3.476664067795,1563
3.479486499093,1564
3.482098112751,1565
3.483748791987,1562
3.495381642109,1567
3.497931313821,1568
3.498329081449,1569
3.501819853485,1570
3.503906977071,1571
3.506672295039,1573
3.509764382787,1575
3.509835278787,1576
3.510315266619,1574
3.510537217409,1577
3.514014332923,1572
3.514580263215,1580
3.514856468367,1566
3.515345273906,1581
3.516292462025,1579
3.516381019437,1578
3.516773659145,1582
3.51966996326,1583
3.522864952435,1584
3.523909792402,1585
3.525123791772,1586
3.526016780697,1587
3.528081062432,1588
3.528865262945,1589
3.53346266098,1591
3.533860011834,1592
3.535189324426,1590
3.53671356015,1593
3.537486484563,1594
3.539594125562,1596
3.540972442919,1597
3.541574803762,1595
3.54351531481,1599
3.544822998166,1598
3.548171304308,1602
3.550983248018,1600
3.551226046586,1604
3.551523261334,1605
3.552278859906,1601
3.558145166792,1607
3.559705450104,1608
3.561173304458,1606
3.562153337576,1609
3.562375338954,1603
3.565371865428,1611
3.56655560284,1612
3.5699239492,1613
3.570603447114,1610
3.574147890032,1614
3.57990107423,1617
3.57994673823,1616
3.580151670213,1618
3.580354153424,1619
3.58086047677,1620
3.58156280565,1621
3.583429484347,1615
3.584465662056,1622
3.584720109671,1623
3.588145904663,1625
3.588947487816,1626
3.592111767434,1624
3.592132167434,1627
3.594712037485,1628
3.595133034435,1630
3.596953356753,1629
3.600687556673,1631
3.607253374705,1632
3.608950558697,1633
3.609649337722,1634
3.616279095331,1635
3.618888312636,1636
3.623128996171,1637
3.62503298169,1638
3.625505785765,1639
3.626790060983,1640
3.627896232835,1641
3.630623934169,1642
3.631908138109,1643
3.633748862731,1644
3.634404881748,1645
3.63520019758,1646
3.635258865328,1647
3.638125269456,1648
3.641022772922,1649
3.641671168215,1650
3.644106190206,1651
3.644457213692,1652
3.646764447533,1653
3.652280779259,1654
3.65606609204,1655
3.660933018605,1656
3.664594697789,1657
3.675403116634,1659
3.675852156328,1658
3.678231856011,1660
3.678246256011,1661
3.679432705025,1662
3.680114894624,1663
3.682338511399,1664
3.687211585158,1665
3.688072117526,1666
3.693248361769,1667
3.694570619945,1668
3.695228617994,1669
3.700861028675,1670
3.701367914059,1672
3.702130642935,1671
3.706358113941,1674
3.710651644961,1676
3.713526685421,1677
3.714975466741,1678
3.717837748005,1679
3.721438809499,1675
3.724380011527,1680
3.726357722131,1681
3.727298380235,1673
3.729283299299,1682
3.731978857811,1683
3.734966408824,1684
3.738746080977,1687
3.742133426725,1685
3.742941428141,1686
3.744548284287,1690
3.744638347465,1691
3.744834854161,1688
3.745672966715,1689
3.749753553408,1692
3.750734830759,1693
3.752096231552,1694
3.753226672904,1695
3.754209067822,1696
3.755039411367,1697
3.755959402598,1698
3.756162015268,1699
3.761884899003,1700
3.762594357537,1702
3.764416203351,1701
3.767618394834,1704
3.7691111501,1703
3.772199262606,1705
3.774699958723,1706
3.776221934128,1707
3.776544555251,1708
3.777389835805,1709
3.783963438868,1713
3.784981895386,1715
3.786070194004,1714
3.786537175134,1716
3.787828880408,1717
3.78938153321,1718
3.790151058642,1719
3.79075007108,1720
3.791190023768,1721
3.791409580682,1722
3.79485967042,1724
3.797757502128,1726
3.797949727242,1727
3.798717163874,1725
3.802855786648,1729
3.810206282572,1731
3.810748920498,1733
3.811071237046,1732
3.811215561532,1712
3.814006463254,1728
3.814030722014,1730
3.819391904048,1723
3.820192469824,1735
3.820806624344,1736
3.821000289638,1737
3.821908724522,1739
3.82340791589,1740
3.823763831137,1741
3.82392863862,1742
3.827984216066,1744
3.83141222075,1746
3.832165587562,1747
3.835213347858,1749
3.835261801378,1748
3.836209480114,1745
3.836955381306,1750
3.840345297324,1752
3.842025104852,1754
3.8430285727,1734
3.844331425426,1753
3.844938926014,1757
3.846606527688,1755
3.848898060174,1756
3.852370665052,1759
3.853402836476,1711
3.853680663968,1758
3.855652252878,1760
3.857988974806,1761
3.861741886532,1710
3.862000308408,1763
3.862044802038,1762
3.862628194598,1751
3.862935406462,1743
3.873813925222,1766
3.875406326628,1764
3.876240799898,1767
3.880553568326,1770
3.880894855942,1771
3.881451602806,1772
3.882744283644,1773
3.882814798876,1774
3.8831436169,1769
3.883365485666,1738
3.883877478806,1775
3.883949055086,1768
3.888430598336,1765
3.893661952487,1776
3.895767240207,1777
3.896945481226,1778
3.89700380796,1779
3.898769606177,1780
3.899239635429,1781
3.900028469558,1782
3.904214400795,1784
3.905089857393,1785
3.905219617393,1786
3.905711310424,1787
3.907135060785,1789
3.907692213773,1790
3.910992340247,1793
3.912484305739,1791
3.913591584961,1794
3.914187251629,1792
3.919884371861,1783
3.923191915793,1797
3.923572810049,1798
3.925879850597,1799
3.931200981529,1800
3.932659472477,1796
3.932671472477,1801
3.934781540305,1795
3.938283305249,1788
3.943286675645,1802
3.944453474965,1803
3.945448717743,1804
3.947803243823,1807
3.949538714003,1808
3.961619353771,1806
3.961713652985,1809
3.962984723643,1810
3.963696789751,1805
3.968534670295,1811
3.978305214492,1814
3.983195684072,1816
3.984274054354,1815
3.985489587274,1817
3.986277860902,1818
3.991997090056,1813
3.993830382292,1820
3.993860699832,1821
3.994544764864,1822
3.996058537364,1819
3.996905136088,1823
3.997983996636,1824
4.004559736332,1825
4.012827296746,1812
4.013171189553,1827
4.019501771519,1830
4.019895732961,1829
4.020905449059,1828
4.023662627919,1833
4.024384235201,1835
4.025974355085,1832
4.028790305624,1831
4.028815505624,1836
4.029176737492,1834
4.029177937492,1837
4.032437663444,1838
4.034603324846,1826
4.037487170767,1839
4.038555745126,1840
4.0413767771,1841
4.04342019606,1842
4.044403640224,1844
4.044927155464,1843
4.052574901026,1845
4.059256415879,1846
4.059948609277,1847
4.061207621321,1848
4.061635539343,1849
4.06185651363,1850
4.06345656621,1851
4.067751010213,1854
4.068873052639,1856
4.068959580639,1853
4.070950262033,1857
4.072722617469,1852
4.073269514587,1858
4.074521387659,1855
4.074953205854,1859
4.076829255123,1860
4.078675886452,1861
4.079043559101,1862
4.084934788785,1864
4.08602462201,1863
4.087618684677,1866
4.088545516241,1867
4.089628551707,1868
4.090005869915,1869
4.091471240668,1865
4.095117936514,1871
4.099713972416,1872
4.10011181608,1873
4.102153811947,1870
4.102622284672,1874
4.1071216885,1875
4.111499414349,1876
4.112940366886,1877
4.115805750008,1878
4.121282850814,1879
4.122314036548,1880
4.125496266096,1882
4.129063072246,1884
4.130718478501,1885
4.131718396046,1883
4.134844711156,1886
4.13926344429,1887
4.14213849922,1888
4.14244649896,1889
4.142889877368,1881
4.144708721937,1891
4.144945087159,1890
4.148992875101,1892
4.149352116528,1893
4.150944819324,1894
4.15718195941,1895
4.158534811795,1896
4.162520383003,1897
4.166896053994,1898
4.168060592078,1899
4.172347118729,1900
4.178440694275,1902
4.179235639949,1903
4.17924069547,1904
4.181610257551,1905
4.182809326697,1906
4.182828647063,1901
4.187177668933,1907
4.189181437475,1908
4.19911590454,1909
4.19961847757,1910
4.199827601064,1911
4.20244191296,1912
4.205160580306,1913
4.219504452386,1914
4.225022864082,1916
4.226232818146,1917
4.227568791142,1918
4.228144947928,1919
4.228935755404,1915
4.231149313689,1921
4.237283910691,1928
4.237416198691,1927
4.239462308509,1924
4.240425374467,1930
4.241452662577,1922
4.245701564639,1929
4.248691407945,1931
4.249148545451,1932
4.256092794217,1933
4.259780853155,1934
4.260716369007,1926
4.266396617265,1923
4.271854444007,1937
4.272009468007,1938
4.273753537033,1940
4.276519723031,1941
4.280843157447,1939
4.281096637811,1943
4.281629195221,1944
4.282158014239,1945
4.285342494145,1935
4.290984751559,1947
4.291202858439,1948
4.294894440909,1949
4.295401165045,1950
4.296024793203,1951
4.296140153203,1952
4.299013323309,1955
4.299241468033,1954
4.299919485239,1942
4.300272457011,1956
4.302262289879,1957
4.303460533393,1946
4.304433292789,1953
4.304483788789,1960
4.304666312163,1936
4.305731432123,1958
4.305881508127,1962
4.306041615943,1963
4.308172375739,1965
4.309122969661,1966
4.310654476815,1967
4.312583255373,1968
4.312700641597,1969
4.313943766247,1971
4.314165928577,1970
4.317586573651,1972
4.319951806329,1959
4.321891251451,1920
4.324626396839,1974
4.324928431339,1964
4.325108018705,1973
4.325942374277,1975
4.331282894313,1977
4.335694066003,1925
4.339635721057,1981
4.340404177333,1979
4.340684284457,1982
4.342604463729,1976
4.345064205773,1980
4.346880611851,1983
4.354320270685,1978
4.356155278157,1984
4.357338176785,1986
4.358515027593,1985
4.361125976397,1961
4.367781217557,1987
4.377111101883,1988
4.378031801332,1989
4.384702801882,1992
4.385718439438,1993
4.386738844434,1991
4.39150617703,1994
4.393243653978,1996
4.39714575013,1990
4.401999175594,1999
4.402679160348,1998
4.405527108404,2000
4.40757326792,1995
4.407794011896,2001
4.410051500195,2003
4.412649826093,2005
4.416202905061,2004
4.417808234779,1997
4.418214289929,2002
4.418853491391,2006
4.418854691391,2007
4.422038725162,2008
4.431399589114,2009
4.433076443845,2010
4.435828241949,2012
4.435834241949,2011
4.438182903102,2014
4.438549202832,2015
4.439698794815,2016
4.440508350996,2017
4.44311643345,2018
4.44567253694,2021
4.447029168174,2020
4.449781118998,2022
4.450708562144,2019
4.451128710102,2013
4.460975273045,2023
4.462222143375,2024
4.466349306728,2025
4.467743187865,2026
4.468802609033,2027
4.471191489187,2028
4.473035832265,2029
4.477715940034,2030
4.478824702599,2031
4.479633376723,2032
4.480311795553,2033
4.488767692872,2034
4.491742409938,2035
4.493184907021,2036
4.495553266013,2037
4.499187311303,2039
4.499224700621,2038
4.502945860965,2040
4.505904605205,2041
4.506568906992,2042
4.507495871326,2043
4.509413441841,2044
4.51219415129,2045
4.51626920675,2046
4.516906797722,2048
4.519023368406,2047
4.521762173868,2050
4.52275429535,2051
4.523368025114,2049
4.52566582768,2053
4.52737030554,2052
4.533026323457,2054
4.5372043122,2057
4.538834570176,2055
4.539116280578,2059
4.539686677972,2056
4.540077222098,2060
4.546671995312,2058
4.547755648036,2061
4.549121963209,2062
4.549738687909,2063
4.550744759253,2064
4.550926803147,2065
4.559841956628,2066
4.560639408238,2067
4.565292295404,2069
4.565889045091,2068
4.575400908922,2070
4.581586985379,2071
4.582946799196,2072
4.587187352915,2073
4.588359494601,2074
4.592125565981,2076
4.593560761045,2077
4.594810721967,2079
4.597079420479,2080
4.597356587441,2081
4.600191336994,2078
4.6020555907,2075
4.603492641938,2082
4.603961439178,2083
4.604232631467,2084
4.607773339361,2085
4.618302892523,2090
4.626561725301,2094
4.626857756485,2095
4.630013733483,2093
4.630245404641,2086
4.630422467713,2097
4.634909942929,2098
4.637984196455,2100
4.646002232905,2105
4.647161285923,2103
4.647785478609,2106
4.651676529697,2104
4.653176015989,2107
4.657942871945,2088
4.659303053589,2087
4.660574875901,2101
4.662361267695,2096
4.663644095469,2109
4.664747371881,2111
4.665967611657,2110
4.667390082853,2112
4.667822105021,2113
4.670506395851,2115
4.670755114947,2116
4.672166927827,2091
4.674908112029,2114
4.678900441111,2117
4.679507448631,2108
4.680024115411,2119
4.680879328645,2118
4.681923030077,2122
4.682128662289,2099
4.683605055899,2123
4.684060754353,2124
4.685664352361,2121
4.687597296957,2102
4.689815065011,2120
4.690586469901,2092
4.690915201975,2089
4.691924342713,2125
4.694058676969,2127
4.694816082463,2128
4.696517459059,2130
4.697931876953,2132
4.698647738939,2129
4.698788413871,2126
4.699413076941,2133
4.700977766961,2134
4.701654569501,2131
4.706638906172,2137
4.708031208172,2138
4.711071604762,2140
4.711773544242,2141
4.71243934046,2139
4.71305788536,2136
4.716900388624,2143
4.719585121076,2135
4.719623434434,2144
4.720604200052,2142
4.721241598176,2145
4.72397462251,2146
4.730919899712,2147
4.734978605663,2150
4.735445791815,2151
4.735606717335,2149
4.736475620516,2148
4.737742820275,2152
4.73812367554,2153
4.738408842093,2154
4.739265406634,2155
4.740162282719,2156
4.74325001034,2157
4.749407574135,2159
4.751082624649,2158
4.752253491544,2160
4.755218921742,2161
4.758309712525,2163
4.759987458413,2162
4.765737457156,2164
4.766171199164,2165
4.766319451683,2166
4.767443519461,2168
4.767836528235,2167
4.768607825893,2169
4.768876276219,2170
4.775857291288,2171
4.779678508136,2172
4.783756388828,2173
4.785112713583,2174
4.792265068733,2175
4.795196483217,2176
4.795554415692,2177
4.797937146567,2180
4.800221916325,2183
4.801244795325,2178
4.801254395325,2184
4.805671720937,2185
4.806776703355,2179
4.807088990747,2186
4.808647584077,2181
4.809293836409,2187
4.813958972129,2188
4.814367782821,2182
4.81705557292,2189
4.818719324062,2190
4.81911374297,2191
4.820417688451,2192
4.820968715538,2193
4.825062896631,2194
4.828641944573,2195
4.829550310764,2197
4.832669547408,2198
4.836531103142,2196
4.83801376108,2199
4.839062166041,2200
4.845276785364,2201
4.849821154198,2202
4.850745824782,2203
4.851216575855,2204
4.85410572401,2205
4.855378515876,2206
4.856309529341,2207
4.859476004355,2209
4.859928094649,2210
4.860866142113,2211
4.865663161319,2208
4.868923920533,2212
4.871327946785,2213
4.871884187208,2214
4.873152044373,2215
4.87695195294,2216
4.878050876966,2217
4.88138278785,2218
4.886788688356,2219
4.893389917606,2220
4.911771680518,2222
4.912060359762,2223
4.91308467002,2225
4.914379419628,2224
4.91489250534,2221
4.917922446657,2226
4.918119853621,2227
4.918370631815,2228
4.919845016788,2230
4.92579405857,2229
4.932527000107,2232
4.934520430911,2233
4.934528862911,2234
4.934957112957,2231
4.937888756499,2235
4.940168907847,2236
4.941032701165,2237
4.941966954556,2238
4.948592578371,2239
4.952574722232,2240
4.963643841478,2241
4.973000945731,2242
4.984379308312,2243
4.987932667296,2245
4.988281199132,2246
4.988613464309,2247
4.990614749367,2248
4.99596301968,2249
4.99857912089,2251
5.00214783548,2252
5.010761567016,2250
5.011585990474,2254
5.012745370482,2256
5.015585421442,2255
5.01664058232,2253
5.019959247578,2258
5.023725813766,2259
5.024957444984,2260
5.025214559764,2244
5.026781582328,2257
5.02724138136,2262
5.030042156086,2264
5.030968094362,2265
5.03268126731,2266
5.035500061937,2269
5.0375635763,2268
5.037871688428,2261
5.038953373349,2263
5.040215073652,2270
5.041760069141,2271
5.048485849466,2275
5.051272275364,2274
5.053394616224,2267
5.055932238248,2277
5.057030096188,2276
5.057668709664,2273
5.059511390016,2278
5.060427702615,2279
5.062771750496,2272
5.070579495235,2280
5.070967280726,2281
5.074577248636,2282
5.076477794684,2283
5.079983915883,2284
5.082019052024,2285
5.083591704522,2286
5.083750585407,2287
5.083933619682,2288
5.085838139036,2289
5.089645721829,2290
5.097249499118,2291
5.105509225354,2293
5.105576012372,2292
5.106638525908,2294
5.109562508414,2295
5.112591683491,2296
5.124487448364,2297
5.133874103932,2298
5.140760623239,2300
5.142685328387,2301
5.149297869275,2303
5.150213011517,2302
5.154818254489,2306
5.155446816939,2305
5.157021307625,2308
5.158657404743,2309
5.160373737367,2304
5.160905053075,2307
5.163189841289,2310
5.166737963449,2299
5.169423836954,2311
5.169596842778,2312
5.170385201598,2313
5.177348723604,2315
5.178487587336,2314
5.179024895371,2316
5.179735690761,2317
5.183481003934,2318
5.184859085477,2319
5.185105725066,2321
5.185112700035,2320
5.185425077123,2322
5.185827000664,2323
5.191826060997,2324
5.19516480759,2326
5.19785114936,2328
5.204764161072,2327
5.205670971036,2325
5.207679544046,2331
5.208182817096,2330
5.210970161558,2329
5.211354481737,2332
5.213299175871,2333
5.216309642847,2334
5.217972078387,2335
5.221831845854,2336
5.222336841936,2337
5.223305896995,2338
5.226038314886,2339
5.226318206817,2340
5.226375085739,2341
5.232286156101,2342
5.232486377408,2343
5.237193254693,2344
5.242758901448,2345
5.243995240314,2346
5.244605157821,2347
5.248821759692,2348
5.252490447234,2350
5.255064543256,2349
5.255530140274,2351
5.256334936227,2352
5.256805879405,2353
5.260752406462,2355
5.261525031104,2354
5.263508068465,2356
5.264897291275,2357
5.273491773787,2358
5.274485420179,2359
5.277188816493,2360
5.277454279488,2361
5.282624340458,2362
5.286021393367,2363
5.287235691738,2364
5.288825627228,2365
5.288927667893,2366
5.293461353469,2369
5.294037707751,2370
5.294337371793,2371
5.300375368594,2367
5.300759606336,2376
5.31117388829,2368
5.311184821384,2372
5.31298601745,2375
5.31327715457,2373
5.315299289636,2377
5.31561695152,2379
5.316391891676,2378
5.31646104208,2374
5.321060615813,2382
5.322939437713,2381
5.324593898083,2380
5.328882221783,2383
5.339180019715,2384
5.339352246171,2386
5.340578539427,2385
5.348465356589,2387
5.348577162905,2389
5.349706822107,2391
5.350742147039,2390
5.352198898515,2388
5.353611480685,2392
5.354994185393,2393
5.356947607553,2394
5.365739188495,2395
5.3697269578,2396
5.37350205173,2397
5.38329446778,2399
5.385035806296,2398
5.3871269293,2400
5.391313245538,2401
5.393597405898,2402
5.393910697828,2403
5.399896114933,2406
5.400637370775,2408
5.403643579965,2410
5.403946546091,2411
5.406782130209,2412
5.407016482985,2407
5.411785808681,2404
5.413297019233,2409
5.414534228931,2405
5.418026163913,2413
5.422166664492,2416
5.423505001908,2417
5.424901050544,2415
5.432523812244,2420
5.435186270468,2422
5.436176174344,2423
5.436578891246,2424
5.439522539162,2425
5.440596244816,2426
5.44184369447,2419
5.442003802286,2421
5.44590578329,2428
5.45429436633,2427
5.458923002615,2431
5.459180166022,2432
5.460303830379,2430
5.463825727104,2433
5.477753648223,2414
5.480608618819,2438
5.481812974997,2439
5.482916631315,2435
5.483383599507,2429
5.48585194143,2440
5.48587960543,2441
5.488766087358,2442
5.493259231545,2443
5.493776918013,2445
5.493866995273,2444
5.496262219511,2447
5.497273164497,2448
5.499018155411,2418
5.500356187103,2449
5.502601062907,2446
5.503709096109,2450
5.504399824085,2436
5.506716482144,2437
5.506903235945,2451
5.510213268278,2452
5.510750971778,2453
5.512859787008,2455
5.514946031306,2456
5.51687554854,2459
5.517723618784,2457
5.5230823843,2458
5.524460201474,2454
5.52483778304,2460
5.526367314456,2434
5.529726857171,2461
5.535009918488,2462
5.536595520936,2464
5.53776723487,2465
5.543665138972,2467
5.54683632274,2463
5.54877229112,2468
5.554429297756,2466
5.558086703865,2469
5.563222781745,2470
5.57011577614,2471
5.578865097596,2472
5.581034825775,2473
5.58505690713,2474
5.589068565456,2475
5.592415224789,2476
5.593382422653,2477
5.59345475237,2478
5.595857929024,2479
5.601788941177,2480
5.604594841359,2481
5.607716009633,2482
5.60894463448,2483
5.615254417205,2484
5.618104420834,2485
5.622404194161,2486
5.626439314847,2487
5.634278003144,2489
5.635522445532,2488
5.636977708047,2490
5.642058693401,2491
5.643562528118,2492
5.653513460584,2493
5.662081464434,2494
5.665393986206,2496
5.671029162848,2497
5.674160060212,2498
5.676286323662,2495
5.677261458018,2499
5.67928750808,2500
5.682181760422,2501
5.683679683593,2504
5.687320578673,2506
5.687517727735,2507
5.688003247593,2508
5.691111637157,2509
5.691370491789,2505
5.691743573364,2511
5.691769032124,2512
5.696505776252,2513
5.696785743692,2514
5.697260518934,2515
5.698363786172,2502
5.70170768783,2510
5.703503019614,2516
5.70593467338,2517
5.707932688852,2518
5.711282823606,2503
5.713062478004,2519
5.713794708581,2520
5.714050383586,2521
5.720497026367,2523
5.722319522395,2522
5.725929466619,2524
5.733931511353,2525
5.738413299243,2526
5.74784440938,2527
5.748121129169,2528
5.748354587698,2529
5.749267362801,2530
5.753132421135,2531
5.753714119287,2532
5.754909746127,2534
5.755179277095,2535
5.756149902033,2536
5.756645362351,2533
5.760537628136,2537
5.765515239138,2540
5.765533239138,2538
5.765654974208,2541
5.773865214656,2542
5.774383063887,2543
5.776510893724,2544
5.778153645804,2546
5.78440223855,2545
5.785611550674,2539
5.788143570195,2548
5.796790806079,2547
5.800004074459,2549
5.801873816945,2550
5.802440002667,2551
5.80305416702,2552
5.80635728145,2553
5.809977541874,2554
5.812463188698,2555
5.814779381275,2556
5.815989353912,2557
5.816897505342,2558
5.818858445478,2559
5.820203036236,2560
5.820363685329,2561
5.822614133783,2563
5.822806666273,2562
5.823778198716,2564
5.827639976771,2566
5.833334656775,2568
5.839053410255,2570
5.840545547685,2571
5.840695962737,2567
5.842705758263,2572
5.843292614759,2573
5.844078475449,2574
5.850025797299,2575
5.851914587259,2576
5.852605759309,2577
5.853037763921,2569
5.853041939173,2565
5.860733375156,2579
5.862344660366,2578
5.862724991748,2581
5.871378873242,2583
5.876977018588,2584
5.87811710268,2585
5.879750650192,2582
5.88157989986,2587
5.881943562002,2588
5.882509976444,2586
5.882798655688,2589
5.885294869154,2580
5.895123994014,2591
5.896855667102,2590
5.897384592075,2592
5.904742524849,2593
5.905936816986,2594
5.910059639348,2595
5.91104795533,2597
5.912002664716,2596
5.913645820264,2598
5.913673092883,2599
5.914398942099,2600
5.919288315642,2601
5.922881221761,2602
5.927160098023,2603
5.927662936475,2604
5.929622498299,2605
5.938021745322,2607
5.938903508508,2608
5.942584736522,2609
5.945672859806,2606
5.94735319244,2610
5.954557898703,2611
5.956881072861,2612
5.957273517057,2615
5.957543375859,2614
5.96156837419,2616
5.964293819998,2613
5.97516345412,2617
5.977475009221,2618
5.985533881127,2619
5.989221960127,2620
5.993253035055,2621
5.995281458026,2622
5.99666160792,2623
5.996992030233,2624
5.999026251933,2626
5.999083272957,2625
6.000830537386,2627
6.002991914994,2628
6.004866834231,2629
6.005990136852,2631
6.007195469636,2633
6.008188276476,2632
6.008669770122,2634
6.011162193916,2635
6.013589431984,2636
6.014252906872,2630
6.015447517378,2637
6.016165475081,2638
6.02348241153,2639
6.024495390879,2640
6.026883372687,2641
6.030553152849,2643
6.033616703457,2646
6.035807703749,2648
6.036368833709,2650
6.036854405107,2647
6.039062034979,2651
6.041607437677,2653
6.041993580673,2642
6.042253100675,2654
6.043780259655,2644
6.045148379755,2645
6.045665071591,2655
6.049460406263,2657
6.050647820895,2656
6.051461872809,2658
6.054302520693,2660
6.056498986977,2659
6.057138792671,2662
6.057337251149,2649
6.059175969977,2663
6.061903919979,2664
6.070707626603,2666
6.071277350501,2668
6.071569752311,2667
6.071917060132,2669
6.074555992729,2652
6.077747098613,2670
6.080830381005,2661
6.081470825207,2665
6.090640996459,2671
6.090950624653,2672
6.09584529581,2673
6.096839527031,2674
6.104200963399,2675
6.106961732842,2676
6.109199510233,2677
6.113815120718,2678
6.114217085824,2679
6.11844014542,2681
6.118510830012,2680
6.120042274387,2682
6.123138795611,2683
6.124306208722,2684
6.130381682562,2685
6.136376518381,2686
6.138567521092,2687
6.139806596699,2688
6.142766727349,2689
6.153894935694,2692
6.154667180866,2691
6.155613578486,2690
6.15643657057,2693
6.156500249102,2695
6.156607660896,2696
6.159170021336,2697
6.1611605526,2698
6.164502976296,2699
6.165192623047,2700
6.166130826084,2701
6.167485239922,2703
6.169869469862,2704
6.170002477514,2702
6.17001816076,2705
6.170427964005,2706
6.172249992024,2708
6.172404037348,2709
6.173125720106,2710
6.173809787552,2711
6.178858127706,2714
6.179063037166,2712
6.179836910672,2713
6.18006708149,2694
6.180337568862,2715
6.185164480462,2716
6.189396256624,2719
6.191150133824,2707
6.192030533646,2717
6.192447797256,2720
6.19265277084,2718
6.195645178944,2721
6.196621967028,2723
6.198318644458,2724
6.202051402954,2726
6.202460810864,2722
6.203524428582,2727
6.203884772472,2725
6.207400232737,2729
6.210480094142,2728
6.211190123974,2730
6.21377528506,2732
6.217445650108,2731
6.217924094015,2733
6.223212392326,2735
6.224994341634,2737
6.225031457144,2734
6.229526535692,2739
6.230538343368,2742
6.232433525594,2736
6.232457589594,2743
6.23476102899,2744
6.236468864756,2746
6.236742539737,2747
6.238855888058,2741
6.238996620866,2748
6.239723138728,2749
6.24458986152,2751
6.245777145642,2752
6.248545265966,2753
6.249979391116,2755
6.254980529104,2758
6.257155532738,2756
6.260074658112,2759
6.26065029595,2760
6.261472345972,2761
6.26545134727,2762
6.26547301127,2754
6.268238330026,2738
6.268833320256,2763
6.27077456734,2764
6.272739458502,2765
6.274361329422,2767
6.279654427052,2768
6.284734070316,2770
6.284936703974,2771
6.286019803658,2745
6.287156328762,2757
6.288437210484,2772
6.289189144234,2773
6.2896112872,2774
6.290168055792,2769
6.291423519854,2750
6.294144806466,2766
6.29738814403,2776
6.298004739646,2775
6.300185061494,2777
6.307260514912,2778
6.311627479758,2781
6.313265647816,2780
6.313942339742,2782
6.313945939742,2779
6.313971497338,2740
6.314413349727,2783
6.321561798724,2786
6.32219072568,2784
6.323741407296,2785
6.330676151301,2787
6.330845331452,2788
6.332183836601,2789
6.342332264631,2790
6.342777415075,2791
6.344748903302,2793
6.34576522498,2794
6.34740003252,2795
6.348389010542,2797
6.355255834014,2801
6.355283498014,2800
6.355903324556,2802
6.355978212962,2803
6.360751311772,2804
6.362541366576,2805
6.363839332888,2806
6.36530567591,2798
6.366920079524,2799
6.368738149764,2807
6.371950053016,2796
6.373313365526,2792
6.380884582559,2808
6.385197508028,2809
6.391304637463,2811
6.395015050383,2813
6.395313433131,2814
6.395569388925,2812
6.398611298597,2815
6.400848170084,2816
6.402716159001,2818
6.402843833799,2819
6.404494372531,2820
6.407356040181,2822
6.409644630447,2821
6.411773099827,2825
6.416386852217,2824
6.422592224829,2827
6.424483344257,2828
6.425683529435,2829
6.425988461573,2823
6.431667875429,2836
6.438354560367,2837
6.438822610435,2838
6.439081161939,2839
6.444610998033,2840
6.446336755221,2833
6.447416037699,2842
6.448819351551,2843
6.452493699909,2844
6.453305741737,2845
6.453832858217,2810
6.455877352907,2830
6.456036586575,2846
6.456527639783,2826
6.458489290923,2847
6.458817072021,2848
6.466129558948,2851
6.467294736476,2852
6.4694108655,2853
6.471226519094,2831
6.473533086936,2854
6.4747027696,2855
6.477402282388,2856
6.477938965938,2857
6.48034400132,2835
6.481798065016,2841
6.482762761892,2860
6.483810676322,2858
6.48583351927,2861
6.488550729088,2849
6.48856651022,2832
6.489505407296,2834
6.489675146292,2863
6.49440797469,2862
6.49862780898,2867
6.50534137807,2865
6.50660166628,2864
6.508736248568,2850
6.50973378331,2870
6.512204676538,2872
6.512660912574,2866
6.518608506852,2859
6.518894763108,2869
6.52085602356,2868
6.520943428328,2817
6.521533498257,2873
6.52576842246,2874
6.526228145024,2871
6.530158052368,2876
6.530627394682,2877
6.531252147949,2875
6.532021139901,2879
6.533625856875,2880
6.533914617521,2881
6.538050890545,2885
6.538476711715,2883
6.544320201781,2888
6.548234323463,2887
6.550134854737,2891
6.552945655403,2892
6.553843192907,2882
6.554722524093,2889
6.555556635229,2893
6.556284837101,2884
6.558692551721,2878
6.559930855149,2894
6.562049123037,2886
6.562155978713,2890
6.564157146284,2895
6.569221581295,2896
6.576864038425,2898
6.577055682629,2899
6.583956192849,2900
6.584594269739,2897
6.591562647849,2901
6.59240397784,2902
6.594828852564,2904
6.599952272874,2905
6.602991878638,2903
6.60804408456,2906
6.608489708463,2907
6.609564011941,2910
6.610128977733,2911
6.610709336139,2908
6.612255717967,2909
6.614459900695,2914
6.616520462493,2912
6.618407464229,2915
6.618556957791,2913
6.619119763221,2916
6.623508152211,2917
6.6249858444,2918
6.626029202708,2919
6.626546105571,2920
6.630755042393,2921
6.63502412169,2923
6.63902369627,2922
6.64040697997,2926
6.64063816257,2927
6.642200886708,2925
6.645457532946,2928
6.648352844716,2929
6.648943521844,2930
6.64995502339,2931
6.651968488638,2932
6.652281484478,2934
6.657467989596,2936
6.658575374822,2937
6.66234803723,2938
6.662995316968,2933
6.663257311576,2939
6.663981468724,2940
6.665003616552,2924
6.665028880552,2941
6.666000561859,2942
6.669350622345,2943
6.669853406517,2944
6.671039078309,2945
6.671205263753,2935
6.671246168395,2946
6.676099476847,2947
6.676523609497,2948
6.676871174722,2949
6.677152345887,2950
6.678266111893,2951
6.681563298863,2952
6.68549201096,2953
6.688077155001,2954
6.690152509345,2955
6.69357245292,2956
6.696141025229,2957
6.700698988739,2958
6.704887333343,2959
6.704923799878,2960
6.706622810841,2961
6.709012493892,2962
6.709319282169,2963
6.711514244151,2965
6.714930501577,2967
6.716629524487,2966
6.719579402641,2964
6.722348725592,2970
6.72943197459,2969
6.730049140086,2973
6.732203091902,2971
6.73568415444,2975
6.736419247056,2976
6.73787044838,2977
6.738632739008,2968
6.739741488636,2978
6.746478589552,2972
6.747752812454,2980
6.747952248096,2974
6.749522922412,2979
6.752262473642,2982
6.755983569793,2984
6.756930206633,2983
6.760237100509,2985
6.761411967605,2986
6.762022058555,2981
6.764972260515,2987
6.776663472942,2989
6.777875891696,2990
6.778841932704,2991
6.784628794518,2993
6.784888358854,2988
6.786084304982,2994
6.787633100103,2996
6.791395641329,2997
6.791848952499,2999
6.802171137183,2992
6.810739933059,2998
6.813091174661,2995
