time,CharnySim1.flowGenerator3.flowCompletionTime:vector
0.000601455977,0.000601456
0.005175854246,0.00340218
0.008434927518,0.000482985
0.010375484099,0.000603324
0.015625233071,0.0137916
0.017109985503,0.000603841
0.019926488943,0.000603396
0.021170767526,0.000603341
0.022051537507,0.000602357
0.022967264687,0.000603187
0.023349193557,0.000602389
0.023871166781,0.000601926
0.026610739849,0.000603068
0.02914254565,0.000639997
0.031067478256,0.00285647
0.031876629712,0.00104653
0.034526218206,0.000702447
0.036652500718,0.000614207
0.042509801998,0.000862729
0.04415447731,0.00422595
0.04437280615,0.0128345
0.044872383463,0.000603823
0.045305216061,0.000706863
0.048422833554,0.000605157
0.050440003514,0.000605753
0.05137767944,0.00107824
0.056639344203,0.0273241
0.056772735383,0.00357082
0.05809131322,0.000696251
0.062033273365,0.0158599
0.062524575734,0.000739633
0.064490604199,0.000902883
0.065811502693,0.0006684
0.066940783897,0.000604186
0.069895641442,0.0685889
0.071661742463,0.000603839
0.074630820299,0.0179182
0.077109044823,0.00586177
0.083221772473,0.00066312
0.084437060569,0.000603344
0.085359875803,0.00101272
0.087998242961,0.00717236
0.089655073529,0.0104348
0.091250166355,0.000603985
0.091568111236,0.00745257
0.092407936448,0.000604914
0.092768048205,0.000706951
0.095992538998,0.000602885
0.096561801883,0.000604346
0.09709857886,0.0153145
0.099929194024,0.000605509
0.102831551726,0.00102372
0.103024402054,0.00226164
0.106473521992,0.007569
0.10712112807,0.00102266
0.108176129231,0.0375626
0.10975200353,0.0012302
0.110098957748,0.00777701
0.110910551957,0.000883201
0.112899322737,0.0241564
0.11526598433,0.0240352
0.115955222064,0.000727619
0.117287669876,0.0321726
0.118406413842,0.000696687
0.119012607885,0.0342078
0.119428877376,0.000602925
0.120151337702,0.00652929
0.122788219976,0.0361175
0.125488177224,0.00449599
0.126435458124,0.108625
0.127073470326,0.0291512
0.130537695994,0.00594477
0.133686382896,0.0520564
0.135834496094,0.0320697
0.137886729784,0.000603786
0.138055960048,0.000482679
0.138578805899,0.000601456
0.139700053032,0.00439648
0.140820777942,0.00247646
0.141895141206,0.000798033
0.1546704123,0.00158975
0.156891187179,0.000603534
0.157451358282,0.000604771
0.157890749579,0.00318467
0.162476071042,0.000603152
0.167204248941,0.0217436
0.174839892781,0.000603551
0.175702478071,0.000601908
0.175725504831,0.00244282
0.177612580784,0.000601456
0.178295699484,0.000601456
0.179568465261,0.000601456
0.184658957253,0.000602857
0.1856547893,0.000602848
0.188330715719,0.00558435
0.190513792825,0.000603215
0.192264120013,0.000603463
0.192994317153,0.000602514
0.194009539893,0.00553827
0.2000060206,0.000601456
0.203537814707,0.000481488
0.205450531681,0.000601456
0.210512692874,0.00182414
0.215223727202,0.00633972
0.216235208703,0.000601456
0.221228063131,0.000603848
0.222103835549,0.00542908
0.225567240519,0.000601456
0.227218923668,0.000601456
0.228427933633,0.000620944
0.228978602171,0.000601785
0.229041199921,0.000601456
0.232178655553,0.000606389
0.232952624348,0.000732534
0.234110278069,0.000601456
0.239445677861,0.000776919
0.241966192827,0.00829878
0.25088761742,0.000601456
0.258039322635,0.00128806
0.265398083747,0.000601456
0.266993402049,0.000601456
0.270668552136,0.000601456
0.273431200669,0.000601456
0.279754564567,0.00202639
0.281635863405,0.000603838
0.283131635397,0.00060308
0.283832681561,0.000881113
0.284632020641,0.00970122
0.290915392719,0.000601456
0.293000833597,0.00062901
0.293182804099,0.00207768
0.294667366614,0.000601456
0.296010704082,0.00105518
0.296563259643,0.000601456
0.299842746832,0.000606317
0.301679147902,0.00233604
0.31259722907,0.00709925
0.315416873671,0.000601456
0.318272801259,0.00062337
0.322959893349,0.00071963
0.325605324065,0.00662741
0.327767964915,0.00060332
0.328306201177,0.0076658
0.328658500331,0.000601988
0.330498396193,0.000601456
0.334247399146,0.00060294
0.335391805448,0.000604767
0.337154660788,0.00462642
0.337519768064,0.00693659
0.339458741047,0.000601456
0.345416414865,0.000601456
0.349361699248,0.00150154
0.349564136284,0.000603473
0.352538908358,0.000603436
0.353018196274,0.00105283
0.35588849144,0.00291993
0.357291801102,0.00941895
0.358009699844,0.00139836
0.358476712974,0.000602886
0.359514938796,0.00235727
0.36286627575,0.00197295
0.364400665998,0.00550132
0.366808725157,0.00110976
0.367178293754,0.00142027
0.368671373766,0.00188318
0.369865955601,0.000601456
0.371462167778,0.000601456
0.373780419068,0.00180113
0.375909271058,0.000601456
0.377477487546,0.000601456
0.386662578534,0.0029531
0.388307371326,0.000603114
0.388845080663,0.00635854
0.392211210939,0.000483449
0.396198155187,0.00219664
0.396707656657,0.00801743
0.402016508577,0.0121156
0.402836631171,0.000601456
0.404065541013,0.00060266
0.404156492301,0.000966631
0.405161293915,0.000601456
0.407410058989,0.00199278
0.413605355895,0.000601456
0.415983501751,0.00060364
0.419042597594,0.000603162
0.421204125038,0.00829764
0.426276598608,0.000612453
0.432424568346,0.000603644
0.432974769382,0.000602577
0.433570207332,0.000603487
0.4373145414,0.00311767
0.437331552334,0.00922256
0.44428111445,0.000857819
0.444993032588,0.003618
0.445842102126,0.00682262
0.446496198328,0.000601456
0.449895893926,0.000481488
0.452034950652,0.00219409
0.452578100002,0.0010041
0.457044828237,0.000601456
0.464919182163,0.000601456
0.468364349389,0.000612453
0.470305447484,0.000601456
0.470514499792,0.000482365
0.475693711395,0.00418334
0.477508585725,0.00136205
0.477995361197,0.000601456
0.481147296088,0.000601456
0.487961404795,0.00141746
0.488971815877,0.00063944
0.489506721535,0.00687602
0.489863728285,0.000482179
0.49020848124,0.00392166
0.490553880028,0.000602972
0.496952221913,0.00644664
0.499454496143,0.00322959
0.501211947072,0.00123105
0.502628311378,0.000601456
0.507251818582,0.000603237
0.509096704678,0.000603061
0.509794646451,0.000602301
0.514940996915,0.000603074
0.522724386803,0.00279085
0.527818745465,0.000603679
0.537676210357,0.0319974
0.538324538549,0.000665984
0.538730266417,0.00284444
0.539248203881,0.013275
0.54395872797,0.000601456
0.546098068928,0.000601456
0.547622501212,0.00203272
0.550184466593,0.000601456
0.554319167571,0.00172472
0.555425105994,0.000601456
0.561042814519,0.000603035
0.566876985509,0.0022866
0.567300287933,0.000668561
0.567432557779,0.00743645
0.568987440498,0.000601456
0.570520507622,0.000601456
0.571284921512,0.000481488
0.573216234119,0.000601456
0.574371349312,0.000601456
0.577114770905,0.000601456
0.577856207003,0.000601456
0.578499893628,0.000601456
0.584780763905,0.000601456
0.585252077891,0.000601456
0.586941890621,0.000602082
0.589935606796,0.00386318
0.591304946198,0.000601456
0.592035734158,0.000601456
0.592749483147,0.000769358
0.594873297315,0.000604775
0.595095702565,0.000604722
0.595892995504,0.000603883
0.596331081662,0.000602719
0.596803646788,0.00060212
0.598902341715,0.00105045
0.599044192973,0.000963817
0.59935659939,0.00735268
0.604293792563,0.000614395
0.607158765057,0.0151551
0.607881676105,0.000697297
0.608338841309,0.000602355
0.609941179571,0.000482851
0.613013659536,0.000603216
0.613078983145,0.000607532
0.617178487762,0.0069528
0.617343993749,0.00638821
0.618233690949,0.00394286
0.620834170417,0.0179162
0.622173237105,0.00323241
0.623922740557,0.000726469
0.624532852125,0.000601456
0.634723351865,0.000601456
0.637467286132,0.000664087
0.638620977752,0.000886606
0.638789589072,0.00419538
0.64016260116,0.00396203
0.640689934861,0.000603411
0.641092808876,0.000603858
0.641492914954,0.000602161
0.642058307421,0.000602723
0.642505315201,0.00802543
0.646714705817,0.000601456
0.650846918815,0.000601456
0.654314964225,0.00060286
0.657524432549,0.00060269
0.658568637355,0.00776385
0.662167379933,0.00060308
0.662978114045,0.00364125
0.665293595823,0.00849246
0.665972124415,0.000748302
0.666667645181,0.000601898
0.667571267305,0.00157795
0.670490093,0.000601456
0.671478251181,0.000994529
0.672766307263,0.000481488
0.675668808846,0.000601456
0.675710880486,0.000601456
0.6759199626,0.000601456
0.676027904937,0.000601456
0.682380863129,0.000716525
0.683274654031,0.000602229
0.684405166013,0.00060273
0.685162203468,0.00980664
0.686437009045,0.000601456
0.691947817646,0.000601456
0.692070196549,0.000601456
0.696131254406,0.000601714
0.69634835344,0.000602699
0.697751361788,0.000892215
0.698631954776,0.00062564
0.6991474495,0.00377288
0.70117162216,0.000602825
0.703110023588,0.000603167
0.707602770204,0.00516628
0.707878146442,0.000603463
0.708704723418,0.000710868
0.709889812708,0.000603806
0.711224822594,0.00193292
0.713568231748,0.0116353
0.716199827224,0.000603277
0.719953026204,0.0241059
0.725061757959,0.00728582
0.725242498659,0.0124474
0.729271353462,0.000483301
0.730108264094,0.0320582
0.730652798216,0.0170749
0.737262065378,0.00146531
0.737704851748,0.000603317
0.739060745237,0.000603367
0.740086893134,0.000602566
0.744402711402,0.00438905
0.744622266118,0.0331248
0.745408342152,0.000684017
0.747783491949,0.00179507
0.748221315901,0.000718566
0.749445872253,0.000601456
0.752553591319,0.000601456
0.754170150761,0.000601456
0.759075824462,0.000603497
0.760066238524,0.000602643
0.760236203004,0.00087153
0.763100613614,0.000603879
0.763511808886,0.000605223
0.764285660374,0.000910669
0.76534337431,0.000603375
0.768135921861,0.00307268
0.77029596526,0.00240135
0.771960274833,0.000635802
0.772993698009,0.000603974
0.776417742496,0.000603133
0.776443356863,0.000603969
0.781092475033,0.0132207
0.781811680234,0.00437805
0.782342352634,0.000603399
0.787725101748,0.0309549
0.789506446062,0.000601456
0.790375111606,0.000834421
0.791062292768,0.000601456
0.793662296322,0.000601456
0.795160745671,0.000601456
0.798855022159,0.00171623
0.800888520979,0.000601456
0.805839837933,0.000601456
0.810290910289,0.000601456
0.810671315838,0.000601456
0.811892511464,0.000601456
0.820193768953,0.00221353
0.822890366221,0.000601456
0.823683877687,0.000601456
0.828783263505,0.00131526
0.831078142201,0.000740046
0.831940570921,0.0075165
0.832418436963,0.000607789
0.833958444515,0.00165913
0.836911740614,0.000603333
0.838542094129,0.00671209
0.841713939937,0.00947286
0.843346325124,0.000601456
0.845116606568,0.000601456
0.846488055191,0.00172708
0.847693698699,0.00193513
0.848834754987,0.000601456
0.854393635795,0.000605152
0.856857024249,0.00441372
0.857810666087,0.000483189
0.858526080033,0.00532289
0.858909596073,0.00383948
0.863883584439,0.000618386
0.866079028095,0.0128021
0.86616746189,0.000603021
0.868196648043,0.0142481
0.869374364175,0.00188281
0.871592985566,0.000750728
0.87832292234,0.00180962
0.881209674238,0.000603407
0.886192281346,0.00835036
0.8885380905,0.000786702
0.889964550526,0.000603685
0.898043572341,0.000484426
0.89944597475,0.0127914
0.900565226251,0.0154978
0.902862787368,0.00184577
0.90293312876,0.000638937
0.904131496838,0.000602916
0.9051479814,0.000650153
0.906994105036,0.000605498
0.909208338757,0.001052
0.909791774873,0.0127961
0.912370464197,0.0113428
0.913531073497,0.000601456
0.91481850577,0.000601456
0.917401159119,0.000601456
0.928006972355,0.00772506
0.929018575585,0.00452181
0.933557285509,0.000603596
0.934144248045,0.00713629
0.936246751897,0.000601456
0.942809606027,0.000702211
0.947534752997,0.000603289
0.949491077774,0.000603083
0.949811942576,0.000602538
0.951051282089,0.000603286
0.952021645187,0.000602545
0.952184178876,0.000602931
0.952990880848,0.0099221
0.953010258054,0.000661301
0.953921110962,0.00180634
0.957440048309,0.000481488
0.958025446658,0.000481488
0.961731752069,0.000601456
0.969889258858,0.000603371
0.970074804644,0.000483672
0.974072622692,0.000749983
0.974101765204,0.000603066
0.975307053492,0.00794227
0.978187690108,0.000603148
0.979087783307,0.000603586
0.979673192801,0.000663273
0.982716356985,0.0170832
0.982842302097,0.000604479
0.984793769291,0.0181812
0.990715853444,0.00428402
0.990837117442,0.0006938
0.991769909504,0.00653887
0.993967945616,0.000601456
0.994068536855,0.000601456
0.995046826208,0.000602433
0.999788242976,0.000754821
1.003020752548,0.00883505
1.006091835096,0.0057554
1.009836382862,0.000603218
1.013198778521,0.0045351
1.015998222561,0.00354645
1.017902825256,0.000601456
1.028022155864,0.00063628
1.030846986122,0.00682501
1.03085186375,0.000617787
1.037589594342,0.0106657
1.040798511391,0.000601456
1.044150430275,0.000601456
1.045302219092,0.000742803
1.046310219434,0.000603397
1.046901230899,0.000602176
1.046972483738,0.00332937
1.048982904482,0.000601456
1.051802809466,0.000803123
1.052824135262,0.000603179
1.053141925018,0.00048358
1.059026973865,0.00839941
1.060111782822,0.000786147
1.062275683276,0.000603383
1.062305873046,0.000603169
1.06342204477,0.000603086
1.067194677282,0.0043722
1.067928390172,0.000601921
1.069024687272,0.000604581
1.07495355248,0.0159952
1.077767496098,0.00763411
1.077951875612,0.0107216
1.078729177208,0.000985698
1.080379975086,0.0106947
1.081816945772,0.000601456
1.082277500196,0.000601724
1.083735340235,0.000601456
1.087712372419,0.000774847
1.088844043573,0.000959614
1.089171566635,0.00291946
1.091175861924,0.000601456
1.093578337243,0.000601456
1.102440323167,0.000481488
1.104898446476,0.000601456
1.105543472045,0.000601456
1.10667265255,0.00115464
1.109683000312,0.000601456
1.116265288857,0.000739857
1.117389714383,0.000483236
1.120284823425,0.0080379
1.123106152907,0.000629741
1.124492573041,0.000602871
1.127227123091,0.00542241
1.127412742757,0.0102145
1.1277497589,0.000602515
1.129336505676,0.0010578
1.130635564472,0.000603139
1.132553396705,0.000603421
1.136031978554,0.0010546
1.136120493226,0.000702182
1.139156489978,0.00800899
1.14450433362,0.000609396
1.145147380388,0.000619241
1.14555491747,0.00184834
1.14665955505,0.00109732
1.148638189002,0.00360405
1.150639515222,0.00379636
1.151048489228,0.000602454
1.152644897575,0.0350059
1.153035489487,0.00493203
1.154145223685,0.000602848
1.155779047423,0.0289385
1.158130857737,0.00479711
1.159810745337,0.00191419
1.163950390365,0.000482974
1.164390480071,0.00362397
1.165005648712,0.000602944
1.165082032496,0.00333008
1.167857107103,0.000603702
1.170781720381,0.00233916
1.171999523071,0.00897269
1.172776956725,0.0107802
1.17398409116,0.000601456
1.174126016992,0.000601456
1.183441410527,0.000601456
1.183756132721,0.000601456
1.186170506559,0.000601456
1.187838179076,0.000601456
1.189320310395,0.000601456
1.194226008231,0.000601456
1.194435653194,0.000601456
1.194842895366,0.000601793
1.196710327607,0.000601456
1.199928999102,0.000848976
1.200234629676,0.000698605
1.200699072529,0.000602255
1.202346490527,0.000601456
1.208612572792,0.000614695
1.210212471742,0.00197248
1.21396775979,0.000603333
1.214428049134,0.00210152
1.2148592016,0.000602202
1.216889352589,0.000603042
1.21957143092,0.0137157
1.227029368499,0.000481488
1.228600911031,0.000601456
1.240667320483,0.000601456
1.243184121574,0.0020789
1.245698611193,0.000601456
1.258412557249,0.00527256
1.264520840475,0.00274863
1.266215331725,0.00561931
1.267222021871,0.000604205
1.267253552135,0.000731841
1.269716250213,0.0121389
1.27093439661,0.0150914
1.274004542465,0.000481488
1.274873753032,0.000601456
1.27923703238,0.000601456
1.284257340964,0.000736169
1.284277947972,0.00079945
1.286329022204,0.00518755
1.287059181078,0.000603518
1.287638982798,0.00113089
1.288104653261,0.000602348
1.288644288329,0.000605718
1.290060953523,0.00073126
1.290133729803,0.00590619
1.291350319555,0.00372258
1.292311034222,0.00861568
1.295034052648,0.000601456
1.297068866345,0.00186299
1.299662809528,0.000481488
1.300398130319,0.000601456
1.302104579164,0.000601456
1.305067065803,0.000601456
1.307010347719,0.000602971
1.308987603312,0.00310144
1.309053133964,0.000603691
1.30943033862,0.00148974
1.311498298924,0.00235961
1.312418730072,0.000601456
1.314251683187,0.000603736
1.314572597766,0.00157974
1.315558827794,0.000601456
1.315946556134,0.000602482
1.316266810278,0.000601629
1.321365463084,0.000602931
1.329653494591,0.000604937
1.334443325209,0.000603221
1.334721328615,0.00138172
1.335966731789,0.00409253
1.336395482362,0.000606004
1.336821621978,0.00517738
1.337296253785,0.00993003
1.341360792159,0.0139271
1.342338313917,0.0143545
1.342551838939,0.0272424
1.342905889291,0.000603187
1.344132586757,0.000601456
1.345517639781,0.00060163
1.348497894659,0.00060285
1.349413710548,0.000602672
1.350408464701,0.000933839
1.351817924533,0.00722797
1.354873995529,0.000603701
1.356332695835,0.00721396
1.356587936148,0.00645301
1.359733094454,0.000601456
1.365812634713,0.00546542
1.366317185391,0.000639763
1.367150144695,0.000629875
1.37145909146,0.000603679
1.371773522878,0.00602712
1.379248034021,0.000601456
1.37984599863,0.000601456
1.382362493415,0.000601456
1.387755526028,0.000601456
1.389350819169,0.000601456
1.390205372517,0.000601456
1.391288751368,0.000601456
1.393547153961,0.000483727
1.393886362011,0.00176192
1.400992575323,0.000601456
1.407921488609,0.000601456
1.41254034834,0.000601456
1.416028141803,0.00139233
1.417545412649,0.000603531
1.419219399557,0.00402023
1.420327055583,0.000601456
1.420428506981,0.000601456
1.421935271723,0.000750728
1.422651314641,0.000601456
1.422703095602,0.000869596
1.429194458467,0.000601456
1.430833806629,0.000601456
1.433599344975,0.000606886
1.437563196557,0.00356129
1.438665740335,0.00657641
1.43917735233,0.000601456
1.439199017487,0.000601456
1.442321722386,0.000601456
1.44298893723,0.000601456
1.444208088824,0.000783478
1.44549715591,0.00140326
1.447848992094,0.000601456
1.44827650305,0.00060194
1.45028052339,0.000993316
1.450854012607,0.000601456
1.451994601036,0.000601456
1.453326489425,0.000602111
1.455691619895,0.00311547
1.457126619047,0.000603701
1.457361187882,0.000603037
1.460717053653,0.000607237
1.466392286483,0.00048472
1.469776290368,0.00431124
1.471465900064,0.0061656
1.47275407222,0.000604474
1.473350811461,0.0116743
1.474866869364,0.000602858
1.475398180463,0.000607573
1.477761501329,0.000603279
1.483159063909,0.00742464
1.484775929325,0.000602854
1.485838916121,0.000708861
1.486412956359,0.00049715
1.486484988359,0.0345751
1.488168956399,0.00521789
1.490460849071,0.00126582
1.490855080929,0.000601715
1.494993962947,0.00669076
1.497632298909,0.0014554
1.500916954075,0.000606214
1.501501597755,0.00607509
1.504937119749,0.000602674
1.50560805026,0.0158971
1.50665604163,0.00662948
1.507602650814,0.000601456
1.510386032292,0.000973909
1.513250550756,0.00147849
1.516604847916,0.00143604
1.518031186536,0.00201067
1.519648736868,0.000708275
1.524385343401,0.000601456
1.530957722688,0.00274844
1.53143069204,0.0021071
1.538487347124,0.000601456
1.54066286654,0.000622157
1.543451537406,0.00185693
1.545660104698,0.000603711
1.547005736286,0.00284633
1.548064633358,0.000603136
1.554125605047,0.000603384
1.55412992106,0.0108455
1.554365025939,0.000602496
1.558665385405,0.000601456
1.55921429077,0.00114606
1.562988683367,0.000601456
1.563711300669,0.00144566
1.571354378838,0.00192728
1.572462813757,0.000603137
1.574284623645,0.00243062
1.574632609283,0.00060315
1.576316331807,0.000741025
1.579297776456,0.00195881
1.584281672741,0.000601456
1.589917221262,0.000602086
1.590685175653,0.000601847
1.593604724949,0.000603798
1.595210605661,0.000604931
1.599554887309,0.000872183
1.602048211999,0.00080372
1.602825282011,0.000657616
1.607766733876,0.00287063
1.608916999499,0.000609328
1.615922519976,0.0198284
1.616245135608,0.00117608
1.622962361536,0.00437763
1.622978541907,0.000991138
1.625665029655,0.0349405
1.630072846347,0.000604496
1.632574237578,0.000843435
1.633078227829,0.000746102
1.635487867022,0.0122237
1.635965689164,0.000603559
1.636573423116,0.000974775
1.639109620796,0.000604723
1.645238902032,0.00139078
1.651866984116,0.000606255
1.653048438824,0.000713925
1.655463276502,0.000787704
1.656491158478,0.00981058
1.658317793316,0.00113983
1.658942606556,0.0544451
1.664335158982,0.0292137
1.665138227678,0.00880231
1.666490904292,0.0010425
1.66666641288,0.0114965
1.668030102862,0.000603036
1.670078475549,0.00747974
1.67283070458,0.0170094
1.673316982355,0.000908729
1.674623361532,0.00131294
1.678033334608,0.000692555
1.678496496,0.00172347
1.679669387294,0.00122879
1.6806010428,0.000626545
1.681537396253,0.0778745
1.683649259498,0.0279759
1.688219571068,0.000636904
1.690597713967,0.0193429
1.691184421457,0.000635276
1.691389683945,0.00061003
1.691922314805,0.0412996
1.692789685779,0.000605409
1.695630208549,0.00304218
1.697223793843,0.108238
1.701240226248,0.000820171
1.701367220735,0.000603665
1.702179105988,0.000603297
1.703891835491,0.00678535
1.704877401982,0.000848197
1.708534387064,0.000796459
1.711856602296,0.00060361
1.71714978584,0.000679388
1.719372044936,0.00730324
1.720450786875,0.000647809
1.722626331714,0.000882724
1.724126723082,0.0218434
1.725424350458,0.0110277
1.726451061256,0.000605317
1.727153311251,0.000603699
1.730092340598,0.0302822
1.730320797034,0.000604739
1.730361612834,0.0012981
1.731419197036,0.000602715
1.732031459758,0.000665727
1.736909909332,0.000782359
1.73850493574,0.130048
1.741312913086,0.132933
1.74236558588,0.00088943
1.742813189804,0.0010346
1.743335967648,0.000605119
1.743633944008,0.0135979
1.744313729924,0.00707732
1.745559007954,0.0082794
1.749561468828,0.000607713
1.750325231154,0.00065198
1.750730175154,0.00590119
1.752485235312,0.00104288
1.755006935612,0.000605945
1.756069654596,0.00900397
1.75698781886,0.000744905
1.757769076223,0.000709893
1.757813572223,0.00497305
1.761223398336,0.019528
1.762414529328,0.000604202
1.767745010806,0.00060227
1.769920880922,0.0923852
1.771324175918,0.000661171
1.771794759936,0.000601978
1.772520195968,0.028259
1.775946718214,0.000602974
1.776208455753,0.0160325
1.776955876138,0.00194357
1.777681743303,0.000601456
1.778512556766,0.000601456
1.782258201251,0.000601456
1.783770395352,0.000601456
1.785989600873,0.00274108
1.800864036341,0.000602943
1.800881145003,0.00100181
1.805246781148,0.00216987
1.806824928259,0.000601456
1.809250585285,0.00126865
1.809693195227,0.000602552
1.811233866025,0.000603571
1.812728055593,0.00318247
1.813462073319,0.00304358
1.814958933103,0.000603704
1.816146501695,0.000617379
1.819981675579,0.00668944
1.822650122315,0.0100835
1.824435524311,0.00214917
1.826004843419,0.00148688
1.827310683644,0.00629932
1.827653431961,0.00648359
1.82912791978,0.000481488
1.829366687041,0.000601456
1.832295829871,0.000603369
1.832689636986,0.00182365
1.837902962011,0.00066461
1.838234094555,0.000481912
1.840422782012,0.0011607
1.848808206669,0.000601456
1.856088872501,0.000620944
1.856801600274,0.000601456
1.858768074813,0.000606389
1.85971805366,0.0006026
1.85978110737,0.000601456
1.862116283523,0.000601456
1.870076650778,0.00298626
1.876084349556,0.00063898
1.876313954517,0.00063186
1.876582880012,0.0120044
1.879544946206,0.00285698
1.889708170572,0.00547044
1.89627500004,0.0246757
1.902524848889,0.000601456
1.905830127491,0.00060296
1.909071367182,0.000764459
1.911066699056,0.000603624
1.912763805887,0.00172209
1.919858282447,0.000603061
1.921454684097,0.0176403
1.92632135991,0.000601456
1.928416752299,0.00217472
1.929607038143,0.000602854
1.935509266961,0.00471678
1.943181070009,0.0119815
1.949032045194,0.000602962
1.952296305381,0.00200968
1.957198903048,0.000603009
1.959384619796,0.000602873
1.959933799633,0.00506873
1.962717939706,0.00383169
1.966493827948,0.00132774
1.9678304795,0.000482177
1.969772346848,0.00280257
1.971599044414,0.00113858
1.972494192658,0.000951369
1.97322797892,0.00063672
1.974761274916,0.000482195
1.976533297238,0.047939
1.97747560566,0.000601517
1.983800878724,0.00475558
1.987140670699,0.000850064
1.990533894674,0.000604315
1.991474530327,0.000604753
1.991964584853,0.0006078
1.994750305911,0.000617321
1.995447813877,0.010963
1.996637452381,0.00280143
1.996676266397,0.00774507
2.001919741693,0.00281955
2.006664728583,0.00141275
2.006847934663,0.00668347
2.007832870121,0.0692081
2.011167128712,0.0271343
2.013306803096,0.0190298
2.013972572752,0.0304717
2.015150387302,0.0379997
2.020863226864,0.0334065
2.02161552116,0.00571669
2.02164700187,0.000627215
2.025480852028,0.00670379
2.026134158592,0.00750192
2.026267582592,0.000776943
2.028028281619,0.0012346
2.030581365946,0.0266285
2.031466901245,0.0172654
2.03382238122,0.000603251
2.036440381578,0.00216256
2.036593230828,0.000605007
2.042653063538,0.0179378
2.043331670242,0.000909013
2.04513230881,0.000604419
2.054744911882,0.000605922
2.05760873341,0.00927291
2.059842224879,0.000608089
2.063171806107,0.0172681
2.066763259847,0.00146958
2.067383314709,0.00332496
2.069879472497,0.000637403
2.071355662981,0.0186123
2.071783843033,0.0152258
2.074933794155,0.00964774
2.075768139555,0.000622377
2.081570144839,0.0756844
2.090699441143,0.00060536
2.091463011025,0.000898597
2.091551620189,0.000832123
2.093699597462,0.00061081
2.097642894896,0.000602372
2.098017508093,0.0007351
2.099752564072,0.00927438
2.10063817554,0.000829532
2.101714990326,0.000603181
2.102798125644,0.000906836
2.10331490172,0.00935526
2.10806108049,0.000606761
2.11236178625,0.0872597
2.114383661602,0.000602195
2.120664157946,0.000676159
2.12299673,0.000930615
2.123398213168,0.0283674
2.127969492356,0.00786193
2.12798405986,0.0043647
2.130269267742,0.000603477
2.13154766193,0.0184029
2.13195395342,0.0329771
2.139444918036,0.000602798
2.139959888391,0.00106247
2.143095018887,0.0199429
2.144834167398,0.0336149
2.14679551402,0.0646149
2.154342570535,0.000604125
2.154371743935,0.00060351
2.156719369705,0.0676437
2.160389756019,0.000896358
2.162535284281,0.000732497
2.164697935871,0.0092756
2.165750642444,0.000603083
2.166510089693,0.0113924
2.167095938747,0.000631429
2.167577017807,0.0028969
2.169429474597,0.0107277
2.170179070281,0.00141258
2.171848056105,0.000658402
2.171857808473,0.000602163
2.173914673721,0.000603787
2.174302406121,0.00586288
2.175417834591,0.000481488
2.178115082826,0.00074084
2.180021870226,0.000602816
2.181879991786,0.00516453
2.184058553053,0.000601456
2.18775206835,0.000607565
2.189268223986,0.00299463
2.193548292095,0.00304076
2.198905828503,0.00067151
2.198908267317,0.000616092
2.204241415705,0.0062199
2.204480253819,0.000603565
2.205169845643,0.000601456
2.208807926888,0.000603295
2.211529679366,0.000603537
2.216024743126,0.00111332
2.216608164106,0.0106773
2.219662282386,0.000664854
2.22471782876,0.000613012
2.226545672846,0.000604788
2.22700385457,0.0032412
2.227467410831,0.000603306
2.228303109288,0.000731574
2.23010309854,0.0135917
2.230992204394,0.000615993
2.231069196394,0.017697
2.231498860376,0.000602428
2.232453300676,0.000604205
2.23325254261,0.00060197
2.236487202828,0.024234
2.239107106638,0.000604596
2.239430802283,0.024639
2.240602403509,0.0178783
2.246178350184,0.00346771
2.249256620053,0.000688868
2.255049568828,0.000601456
2.257537799903,0.000601456
2.27104544391,0.000602887
2.272196493544,0.000605142
2.274121850736,0.00489999
2.275579244463,0.000602749
2.276399243812,0.0106931
2.278523230573,0.000603988
2.278588471969,0.000602165
2.279254743395,0.0017553
2.285102548519,0.000733311
2.285536810125,0.00443927
2.286230186687,0.000601456
2.286941291829,0.000601456
2.29118174596,0.000601456
2.29246840086,0.000601456
2.292969057361,0.000601456
2.294745644174,0.000601456
2.298644537362,0.000601456
2.299943059759,0.000602499
2.300488691981,0.00131943
2.301739542753,0.000601456
2.307333083505,0.00192485
2.308871027667,0.000601456
2.310128313429,0.000601456
2.313019505272,0.000601456
2.313397713155,0.000633569
2.320693762032,0.000601556
2.327073690835,0.0061483
2.331164968774,0.000603301
2.332640277153,0.000632276
2.334012093167,0.000941882
2.334278843991,0.000602592
2.335604693025,0.00060491
2.337475404627,0.00681611
2.340016434997,0.00125989
2.343296193473,0.0021588
2.343777645068,0.000601881
2.34432353869,0.000604554
2.345391014153,0.0069481
2.347913156205,0.00458667
2.348142290811,0.000603634
2.350100701486,0.000603013
2.350444792488,0.000602488
2.352430856628,0.00068264
2.35295731446,0.0172101
2.353912900734,0.000614974
2.353931107742,0.000665127
2.3603451188,0.00143651
2.363054867486,0.00060421
2.366586662336,0.0142106
2.374371258134,0.000781305
2.375779505028,0.000602808
2.37679666069,0.000604102
2.37992659381,0.00060349
2.38097820905,0.00108559
2.381046586056,0.00400896
2.38132316792,0.000485083
2.381558091051,0.000820816
2.38245444165,0.00394962
2.382482372604,0.00084192
2.385119941158,0.00657976
2.385959790192,0.0122031
2.38836631706,0.053989
2.394249008484,0.0183038
2.395216503402,0.00112341
2.395882238191,0.000633439
2.397993882782,0.00095564
2.39847937636,0.00173499
2.39906547745,0.0104148
2.399461517432,0.000863262
2.40002071385,0.000885781
2.404108276096,0.00222477
2.404644358076,0.00790814
2.405871913824,0.000606253
2.409764306776,0.000645227
2.41142961648,0.000484113
2.414047015528,0.0472535
2.414760640108,0.000620953
2.41933651491,0.000664363
2.419395948872,0.000670452
2.421153508533,0.000604975
2.421917663927,0.0646193
2.422045009479,0.000620837
2.423677330875,0.000849457
2.42437347144,0.00846489
2.42447929544,0.000724355
2.425629453961,0.000925917
2.42657841342,0.000602782
2.427234083884,0.00314306
2.428714024657,0.0611831
2.429906678953,0.102164
2.433386598075,0.000603623
2.437145259045,0.000795727
2.438436871668,0.000603629
2.43878050231,0.0062417
2.442567108731,0.000606281
2.444436263167,0.000614418
2.444726855976,0.00048276
2.446356380253,0.000781156
2.451226304373,0.00419012
2.452336125779,0.0157783
2.455267602971,0.0737944
2.455788113599,0.00316154
2.461840706569,0.0062266
2.462608475533,0.000613982
2.463373899837,0.000663802
2.464183727691,0.000639113
2.46516795537,0.00060307
2.466580168602,0.000793968
2.468696383017,0.0138324
2.474902134492,0.000483792
2.475187129984,0.000831113
2.48131847837,0.0162977
2.483378086946,0.00626576
2.484705086746,0.000928362
2.485104143348,0.00722598
2.485335758828,0.00785228
2.485968796616,0.00159135
2.488061187208,0.0145307
2.48938820107,0.0101679
2.489657097063,0.000601983
2.492459282788,0.000485622
2.493353896514,0.00384165
2.494816981035,0.000606079
2.497918659703,0.0783534
2.499715020881,0.000819132
2.500902495505,0.000660302
2.502056796441,0.0116183
2.504661139449,0.00115413
2.507634024611,0.0370955
2.509617204117,0.00257482
2.510035654789,0.000894388
2.512147405711,0.0038941
2.514391307293,0.004693
2.517887054203,0.0298462
2.518910737259,0.0179889
2.519862874527,0.0136371
2.522435528963,0.103206
2.525783240041,0.0506228
2.526575256555,0.000995671
2.526804533837,0.000603951
2.528014256857,0.00379278
2.528619793507,0.000601456
2.531903364729,0.000601456
2.533319392185,0.000601456
2.537533464264,0.00173151
2.53884586318,0.000662599
2.538849514932,0.00338766
2.539610990737,0.000601456
2.539907703341,0.000602443
2.542285903965,0.000482068
2.545458933087,0.00366785
2.545694115519,0.000603446
2.548814959519,0.000601456
2.550321683861,0.000602705
2.551492069575,0.00197086
2.551817009422,0.000603425
2.55259259967,0.000744664
2.558472618926,0.00188604
2.567525746153,0.000601456
2.568063450574,0.000601456
2.575786341387,0.000601456
2.579612053871,0.00228509
2.583729385111,0.000601456
2.586264195225,0.000601456
2.588261346079,0.000601456
2.588926302969,0.000601456
2.592959401055,0.000635018
2.594428262849,0.00351971
2.594561562412,0.00060498
2.595070031372,0.00535512
2.599579340577,0.00263707
2.605353994001,0.00060383
2.608696953795,0.00281938
2.610343200051,0.000603427
2.61059144572,0.000601456
2.610669240755,0.0157655
2.621586824679,0.000601456
2.624420438955,0.000601456
2.625237128005,0.000601456
2.633021287471,0.000601456
2.634999823791,0.000601456
2.641289697033,0.000601456
2.643904298358,0.000601456
2.646407438816,0.000601456
2.648473498928,0.0015634
2.649173653796,0.000601456
2.651175811707,0.000601456
2.65706240736,0.000601456
2.66094093519,0.00213907
2.661763632584,0.000609608
2.662292703786,0.00263136
2.663822796502,0.00318617
2.664106526265,0.000603755
2.665680946136,0.00537508
2.667152277763,0.0101921
2.671770283524,0.000601456
2.673293825886,0.00119709
2.674663476728,0.000601456
2.675977704849,0.000653693
2.67902758258,0.000732204
2.67909915886,0.0017902
2.680554637794,0.000776919
2.681196184738,0.00302445
2.684205577248,0.00798942
2.685540213719,0.000601456
2.687000029031,0.000601456
2.68996624979,0.000601456
2.695179888598,0.000603031
2.69599775094,0.000601679
2.697413396955,0.00373007
2.701378323651,0.000758006
2.707567491548,0.000602958
2.710529477036,0.00613376
2.712335844873,0.001339
2.722522980244,0.000601456
2.724746312275,0.000601456
2.726165859985,0.000601456
2.72703955041,0.000601456
2.72730487838,0.000601898
2.735097820576,0.00327617
2.735540538425,0.000602117
2.73867246921,0.000602963
2.738976770055,0.000603502
2.749809443336,0.000621764
2.75050018477,0.000754913
2.750584563862,0.000645059
2.751479648576,0.0199538
2.752352936334,0.00060366
2.753049058202,0.0127032
2.753365507486,0.000603596
2.755085125718,0.000601456
2.76099899244,0.00152701
2.764523498289,0.000601456
2.766755597585,0.000601456
2.766880032148,0.000601456
2.772987486911,0.000601952
2.773337384375,0.00122558
2.778152529237,0.00177566
2.779912344937,0.000603165
2.782223599535,0.000984797
2.786040762087,0.00833032
2.787229454265,0.00757769
2.795622845592,0.00211852
2.796243972192,0.00476798
2.796314177512,0.000604352
2.796947420554,0.00114836
2.797345290094,0.00472514
2.798924535006,0.000604488
2.802396021216,0.000603808
2.803185612646,0.000625246
2.804324606366,0.000603774
2.805862692348,0.000707242
2.807803228488,0.00536622
2.808099181434,0.000693964
2.808508966769,0.000604995
2.816942826596,0.00981284
2.816987717525,0.000614658
2.821297309942,0.000923671
2.821622403202,0.0113799
2.821636888804,0.00083271
2.822739501521,0.000603041
2.82320496509,0.026068
2.823738780528,0.000869404
2.82417064606,0.00930556
2.824270034434,0.000603017
2.826354523429,0.0332302
2.82804581201,0.014924
2.829611623834,0.000603587
2.830477294932,0.000603046
2.832371053806,0.025768
2.83293676812,0.0301107
2.840416819055,0.000602797
2.845722456996,0.00888842
2.845915295076,0.00846811
2.847414607364,0.000614747
2.847818528656,0.00183752
2.851058877767,0.000601456
2.853743970019,0.000601456
2.85471259615,0.000610027
2.857525837147,0.000601456
2.858889212822,0.000601456
2.861675422095,0.000601456
2.862607486987,0.000602677
2.863069484962,0.00175231
2.867282645127,0.00324695
2.868418509432,0.000601456
2.871435663314,0.000602249
2.871512059346,0.000716766
2.872107720162,0.000684017
2.872619575752,0.000601456
2.874009075362,0.000601908
2.880169437844,0.00682014
2.881521744506,0.000974864
2.88345157553,0.00423844
2.884342940564,0.000602157
2.884709215084,0.00873868
2.888875470495,0.000606893
2.889647196837,0.00408172
2.891279703387,0.00463248
2.895084418927,0.000603542
2.895090509493,0.000986599
2.897344249347,0.00060439
2.897349081347,0.000604512
2.897940770361,0.000942098
2.898223020617,0.000933672
2.898242830737,0.00387402
2.902887101723,0.00118325
2.903559082313,0.00760426
2.910750623715,0.000673104
2.911916257133,0.000604912
2.913360484553,0.000603709
2.915024407473,0.00545659
2.916003736148,0.000885672
2.916625700348,0.0206932
2.91791125384,0.000628555
2.925985665096,0.000603872
2.926847245546,0.000748599
2.933927117986,0.0420427
2.934493491416,0.00538621
2.934933800848,0.0487811
2.936741018864,0.000603364
2.937106358908,0.00392179
2.938085145988,0.000604828
2.939773599804,0.00917575
2.940388105858,0.00547855
2.945093499886,0.000483314
2.95007014428,0.00760617
2.955397284032,0.000603573
2.959503296908,0.0101087
2.962138640964,0.0168537
2.96595451411,0.000691871
2.9690620146,0.00217416
2.971012321157,0.000603718
2.972495993254,0.0290025
2.974605573702,0.00143968
2.975584384587,0.000603302
2.975926379924,0.00268758
2.977883598839,0.00177202
2.979221350245,0.00234094
2.985784468357,0.000603346
2.989758087436,0.000482386
2.98978839575,0.000653568
2.994642282324,0.000603792
3.002602166877,0.000603459
3.005572231491,0.000605217
3.012297906341,0.00096179
3.012613321973,0.000988259
3.015061030857,0.0351071
3.016320064207,0.00720971
3.018475344367,0.00566107
3.020299712277,0.0158877
3.020746186545,0.0251972
3.022053487441,0.011977
3.023558628906,0.000603828
3.026017382555,0.0475496
3.027106702041,0.0035606
3.027844076053,0.000607599
3.028559229346,0.00273833
3.030622378531,0.000601456
3.036370205192,0.000602813
3.036586581193,0.00210471
3.041099580446,0.0024391
3.041416170202,0.00211883
3.04316417983,0.000727682
3.044193113944,0.000639138
3.045742524829,0.000601456
3.046519762313,0.000601456
3.049654835648,0.00127229
3.050718410435,0.000601456
3.050966903818,0.000481488
3.055679906533,0.0013293
3.057992030972,0.00189453
3.060766037944,0.000601456
3.06440425988,0.000602807
3.065160484341,0.00091295
3.066434101241,0.000604133
3.06674786895,0.00311814
3.069363432235,0.000603365
3.069455285943,0.000603346
3.069547596767,0.0066872
3.070684614365,0.000601456
3.071231836349,0.000601456
3.074858142962,0.000603362
3.079322045916,0.00077479
3.079422609094,0.000602953
3.080521624734,0.00838245
3.081012864624,0.00992425
3.084178170805,0.000601456
3.084407232892,0.000601456
3.084408464892,0.000601619
3.084435965878,0.000601456
3.085639787312,0.000601456
3.086402193251,0.000834421
3.091324791726,0.000732534
3.094691199902,0.000603652
3.095094236696,0.00060259
3.098262304131,0.000635735
3.098427245107,0.000638312
3.100415157157,0.000603821
3.100908963012,0.00882901
3.101960403901,0.000601456
3.105412854568,0.00278119
3.108592607649,0.000634286
3.110298164253,0.000601456
3.110699259479,0.000976158
3.117479671729,0.000601456
3.118070331384,0.000601456
3.123400219385,0.00112795
3.128157776108,0.000601456
3.130626390614,0.000601456
3.132921232893,0.000601456
3.134517743746,0.000601456
3.138797737656,0.000601456
3.143090162917,0.0051245
3.144274427398,0.000601456
3.150172603083,0.000816227
3.152049148285,0.00212953
3.154019889483,0.000667428
3.154412883565,0.000615903
3.155117785877,0.000630647
3.156861882158,0.00657891
3.157857687392,0.00313426
3.161685247713,0.000601456
3.162319745971,0.000601456
3.169507083881,0.000601456
3.170196058438,0.000602724
3.17090451186,0.00195147
3.174013127557,0.000603328
3.17603520563,0.000621946
3.176125011906,0.000601601
3.178721931226,0.000604826
3.180620716088,0.0112693
3.181317604378,0.000996074
3.186784790536,0.000780158
3.187507731386,0.00542397
3.188399211014,0.0123694
3.190094880784,0.000715965
3.193090761866,0.0112687
3.194665244106,0.000630772
3.196504058114,0.000701189
3.201960174332,0.00060348
3.203463405568,0.0092559
3.204379131708,0.00284786
3.205199558264,0.00109361
3.208251360864,0.0189913
3.21700749167,0.000794819
3.217803191936,0.00810563
3.220424382954,0.000601727
3.223119494216,0.000606322
3.223410868232,0.000602809
3.229805564228,0.0195203
3.231973439942,0.000603355
3.234650232758,0.00522469
3.235876496212,0.0257343
3.236207628286,0.0120967
3.238713511528,0.000943787
3.239742057076,0.05557
3.240118093732,0.00319559
3.243915772808,0.00064037
3.24672857603,0.0130624
3.253603262049,0.000603545
3.253800643079,0.00228887
3.254765045361,0.000483931
3.257578807015,0.00551305
3.257926933159,0.00242706
3.258294436509,0.00126321
3.266536784381,0.0144369
3.267229346103,0.0162642
3.269047442436,0.000602956
3.270454512999,0.0226077
3.274802927729,0.000603816
3.276148036821,0.0256368
3.277066262887,0.000602903
3.278390713956,0.000602721
3.288600066363,0.000482754
3.289267120935,0.000483502
3.293959990581,0.000603763
3.298577497169,0.000752836
3.300869966853,0.0132506
3.301828372355,0.0211292
3.302116922795,0.000720234
3.302747669219,0.0108338
3.305835304881,0.0117012
3.306599943443,0.0501317
3.312383088296,0.000625796
3.315128570172,0.000601456
3.319082394677,0.000701032
3.319271640609,0.00138651
3.320912769397,0.00447626
3.322091728269,0.00620162
3.325427666399,0.000601456
3.326323545722,0.000601456
3.329996027329,0.00298253
3.334192111284,0.00295678
3.340863176952,0.0109526
3.340995276523,0.000603846
3.341858545429,0.00845077
3.342690022683,0.000601456
3.344257396439,0.000601456
3.345485977144,0.000614359
3.346016043988,0.00178415
3.348518312216,0.00459431
3.352046738395,0.000699785
3.355112487872,0.00118253
3.356119685,0.000601456
3.357111770658,0.000601456
3.358132568478,0.000601456
3.358644626928,0.000601456
3.363914339391,0.000601456
3.365027091854,0.000601456
3.372581768202,0.0006033
3.372791672139,0.000604262
3.373338292576,0.000604256
3.373848934655,0.000935783
3.373944182976,0.0094791
3.375867921706,0.000603456
3.38237410174,0.000602795
3.38272092611,0.0178695
3.383599463522,0.000483826
3.384914288492,0.0133335
3.38581420128,0.000604355
3.386339520411,0.00108323
3.387340983739,0.00274221
3.387802201053,0.00304433
3.394937905252,0.000481488
3.397697523326,0.000483848
3.398713967746,0.00060321
3.398717587498,0.0024355
3.405182988674,0.000601456
3.4077462999,0.0023833
3.409827557114,0.000602661
3.41039171784,0.00221356
3.413174153144,0.000605152
3.414211287454,0.00358571
3.415315073972,0.00854829
3.420470029229,0.000601456
3.425977427886,0.000601456
3.428059019437,0.000952076
3.437019063677,0.000976335
3.439804905699,0.000601456
3.442519700692,0.000601456
3.443111030716,0.000601456
3.444159113829,0.000601456
3.448803808913,0.000601456
3.457570142231,0.000603531
3.46079923771,0.00805153
3.465918586729,0.000602666
3.468326383318,0.000606766
3.470239246148,0.00738312
3.471165841374,0.000609574
3.473097992004,0.00599575
3.476928305812,0.000603756
3.47971807316,0.000602687
3.482350214826,0.00060284
3.484585656104,0.0129427
3.495625294314,0.000603649
3.498139962167,0.00127395
3.498563309529,0.000603943
3.502061276101,0.000603302
3.504153846269,0.000602865
3.506896206245,0.000603094
3.510017750958,0.000736909
3.510062092602,0.000604275
3.510740632204,0.00175115
3.51077824622,0.000637928
3.514855116703,0.000715103
3.514974010503,0.00931665
3.515586834077,0.00048292
3.517032146282,0.000615529
3.517041817786,0.00455448
3.517326871154,0.00618804
3.517881363688,0.0252579
3.519910091256,0.000731321
3.523109880431,0.000601456
3.524209920396,0.000601456
3.525363919768,0.00127229
3.526296908693,0.000601456
3.528327857097,0.000601456
3.52911205761,0.000601456
3.533692575798,0.000782967
3.534106075255,0.000602361
3.535667441566,0.00297058
3.536983688146,0.000601456
3.537728326864,0.000601456
3.5398149238,0.000602858
3.541243975523,0.00060287
3.542213202708,0.00450737
3.54374032365,0.000603923
3.546089838832,0.00500989
3.548378406092,0.000603499
3.55146677635,0.00104581
3.551771504042,0.000603851
3.553259162614,0.00611007
3.553801352714,0.00920006
3.558364369792,0.0007783
3.559941155464,0.00062831
3.562210456192,0.00971902
3.562474833936,0.000803669
3.563643047326,0.0146458
3.565586663666,0.000603566
3.566803160104,0.000603049
3.570137727025,0.000603138
3.571216174482,0.00688348
3.574388018028,0.000699785
3.5801212676,0.000603547
3.580379557666,0.00210381
3.580401165845,0.000603559
3.580634429842,0.00060303
3.581101306286,0.00048377
3.581796109695,0.000605336
3.583771317617,0.00832708
3.584709123382,0.000601456
3.584964165649,0.000602307
3.588393196743,0.000603218
3.589172107192,0.000601811
3.592354906344,0.000643069
3.592872741071,0.00780885
3.595273182954,0.0023934
3.595386735048,0.000603029
3.597533748525,0.00334828
3.601159552592,0.00624847
3.607498118076,0.000601456
3.609430826937,0.0021092
3.609907386925,0.000602234
3.616520499938,0.000601456
3.619128440632,0.00142512
3.623381124173,0.000601456
3.625273121934,0.00128443
3.625749681919,0.000602066
3.627360601976,0.00192049
3.628255763158,0.00246772
3.630871120981,0.000601456
3.632208266103,0.000601456
3.633988990727,0.00123954
3.634647618439,0.000601456
3.635447925916,0.000601556
3.635492847756,0.000601456
3.638368555365,0.000601456
3.641264836448,0.000601456
3.64191529621,0.000601456
3.64435965153,0.000601456
3.644701627398,0.000601456
3.647004575529,0.000889003
3.652560907255,0.000601456
3.656313720036,0.000601456
3.661173146601,0.000847763
3.664849825784,0.000601456
3.675645546879,0.000603448
3.676198236166,0.00170599
3.678465987931,0.000602727
3.678675625767,0.000978579
3.679672833021,0.000955715
3.680368355948,0.000601456
3.682590639401,0.000601456
3.687453124942,0.000601456
3.68832938838,0.000601456
3.693488489765,0.00235181
3.694813100841,0.000601456
3.695485888848,0.000601456
3.701320330963,0.00451084
3.701610065805,0.000603267
3.702568313179,0.002742
3.70658011218,0.000603446
3.710863263523,0.000618574
3.713757365591,0.000602912
3.715197097944,0.000657575
3.718077546854,0.00277722
3.721888893754,0.0151738
3.724634704914,0.000603004
3.726592505898,0.0016073
3.728175389988,0.0252606
3.72952804267,0.000601456
3.732218985807,0.00277633
3.735213203489,0.000601456
3.738961515969,0.000778019
3.742971514873,0.00649763
3.743536697315,0.0067104
3.744802919107,0.00066291
3.744880547139,0.000716426
3.746075274205,0.00433444
3.746134721105,0.00211104
3.749993681404,0.000687655
3.750974958755,0.000481488
3.752353274311,0.000601456
3.753488579266,0.00164943
3.754451548718,0.000601456
3.755281892263,0.000601456
3.756205530604,0.000601456
3.756411374024,0.000601456
3.762605331385,0.00565217
3.762900075319,0.00235789
3.764875964259,0.00612338
3.767818124464,0.00123606
3.769470175822,0.00315235
3.772439390602,0.00146151
3.774960086719,0.000601456
3.776502062124,0.000601456
3.776787349911,0.000601456
3.777629963801,0.000481488
3.784149092018,0.00134708
3.785221420814,0.000484268
3.786315431953,0.00246505
3.786795841558,0.000603678
3.788075446828,0.000751713
3.78964744255,0.00228755
3.790692542868,0.00111179
3.79106363328,0.00112217
3.791503551928,0.00109672
3.79189068645,0.000983861
3.795086048469,0.000708749
3.798014050999,0.0014655
3.798228747149,0.000602148
3.799071727288,0.00333145
3.803086479526,0.000629321
3.810473251156,0.000940666
3.811226523308,0.00106318
3.811364768438,0.00159419
3.813239909512,0.0327984
3.814695658892,0.00815981
3.814773200376,0.0164659
3.820419328348,0.0276334
3.820438724616,0.000618907
3.821138818932,0.000664251
3.82148259467,0.00100363
3.822258490773,0.000672485
3.823690714773,0.00060571
3.824023136711,0.000601763
3.824177891372,0.000604188
3.828220721941,0.000749419
3.831678775543,0.000603973
3.832431432221,0.000603371
3.835455493857,0.00161198
3.835535584941,0.00285933
3.836511917917,0.00867519
3.837299130945,0.000668262
3.84057675872,0.000635142
3.842304694163,0.000603064
3.843519995647,0.029236
3.844675936719,0.00401673
3.845151330395,0.000612143
3.84694201733,0.00507976
3.849216484435,0.00645185
3.852640590855,0.00060444
3.853935952181,0.00418932
3.855916675319,0.000702334
3.856525645625,0.0769732
3.858254075461,0.000605286
3.862241704377,0.000484253
3.862294401765,0.000603343
3.863678988499,0.0255849
3.864201760851,0.0396752
3.864600830391,0.0850535
3.874005450815,0.000604618
3.875827313493,0.00420003
3.876523484699,0.000605028
3.880797764021,0.000819335
3.881136212537,0.00100055
3.881692719703,0.000859518
3.883012366753,0.000808092
3.883114295595,0.000603887
3.883474216321,0.00649323
3.884091885117,0.00735782
3.884153149117,0.000607495
3.886989570026,0.0660393
3.889996591245,0.018114
3.893902080483,0.00092903
3.896007368203,0.000481488
3.897190053662,0.000601456
3.897283935956,0.000601456
3.899017234173,0.000601456
3.899479763425,0.000481488
3.900271674452,0.000601456
3.904444799033,0.000603315
3.905343534821,0.000604352
3.905503617573,0.000709387
3.905952267639,0.00113986
3.907350934945,0.000611026
3.907935956049,0.000618218
3.911231501311,0.00247206
3.912815611277,0.00546801
3.913845274149,0.000887792
3.914479732411,0.00653594
3.922311619597,0.0218754
3.923847167105,0.000648014
3.923896872847,0.00353597
3.926123850003,0.000603987
3.931441417447,0.000602981
3.932898153923,0.000668359
3.933762974791,0.013795
3.935891587649,0.0174444
3.940674172381,0.0357607
3.944698630321,0.00060413
3.944785985535,0.00659967
3.945748845737,0.000601456
3.948029252741,0.000484324
3.949766175103,0.000785435
3.961995082853,0.000603904
3.962075104761,0.0150469
3.963215041665,0.000603424
3.964246272021,0.0177731
3.968774798291,0.00322633
3.978586161548,0.000603795
3.983429378206,0.00073293
3.984547991596,0.0048516
3.985763041116,0.0022323
3.986580472394,0.000605455
3.992263204902,0.0167284
3.994099514838,0.000481705
3.994105547528,0.000888148
3.99479697325,0.000604045
3.99637636304,0.00552699
3.997158647758,0.00060984
3.998411859491,0.00144557
4.004779686241,0.000602934
4.013435278029,0.000603055
4.014809527865,0.0395916
4.019720708711,0.000681959
4.020215587415,0.0020559
4.021985158877,0.00909045
4.023886989983,0.000616429
4.024600124479,0.000603214
4.026385895101,0.0039391
4.029057971639,0.000712954
4.029525417632,0.000750149
4.029686695646,0.00586743
4.029892511797,0.00836807
4.032634071456,0.000612277
4.036134610524,0.028767
4.037735298769,0.000601456
4.03881301598,0.000601456
4.041621043048,0.000601456
4.043664324055,0.000601456
4.044659232832,0.000603814
4.045286464918,0.00197212
4.052817819712,0.000601456
4.059496543875,0.00150639
4.060218737273,0.000601456
4.061450358012,0.000601456
4.061881115328,0.000602104
4.062099568426,0.000601456
4.063696694206,0.000708275
4.067970032825,0.000673623
4.069068929467,0.000648608
4.069505587147,0.00291173
4.071190305709,0.000483248
4.073497316161,0.000603264
4.073517917045,0.00808648
4.075201260244,0.000603382
4.075213517161,0.00736803
4.077099383119,0.000601456
4.078916014448,0.00168712
4.079287061072,0.000601587
4.085236080853,0.000603285
4.08626720806,0.00387768
4.087843223411,0.000603507
4.088788159767,0.000602326
4.089857945838,0.000602789
4.090249962091,0.000602921
4.092133997497,0.00573532
4.095334081372,0.000602958
4.099978384942,0.000602825
4.10037143163,0.000614394
4.102887203706,0.00174974
4.10291996597,0.0097679
4.107378959354,0.000601456
4.111741991305,0.000601456
4.113180494882,0.000481488
4.116045878004,0.00191272
4.12152297881,0.00182539
4.122571307402,0.000601456
4.125766442954,0.000603372
4.129290022304,0.000605035
4.13096977797,0.000603618
4.132296524406,0.00572644
4.135206282274,0.00402873
4.139504137768,0.00311033
4.142388523394,0.000603113
4.142697889538,0.000602719
4.144148597868,0.0212992
4.144964757172,0.000613223
4.145662844371,0.00247162
4.149239003107,0.000601456
4.149588840123,0.00075018
4.151192947326,0.000601456
4.157422087406,0.00122377
4.158774939791,0.000481488
4.162764261007,0.000601456
4.167139711406,0.000601456
4.168307386743,0.000601456
4.172591117685,0.000601456
4.178661815731,0.00157302
4.179479238197,0.000603541
4.179510889195,0.000602465
4.181829878801,0.000762554
4.183060896273,0.000603448
4.183642187637,0.00913094
4.187420954842,0.000601456
4.189421565471,0.000481488
4.199360647911,0.000601456
4.199878605566,0.000601456
4.200071869551,0.000602263
4.202682040956,0.000977548
4.205400708302,0.00178173
4.219748109798,0.000601456
4.225269088768,0.000602763
4.226426102362,0.000607436
4.227808838744,0.000689732
4.228392147323,0.000602527
4.229442598774,0.00496671
4.231397392827,0.000601987
4.237555540811,0.000603959
4.237679254363,0.00117847
4.239909888619,0.00550254
4.240695901555,0.000602968
4.242260599807,0.0107264
4.246039026681,0.00791716
4.248931642113,0.00660414
4.249440981581,0.000803577
4.256331675545,0.000605128
4.260010542153,0.000640931
4.261178601447,0.0257624
4.267029810433,0.0332563
4.272076815649,0.000664575
4.272240579143,0.000827452
4.273992014949,0.000950412
4.276755078701,0.000806889
4.281336397279,0.000626625
4.281628676523,0.00951456
4.282158726503,0.00106272
4.282421966049,0.000603648
4.286255723715,0.0166831
4.291250227497,0.000604127
4.291442234222,0.000606022
4.295132371341,0.000608216
4.295640346025,0.000614232
4.296287081491,0.000755743
4.296380477717,0.000678998
4.299241742781,0.000695684
4.299517889617,0.00119278
4.300521413631,0.000604306
4.301016262556,0.0229758
4.302508666975,0.000893233
4.304424020371,0.0204366
4.304734578084,0.000603305
4.305310089606,0.00804277
4.306146560743,0.000605216
4.306323527023,0.000605341
4.306434923105,0.0047378
4.306627361145,0.0360255
4.308431529505,0.000605616
4.309365763605,0.000603852
4.310891577633,0.000603118
4.312847120063,0.000749614
4.312941806855,0.000712972
4.314195271961,0.000603769
4.314439253288,0.00128402
4.317826822397,0.000866778
4.321274632926,0.017655
4.324898076772,0.000605347
4.326245636238,0.00879319
4.326268669122,0.000696956
4.32641909931,0.0190462
4.326692525496,0.096218
4.331561813168,0.000602135
4.339893510488,0.000703027
4.340945118722,0.000635119
4.341765081674,0.00647168
4.342575281518,0.107627
4.344266146892,0.0150596
4.346410643226,0.00958567
4.347132810925,0.000687428
4.355784847497,0.0215367
4.356390756694,0.000611839
4.357513922616,0.000604389
4.358848042022,0.0024641
4.363488725946,0.0589009
4.368023084653,0.000601456
4.377352693306,0.000601456
4.378278988144,0.000601456
4.38490849119,0.0006028
4.385937515982,0.000617393
4.38713715833,0.00346989
4.391711147528,0.00169626
4.393477249256,0.000602271
4.399089480094,0.0175044
4.402280705306,0.000605941
4.40316247778,0.00507969
4.405772603346,0.000603178
4.40803480397,0.000646584
4.409335603304,0.0167181
4.410323228956,0.000604781
4.412845159216,0.000659248
4.416597959586,0.00479004
4.419113538006,0.000603214
4.419731068786,0.00505163
4.419903299858,0.0120872
4.420373430176,0.0231207
4.422281519822,0.000601456
4.431641128898,0.000601456
4.433324571847,0.000601456
4.436128304214,0.000602835
4.436290965437,0.00127714
4.438428199622,0.000602561
4.438795078147,0.000602403
4.44000016602,0.000602839
4.440740033908,0.000603687
4.44345330656,0.00236697
4.445905790244,0.000603043
4.447328584002,0.00251145
4.450012444878,0.000621179
4.451187764936,0.00908128
4.452187225848,0.0146746
4.461417929555,0.00142755
4.462581172294,0.00243792
4.466602768052,0.000601456
4.467985283021,0.000601456
4.469047022739,0.000601456
4.471491617181,0.000601456
4.473279589066,0.00203158
4.47797606803,0.000601456
4.479124830593,0.000601456
4.479882735479,0.000601456
4.480792051545,0.00110123
4.489012620868,0.000601456
4.491982537934,0.00180841
4.493465035017,0.000601456
4.496033522005,0.00272172
4.499430296466,0.000601456
4.499579442181,0.000865342
4.503188341861,0.000601456
4.506144733201,0.00138388
4.507049162984,0.000995708
4.50774933265,0.000601456
4.509656646735,0.000601456
4.512434279286,0.000754367
4.517173136918,0.00063201
4.517389065758,0.0051447
4.520269704102,0.00633874
4.522002977838,0.000483536
4.522996211505,0.000601869
4.52485447212,0.00605935
4.525914611932,0.000603962
4.528277449851,0.00495828
4.533266451453,0.00100666
4.537436037996,0.000603027
4.539388780114,0.000605046
4.539630691731,0.005814
4.540326417356,0.00555189
4.540359150946,0.000604261
4.547337992704,0.00857186
4.547998776068,0.000601456
4.549369591205,0.000601456
4.549981123604,0.000601456
4.551024887249,0.000601456
4.551206931143,0.000601456
4.560085327864,0.000601456
4.560882326924,0.000601456
4.565539587484,0.000603819
4.566197185071,0.00395537
4.575671036918,0.000601456
4.581829466275,0.000601456
4.583189593856,0.000601456
4.587430909471,0.000601456
4.588619622597,0.000601456
4.592350786191,0.00327675
4.593755351531,0.000608977
4.595050788377,0.000601642
4.59738017374,0.000604242
4.59760073194,0.000602506
4.600585389626,0.00626386
4.602848361508,0.0139277
4.603735323118,0.000601456
4.60420631232,0.000601915
4.604480259463,0.000601456
4.608016996773,0.000601456
4.618545149116,0.00173956
4.62679929386,0.000730148
4.627155831904,0.000603466
4.630374875466,0.00700956
4.63066241824,0.000854365
4.633081235341,0.0254173
4.635145677077,0.000805712
4.638235939582,0.000648061
4.646242712843,0.000735586
4.647445960967,0.00633486
4.648095587143,0.000633664
4.651900576259,0.00794131
4.653417588021,0.00108135
4.660080066611,0.0480377
4.661144925559,0.0233831
4.661934811443,0.0513315
4.663937277589,0.0366636
4.664450920797,0.00759194
4.665175439329,0.00260355
4.666805959711,0.00841896
4.667755283147,0.00202103
4.668104846865,0.000992974
4.670745696579,0.000481859
4.671218569231,0.000881611
4.674025220649,0.0544099
4.675484284211,0.00808887
4.679132746037,0.000805312
4.680289812421,0.000649062
4.680995831743,0.0260111
4.681312242687,0.00172019
4.682189467513,0.000602377
4.683867932266,0.048341
4.683919968226,0.00105089
4.684317946276,0.000602593
4.686377806981,0.0052977
4.689418632497,0.0499701
4.690812244779,0.0111016
4.692530961061,0.0724388
4.692928847465,0.0805657
4.693329117005,0.0061583
4.694263204782,0.000736173
4.695298798059,0.00128458
4.696732448035,0.000679228
4.698167330011,0.000603278
4.698947298835,0.00295454
4.699736388033,0.000695258
4.700223525712,0.00673919
4.701226852132,0.00060536
4.702212184929,0.00541315
4.706864609486,0.00060307
4.708245390743,0.000613901
4.711337103084,0.000604597
4.711987902202,0.000730786
4.712788904688,0.00451256
4.713715563444,0.00972194
4.717170068744,0.000602859
4.719873644274,0.000603839
4.720679199331,0.0171755
4.721488146302,0.000602162
4.721491766054,0.00926316
4.724454878502,0.00297401
4.731160027708,0.000802885
4.735180094863,0.000649921
4.735716275261,0.000602544
4.736008031968,0.00178005
4.737034609609,0.00529186
4.737982948271,0.000640351
4.738368550131,0.000602566
4.738651234273,0.000601456
4.73954553463,0.000601456
4.740402410715,0.000802885
4.743492491236,0.000601456
4.749658503973,0.00060382
4.751361626757,0.00371397
4.752499935326,0.000601456
4.755459049738,0.00164588
4.758523457383,0.000603703
4.760353894537,0.00449763
4.765978822208,0.000601456
4.766416544548,0.000601456
4.766578980604,0.000601456
4.767683683381,0.000601579
4.768149214825,0.00121264
4.769130381141,0.00080684
4.769188264611,0.00131019
4.776097419284,0.00149183
4.779925524035,0.000601456
4.784051044516,0.00470967
4.785372841579,0.000601456
4.792509067689,0.000601456
4.795449944541,0.000601456
4.795797210352,0.000601456
4.798188336543,0.00102117
4.800456525517,0.000603907
4.801486178271,0.000643005
4.803205259937,0.00793991
4.805908843061,0.00178399
4.807330462075,0.00110448
4.80811139186,0.0110537
4.80951709367,0.000611079
4.809817915232,0.0119558
4.814160063472,0.0008031
4.815489456458,0.0164651
4.817295700916,0.000630647
4.81898249788,0.000767709
4.819356036118,0.000663136
4.820697816447,0.000601456
4.821214843544,0.000601456
4.825303024627,0.00169682
4.828882072569,0.00204129
4.829759212882,0.000603675
4.83285825041,0.000623384
4.837011333258,0.0081508
4.838260555745,0.000601456
4.839311524797,0.000601456
4.84551691336,0.000935095
4.850061282194,0.00171744
4.851226080774,0.00127711
4.851458950204,0.000483734
4.854348928904,0.000601456
4.855623643888,0.000601456
4.856552734235,0.000601456
4.859727846083,0.00060492
4.860251027705,0.000966972
4.861112058941,0.00177019
4.866912251989,0.0101
4.869603774349,0.00807619
4.872278149703,0.0101858
4.872318189595,0.000866975
4.873432172369,0.000601456
4.877616609236,0.00367391
4.878492303806,0.00301228
4.88180477788,0.0050689
4.887033816368,0.000601456
4.89363526299,0.000601456
4.912032313865,0.000603169
4.912331059225,0.000602196
4.913356421223,0.000602698
4.914636241245,0.0026199
4.915329231702,0.00674873
4.918165574689,0.000601456
4.918362245801,0.000601456
4.918631614063,0.00060231
4.920059270842,0.000775692
4.926153084292,0.00717081
4.932827208965,0.000603246
4.934751997342,0.000603529
4.934765339672,0.000603703
4.935545797224,0.0094758
4.938359826322,0.00410516
4.940490302689,0.00208496
4.941335644007,0.00125263
4.942207082552,0.000481488
4.948832706367,0.000936308
4.952820564508,0.000601456
4.963883969474,0.00344102
4.973241073727,0.000481488
4.984693425526,0.0063921
4.988152575692,0.00062602
4.98852133472,0.000890356
4.988893642686,0.000601506
4.990862615562,0.000603194
4.996186209234,0.000660343
4.998808540648,0.000604136
5.002372570756,0.000661769
5.011314349692,0.0139146
5.011856501448,0.0006807
5.013006398672,0.00120467
5.015939263694,0.00466699
5.017144938732,0.010641
5.020203930024,0.000602833
5.023960370588,0.000650747
5.025198712342,0.00060369
5.027507035028,0.000624031
5.027789645656,0.0435123
5.028460430172,0.0165262
5.030277400556,0.000603769
5.031234689364,0.000602055
5.032912221083,0.000903439
5.035728620379,0.000603204
5.037823430479,0.00372362
5.040329203869,0.0121265
5.040485691933,0.000602361
5.041648900893,0.0167964
5.042018757577,0.000618405
5.048695882849,0.000731991
5.051634738291,0.0058617
5.056192993493,0.000606487
5.058535117113,0.00837698
5.059541889381,0.013813
5.060498867661,0.0277472
5.060675858868,0.000604481
5.061414678591,0.00547819
5.064756335719,0.0231585
5.070849623231,0.000601456
5.071211079196,0.00060246
5.074819985327,0.000601456
5.07671792268,0.00124561
5.080226970679,0.000601456
5.08225918002,0.000896281
5.08399665248,0.00127579
5.083997894351,0.000603054
5.084178705338,0.000603487
5.086082711472,0.000601456
5.089885849825,0.00132445
5.097509627114,0.000601456
5.10574334041,0.000605134
5.106058135072,0.00150216
5.107361054444,0.00175348
5.10980263641,0.000692507
5.112831811487,0.000762858
5.124736147793,0.000601456
5.134131374786,0.000601456
5.141000751235,0.00308342
5.142943733513,0.000603693
5.149587016203,0.00372039
5.150636164833,0.00520543
5.155047622537,0.000604522
5.155788172421,0.00210517
5.157269711085,0.000603672
5.158894210825,0.00148493
5.161081147051,0.013219
5.161260252713,0.00598956
5.163401546309,0.000603527
5.167810672719,0.033612
5.169843352236,0.000602713
5.169844584236,0.00168216
5.170627296754,0.000601456
5.177586310872,0.0014197
5.178859895772,0.00326633
5.179446911098,0.000911996
5.179980818773,0.000601456
5.18372113193,0.00177445
5.185101822168,0.000601456
5.185371119642,0.00061659
5.18540585306,0.000601456
5.185689205119,0.000601456
5.186070286573,0.000601456
5.192086188993,0.000601456
5.195390501856,0.00060307
5.198075194912,0.000604117
5.205299110842,0.00882115
5.206952123748,0.0151991
5.207922704058,0.000603781
5.208919331532,0.00738186
5.211755950196,0.000802904
5.21225691604,0.0146657
5.213539303867,0.00114493
5.216549770843,0.00121771
5.218212206383,0.000700998
5.222074473874,0.000601456
5.222585541365,0.000601456
5.223576024991,0.000601456
5.22629177621,0.000601456
5.226565834813,0.000601456
5.226621213745,0.000601456
5.232529074787,0.000601456
5.232724624495,0.000610445
5.237441954122,0.000601456
5.243003644819,0.000601456
5.244295368308,0.000601456
5.244847839001,0.000601456
5.249061887688,0.00152701
5.25280108174,0.00273185
5.255665947964,0.00659327
5.255839411036,0.00408065
5.256579864223,0.000601456
5.257047651233,0.000601456
5.261004695838,0.000602907
5.261800391293,0.00343014
5.263751354374,0.000601456
5.265137419271,0.00129655
5.273943200967,0.00457391
5.274846793111,0.00304453
5.277479887885,0.00106245
5.277699318996,0.000603367
5.282864468454,0.000616092
5.286261521363,0.00272054
5.287484391167,0.000601456
5.289069391576,0.000601456
5.28922441253,0.000671496
5.293712321085,0.00060436
5.294270345903,0.00060417
5.294830180523,0.000952722
5.301024674421,0.000678059
5.302777423353,0.0141798
5.312314611449,0.0181078
5.312871337053,0.0200258
5.313977549447,0.0164821
5.314349934351,0.0187775
5.315919930044,0.000723391
5.31659554725,0.00766427
5.31719344529,0.00296214
5.317719860382,0.0219839
5.321331020593,0.000604274
5.323191632287,0.00489565
5.324961291965,0.00711492
5.329124902963,0.000601456
5.339603277671,0.000605019
5.339822422641,0.0061309
5.341035974525,0.00559439
5.348818475765,0.000618185
5.349139930211,0.00264049
5.349927139827,0.000603004
5.350999273536,0.0018517
5.352648860305,0.00543748
5.353856224056,0.000601456
5.355236980053,0.000601456
5.357204878407,0.000601456
5.366009316491,0.000601456
5.37017612687,0.00126133
5.373861045452,0.00477688
5.383574130046,0.000603774
5.385506430008,0.00400985
5.3874871707,0.00328979
5.391553373534,0.00304561
5.393837533894,0.000824717
5.394156409052,0.000602901
5.400174271257,0.00106996
5.400908202035,0.00062391
5.403882761754,0.000709206
5.404205113519,0.000604563
5.407015921756,0.000631452
5.407505961646,0.00824916
5.412729748637,0.0176958
5.413882372786,0.0127358
5.415160792574,0.0165424
5.418447824752,0.00370504
5.422395076168,0.000604585
5.423725688424,0.00118908
5.425296349802,0.00437715
5.432752876456,0.000734067
5.43543626116,0.00060711
5.436437189058,0.000603734
5.436853022478,0.000606479
5.439757273264,0.000696368
5.440826870072,0.000659317
5.44246072736,0.0115675
5.442463170086,0.00860271
5.446166280321,0.000603153
5.454636166936,0.0119043
5.459160444738,0.000781284
5.459423607346,0.000739676
5.46062441204,0.00238939
5.464074086378,0.000604173
5.480863146536,0.000604392
5.482059770717,0.000606381
5.482921308784,0.0641322
5.484003629596,0.0149318
5.48488540572,0.0318462
5.486117597752,0.000718069
5.486136685048,0.000603556
5.488995490906,0.000738799
5.493524435052,0.00060366
5.494194100492,0.00119305
5.494251121516,0.00100913
5.496525278684,0.000603308
5.497507719782,0.000821434
5.500711114916,0.00121078
5.50345352892,0.0783951
5.503645516336,0.00828834
5.504180087794,0.000898918
5.506322119438,0.0290256
5.507150607156,0.000604082
5.508926696066,0.0312499
5.510454883347,0.000602848
5.511013902147,0.000603622
5.51307865315,0.00167659
5.515186301576,0.000483956
5.517109212258,0.00121669
5.51825664768,0.00349613
5.523446839184,0.00774428
5.525089161632,0.000603011
5.525123085772,0.014106
5.529006851916,0.0623424
5.529970514583,0.000601456
5.5354820018,0.00167494
5.53683185739,0.000603077
5.538010924125,0.000602959
5.54390226853,0.000662129
5.547926856418,0.0136694
5.549028029923,0.000603594
5.555147442362,0.015261
5.558333147647,0.000601456
5.563472909742,0.000601456
5.570355904136,0.00278483
5.579105225592,0.00426825
5.581282012587,0.000601456
5.585297035126,0.000619731
5.589348693452,0.000601456
5.592660807325,0.000601456
5.593639693507,0.000601456
5.593694880366,0.000481488
5.59612805702,0.000601456
5.602036569173,0.000601456
5.604839769355,0.000601456
5.607973280487,0.000601456
5.609188005716,0.000601456
5.615503116634,0.000601456
5.61835667821,0.00134507
5.622645580312,0.00461519
5.626699442843,0.000601456
5.634519312078,0.0034084
5.635881471254,0.00567283
5.637217836043,0.0012917
5.642305488066,0.000601456
5.643805322778,0.000601456
5.65377358858,0.000601456
5.662555918982,0.0032324
5.66561110576,0.000602928
5.671237087316,0.000603062
5.67440505438,0.000602905
5.677096787029,0.0157558
5.677510286487,0.000602156
5.679533951862,0.000601456
5.682428204204,0.000601456
5.683864188878,0.000603265
5.687534747679,0.000711422
5.687757891655,0.00048467
5.688243534385,0.000603551
5.691351665659,0.000483788
5.692202872292,0.00581258
5.69228541215,0.00108867
5.69228661215,0.000949263
5.696756609843,0.000655887
5.697030752893,0.000602472
5.69750485212,0.000604478
5.699928051175,0.0170376
5.703124524375,0.0120684
5.704144575431,0.00306323
5.706141090441,0.000603633
5.708170108719,0.00060278
5.712672695577,0.0295083
5.713322606,0.000601456
5.714054836577,0.000601456
5.714301420672,0.000601456
5.720709919941,0.00170701
5.722678548117,0.00395652
5.726169594615,0.00164588
5.734171639349,0.00122135
5.738653427239,0.000629434
5.748091596192,0.000601456
5.748368315981,0.000601456
5.748599331069,0.000601456
5.749507490797,0.000793181
5.753518794219,0.00249857
5.754016022331,0.0011925
5.755155991258,0.000603747
5.755417637556,0.000726705
5.7564298951,0.000603322
5.757274085824,0.00339892
5.760783756142,0.000601456
5.765784866126,0.000688661
5.765896454224,0.000657741
5.766842541938,0.00622465
5.774198964242,0.00385791
5.77462952743,0.00291062
5.77675799588,0.00060334
5.778348173218,0.000929396
5.784682154046,0.00733596
5.78678904029,0.0236855
5.788361968454,0.000603573
5.797165519601,0.0101655
5.800252773888,0.000601456
5.802117815901,0.000601456
5.802704130663,0.000601456
5.803314295016,0.000601456
5.80659996263,0.000601456
5.810224728686,0.000601456
5.812704650003,0.000601456
5.815049509271,0.000601456
5.816229481908,0.000481488
5.817143347618,0.000601456
5.819099850085,0.000601456
5.820624357751,0.000603022
5.820867324611,0.00205063
5.822861233817,0.000602428
5.823105561568,0.000938067
5.824258563328,0.00135121
5.827880087903,0.000483735
5.833561449131,0.00248811
5.839264571213,0.000721041
5.840826801629,0.000603444
5.841287794301,0.0102679
5.842955602515,0.000605029
5.843546648463,0.00103884
5.844342160217,0.000613408
5.85029533156,0.000605344
5.852166991235,0.000604984
5.852823956681,0.00060233
5.853628630909,0.0163145
5.853984034681,0.0278687
5.86097227335,0.00246101
5.862996656132,0.000603605
5.863082755668,0.00489406
5.871605964724,0.000618353
5.877214445628,0.000603732
5.878344222666,0.000602837
5.880413133428,0.0114663
5.881841851258,0.000654122
5.882271227384,0.00091832
5.88325002561,0.0016985
5.883274297308,0.00489561
5.886466652866,0.0244317
5.895332459335,0.0013572
5.89715522906,0.00321784
5.897628162458,0.000602345
5.904986790797,0.000601456
5.906324880678,0.000776157
5.910649017586,0.00488312
5.911295262066,0.000622162
5.91228652096,0.00258105
5.91390994826,0.000601456
5.913953220879,0.000601456
5.914641005625,0.000601456
5.919545586496,0.000601456
5.923125487709,0.000601456
5.927406541805,0.000601456
5.928143978795,0.000911589
5.929862626295,0.000603963
5.938265375574,0.000602734
5.939144782902,0.000601456
5.942835888525,0.000602987
5.946125423525,0.00885688
5.947596956788,0.000601456
5.955099858111,0.00794455
5.957537835887,0.000603503
5.958041812761,0.00197348
5.958073975367,0.00410168
5.961811528321,0.000603459
5.965159333981,0.00979328
5.975403582116,0.000835634
5.977715137217,0.00121771
5.985780675792,0.000601456
5.989465617539,0.000601456
5.993523163051,0.000601456
5.99553872888,0.000601456
5.996907190456,0.000601456
5.997235015396,0.000601456
5.999272330005,0.00060315
5.99951818796,0.0012912
6.001100665382,0.000601456
6.003240042996,0.000601456
6.005108199283,0.000601456
6.006221888524,0.00060747
6.007421456602,0.000604028
6.00862860469,0.00232397
6.008947620322,0.000959377
6.011396342542,0.000613864
6.013870732136,0.0030531
6.014907794126,0.00975198
6.015690045394,0.000601456
6.01640736779,0.000601456
6.023795683809,0.0006731
6.024795712543,0.00153429
6.027127137035,0.000601456
6.030774882949,0.0022251
6.033820444929,0.000601638
6.036048937751,0.00060308
6.036627408299,0.000603424
6.037246203927,0.00382338
6.039304464959,0.0004859
6.041831006107,0.000687175
6.042550552369,0.000652727
6.044128186453,0.017425
6.045069416291,0.0141607
6.046190158065,0.0150773
6.046284133654,0.00313059
6.049657243888,0.000684606
6.050948973994,0.00235366
6.051732093049,0.000605079
6.054548550851,0.000603308
6.056883408767,0.00513975
6.057595495381,0.000963837
6.058829496578,0.0230059
6.059430964806,0.000630704
6.062167006998,0.000602693
6.070931902777,0.000649771
6.071516496153,0.000917805
6.071907104929,0.00131459
6.072386429871,0.000995738
6.07695661526,0.0365565
6.077970864042,0.000603349
6.082673454963,0.0276709
6.082836151,0.0125935
6.090941124453,0.000601456
6.091192198391,0.000601456
6.096090223806,0.000601456
6.097081590557,0.000601456
6.104441091395,0.00085868
6.10720549719,0.000601456
6.109439638229,0.00111704
6.11424611767,0.00157063
6.114458394758,0.00116939
6.118648943659,0.00060359
6.118975133227,0.0014431
6.120282402383,0.00120679
6.123393923606,0.000601456
6.124547670027,0.000601456
6.130661810558,0.000601456
6.136620932087,0.000601456
6.138810098048,0.000601456
6.140046724695,0.000727682
6.143006855345,0.00104183
6.154125220968,0.000954922
6.155235012572,0.00310092
6.15671476713,0.0094898
6.15689790783,0.000721178
6.15695735473,0.00107839
6.157272071531,0.00342288
6.159521552328,0.00143685
6.161441629256,0.00313932
6.164752822465,0.000603685
6.165491678133,0.000601456
6.16638561039,0.000602772
6.167776825818,0.000603812
6.170108059104,0.000690777
6.170270628722,0.000603362
6.170478034996,0.00364386
6.170669664534,0.000483061
6.17249826637,0.000603701
6.17265070194,0.000602823
6.173329573211,0.000693878
6.174109196283,0.000638912
6.179140087689,0.000606465
6.179437023167,0.00541104
6.180131631119,0.0041344
6.180819420604,0.000938476
6.182893451252,0.0290019
6.1853835663,0.000665304
6.189559643218,0.000658491
6.192720529844,0.00563773
6.192961917444,0.00241069
6.193365231734,0.00615816
6.19584618477,0.0249002
6.196886783918,0.000603225
6.197592902569,0.00381541
6.198588684125,0.000603242
6.202289352423,0.000603581
6.203813043601,0.000661973
6.205238139481,0.00386185
6.205319111328,0.0104103
6.20764679661,0.000602688
6.211804911047,0.00315169
6.212552067917,0.00846364
6.213976010463,0.000805699
6.218169185993,0.000603262
6.218269840785,0.0062132
6.223558844142,0.00393776
6.225224101746,0.00151859
6.225818454304,0.00659814
6.229818651286,0.00398652
6.230791325904,0.000603628
6.232694612658,0.000604441
6.234205095453,0.0134311
6.235032632927,0.000604165
6.236738695218,0.000604539
6.237185216533,0.000961739
6.239239955094,0.000484709
6.239972589109,0.00984627
6.239982194882,0.000602967
6.244830408747,0.000605499
6.246041160771,0.000604342
6.248792076154,0.000604789
6.250200843988,0.000710318
6.25521987689,0.000932138
6.257468409816,0.00544394
6.260311850218,0.000645524
6.26111977051,0.000945098
6.261746043112,0.000682543
6.265687609538,0.000714313
6.265978232483,0.0169702
6.269111610208,0.000827504
6.27076472942,0.0449578
6.271012168772,0.000604269
6.273021023967,0.000603207
6.274591014629,0.00157826
6.279912614178,0.006797
6.285031378318,0.000602709
6.285179999295,0.000484686
6.288771854895,0.000839194
6.288811911651,0.0356362
6.288887126745,0.0543903
6.289488788931,0.000602055
6.289861040232,0.00060531
6.291050940856,0.00971508
6.293043794064,0.0498199
6.295342324512,0.0224545
6.297643108148,0.000603517
6.298347832042,0.00216817
6.300428304836,0.00275275
6.307619445324,0.00915063
6.311847624058,0.000658102
6.313567706214,0.00484305
6.314202414625,0.000626577
6.314371036616,0.00909749
6.314664542609,0.000601612
6.316492693978,0.0875316
6.321806694718,0.000604545
6.322754525626,0.00378477
6.324203497732,0.0048863
6.330976279295,0.000601456
6.331090913988,0.000601456
6.332447964597,0.000601456
6.342897357667,0.00913688
6.343200664709,0.00644852
6.34517090054,0.00244522
6.346002462083,0.000608368
6.347609636933,0.000602855
6.348622599574,0.000603207
6.355473998373,0.000775896
6.355529819397,0.000854241
6.356182925767,0.000720455
6.356232221767,0.000672356
6.361234367973,0.00518321
6.362777212171,0.00112664
6.364072658029,0.000732188
6.365853206075,0.0170517
6.367399672223,0.0170342
6.368971642069,0.000603562
6.372694081021,0.0249013
6.374728161183,0.0323275
6.381124710555,0.000676739
6.385437636024,0.0016107
6.391530978849,0.000671333
6.395284138739,0.00369932
6.395558335458,0.000602625
6.395855219606,0.00468553
6.398849134739,0.000835534
6.401119803539,0.000603888
6.402956962895,0.000603994
6.403093861715,0.000604524
6.404716705929,0.000674101
6.407586398029,0.000652765
6.410120178845,0.00521207
6.412013623927,0.00060295
6.416726092031,0.00730471
6.42282922988,0.00125935
6.424731368231,0.000603554
6.425916298783,0.000653362
6.426656117017,0.0177129
6.431922653271,0.000603465
6.438596120681,0.00106758
6.439104818351,0.00060656
6.439549356723,0.000964556
6.444849493953,0.000483117
6.446687256861,0.0175899
6.447652643463,0.000740941
6.449055980729,0.000835687
6.452774880637,0.00060476
6.453781043497,0.00113843
6.456300347723,0.000715321
6.456904978993,0.0284204
6.458208089889,0.0406981
6.458744447419,0.000604142
6.459088936924,0.00076388
6.461193741957,0.0720546
6.466428111659,0.00580329
6.467533353262,0.000976877
6.469649175495,0.000604817
6.473316137841,0.0444618
6.473792111395,0.000683588
6.474943281631,0.00165342
6.477655370677,0.000974691
6.478190372335,0.000931827
6.482614988679,0.0528593
6.483017644216,0.000608224
6.484355971076,0.0376695
6.484599758676,0.00412136
6.486074465043,0.00079034
6.490044476297,0.000897082
6.490211939369,0.0298255
6.491713464789,0.0627086
6.492725074766,0.0634729
6.495823953179,0.00864678
6.498869772636,0.000485565
6.505959378658,0.0113448
6.508273446743,0.01886
6.510005577885,0.000738556
6.512419148459,0.0519522
6.512489576491,0.000870466
6.514116705967,0.0184824
6.519775074675,0.0118289
6.521310354628,0.0389083
6.521777738724,0.000602039
6.522554822892,0.0226112
6.52470697787,0.123641
6.526033853817,0.000603835
6.530404960205,0.000605344
6.530889735567,0.000601857
6.531221328289,0.0212227
6.532346958063,0.000740745
6.533872723391,0.000603146
6.534208668883,0.000652453
6.537057826063,0.0111341
6.538224665605,0.000894352
6.538780070963,0.00151358
6.544556172163,0.00060415
6.548553896965,0.00474285
6.550368493225,0.000731965
6.553187195831,0.00310108
6.555204406217,0.00916718
6.55582198851,0.000681666
6.556752333906,0.0217271
6.55727272485,0.0199528
6.560178913558,0.000603722
6.564459336964,0.0244085
6.564549120252,0.0157358
6.564703176316,0.000905994
6.565613852216,0.0344878
6.569466153731,0.000601456
6.57712036681,0.000603512
6.577300497313,0.000604155
6.584186754425,0.000603879
6.585172773563,0.0140289
6.591822775845,0.000601456
6.592674105836,0.000601456
6.595082354878,0.000602653
6.60020329872,0.000603185
6.603298727728,0.00902655
6.608293443316,0.000601456
6.609303838069,0.00120591
6.609906901163,0.0009806
6.610405958659,0.000668422
6.611477626417,0.00310985
6.612914552768,0.00448392
6.614661119958,0.000604273
6.617819931778,0.00803199
6.61866522643,0.000652644
6.619514299894,0.00138966
6.620136537088,0.00685515
6.623750888902,0.000601456
6.625285972394,0.000601456
6.626277902137,0.000601456
6.626788541266,0.000601456
6.630995170389,0.000919327
6.635282151953,0.000602792
6.639781079224,0.00548605
6.64064701728,0.000483639
6.640883729858,0.000601774
6.64268085492,0.00419374
6.645690344928,0.000603572
6.648594165226,0.000602834
6.649182455293,0.000601714
6.650210001763,0.000603806
6.652250723679,0.000603769
6.652521846591,0.00048319
6.657686580616,0.000711842
6.65884614253,0.000604773
6.662625664832,0.000601737
6.663437687929,0.0115303
6.663505488846,0.000604024
6.664228203638,0.000602501
6.665265242642,0.000603404
6.666752359624,0.00183248
6.667601318966,0.030934
6.669592913123,0.00136928
6.670090119968,0.000602318
6.671287497845,0.000603854
6.67149340884,0.000602533
6.673189345783,0.0186558
6.676344404843,0.000601456
6.677114201958,0.000601855
6.677181024235,0.00104672
6.677396816505,0.000601928
6.678512906558,0.000601456
6.681803426859,0.00130989
6.68573469214,0.000601456
6.688319731957,0.000601456
6.690394376441,0.000601456
6.693812580916,0.000857467
6.696381153225,0.000481488
6.700943402445,0.000601456
6.70513326515,0.000602644
6.705169927884,0.000601456
6.706868938847,0.000601456
6.709272621888,0.000601456
6.709572743493,0.000601456
6.711764107654,0.000603309
6.715136166895,0.00223588
6.716951841749,0.00475416
6.720087269615,0.00981729
6.72255276171,0.000603313
6.729989677268,0.00888793
6.730305109764,0.00064724
6.732727310334,0.00865616
6.735916105274,0.000722605
6.736722461684,0.000659301
6.738092454897,0.000644022
6.73996314623,0.0192465
6.739981385238,0.000602787
6.747668617492,0.0185594
6.748069636719,0.000856809
6.749088521503,0.0184094
6.750375461659,0.00729564
6.752513912313,0.000603544
6.756170937739,0.000624932
6.757251678435,0.00287835
6.760440460437,0.000995272
6.761662987341,0.000603695
6.762618940317,0.0111323
6.765216024863,0.000601456
6.776910910566,0.000603243
6.778069169987,0.000603576
6.77906054294,0.000690529
6.784870490084,0.00345288
6.786955500704,0.0126232
6.787078033318,0.00241329
6.787839258325,0.000648841
6.79170289337,0.00300308
6.792095904344,0.000604127
6.80416585389,0.0239609
6.811646055474,0.0213302
6.814314532012,0.0288243
