time,RcpSim1.flowGenerator3.flowSynSize:vector
0.000032529564,36
0.000734260169,803
0.000821527872,1
0.001003459007,6
0.001682223062,21
0.00175939121,4884
0.001971432875,7
0.002088630488,16
0.002170956484,5
0.002272448001,33
0.002307338293,12
0.002362611961,32
0.002634360214,27
0.002906560024,33
0.003107844481,506
0.003139773751,64
0.003428874658,37
0.003641453532,22
0.004227229665,53
0.00440423028,588
0.004435786804,2260
0.00445748241,14
0.004503326281,41
0.004816228828,16
0.005008897816,2
0.005088945361,59
0.00566597699,5026
0.005668386846,510
0.005790025771,36
0.006188126598,2896
0.006223095926,43
0.006424457047,87
0.006558946327,39
0.006662816565,7
0.007148543532,14
0.007555881099,3999
0.007785723682,18749
0.007821648342,1190
0.008305800403,22
0.008411137936,5
0.008517130934,52
0.008803609834,774
0.009047238667,1349
0.009092695852,4
0.00915576644,626
0.009206050484,2
0.009252733295,19
0.009574096125,10
0.009622381382,3
0.009700066234,1389
0.009966476914,5
0.010258351015,37
0.010282838934,126
0.010629774048,510
0.01068544811,36
0.010962413997,57
0.011001722644,516
0.011044369591,14
0.011301125651,1917
0.011560224822,1926
0.01157126473,20
0.01163699786,5197
0.011759827557,2634
0.011816893502,23
0.011913341897,7
0.011948554687,2862
0.012021229796,624
0.012328083778,3226
0.012542544214,595
0.012764635962,2897
0.013160509444,1223
0.013205069268,19574
0.013521032666,6584
0.013768248343,36
0.013785174702,1
0.013822296603,2
0.014018872905,6090
0.014238421273,1001
0.014247866183,262
0.014252369062,2026
0.015662706068,20
0.015686705868,457
0.015716619993,19
0.015891024738,988
0.016221163733,41
0.016834358741,15050
0.017451281215,15
0.017510025454,1262
0.01753466661,5
0.017725602075,4
0.017798353912,41
0.017925990485,44
0.018430888635,5
0.018534114178,20
0.01876011344,3743
0.019019939042,20
0.019191592497,6
0.019264675134,6
0.019304141608,3494
0.019970826009,53
0.02032976227,1
0.020509397165,4
0.021227901804,554
0.02159104378,15
0.021714991348,4137
0.022090768009,18
0.022291830863,3831
0.022522988033,20
0.022691516321,48
0.022818628461,116
0.022862051342,3
0.022879383904,95
0.02319371619,104
0.023270978411,208
0.023375731801,7
0.02392019312,122
0.02429107498,6026
0.025054785725,18
0.025779055656,666
0.026505592361,16
0.026663804201,5
0.027037679157,58
0.027311304033,36
0.028144883649,48
0.028193961135,637
0.028285540329,36
0.02833582641,66
0.028583201789,5712
0.029055763269,3
0.029272644544,1104
0.02927432453,61
0.029430960659,3
0.029576442199,474
0.029621029958,7
0.029953892552,52
0.030112280276,1283
0.03122864772,5457
0.031505791366,2
0.031803112634,118
0.032369067968,66
0.032711167002,2996
0.032742034116,7
0.032839609227,41
0.032980919565,3496
0.033014543613,7
0.033530322053,31
0.033543870033,34
0.033868126477,1482
0.033886151562,3177
0.033917349693,63
0.034506585479,9
0.035061574487,29
0.035134518997,413
0.035224211889,27
0.03524809169,101
0.035730108314,1006
0.03581416202,6
0.035837801823,336
0.036102969963,840
0.036344190807,615
0.036594971043,4644
0.036719940202,260
0.036777414934,388
0.036929001157,3000
0.03695708254,28
0.036978886412,1007
0.037113320753,27
0.037352618039,1089
0.037556951089,18
0.037714972728,28
0.03880818765,38
0.038881936285,1019
0.039200312617,1
0.039323609035,3252
0.039620558043,472
0.039866695422,2961
0.04025934152,49
0.040452767889,4
0.040507776826,6
0.040560976367,250
0.040592866364,6421
0.040756178614,1247
0.041325097617,3
0.041572122014,42
0.041874728017,28
0.042038162814,5690
0.042603504022,109
0.04321459198,35
0.043268598729,31
0.043324483193,16
0.043787966356,5326
0.043878630154,1087
0.044458501774,104
0.044621141,21
0.044682776164,1144
0.044748526515,3495
0.044965570192,1
0.04514633538,1152
0.045208409779,225
0.045669306817,8
0.046458662193,24
0.0468122791,109
0.047000768697,53
0.047027343109,1
0.047541406245,3053
0.047725902982,727
0.047766760093,28
0.048083993567,45
0.048920700742,44
0.048962379519,1
0.049006567053,258
0.049026934855,18
0.049081800121,3740
0.049187299549,1098
0.050041042433,4736
0.050194800675,619
0.050246294904,78
0.050326469877,1968
0.050689937073,4
0.050875875516,10
0.05095399307,45
0.051459546837,7
0.05247191948,952
0.052847618796,13
0.053812824715,44
0.053897171345,650
0.054172414265,4886
0.054230318575,18811
0.054360096795,3
0.054575590879,16
0.054707427516,1037
0.054988310613,50
0.055406574348,1026
0.055508054586,14
0.056068743513,3
0.056753712857,52
0.056854222201,4430
0.056865445814,6
0.056886999473,744
0.057017114753,10
0.057104472951,1
0.057289447382,33
0.05740123893,2
0.057675941086,5
0.057749724699,2
0.057819973317,51
0.058443980375,17
0.058489671785,5
0.058662814737,20
0.058945062915,2534
0.059102038562,64
0.059169357402,16
0.059246021868,80
0.059476700303,19
0.059477942511,6
0.05955876731,16
0.059604133432,19
0.059645839318,5
0.05985281345,118
0.059906125602,100
0.060071826971,2174
0.06056829696,37
0.060774621766,89
0.060822157201,30
0.06097009738,1
0.061277855346,20
0.061283255301,16
0.061387576692,6556
0.061819113029,1346
0.061857990994,1594
0.061858250942,783
0.062443220184,32
0.062450349918,203
0.062575734878,1476
0.062772987904,6648
0.06344075915,38
0.063755318667,38
0.063838930382,84
0.064051000969,38
0.064080256603,7
0.064105484274,1013
0.064125219979,29
0.064163651685,981
0.064170305997,3
0.064341842198,2605
0.064636294575,8
0.065049275876,6
0.065395730734,2
0.065730007652,5
0.065732287633,5105
0.066186121359,16
0.066273908371,1214
0.066683740942,2
0.066783811535,221
0.06689809851,4115
0.066971353486,754
0.067023433215,88
0.067123261608,424
0.067252611526,1
0.067531464879,6
0.067535432045,4
0.067558260241,20
0.067573605901,29
0.068213721423,97
0.068296699762,19
0.068407699147,14
0.06844070778,6537
0.068608044901,4
0.06916068895,17
0.069171732158,7
0.069579229868,9
0.069603596065,13
0.069769694273,113
0.069831633896,959
0.069835593863,30
0.070081827674,3
0.070291960103,16
0.070754872792,940
0.070761832734,20
0.070846934745,48
0.070962349272,14
0.071098359393,240
0.071373719895,2270
0.071589371767,8
0.071913485803,5177
0.072478132751,1063
0.072518670963,1913
0.072903222121,1
0.072917981998,6676
0.073005334238,3194
0.073784226546,4
0.073870654385,2
0.073923646989,406
0.073983745588,47
0.074448613126,1611
0.074537074754,168
0.074809811856,98
0.074905530609,11892
0.074919213423,42
0.075000125376,1084
0.07522198311,23
0.075387599021,56
0.07587251613,5
0.075982935845,7
0.075987975803,111
0.076281134771,31
0.076329380869,51
0.076380867931,78
0.076501675263,15
0.076832633609,969
0.077086968474,503
0.077172582295,43
0.077269647636,18
0.077607457218,6
0.0776096172,3
0.078175367704,4117
0.078202492408,1095
0.078208336799,30
0.07874025846,14941
0.078916308592,15
0.079013118373,292
0.079070573273,4
0.079331893618,15
0.079480538563,5
0.079860168859,1019
0.08005379609,9
0.080548207791,3
0.080996315002,28
0.081033155567,18
0.081153715142,5
0.081993513115,1429
0.082253740616,7
0.082333811757,13
0.083076640014,344
0.083091202549,107
0.083222170686,53
0.083582682424,258
0.083664303181,18
0.083859123987,4811
0.084116776743,2127
0.084304260602,24
0.08445393702,4515
0.084475884654,3
0.084605109834,854
0.084719099754,901
0.084853699448,53
0.085590137173,9
0.085756882546,1
0.085817317677,1148
0.085966297321,598
0.086013374622,913
0.086364162335,38
0.086587394445,16
0.086741655821,3706
0.087034548146,858
0.08709076253,4856
0.08713499511,223
0.087800502444,1043
0.088092828566,34
0.088507347453,5668
0.088969337724,14
0.088975742241,84
0.089783462559,1
0.090183756237,5723
0.09027652833,33
0.090302823636,4534
0.090361284417,356
0.090384067634,20
0.090491543771,47
0.090665956749,9
0.090910495931,157
0.091133623554,4077
0.091317565547,2
0.091337245383,4589
0.091454834509,76
0.091709019871,42
0.093048790364,4581
0.093165688917,1501
0.093326684611,30
0.093557671523,4226
0.09359249916,33
0.094256708948,183
0.094717650122,2
0.094915245639,10
0.09495248046,28
0.095070253845,6
0.095106443274,6346
0.095166399631,4
0.095182974423,7
0.095271009215,50
0.09534076664,631
0.09571998563,1
0.095778525465,1
0.096142199168,43
0.096968769888,25
0.096983350726,1
0.097377924783,45
0.097385364721,11
0.097658009586,1876
0.09778417277,5
0.097881697028,25
0.097943042186,50
0.098250321054,6
0.098359296372,5618
0.098562405375,6254
0.099061077012,59
0.099288350412,1524
0.099366928642,26
0.099378448546,19
0.099440984861,3048
0.099475115477,28
0.099954530883,113
0.100333665337,5244
0.100631764458,3259
0.100951460354,17
0.101247809991,2910
0.101536666917,2229
0.101754386524,2
0.102988668614,43
0.103061031448,38
0.103259056605,3591
0.103913647721,6464
0.104052475071,73
0.104382147002,27
0.104505923895,108
0.104600275512,20
0.104630826382,1325
0.104654635108,6
0.104867914403,48
0.10515600881,133
0.10528996406,1
0.105348077367,22
0.106204983696,15
0.106223724824,39
0.106249630433,126
0.106314051797,17
0.106489646336,5717
0.106772459232,23
0.106794899045,1481
0.106874838445,16
0.107871695215,109
0.107882133653,1636
0.107972845197,2610
0.108171007925,70
0.108202853793,12
0.108322732822,3192
0.108340812974,13
0.108364060594,5850
0.108746902681,121
0.109020153326,198
0.109071417948,1253
0.109081882885,3
0.109322057722,3
0.110220013116,1
0.110458148612,37
0.110518571202,3
0.110642530941,556
0.110936244,34
0.111602344067,107
0.111714944856,1
0.11222409059,4220
0.112287258507,31
0.112420938346,17
0.112684940312,1242
0.112750012733,4
0.11295056937,159
0.113008918936,2684
0.113030119297,8
0.113229244215,14
0.113572018762,105
0.11360554666,37
0.113915035219,1911
0.114438708462,27
0.114494836847,20
0.114549541008,284
0.114639879879,119
0.114872044213,667
0.115071292586,4
0.115088572442,654
0.115302966319,1001
0.115395131439,2
0.11570602379,9671
0.115854167978,8349
0.116117662387,1034
0.116186639926,2500
0.116370981032,1
0.11647990125,24
0.116585097108,657
0.116696461335,1263
0.116755707619,18
0.117083693633,511
0.117288515935,2623
0.117372907128,44
0.117391386974,3359
0.117392586964,42
0.118311365026,28
0.118343197244,31
0.118582954641,17
0.118751881876,35
0.118896135038,2
0.119390544792,34
0.119414149265,56
0.119450879772,23
0.119635616756,6
0.119962131638,251
0.119988411967,90
0.120038251285,38
0.120199713043,10
0.120832781769,37
0.120993826661,549
0.121481935032,14
0.121500889389,19
0.121623913583,586
0.121663012448,38
0.122037511196,8357
0.122678917649,1
0.12282707508,26
0.124032396034,15
0.124292691994,1318
0.124533965118,2
0.126046048071,2934
0.126453846648,468
0.126644605939,1214
0.126696261237,19
0.126698061222,52
0.12710416893,3517
0.127276784951,4994
0.127376435046,1
0.127453279288,17
0.127889967219,20
0.128391242775,66
0.128396885928,53
0.1286214433,2432
0.128673778278,12
0.128713497947,102
0.128775801526,4
0.128840832139,2
0.128983652799,52
0.129079210105,1377
0.129137709943,888
0.129271207985,2532
0.129472189228,41
0.129681396718,1140
0.129942261752,1
0.130015436938,98
0.130174681914,3
0.13047585054,44
0.130671068648,26
0.130814108618,1569
0.130857316116,327
0.130869439318,4
0.131076237923,1153
0.13120945698,31
0.131389778552,4
0.131408378397,705
0.131521666765,16
0.131558795557,2
0.131593478468,11
0.132104930479,19
0.132976578187,4
0.133419264411,12
0.133445413836,99
0.133581948645,456
0.133609078741,9
0.133650602282,605
0.133881702111,1571
0.134208608118,12364
0.134273398187,53
0.134283718101,2636
0.13436772232,2833
0.134382515116,44
0.134522127488,27
0.134824405334,45
0.13490892576,16
0.134955088254,3519
0.135012510555,125
0.135458866341,22
0.135527168353,2274
0.1355813472,2109
0.135938013439,7
0.136551930988,4110
0.13660063181,66
0.136686513076,44
0.137083421767,3793
0.137111710811,18
0.137890467388,15
0.137949063859,5
0.138204913302,40
0.138740976591,13
0.138904465874,46
0.138990281208,49
0.139095739115,25
0.13933065632,1
0.139339536246,858
0.140064801519,14
0.140762012814,50
0.141219938819,17
0.141556833508,524
0.141718942412,3
0.141859987394,2367
0.142000889524,36
0.142007674691,8
0.142169223726,223
0.142226682584,161
0.142231005848,16
0.142886069825,23
0.143047844659,5
0.143335785392,52
0.143893168598,15
0.143901208531,46
0.143988672339,1270
0.144071198791,3144
0.144196996232,8
0.14426443771,14
0.144396470477,250
0.144500959451,563
0.144757163143,70
0.144792425933,8
0.145003490133,423
0.145055385215,51
0.145164164098,7
0.145319280553,7
0.145681509506,15
0.145701603747,3
0.145757741467,1011
0.146047532846,52
0.146625573037,1
0.146993782574,769
0.147153063714,1236
0.14724880457,22
0.14745996308,24
0.147514850243,33
0.147548275823,3315
0.147787980609,4
0.148455938678,27
0.148567284908,63
0.148615710243,1
0.148677856182,2792
0.149061158832,14
0.14910744749,265
0.149281123661,2228
0.149810155202,268
0.15007703002,23
0.150221465008,2666
0.150342722153,14696
0.150459871153,5
0.150538868272,1862
0.150725886862,3
0.150888827262,2416
0.151300626333,407
0.151388798318,5706
0.151447809498,823
0.151623813413,691
0.151753537627,1062
0.151940615559,188
0.152406598308,35
0.153278643604,1331
0.153331911538,696
0.153812838711,2
0.154042120457,117
0.154319670316,1135
0.154677770708,21
0.154776991067,18
0.154885976666,879
0.155381556064,22
0.155409159034,18
0.155525594514,6646
0.155833762514,16
0.15586904222,306
0.15626929658,27
0.156323564083,520
0.157109879421,1193
0.157222130102,51
0.157387642746,1311
0.157431875456,41
0.157607340093,215
0.157904185581,1219
0.158392391272,3
0.158965427064,41
0.159037305674,21
0.159335355871,7
0.159494611648,28
0.159931924936,81
0.160181790613,67
0.160258745301,36
0.160767332039,329
0.160865623669,14
0.161604466922,72
0.161659549479,3396
0.162273248233,53
0.162281984891,450
0.162977219244,7
0.163237731398,43
0.163286803002,28
0.163305771325,6573
0.163567755721,2
0.163648048992,58
0.163650808969,1515
0.163881753786,9
0.164508110254,108
0.165151903918,2
0.165280709202,22
0.165522396306,29
0.165624858761,971
0.165808987847,46
0.166086152785,6479
0.166438099906,3080
0.166492324378,628
0.166627505416,47
0.166635564267,841
0.166779304154,12
0.166981554678,619
0.167274263129,1439
0.167305795011,40
0.167444235891,83
0.167779854139,18
0.167819573808,113
0.167918467677,47
0.168037555312,14
0.168309405757,8774
0.168378988118,2581
0.168797848198,19
0.169055078136,2162
0.169090907693,17
0.169114430697,16
0.169176937298,4167
0.169253381234,18
0.169522478241,383
0.170091308047,15766
0.170104611354,43
0.170111436067,14
0.170184457172,3
0.170430266439,1002
0.17046486534,51
0.170829178459,44
0.17115993756,15
0.171690818957,21
0.171936164595,834
0.172020813246,20
0.172238841539,48
0.172419513236,2931
0.172530875856,1325
0.172610675828,2
0.172687277711,14
0.1729872959,4340
0.172998900852,4
0.173018026866,126
0.173112103154,9
0.173179010543,31
0.17366670006,50
0.174079315366,16812
0.174211356875,51
0.174271182375,66
0.174309786448,15
0.174417948965,2211
0.174437324068,17295
0.174527450112,1000
0.174694777882,1251
0.174932927386,18
0.174992332817,2
0.175098210991,921
0.175229757701,93
0.175469995244,6
0.175621452214,1413
0.175674700729,44
0.175748295921,30
0.175763175797,730
0.176209159582,4
0.17625203553,3505
0.17674533358,15
0.177114081871,50
0.177154272795,18
0.177198141187,15446
0.177325984844,6164
0.177710885936,4
0.177804721212,43
0.177832928911,38
0.17792217224,637
0.177949153542,5598
0.178193164097,29
0.178341503531,5
0.17854734094,1654
0.180049626346,314
0.18005058964,3
0.180498860918,1393
0.180650196797,32
0.180900202587,650
0.180938233897,43
0.181309512887,26
0.181398213181,1109
0.181469442568,19
0.18159568842,38
0.181625015106,905
0.182044371029,2251
0.182664892549,275
0.182696629215,434
0.182822687039,3793
0.182889300769,1
0.18290478064,7
0.183016431953,1689
0.183030980184,1814
0.183194250963,4
0.183219450753,903
0.183766084686,152
0.183799347848,1
0.184017537393,561
0.184845044664,3
0.185584722347,116
0.185649183988,43
0.185852658116,104
0.185936274934,6
0.185945454709,29
0.186175732351,2
0.18722054452,1033
0.187580552399,33
0.187607675373,32
0.188085755286,980
0.18817707125,6129
0.189168878493,2057
0.190025311793,14197
0.190221388848,42
0.190556895611,42
0.190882797953,117
0.191110623412,46
0.191268268109,512
0.191960446826,45
0.19223578113,12064
0.192596479988,4
0.192815852839,1397
0.192932642052,34
0.193744345439,1197
0.194657724907,3557
0.194867938491,2
0.195236448896,420
0.19568769832,2
0.19590477902,6
0.196004391863,1160
0.196243967695,794
0.196655696567,233
0.196771057092,1
0.196985939828,604
0.197161320635,181
0.197203496445,64
0.197286055428,5
0.197452228765,1
0.197718159817,19
0.19817065673,16201
0.198482558158,1175
0.198689498633,51
0.199023305664,7
0.199114477901,4
0.199166921193,8
0.199454081226,12
0.199536494756,1307
0.199626049282,772
0.199633205875,215
0.200181675485,254
0.200644559647,82
0.200677793693,646
0.201183180573,3137
0.201395750296,2090
0.201473745263,3591
0.201989049607,17496
0.202113800775,5772
0.202142737412,18
0.202302114955,741
0.202423680613,4061
0.202605903876,34
0.20267198714,879
0.202731727304,969
0.202792101818,104
0.203357840033,17
0.203399049642,3610
0.203402780574,2558
0.203630641431,10
0.203642888807,342
0.204289085143,48
0.204408240423,3776
0.204479161789,6
0.205445357124,7
0.205780389038,1586
0.205960432186,18
0.206368523131,3121
0.206681464827,117
0.206749645255,388
0.206964022949,22
0.207157672226,2824
0.207195553734,2290
0.207492780764,1716
0.207545331679,19
0.208549113403,15536
0.209042278609,18
0.209116972988,58
0.209128852889,49
0.209346092204,22
0.209732617258,6
0.209777140087,29
0.210043255379,39
0.210052975298,1332
0.210138130406,2
0.210255293211,51
0.210351393981,1149
0.210780591123,16
0.211403724717,2
0.212043341813,21
0.212280983632,47
0.212604712596,3847
0.212783489521,19898
0.212854095906,401
0.212898416829,780
0.212992345462,2
0.213337179532,2184
0.213413054782,4335
0.213912144825,7
0.213945984543,53
0.214392689658,3154
0.214654623484,5186
0.215020530966,12186
0.215402911609,21
0.215409151557,24
0.216024648038,86
0.216235543043,52
0.216561321654,18
0.216700550973,42
0.21690144475,615
0.217105867869,16291
0.217124347263,285
0.217164690403,20
0.217174770319,49
0.217273320242,2524
0.217368125373,25
0.21742080005,3072
0.217520350383,1
0.21754899864,3071
0.217975349996,14
0.217997306107,107
0.218052591739,2941
0.218375059893,22
0.218404265589,3228
0.218750971565,52
0.218888360727,1726
0.219328083041,2111
0.219860726987,53
0.21986876692,38
0.220390289409,4115
0.220412758436,9
0.220482888549,17
0.220851702318,30
0.221117365312,3
0.22157953146,105
0.221688641564,5666
0.221942144829,31
0.222455524346,16
0.222622645037,6
0.222676755677,352
0.222712865753,4
0.222806240211,35
0.222999073255,2220
0.223071214301,16
0.223130372585,28
0.223222368523,22
0.223283021152,3064
0.223292459094,7
0.223866117552,4851
0.223877760755,10
0.223993663228,5089
0.224101161053,4296
0.22459063348,2463
0.224901424594,172
0.225469420879,5
0.225721963956,36
0.227155669824,9
0.227196909287,12
0.227536173146,40
0.227591549807,1661
0.227764936451,5863
0.22781810581,9
0.227827825729,17
0.227862024508,680
0.228485966062,104
0.228496525974,2919
0.228594007776,46
0.228661233158,27
0.229086118564,34
0.229211064084,3
0.229263049719,19
0.229440348403,16
0.229828677734,3
0.229959779307,7
0.230000166477,476
0.230143698231,49
0.230707752479,1191
0.230857206716,52
0.230978015333,11
0.231267014518,10
0.231314223941,115
0.232045230111,100
0.232677308192,4673
0.233081442222,5
0.233348400671,42
0.233395270629,8
0.233401630576,127
0.233546263547,21
0.234003228629,129
0.234107882089,1671
0.234315824001,277
0.234342418939,2
0.234407787044,5
0.234584935616,1095
0.234782600892,741
0.234785000872,13
0.234975404373,3
0.235010370976,4
0.235218986723,42
0.235352837653,3408
0.235368307385,23
0.235369387376,31
0.236017542888,158
0.236274964932,10
0.236630658113,2927
0.237409175082,36
0.237553371744,13
0.237656446252,9
0.237960015128,3
0.238077226626,46
0.238093628617,308
0.238108063007,1
0.238127169001,24
0.238216052285,266
0.238225172209,28
0.238494955466,500
0.238579578875,1117
0.239002516859,9329
0.239435377474,1819
0.239474166437,48
0.239560361533,14
0.239790852206,44
0.239831866453,117
0.239901389157,1144
0.239919269008,40
0.239976181308,43
0.240398063272,206
0.240453079546,868
0.240555598311,7
0.24095204093,23
0.24111882823,1
0.241397296383,5963
0.24144073239,5
0.241908104537,22
0.241915304477,23
0.242087197206,9
0.242180355317,15
0.24218959524,9045
0.242343880217,44
0.24242170844,26
0.242422308435,1056
0.24253902623,53
0.242624414916,2
0.24270162218,323
0.24285085975,7906
0.24332317944,17
0.243324859426,18558
0.243685173304,44
0.243813355753,6
0.243871627665,1033
0.244224116454,7
0.244419361019,22
0.244449847265,1
0.244611351041,50
0.245111623459,612
0.245195836868,2738
0.24558016841,528
0.245618349149,11295
0.246151256274,1135
0.246237811828,28
0.246297699624,6
0.246394769417,33
0.246481874826,2
0.246635343115,52
0.246834599313,2755
0.247466036622,1
0.247491003076,42
0.248069184006,2592
0.248310485868,520
0.248445628483,41
0.248479724802,597
0.248506532713,656
0.248566914862,108
0.248770401319,1534
0.248906578524,1025
0.248933776237,6
0.249223638088,1
0.249298088168,370
0.249449278814,5
0.249888599057,13060
0.249948050597,47
0.250067378783,25
0.250198064152,1488
0.250447654409,93
0.250807625054,4870
0.250962270588,254
0.250977390462,43
0.251204311555,396
0.251415422023,527
0.251803173825,4038
0.251896322693,2520
0.251981756194,1942
0.252274921851,17306
0.252690247398,17
0.252748683587,109
0.252834323613,19
0.252847283505,8886
0.252988685773,1591
0.253158640437,37
0.253306483133,89
0.253895526212,75
0.253934698904,27
0.253961860491,17
0.253962100489,516
0.254063831596,1446
0.254204558247,1
0.254497549466,2450
0.2545346365,13
0.254847399937,17
0.255000013212,17
0.255102144832,983
0.255147768057,20
0.255234962995,218
0.255821747403,1159
0.256718598599,18
0.256774769021,38
0.257548858088,53
0.25793526523,1488
0.258340522483,31
0.258593643496,28
0.258790238607,2
0.258858294283,15
0.259383383066,42
0.259427370219,22
0.259701483591,1116
0.25973701145,2206
0.259948398728,889
0.260499806279,3
0.261001050955,9
0.26102833069,15
0.2610714946,964
0.261318907574,9548
0.262123986457,12
0.262407707882,15
0.262495616739,67
0.263267672734,14
0.263466126362,19
0.264093673697,7
0.26436005379,48
0.264608327854,31
0.264822178958,893
0.264881469378,2
0.26508288516,12
0.265670704732,5
0.266144764402,4
0.266348251912,532
0.266380054565,10
0.266415648322,454
0.26648250343,614
0.266668916348,1332
0.26683968237,4319
0.267142812338,16
0.267304603027,591
0.267431891659,14
0.267573570623,143
0.268028107053,52
0.268060290625,81
0.268109322269,427
0.26824748732,743
0.268518920105,4
0.268543999896,4159
0.268666386884,21
0.268965888938,45
0.269493025439,47
0.269573231317,39
0.269677010525,2031
0.27011352115,229
0.270721704421,5
0.27100001635,4451
0.271208653538,708
0.272216402023,2
0.272444015185,46
0.272580929995,4
0.272668539036,6
0.272698027637,31
0.273520592411,8
0.273708682746,1153
0.273839459364,35
0.273868865619,14
0.274956686615,39
0.275019908851,57
0.275031788752,34
0.275213812597,41
0.275302746186,7
0.275480965506,24
0.275571757564,4998
0.275635855848,9353
0.276074767729,863
0.276419333806,26
0.276640866948,12
0.276652270153,3
0.277272513189,41
0.277284273091,368
0.277785179339,1029
0.277958585445,15
0.278198486102,139
0.278577909352,3488
0.278727432329,2962
0.279608552,21
0.279702153055,131
0.27972975352,338
0.279777270007,1593
0.279866501274,20
0.279928975057,993
0.280204188585,2
0.280300386135,29
0.280399172181,4
0.280562253934,38
0.280786783289,26
0.280809874628,878
0.280818141782,3
0.28167545555,13
0.281702205844,1215
0.282102957415,44
0.282144883278,33
0.282161099055,1274
0.282241685426,4
0.282328215253,21
0.282394621094,995
0.282401221039,14
0.282455768451,4680
0.282830114862,2039
0.282928080509,4
0.282990773569,6202
0.283012914681,4
0.283288245048,4545
0.283352901938,5491
0.284038539992,30
0.284737508792,55
0.284830472948,3554
0.284878024821,3183
0.284918682776,807
0.28507467174,41
0.285344020957,48
0.285447106366,107
0.28571716771,6
0.285854465269,14
0.286133086196,14
0.286225450421,4
0.286252690194,804
0.286701298417,2281
0.286811714896,50
0.287111578871,18
0.287117458822,98
0.287186539784,168
0.287229181549,28
0.287365899384,5
0.288153471941,136
0.288317144726,3347
0.288401500762,5
0.288448205321,1251
0.288857275122,11
0.289012948287,3200
0.289260468593,1227
0.289369896626,1256
0.289471554728,102
0.289485505672,2
0.289702385942,4
0.289712727211,12
0.289768581493,55
0.289795336334,54
0.289855763825,596
0.290274830338,116
0.290357226771,1248
0.291064801999,32
0.291160609243,7
0.291310169335,18
0.291467888676,934
0.291573697338,78
0.291663575428,4284
0.291768540835,41
0.292567444977,15
0.29266090734,74
0.293515659786,1062
0.2936453678,11
0.293663967645,11449
0.29378409766,18
0.293830635755,820
0.294187539331,2252
0.294189369538,13649
0.29422931643,1650
0.294485349027,1
0.295276379666,2573
0.295515171751,25
0.29600421065,2539
0.296313785647,4670
0.296571194168,87
0.297079157984,34
0.297112312967,698
0.297626898226,14
0.297749183796,396
0.298141593194,780
0.298196410705,1059
0.298306256681,964
0.298551026936,19
0.298669820898,12025
0.298950584426,36
0.298957904365,1
0.299429631363,5
0.30023224578,18
0.300537727763,16
0.301202723757,52
0.30125004818,53
0.301655349513,860
0.301892460598,714
0.3021353348,2492
0.302214548401,4948
0.302279834041,10097
0.302319973544,2
0.302344949848,1963
0.302763236536,30
0.302825796931,1204
0.302979593841,1073
0.303034879936,37
0.303236409552,14368
0.303603479288,11
0.303609839235,1136
0.304299945817,1005
0.304356636694,204
0.304385270654,675
0.304407719654,131
0.304542196451,34
0.304618120214,19
0.304940623761,653
0.305036065041,3
0.305072671181,1
0.305543069999,700
0.305773679575,1166
0.306043827768,28
0.306436535017,16
0.30662125098,6
0.306660569476,53
0.306819655441,822
0.306901246584,5
0.306913486482,15
0.307039150689,28
0.30707157398,3262
0.307090615096,21
0.307473406742,11
0.307903577255,69
0.307921941106,13
0.308215962761,3809
0.308230431709,2994
0.308384081062,20
0.308406267276,7
0.308407107269,14
0.308408180583,6
0.308530242712,20
0.308615826553,292
0.309108195148,208
0.30943852758,24
0.309473813786,2
0.309797006964,43
0.30982268675,44
0.309965544485,5713
0.31001006319,41
0.310160384387,4
0.310514816183,1897
0.310835081619,127
0.311000160373,38
0.311014080257,132
0.311715071148,27
0.311774137113,27
0.312315316128,534
0.312781801594,18
0.313028303048,15
0.313258627269,22
0.313420918334,44
0.313849018628,22
0.314259544476,3568
0.314395506708,35
0.314992886943,277
0.315384099801,710
0.315386379782,77
0.315421745581,41
0.315482775822,42
0.315812193511,1230
0.315911007848,2881
0.316137668731,44
0.316200998558,43
0.316915172384,5
0.316983516129,434
0.317012275379,6
0.317366467774,6
0.317574813952,39
0.317582493888,6
0.317839289258,9
0.318002304055,5716
0.318096419409,163
0.318654862019,50
0.318761848518,1112
0.318993235221,49
0.319116953324,3777
0.319440455211,2735
0.3194417752,31
0.319626331001,46
0.320161348848,4
0.32032434284,2192
0.320419900838,507
0.32047277868,103
0.320850203976,5184
0.321676255633,52
0.321938768919,1590
0.322008720679,4
0.322281468116,13
0.322309311084,6
0.32317295564,17
0.323253034749,4193
0.323522780335,904
0.323692087513,2293
0.323858592837,96
0.323905555107,5370
0.324042559229,672
0.324313938742,14268
0.324368829703,66
0.325063065005,6328
0.325335698919,11
0.325409592833,264
0.325452530328,1
0.325761976538,690
0.325783079767,237
0.325813238156,86
0.326634032808,2093
0.326731910676,2472
0.326870053316,4
0.327445270514,3
0.327681179997,23
0.327722979521,5582
0.327818958396,40
0.327825798339,5659
0.328843070924,1
0.328902510281,1
0.329364321788,4
0.329833471187,38
0.330111381536,2533
0.330187570812,40
0.330298446863,1788
0.330578474355,5532
0.330698602859,2558
0.331037008126,15263
0.331214138748,120
0.331478881,18
0.331939489332,46
0.332010145723,212
0.33225986824,1388
0.332360936402,2525
0.332513470584,57
0.332596938567,6
0.332972918636,2063
0.333692625655,961
0.334071718546,24
0.334250406318,48
0.334349919744,3253
0.334370054399,4660
0.334392334413,17
0.334700787098,37
0.334772539137,425
0.335005532764,2468
0.335180424775,181
0.335486484779,579
0.335576312497,4
0.335679121034,34
0.335780960818,32
0.335834326646,50
0.336362617884,61
0.336468013175,12
0.337252151865,20
0.337258255865,15
0.337299894943,5
0.337358522131,90
0.337553820849,7
0.337639594502,3192
0.33820326778,6
0.338335836946,1
0.338539387067,6429
0.338574068279,8
0.33865125159,93
0.338839242109,726
0.338846623261,5207
0.338872441991,773
0.339469771325,1
0.339745701028,1
0.339808408411,1298
0.339841085312,50
0.340483962854,15
0.340726872245,1279
0.341006654396,3
0.341262386418,645
0.341287966804,20
0.341464095264,1186
0.341682984459,3565
0.342015066891,35
0.342562446783,7
0.342781383692,389
0.343677362212,409
0.34394567456,11
0.344216674063,7
0.34427772705,23
0.344382415363,22
0.344845444882,10
0.345729103202,35
0.346029687509,5942
0.346559705065,17
0.346987424549,35
0.347100004316,53
0.347148216994,4167
0.347598469677,2305
0.347657729744,5
0.347941088221,23
0.34820044878,7
0.348539635127,8988
0.349534880432,36
0.349978875848,53
0.350011704276,327
0.35017729216,31
0.35038376525,19
0.350832073842,18
0.35100276001,17
0.351015774464,43
0.351057456193,33
0.351059422102,238
0.351463267079,39
0.351535007256,1
0.35168300633,28
0.351749080087,867
0.351808642263,1286
0.351885138377,2484
0.352112309295,207
0.352280830711,25
0.352376707368,12219
0.352385110599,2
0.352511532164,653
0.352593914867,3
0.352798809693,18
0.352877229744,18
0.353344938762,125
0.353521701426,20
0.353663244011,4
0.353715986337,1499
0.35374509662,70
0.353956595573,47
0.354089100754,4
0.354130527487,2555
0.354343434376,24
0.354437561363,2441
0.354945855118,12
0.355130566412,117
0.355152501035,17
0.355317905168,3102
0.355554862763,1545
0.355812242025,82
0.355972241465,41
0.356223593102,89
0.356315763103,3298
0.356446235725,4912
0.356533361752,46
0.356648638,19
0.356987370472,41
0.357034910977,4375
0.357414552738,181
0.358045610097,3
0.358082939175,16
0.358085883238,1
0.358104999002,33
0.358151121347,18
0.358217754699,574
0.358443510603,36
0.358475913533,39
0.358513019738,5042
0.358807807162,20
0.35888723797,26
0.359176138198,5166
0.359203233344,67
0.359468950572,1199
0.359511822348,10
0.359742208589,1071
0.360102781106,3657
0.360716795784,26
0.360893572275,1145
0.360955364852,7
0.361627193906,94
0.361887821232,779
0.362303176408,10
0.362502438214,663
0.362543331131,38
0.362896418141,606
0.363000140499,995
0.363053016083,17
0.363184930609,2
0.363374074215,626
0.363434145801,46
0.363510566543,16
0.363519508725,53
0.3638052795,38
0.364097787584,62
0.364158993594,30
0.364400909145,9
0.364437386713,28
0.364676006627,337
0.365220314723,3
0.365597155989,16
0.366092907713,303
0.366449806572,8
0.367535997463,32
0.367562997238,716
0.367822397218,50
0.367824437201,206
0.367942761162,392
0.368001779587,9
0.368224127931,10
0.368719376413,85
0.368797642832,7
0.369322837709,1543
0.369451294038,51
0.369513292879,7
0.370226986959,12
0.370304459664,2840
0.370527363165,1170
0.370632286557,44
0.371062667579,38
0.371348730571,26
0.371496636801,49
0.37182070185,630
0.372312465593,5360
0.372429445602,9
0.37285615101,465
0.372922902607,26
0.373487746341,1893
0.373490386319,18
0.373540820417,12111
0.373992163825,82
0.374466948664,38
0.374475708591,49
0.374719403713,2264
0.374788355794,524
0.37481702088,2224
0.374860487927,1340
0.374975132024,171
0.375073476675,1
0.375200031425,7
0.375297684175,748
0.375415138826,51
0.375498173181,51
0.375586817042,20
0.375606561391,13
0.376343899584,516
0.376431287678,2527
0.376636784236,2556
0.37697293834,312
0.377127221895,1609
0.377230143757,809
0.377460592667,6
0.37761443021,3
0.37764799895,45
0.377738977179,1
0.378408985168,178
0.378498013936,1
0.37859477686,374
0.378646376489,7
0.378782507966,45
0.378978508456,343
0.379012951006,64
0.379064090438,95
0.379111051295,90
0.37913560655,44
0.379486477228,38
0.379782554735,133
0.379788399366,3
0.379881459042,405
0.380284672461,21
0.381019347317,48
0.381081892461,36
0.38111301558,110
0.381459383648,1008
0.38147474352,2333
0.381608826863,5634
0.382019568739,23
0.382073340579,3
0.382081260513,4387
0.382096740384,47
0.382187130593,3
0.382334069338,3
0.382369876497,6
0.382390188036,14
0.382797738204,37
0.383135570106,5
0.383210819873,5
0.383529731305,117
0.383543231393,260
0.383629042634,1013
0.383688925536,3
0.384034328258,19
0.38419692568,3
0.384468923751,365
0.38446904375,4510
0.384494539955,16
0.384686209273,478
0.38490807474,691
0.385231179666,4
0.385371908483,499
0.385567553494,31
0.385792160974,5
0.386020204811,12354
0.386200392818,12
0.386202072804,1
0.386413276855,3693
0.386461639252,5659
0.386661991072,14033
0.387441093059,26
0.387617396995,3
0.387756125866,981
0.388051345429,47
0.388097933516,72
0.388144967178,53
0.388274421905,49
0.388281861843,2
0.388361984941,1100
0.38838044941,4
0.388418068614,1303
0.389068881735,16155
0.389263866019,6068
0.389365714401,370
0.38957671762,1
0.389686109341,27
0.389692617593,3
0.389867507403,16
0.389923957142,1
0.389995711409,39
0.390415637089,31
0.390499607289,7
0.390518450332,45
0.390547730088,133
0.390806624319,29
0.390808845606,36
0.391103855582,329
0.391298984835,919
0.391357974907,80
0.391433183871,1163
0.392363935069,28
0.392422107234,529
0.392426238085,7602
0.392583477249,16
0.393115918255,17
0.393266191023,39
0.393373168007,3116
0.393607394136,4331
0.394451832842,51
0.394452432837,10882
0.39453917765,2
0.394778622508,1
0.39497444574,84
0.395156130288,3859
0.396164125197,3
0.396296395648,31
0.396434063658,5751
0.396909377624,7432
0.397144478812,2264
0.397825049429,3
0.398318735241,52
0.398505330436,1107
0.398575823649,407
0.398622173618,2
0.399394150355,101
0.399394870349,1
0.399449801515,11
0.3996598897,5500
0.399684944687,17
0.399784843117,1636
0.399864085385,299
0.400447781594,25
0.401309406541,5
0.401952918087,42
0.402046757342,375
0.402372297629,28
0.402438909086,15
0.402721815085,2832
0.402796135645,724
0.40282251759,17802
0.402882565288,48
0.402931397512,45
0.403081807667,1184
0.403163586478,1840
0.403239138025,54
0.403741085349,15
0.403846851004,7
0.403982019846,11522
0.404129448277,29
0.404333896379,30
0.404431286776,7
0.404468538122,927
0.405250805932,43
0.405924544868,846
0.405986217724,4
0.406114419759,46
0.406154910712,25
0.406178740806,41
0.406345411292,188
0.406937740455,35
0.406948486301,53
0.407094932665,1
0.407120012456,683
0.407320286114,18
0.407481694966,3054
0.407488618903,20
0.407605505733,2730
0.407674282309,4
0.407866299173,995
0.407896996998,37
0.408487844778,2
0.40857587165,2600
0.408752799975,20
0.408850866006,34
0.408961534718,50
0.409004100805,40
0.409118087551,3268
0.409504819078,32
0.409962864622,5
0.410003516122,16
0.410143455541,6474
0.410212303524,523
0.410702599929,7
0.411143943087,49
0.411294030288,1
0.411579044858,1181
0.412126848083,1109
0.412221834734,7
0.412541391271,4
0.412945678443,34
0.413066555527,12
0.413513060318,1854
0.413622110557,1314
0.413996637429,1084
0.414205717042,13
0.414238239971,12
0.41459140041,26
0.414844268521,1119
0.414892532978,20
0.414950255697,10924
0.414951335688,180
0.415084958719,15
0.415717400707,613
0.415853474778,1
0.416244130071,32
0.416681915109,34
0.416796762658,18
0.417226695741,31
0.417940967959,4
0.417979575104,21
0.418068661918,450
0.418158746742,116
0.418302258725,8
0.418646462546,5441
0.418710519447,38
0.418918137346,1
0.419903048768,26
0.419952444551,6
0.419975290205,36
0.420243658699,410
0.420514667624,1073
0.421942754948,34
0.422496201459,23
0.422618384539,52
0.422756628548,86
0.422810211893,20
0.422882648651,2585
0.423107227995,15
0.423726775696,2
0.423745235675,76
0.423978200981,665
0.424036246687,4
0.424643063623,983
0.424834914746,2024
0.424919908964,45
0.424986975311,908
0.425608212457,20
0.425977064264,27
0.426195703273,4203
0.426805589876,6102
0.427184819724,26
0.427198139613,48
0.427375655373,65
0.427651070591,45
0.428109933477,18
0.42813901131,1289
0.428168687901,41
0.428209438696,5
0.428654589509,2509
0.429091818776,5
0.429120261739,17
0.429488926018,18
0.429540267558,19
0.429600912764,33
0.429614232653,24
0.429903979618,23
0.429928496872,74
0.430030580078,15
0.430050198729,3239
0.430224973282,49
0.430429555628,2875
0.430447744085,7
0.430517979773,937
0.430581856815,5
0.430598539876,3
0.430629619617,5108
0.430639729883,515
0.430815867728,5
0.430913274011,16
0.431064109132,16
0.431257759333,32
0.431270599226,28
0.431396882653,7
0.431424027684,101
0.431757799917,53
0.432079899648,2443
0.432455786125,4
0.43258169867,2738
0.432583858652,1233
0.432599726707,30
0.432970748535,17094
0.433121257786,3
0.433965376717,27
0.434071568826,19
0.434168785653,827
0.434485456346,2816
0.434687089088,19023
0.434694769024,47
0.434734885528,1584
0.435621167161,54
0.435695076892,5769
0.435724659857,26
0.435861241613,714
0.436410118055,16214
0.436774452403,69
0.437708973253,82
0.437793802799,17
0.438627759926,22
0.438650132422,38
0.438864944618,1019
0.439324141198,24
0.439397286548,501
0.440192988092,2
0.440412947316,1164
0.440552318157,24
0.440785212122,46
0.440997921307,4
0.441042976765,8624
0.441283219012,37
0.441422573865,5290
0.441729328298,1012
0.441878311742,7
0.441976306727,1085
0.442133040695,3130
0.442202903478,45
0.442307768428,6549
0.443138176809,85
0.443298121171,15
0.443577114616,2
0.443582874568,477
0.443812116429,23
0.443850964582,25
0.44396424113,2
0.444049876587,51
0.444557332894,634
0.444573063503,17
0.444730430178,509
0.444977412512,39
0.445252130668,2836
0.44525933535,5685
0.446307811709,391
0.446442502729,1119
0.446625220797,9
0.446769712247,61
0.446871926247,28
0.447113265717,2
0.447301930199,1276
0.447762190798,6
0.447876587058,2
0.447953697536,13
0.448030771148,314
0.448868126065,25
0.449172822092,1095
0.449310727499,3
0.449553189633,1650
0.449916899459,42
0.449919779435,161
0.45028881814,51
0.45058949451,745
0.450656594873,227
0.450739877257,9
0.450934208638,39
0.451219120598,226
0.451704968078,42
0.451862878865,2288
0.452176282715,1
0.452277028138,38
0.45249432008,2761
0.452562268238,19
0.452835088355,2976
0.453004764475,2795
0.453302068659,434
0.453745717498,17
0.453904771933,4
0.45400085908,3
0.454224845132,2300
0.454306820083,1794
0.454773427827,40
0.45490476007,16
0.454918079959,5799
0.45496821631,52
0.455066712722,3
0.455084917112,3
0.455976836751,37
0.456057256653,43
0.456522394077,20
0.456568709064,2610
0.457531447688,4
0.458152930582,51
0.458288223344,45
0.458711154915,35
0.458826546255,6
0.459357773102,53
0.459463676638,1153
0.45947783652,10
0.4597031005,2
0.459734253014,29
0.460015361889,2162
0.460348700575,47
0.460391185757,28
0.460415899068,16
0.460423650068,6409
0.460769643646,34
0.461840771473,208
0.462655412177,26
0.462681655052,2
0.463019755463,705
0.463039817524,35
0.463494959977,39
0.463681292289,5833
0.46379758221,16
0.464600209691,18
0.464722694034,453
0.46477327051,3
0.465166430865,583
0.465319377325,50
0.466118982976,1876
0.466447859638,5424
0.466491196349,547
0.466522871437,3291
0.466545068786,185
0.466767407159,676
0.466782936427,160
0.466797190527,49
0.466996867834,6117
0.467050897626,1
0.467073817435,17
0.467567675938,5335
0.467573161006,883
0.467888631357,45
0.468006554919,18
0.468125504366,136
0.468185643217,3
0.468260124718,2742
0.468370551142,68
0.46840109247,6
0.468574555543,4815
0.468635492128,636
0.469097203441,5278
0.469146393729,1626
0.46937033629,1247
0.469414179031,8217
0.469426914151,106
0.469536310219,232
0.469542512375,9819
0.469655150675,55
0.469859698931,17
0.469954202332,54
0.470088784474,664
0.470095603363,20
0.470291503599,2183
0.470661486182,22
0.470673374788,2071
0.470801108799,37
0.471098862178,3
0.471174524533,52
0.471282847705,1004
0.471682495931,4
0.471700495781,2788
0.471956034596,14
0.472120091668,21
0.472321229192,3274
0.472489969048,5785
0.472615519735,1858
0.473091643648,266
0.473625647982,4
0.473715872781,47
0.473772727417,386
0.473796664175,132
0.473812909161,33
0.473842727567,53
0.473883085876,2969
0.473918777461,3
0.474015881949,266
0.474319233078,51
0.474932418541,12
0.475086774675,2435
0.475216137515,19
0.475520646702,961
0.475824679196,36
0.475990561221,3009
0.476573386134,97
0.476608278433,23
0.476622482055,6
0.476736150136,16
0.476765653651,371
0.476861139712,392
0.476874339602,129
0.477584647909,834
0.477958456388,16
0.478347871366,3244
0.478501868153,6
0.479218490741,31
0.479509938446,9
0.479548984994,45
0.479793670326,145
0.480019911723,15
0.480124244921,27
0.480256575652,2231
0.48058414149,269
0.480722929766,129
0.480932539933,36
0.480942019854,2279
0.481101354418,2618
0.481391730958,133
0.481720325754,124
0.481749444952,6361
0.481887400292,218
0.481902309634,75
0.482034005642,3
0.482087748336,20
0.482504989833,1003
0.482862527157,1287
0.482951825441,51
0.483261700413,59
0.483656278437,5630
0.483792079558,18
0.483896576468,13
0.484527191174,375
0.484980793561,1020
0.485073986467,459
0.485121651184,1
0.485403436855,39
0.485529108366,24
0.485623817388,39
0.48593899489,11
0.485993240838,121
0.4863479805,403
0.486961306568,4172
0.487098669269,2438
0.487207367709,159
0.48731152457,3
0.487822054423,3967
0.488047076215,895
0.488226314082,1785
0.488415636286,2924
0.488670125614,24
0.489330150277,23
0.491168382425,6
0.491198456158,4
0.491383549907,3
0.491643137936,809
0.491653447251,3697
0.49178522143,40
0.491806448529,53
0.491827659976,6
0.491981759827,122
0.492641711851,5120
0.493246920137,2
0.493443205444,16
0.493445485425,14
0.493470205219,6666
0.493799877666,2352
0.494015263592,1256
0.494084751047,437
0.494196689055,1
0.494858769169,376
0.495248440432,21
0.4963612238,2441
0.497300088172,1
0.498431701567,4813
0.49878631059,40
0.498818350323,113
0.498937391226,3
0.499057161721,20
0.499594444173,74
0.499985546467,14
0.50021329069,50
0.501163467314,42
0.501299741796,120
0.501676957272,4712
0.501681736545,809
0.501836656702,2400
0.501990585618,18
0.502371905754,47
0.502493380718,21
0.502726441283,30
0.502983020915,4811
0.503001400247,17
0.503090859667,4
0.503285097643,116
0.503540654642,6
0.503842809073,645
0.503856262887,18883
0.504014337873,4
0.504182317702,38
0.504348150933,3108
0.504528729815,4448
0.504875163281,42
0.505390083132,1021
0.505586867832,6
0.505904802107,1457
0.506044131973,22
0.506191157246,1011
0.506196810664,2510
0.5065111439,6514
0.506821012944,7149
0.50704930632,4
0.507090271497,45
0.50745138249,46
0.507646960941,631
0.507991481031,41
0.508201459265,343
0.508358498675,520
0.508365941932,20
0.508386451411,41
0.508575375122,27
0.508963669515,696
0.509715546706,6
0.510550170195,51
0.510554010163,569
0.510663006875,652
0.510956022345,175
0.511258864768,233
0.512439158766,14
0.513377841473,7
0.514260942315,7
0.514305927816,1073
0.515219555979,792
0.515304969224,1207
0.515479810607,16
0.515566276357,386
0.515697420508,11
0.515886120422,207
0.516106216296,1326
0.516250333708,3529
0.51631170148,33
0.517087572114,23
0.517122608066,61
0.517280733144,842
0.517458204672,16697
0.517972238463,387
0.517973558452,24
0.517982822799,206
0.518108372729,1643
0.518346717737,1067
0.518479566174,46
0.518504022558,38
0.518504689305,2
0.518533384508,5
0.518575452621,38
0.519173202894,6
0.519509993693,30
0.519891730663,13
0.520769077259,22
0.520832909296,2149
0.520885109516,6088
0.520979342378,1749
0.521151288635,133
0.52151017769,548
0.521886763149,182
0.521924640556,4905
0.521947949725,608
0.522177071342,48
0.522224098123,14
0.522321946496,4
0.522594121613,9
0.522622367467,16
0.522628385356,20
0.52322193144,43
0.523242867472,62
0.523709739399,14
0.524267348459,26
0.524393640829,2
0.524454287856,47
0.524881057259,863
0.525524613648,833
0.525632992069,25
0.525695691459,73
0.525738635157,1352
0.525798576183,2701
0.526066838034,11
0.526130678174,2204
0.526343559401,38
0.526488856267,673
0.527574505904,2628
0.527680299125,1222
0.527744495647,40
0.527752451795,438
0.528262287122,112
0.528599747529,1847
0.528713983103,14
0.528874766328,33
0.528887701201,54
0.529455892356,3
0.529541679138,21
0.52957179307,48
0.53007849378,24
0.530276594989,4692
0.531433512877,2753
0.531436082716,2410
0.531502676802,2797
0.531574231902,50
0.531596551737,3222
0.531738175629,577
0.53174629833,1309
0.531854036983,3750
0.532098064169,4
0.532514105111,1749
0.532698084396,3318
0.532881994253,47
0.533931323272,13
0.534148830882,2906
0.534270788983,2288
0.534971910467,6
0.535003217402,38
0.535082411399,1006
0.535163193199,492
0.535355819495,26
0.535384490877,2329
0.535492961964,45
0.535685191835,7
0.536565275646,4
0.536975611747,322
0.537569070196,3097
0.538321869973,3
0.538455732396,2290
0.538684662357,1771
0.539128586005,2115
0.539359371006,284
0.53938284035,29
0.54012391326,14
0.540210994072,122
0.540364374717,38
0.540391459982,7
0.540677168434,25
0.540945942971,1549
0.541416938385,6015
0.541457730051,2921
0.541833456007,4397
0.542218227027,31
0.542389757089,195
0.54253603902,2509
0.542714716077,1328
0.543252226171,52
0.543512505473,10
0.543610714606,6
0.543650786498,4
0.543951438063,36
0.544058964767,30
0.544209708812,1537
0.54424128839,2272
0.544583934979,6
0.545485743255,3010
0.545891724042,45
0.545953431922,36
0.546051274868,318
0.546379315426,18
0.548056083882,7
0.548181542659,13
0.548388458253,2079
0.548563588996,6033
0.548581472047,5
0.548588191991,33
0.548880185273,43
0.549319456259,5
0.549386895304,40
0.549397957967,89
0.549622528958,5
0.549733294756,47
0.549993198254,16421
0.550057796207,101
0.550378579054,37
0.550423351928,1203
0.550692760503,24
0.55079810539,16756
0.550924465875,4760
0.551017750907,18
0.551066663501,5
0.551192768302,5599
0.551332199417,329
0.551494750024,1
0.55170122288,122
0.551817097171,545
0.552332450996,1756
0.552476878005,12
0.552547592455,3848
0.552969134694,34
0.553163916583,15963
0.553669238546,591
0.553701655397,28
0.553768526037,14
0.554366501277,50
0.554868491778,6
0.555268596583,6537
0.555801803163,19
0.555822922987,8539
0.556312594964,12
0.557009117209,1900
0.557882467032,3123
0.558094105244,17
0.558505539905,115
0.558899093343,3
0.559232584712,22
0.559328673345,7
0.559345468836,1
0.559577149699,4
0.560169440903,16
0.560450840913,25
0.560762032043,7
0.560887104536,37
0.56151585565,14
0.561809530428,703
0.562218247973,3260
0.562634528279,6
0.56366845952,1207
0.563839757216,669
0.563896359764,2796
0.56419657279,18
0.564349796236,45
0.565341942853,6
0.566204884058,1877
0.566536686872,49
0.56709927716,49
0.567411222836,29
0.567718475867,15
0.567839645117,11130
0.567919539169,19
0.568208964403,19
0.568371256275,32
0.568751451786,1
0.568767167528,48
0.56879597126,17
0.569111095058,1
0.569160784244,1216
0.569173504138,51
0.569198239923,32
0.569650140829,34
0.569681101592,20
0.569720940062,14
0.570246790807,4512
0.570361316873,3033
0.570443919081,784
0.57058786489,42
0.570783902456,13
0.571297561416,6
0.571352198548,11997
0.571370067653,6
0.571395326058,11
0.572267519032,506
0.572447639448,2074
0.572591701155,961
0.57339235851,611
0.573841168758,123
0.574775063604,17
0.574802735583,17
0.574826917084,26
0.574926400315,258
0.575311554603,1525
0.575352507082,338
0.575485092629,24
0.575515212378,78
0.575607308944,3
0.575633588725,1466
0.576044639595,20
0.576601623022,37
0.576602971463,43
0.576779820338,2945
0.577564614004,668
0.577629181467,1093
0.577643740742,17
0.577813832959,124
0.578688035135,2694
0.578846271703,38
0.579734353893,11730
0.57999261194,14
0.580183108831,31
0.580232003783,7675
0.580235184004,5
0.580296013496,6
0.580629500219,47
0.580988376854,17
0.581245128916,90
0.581469294924,4
0.58159892899,1
0.581680718743,21
0.58188512892,94
0.58201908197,945
0.58202688521,6
0.582254678945,20
0.582268838827,214
0.5823771451,520
0.582763946571,1
0.58358482958,552
0.583902339975,50
0.584048097997,3
0.584266772731,16
0.584350630337,134
0.584401643208,10
0.584531658059,3084
0.584994432022,4
0.585184411343,12
0.585256183674,28
0.585428368164,5386
0.585543181455,11509
0.586276967331,4
0.586351763557,817
0.586637245964,2219
0.587183739927,38
0.587694771734,27
0.587810650505,31
0.588160254151,36
0.588199137027,73
0.588316005228,236
0.588366388349,3988
0.588384319087,1202
0.588966456269,12263
0.589731021046,362
0.589739420976,47
0.589908149604,1663
0.590466023052,29
0.590593525027,122
0.590972847985,3102
0.591095719911,18
0.591152988203,1249
0.591355458822,5
0.591359546085,3
0.591435404502,62
0.591919262644,7
0.592279892743,29
0.592706798163,19
0.592766088458,157
0.592962115854,102
0.593794427284,17
0.593886310191,33
0.594250197682,12
0.594517989311,6134
0.594727519649,33
0.595420062897,5671
0.595586749925,1271
0.595740741582,5
0.595890593647,374
0.59615284858,33
0.59656201071,5827
0.597515964155,293
0.597746712111,608
0.598544091562,18
0.598914505722,34
0.599316660302,4
0.599518576882,7
0.599657223025,22
0.599692405499,42
0.599896990945,25
0.599903950887,452
0.600074410535,4
0.600289668286,15
0.600486323841,97
0.600598033248,52
0.600732318353,19
0.600850780573,612
0.600868516007,132
0.601111889577,37
0.601550970086,50
0.60159071246,978
0.601626789594,68
0.601708592332,4561
0.602345871081,80
0.602430714123,671
0.602680537674,33
0.603351390653,9
0.603385953565,719
0.603579622981,18
0.603628913707,4
0.603694810212,596
0.603906121075,1
0.604161205802,29
0.604224853599,16
0.604610116014,2586
0.604664370745,441
0.604723297706,2761
0.604823008517,4789
0.604979962642,42
0.605096886613,457
0.605138094855,4
0.605425714678,15
0.605707357461,1128
0.60571712343,50
0.605917332455,26
0.606083556841,5201
0.606184391386,5
0.607069488787,32
0.607195027588,63
0.607203200099,48
0.607232777001,122
0.60777316367,26
0.607992595137,10522
0.608363885653,3739
0.608386676519,9040
0.609058216444,2
0.609093043762,83
0.609575886358,25
0.609679462995,62
0.610419690523,312
0.61068837369,33
0.610919269652,525
0.611385280812,647
0.611618549612,284
0.611839135922,44
0.611848735842,552
0.612003450251,599
0.612304216354,8
0.612429430918,90
0.613030405053,3
0.613629317182,28
0.613850753761,49
0.613980393624,204
0.61427607152,463
0.615559246324,130
0.615683480748,104
0.615684936925,40
0.615805849769,743
0.615838293691,601
0.615901514677,5036
0.615970446908,263
0.616155475241,931
0.616442306727,14
0.616513603986,2
0.616604220252,8
0.616843818026,2
0.616997291634,11
0.617002319217,52
0.617042918972,1
0.617223207285,19
0.61723717009,18
0.617290085864,1099
0.617309525702,59
0.617372746293,5
0.617879424941,3
0.617954857357,1120
0.618000586339,742
0.618034043375,60
0.618523198977,76
0.618599315431,10929
0.619035865815,37
0.619294585681,398
0.619531872692,1228
0.619602141195,1354
0.61965451218,5
0.6198241429,4
0.619904002466,1154
0.620223628699,19
0.620360825039,8834
0.620363945013,50
0.620635461583,1067
0.620738741308,22
0.621251773253,4831
0.621356155225,1101
0.621403773411,134
0.621794185309,38
0.621838580732,4250
0.622580874376,285
0.62286355094,3947
0.622909188403,1082
0.623050345451,7
0.623249750301,19
0.623316372468,929
0.623417439075,1993
0.623469041383,4
0.623640839879,4
0.623674261218,39
0.623899758465,1
0.623966060117,6
0.624225424032,1794
0.624318462895,3255
0.624455500499,15
0.624571067395,5
0.624851498619,15
0.625009060849,32
0.625497582651,47
0.62575000635,588
0.626007181598,20
0.626064310427,27
0.626146996118,20
0.62654434179,28
0.626602552704,2169
0.626886828723,48
0.627076973716,17
0.627267818205,3
0.627477630927,130
0.628059793609,7876
0.628098148974,838
0.628468072954,2
0.628493955238,1
0.62885327184,43
0.628913890842,2
0.628966453604,19
0.629085199435,4853
0.629144958474,1310
0.629299968214,8433
0.629479298204,7476
0.62972927104,2
0.629747541798,3858
0.629925363245,579
0.630074547643,654
0.630816477845,3027
0.631161179003,37
0.631372174208,1141
0.631390911765,24
0.631434235562,11
0.63149074983,2472
0.632190425787,24
0.632211866122,19343
0.632487340937,1311
0.632625610666,2095
0.633061731928,2
0.633075595379,22
0.633209260455,5
0.634595126629,53
0.634671657082,4672
0.634686849006,686
0.634741507527,46
0.634747987473,2385
0.634857721748,33
0.635523664594,41
0.635527384563,52
0.63559847732,30
0.635602802232,25
0.636088629349,736
0.636257911438,107
0.636384118971,42
0.636626260043,3094
0.63674520776,3069
0.636867112964,16
0.637288509061,5807
0.637635039144,9741
0.638088246592,162
0.638518542812,932
0.639126568126,69
0.639531507677,25
0.639537867624,877
0.639602099959,1160
0.639860417085,146
0.640077603802,4
0.64026632,12
0.640279324553,15
0.640447366176,53
0.640735084237,36
0.641022528836,1165
0.641173750496,15
0.641656351913,1347
0.642269520917,129
0.642443306918,11
0.642568129425,29
0.642642873689,3410
0.643157567934,2
0.643836761498,49
0.643876396448,3
0.643906396198,20
0.644461117331,1
0.644641250609,1540
0.644743097678,22
0.644883462529,30
0.645243947627,3
0.645329481366,35
0.645605825788,20
0.645636771284,2535
0.645759617489,4915
0.645844966873,7
0.645884689742,28
0.646690100551,483
0.646737061965,46
0.646942194717,12
0.6473570067,19
0.647437772717,4063
0.647496885844,116
0.647746786338,50
0.647799294521,42
0.647893226674,15737
0.648270406197,5
0.648446333995,4960
0.648464710057,365
0.648587656787,37
0.648599542366,3607
0.648977130703,40
0.649276091113,3047
0.649397441457,6067
0.649489560913,6166
0.649688542935,1054
0.649862741527,1
0.650590921228,1362
0.650953937291,2373
0.650978072175,31
0.651225585804,41
0.651435303274,2219
0.651617036843,5890
0.652046698653,1630
0.652162894554,34
0.652312373623,5105
0.65233010896,3144
0.65256864223,5
0.652757724702,17699
0.653009665482,16
0.653054397695,5
0.653242376205,72
0.653360402715,19
0.653400128884,41
0.653444793576,5554
0.653952054934,69
0.65406454708,174
0.65421475528,3733
0.654428501923,8
0.654852714112,625
0.65501279794,30
0.655291664746,304
0.655502828722,1117
0.655558042275,28
0.655991983138,15
0.656086937438,3686
0.656087657432,3145
0.65644578454,88
0.656602054438,2928
0.656642654815,4405
0.656803287105,7254
0.656913719348,27
0.657677680635,8
0.657706003599,44
0.658392177929,41
0.65841714183,10411
0.659146861579,6
0.65923175458,4
0.659474149971,9
0.659986952379,12
0.66025242793,6593
0.66079476832,13
0.660848801984,125
0.661128704991,37
0.661172812669,104
0.661273853545,619
0.661443991757,17
0.66149672971,1131
0.661842628811,48
0.661991504265,292
0.662059215336,2800
0.662122954259,2539
0.662344472848,46
0.662492701238,2
0.6625933342,14
0.662648958076,52
0.663075033759,362
0.663493475301,6
0.664043311835,1
0.664064328091,23
0.664117256669,2598
0.664321756919,1232
0.664536771686,17
0.664827548704,18
0.664885745783,15
0.664986883331,9
0.665189507529,3
0.665242073491,1
0.665744411869,48
0.665852138249,4
0.666227677949,3
0.666322826496,18
0.666396071012,19
0.666504625472,29
0.6666410752,3171
0.666690801429,347
0.666982029735,20
0.667024907644,366
0.667089133216,12946
0.667096955079,19
0.667117403911,18
0.667393250063,6555
0.667601304462,25
0.667652199783,123
0.667681004276,48
0.667707218457,31
0.667817314639,18
0.668155442732,684
0.66854297317,47
0.668801717152,49
0.669011581581,69
0.669356840769,311
0.669614096122,1
0.670061564218,28
0.670480191648,26
0.67048325677,20
0.670653157866,20
0.670891846184,6
0.670922218341,9
0.671143530022,14
0.671676619253,482
0.67187170422,1431
0.672336490566,12
0.6724629225,5100
0.673017606844,28
0.673382457084,2007
0.673573240277,50
0.673592012002,2566
0.6736396092,19
0.673785047451,34
0.673970877036,19
0.674597750511,5145
0.674782856408,78
0.675158750174,4913
0.675227609655,12
0.675318128606,5036
0.675359503987,2423
0.675714603544,40
0.675892380872,873
0.676178616487,212
0.676193087191,12
0.676493446218,33
0.676728666939,6472
0.677659199,18
0.677782159382,48
0.677883013341,87
0.678677117314,817
0.67871679472,374
0.678766275729,47
0.678878298075,5590
0.679161018911,619
0.679183585223,22
0.680706626504,6378
0.681233997305,6557
0.681516408452,9827
