time,IdealSim1.flowGenerator3.flowSynId:vector
0.000124323162,0
0.000583432003,2
0.000915351121,4
0.001099310864,5
0.001689588906,3
0.001777937601,6
0.002054631078,8
0.00218231107,9
0.002267031067,10
0.002371910962,11
0.00240011092,12
0.002465750821,13
0.002730453413,14
0.002985933004,16
0.003185012703,15
0.003241172664,18
0.003524372368,20
0.003736772204,21
0.004322371671,23
0.004491691671,22
0.004541971672,19
0.004556339236,24
0.004613254868,25
0.004910971207,27
0.005104171056,28
0.005192131055,29
0.005745810788,30
0.005885853981,32
0.005901333984,17
0.006323853403,33
0.006362973407,26
0.006521015217,34
0.006654212989,35
0.006757382945,36
0.007233786046,38
0.007861266046,31
0.007976586045,39
0.007994106021,1
0.008393709047,44
0.008507349029,45
0.008611028996,47
0.008860988998,41
0.009101588999,40
0.009188828995,52
0.009268508995,46
0.009301992188,54
0.009352272187,55
0.009670040175,56
0.009718607338,57
0.009839843366,43
0.010057883367,60
0.010353086556,62
0.010368446557,61
0.010719209749,59
0.010784712174,65
0.011053272173,66
0.011104752176,63
0.011143292941,67
0.011481555373,51
0.011668275367,69
0.011759115369,53
0.011917638555,70
0.011994198557,49
0.012010638556,71
0.012181158504,37
0.012216438469,48
0.01223071847,68
0.012642318429,50
0.012702798429,72
0.013051161623,58
0.013334129273,73
0.013869572056,75
0.013877451338,76
0.013918698188,77
0.014000360583,7
0.014154800512,42
0.01436411385,79
0.01449200327,78
0.014643443142,74
0.014730803047,64
0.015537680978,81
0.01575573123,83
0.015813421879,84
0.015918334427,82
0.016317062357,85
0.016998537179,80
0.017547151219,87
0.017631630873,88
0.017668110871,86
0.017821595673,89
0.01789914751,90
0.018023184083,91
0.018526758297,93
0.018632237886,94
0.018960679347,92
0.019115809107,96
0.019287408184,97
0.019361207884,98
0.019611169999,95
0.020066819607,99
0.020425755868,100
0.020605390763,101
0.021102258369,102
0.021611759839,103
0.021686858454,104
0.022186658504,106
0.022319017902,105
0.022618981631,107
0.022787509919,108
0.02291798206,109
0.02295828494,110
0.022997937596,111
0.023289709788,112
0.023391812009,113
0.023472445399,114
0.024016045188,116
0.024341482977,115
0.025150779323,117
0.025875048819,118
0.026601585959,119
0.026759797799,120
0.027133672755,121
0.027407297631,122
0.028045680576,124
0.028234679549,125
0.028381438862,126
0.028438680079,127
0.028608002866,123
0.029151756867,128
0.029371719292,130
0.029409999133,129
0.029527194257,131
0.029688237113,132
0.029717743556,133
0.03004988615,134
0.030266008547,135
0.031324636076,136
0.031601784964,137
0.031899106232,138
0.032367592272,141
0.032619591724,139
0.032838041065,142
0.032940280699,143
0.032984800589,140
0.033110537211,144
0.033495498755,147
0.033614667006,148
0.03381458987,146
0.033884549579,145
0.034013291645,149
0.034602579077,150
0.035003819025,151
0.035026327553,153
0.035321649345,154
0.035352660008,155
0.035680931675,156
0.035884454726,157
0.035909905843,159
0.036041069038,152
0.036165149023,158
0.036382111816,161
0.03665547004,160
0.036778725558,162
0.036823605474,163
0.03700864813,164
0.037053053132,165
0.037209314351,166
0.037454250762,167
0.037652944687,168
0.037810966326,169
0.038735495478,171
0.038899534649,172
0.038993254276,170
0.039293136718,175
0.039689976271,176
0.039847416117,173
0.040355256131,177
0.040412495893,174
0.040467851279,179
0.040531029287,178
0.040577906989,180
0.040829429091,181
0.041421091218,183
0.041668049704,184
0.041970567712,185
0.042282205616,182
0.04269949762,186
0.043310459697,188
0.04336814241,189
0.043423995243,190
0.043801877366,191
0.043885257835,187
0.044499548652,194
0.044566748653,193
0.044677628412,192
0.044714397412,195
0.04506156379,196
0.045284646159,197
0.045331283377,198
0.045765300415,199
0.046554655791,200
0.046908272698,201
0.047096762295,202
0.047123336707,203
0.047637397007,204
0.047833239573,205
0.047865993691,206
0.048179987165,207
0.048867149956,210
0.048974069914,211
0.048993753153,208
0.049058278146,212
0.049121333987,213
0.049147805083,209
0.049857243847,214
0.050096012002,215
0.050241332118,216
0.050341288662,217
0.050785806977,219
0.050971685939,220
0.051055205656,221
0.051555362151,222
0.052341717051,223
0.052846073902,225
0.053906750763,227
0.05396135065,226
0.054078110513,224
0.05417675345,218
0.054456090393,228
0.054671584477,229
0.054859700344,230
0.055084304211,231
0.055502567184,232
0.055605608184,233
0.05616461386,235
0.056757530165,236
0.056801655934,237
0.056874530058,234
0.056959921643,238
0.057113108351,239
0.057200466549,240
0.05738544098,241
0.057497352528,242
0.057771934684,243
0.057845838297,244
0.057921966915,245
0.058539973973,246
0.058586145383,247
0.058758685156,249
0.059093722866,248
0.05920559216,250
0.059267151,251
0.059356415601,252
0.059553526027,255
0.059571766022,256
0.059658045861,257
0.059701605805,258
0.059742885724,259
0.059954088688,260
0.059975688643,261
0.060146931627,254
0.060501173297,263
0.060870292392,264
0.060907691811,265
0.061065974848,266
0.061253654678,253
0.061373774453,269
0.061377374452,270
0.061871536969,268
0.061907656896,267
0.061924565395,271
0.062380572094,272
0.062508611813,273
0.062524422812,274
0.062652131664,262
0.063536752748,275
0.063818311673,279
0.063942511508,280
0.063945151504,277
0.064133550994,278
0.064142190994,281
0.064171898248,282
0.064225998593,283
0.064266750892,284
0.064429540919,276
0.064732288173,285
0.065145269474,286
0.065491590788,288
0.065813908666,290
0.066051748178,287
0.066282035308,292
0.066426155209,291
0.066695313688,293
0.066727353586,295
0.066870753308,289
0.066957636324,294
0.067119426813,296
0.067254775016,297
0.067348605124,298
0.067627458477,299
0.067631785643,300
0.06765989385,301
0.067679568092,303
0.068309657431,304
0.068393897107,305
0.068505136813,306
0.068704459353,307
0.06874369919,302
0.069256679348,308
0.069268437247,309
0.069675100276,311
0.069699100194,312
0.069849699977,314
0.069937299969,315
0.070017459872,310
0.070177902903,317
0.070379862823,320
0.070840542116,319
0.070859142101,321
0.0709535821,322
0.071058083878,323
0.071192985266,324
0.071506748957,318
0.071684948954,328
0.072432068955,313
0.072644108955,329
0.072701708955,326
0.072998952029,330
0.07327927178,327
0.0733542719,316
0.073797072813,331
0.073831356637,332
0.073966119713,333
0.074085159286,334
0.074535877762,335
0.074652675748,336
0.074905398537,338
0.075024318497,339
0.075065285157,337
0.075228561204,325
0.075320616708,340
0.075483592619,341
0.075968385499,343
0.076069425124,345
0.076101825085,344
0.07637710369,346
0.076428781797,347
0.076494582291,348
0.076599223277,349
0.076889742519,350
0.077115378086,352
0.077267778015,353
0.077367255555,354
0.077703500319,355
0.077705057857,356
0.078257423355,357
0.078307940866,358
0.078323903293,351
0.079014021754,359
0.079126341504,342
0.079163952137,360
0.079167286874,361
0.079427887216,362
0.079576532161,363
0.079956161707,364
0.080149789688,365
0.080644201389,366
0.0810923086,367
0.081131189165,368
0.08125018874,369
0.082089505518,370
0.082349734214,371
0.082431245355,372
0.082949287769,374
0.083179446459,375
0.083319005937,376
0.083338325938,373
0.083483003736,379
0.08375720312,380
0.083983402679,377
0.084343643875,378
0.084400130087,381
0.084571878252,382
0.084796979815,383
0.084911979417,384
0.084955933046,385
0.085502933142,389
0.085698934783,386
0.085852897908,392
0.085929334713,387
0.085976017904,391
0.086460093094,393
0.086681972692,394
0.086758892693,388
0.087078211584,395
0.087094651516,390
0.087236148709,396
0.087896492078,397
0.088188693874,399
0.088782330077,398
0.088926933274,402
0.089060907951,403
0.08987606529,405
0.09012554504,401
0.090351904368,400
0.090368824367,408
0.09040866437,406
0.090484381291,409
0.09059210789,410
0.090761910891,411
0.090992070668,412
0.091288349936,404
0.091413389397,413
0.091559908753,414
0.091646908391,407
0.091805013469,415
0.092828709663,416
0.092972398592,417
0.093422475681,419
0.093548595132,418
0.093688492758,420
0.094352702546,421
0.094813622904,423
0.09501114177,424
0.095050861644,425
0.095166784826,426
0.095263144447,427
0.095281144441,428
0.095384224377,430
0.095554747427,429
0.095662866977,422
0.095815979228,431
0.095874519063,432
0.096238192766,433
0.097060234115,437
0.097079434075,438
0.097474717232,439
0.097475993113,440
0.097639240425,436
0.097880199929,441
0.097980279905,442
0.098044839815,443
0.098345802264,444
0.098458362265,434
0.098744444501,435
0.099155385686,447
0.099176705085,446
0.099376027622,445
0.099462772136,448
0.099473311284,449
0.099577522537,451
0.100050442907,452
0.10049792474,450
0.100779566591,453
0.101047330681,455
0.101430008265,454
0.101725058576,456
0.101850380122,457
0.102873918552,460
0.103138877951,458
0.103156914209,461
0.103862116198,459
0.104148468669,462
0.1044781406,463
0.104609114213,465
0.104697645424,466
0.104751913785,467
0.104845033673,464
0.104967316852,468
0.105251879342,470
0.105349778849,471
0.105385957658,472
0.106045476483,469
0.106097800254,474
0.106290999447,475
0.106304073605,476
0.106411499078,477
0.106805101135,478
0.106863330055,480
0.10696950081,481
0.10792433005,483
0.107959490052,484
0.108060530019,479
0.108067610005,473
0.108258292683,485
0.10829177256,486
0.108362212561,482
0.10843639161,487
0.108842773031,489
0.108973936182,490
0.108995412622,488
0.109177803788,491
0.10941805132,492
0.110316006714,493
0.11055414221,494
0.1106148048,495
0.110770327702,496
0.111032237598,497
0.111698212217,499
0.111810771748,500
0.112139934943,498
0.112382214744,504
0.112516854478,505
0.112816134203,503
0.112836774162,507
0.112894734164,501
0.113022777462,508
0.11312672572,509
0.113321488901,511
0.113669488558,512
0.113683768559,513
0.114022771756,510
0.114522213475,515
0.114584493369,516
0.114634173369,514
0.114751826801,518
0.115003829877,517
0.115166733055,521
0.115171533055,519
0.115428096242,520
0.115474960753,523
0.115754019341,502
0.116123139195,506
0.116293377995,524
0.116450358178,522
0.116466864829,529
0.116578422317,530
0.116701062313,526
0.116853705492,531
0.116867865464,525
0.117155360224,532
0.117465919463,528
0.117474346713,533
0.117492259257,534
0.117637278946,527
0.118407358624,535
0.118442790842,536
0.118678948239,537
0.118847875474,538
0.118992128636,539
0.11948653839,540
0.119516742863,541
0.119552153392,542
0.119731610354,543
0.120058125236,544
0.120095085565,545
0.12014312492,546
0.120295706641,547
0.120928650553,549
0.121110453493,550
0.121461328283,552
0.121511608284,551
0.121554463142,553
0.121757727377,554
0.122138844703,548
0.122774911247,555
0.122923068678,556
0.124128389632,557
0.124397564503,558
0.124629958716,559
0.12586779988,560
0.126521622758,564
0.126702641558,563
0.126792822486,566
0.126800502487,565
0.127090240645,562
0.127240784223,561
0.127472428644,567
0.127551192886,568
0.127985960817,569
0.128489388535,571
0.128491548532,572
0.128680431729,570
0.128771117611,575
0.12882535756,576
0.128872277465,577
0.128924837462,579
0.129077717301,580
0.129196877055,574
0.129298280357,578
0.129452963266,573
0.129572982826,581
0.129803549455,582
0.13003825535,583
0.130123070536,584
0.130270675512,585
0.130571844138,586
0.130766938952,588
0.130966378012,590
0.131006218013,589
0.131026258014,587
0.131248140363,591
0.131309050578,592
0.131485693308,594
0.131532613113,593
0.131619460363,595
0.131654909177,597
0.131691441306,598
0.132200721279,599
0.133026796063,603
0.133514835762,607
0.133541355737,606
0.133678875637,605
0.13370579103,608
0.133768635637,604
0.133825995638,600
0.134258955518,601
0.134375355466,609
0.134392035459,602
0.134493876233,610
0.134615598205,596
0.134621598206,612
0.13492027996,613
0.135006627067,614
0.13512703705,616
0.135506836812,611
0.135557356791,618
0.135836115988,615
0.135852919257,617
0.136034007037,619
0.136647920735,620
0.136707905453,621
0.136787630123,623
0.13720974582,624
0.137339945236,622
0.137986460986,625
0.138045537457,626
0.1383009069,627
0.138836970189,628
0.139000459472,629
0.139092034806,630
0.139194612713,631
0.139426526315,633
0.139444406242,632
0.140160795117,634
0.140858006412,635
0.141315932417,636
0.141652943886,637
0.141814879539,639
0.142050798075,638
0.142101083122,640
0.142105348296,641
0.142265217324,642
0.14233059305,644
0.142350273051,643
0.142982063423,645
0.143143838257,646
0.143431655443,648
0.143835333894,649
0.143982333201,647
0.143985032823,651
0.143992832824,650
0.14429298983,652
0.144361991308,653
0.144502184075,654
0.144643307097,655
0.144853156741,656
0.144889259531,657
0.145099483531,658
0.145157378813,659
0.145260877696,660
0.145394777723,663
0.145662017112,662
0.145777454977,664
0.145796746954,665
0.146143425038,666
0.146711022736,670
0.147059472457,669
0.147241152209,668
0.147345162951,671
0.147452595599,667
0.147554804288,672
0.147610703967,673
0.147837026725,675
0.148416864816,674
0.148546944814,677
0.148662984754,678
0.148711703841,679
0.149154986431,683
0.149193225665,681
0.149288666433,676
0.149606306235,661
0.149866042703,685
0.150127882443,680
0.150164485837,687
0.150465685763,684
0.150555569029,688
0.150821008365,689
0.15096896825,686
0.151168044265,690
0.151215924066,682
0.151415288348,691
0.151719803478,692
0.151908326105,693
0.152043689175,694
0.152502591906,695
0.153148890425,696
0.153219281376,697
0.153908832309,698
0.154138114055,699
0.154415663035,700
0.154633002256,703
0.154789362107,702
0.154872392908,704
0.155477432085,705
0.155502512006,706
0.155638231772,701
0.155929756125,707
0.156000145799,708
0.156365167006,710
0.156459126615,709
0.15720587208,711
0.157324123801,713
0.157532686302,714
0.15754768624,712
0.157703333691,715
0.158000178177,716
0.15848838487,717
0.159061297504,719
0.159135697224,720
0.159422379735,722
0.159590499577,723
0.160027059418,725
0.160276419101,726
0.160357898974,727
0.160846181991,730
0.160962701987,731
0.161695421789,734
0.161713061775,724
0.162361064942,735
0.162368783538,736
0.162883826734,721
0.163072106729,738
0.163328789922,739
0.163379255801,740
0.163657469821,742
0.163696109802,737
0.163741548058,743
0.163977626567,744
0.164595146567,745
0.165247349691,748
0.165377789694,749
0.1656182664,750
0.165717266397,746
0.165903146394,755
0.166164386401,729
0.166591226394,741
0.1665944664,754
0.166728269585,757
0.166756709588,751
0.166876436876,758
0.167111759953,756
0.167403512407,760
0.167422472411,753
0.167546792407,761
0.167872592217,763
0.167915552218,762
0.168022235408,765
0.168133355405,766
0.168460235192,728
0.168572435076,752
0.168893795066,767
0.169188638257,768
0.169212518247,769
0.169237111837,759
0.169352830883,770
0.169454431764,747
0.169652191765,771
0.170197714832,774
0.170209114821,775
0.17028015475,776
0.170376274712,718
0.170565274679,778
0.17057607468,772
0.17092515787,779
0.171255877869,780
0.171786761041,783
0.172013680913,781
0.172119040896,784
0.172334204106,785
0.17257336411,777
0.172651720978,782
0.172705417649,786
0.172784680973,787
0.173093920716,789
0.173103880717,788
0.17320984071,791
0.173282203908,792
0.173316163912,773
0.173762326487,793
0.174314926475,796
0.174368446479,798
0.174410086478,799
0.174698566371,794
0.174699166375,790
0.174868606333,733
0.174957286238,795
0.175032046188,803
0.175088446139,804
0.175290046075,732
0.175341646072,805
0.175451566066,801
0.175564489264,807
0.175775449263,808
0.175850449267,809
0.175937806066,806
0.175957246066,802
0.17630309208,811
0.176741931414,797
0.176842854417,812
0.177210054157,813
0.177249601402,814
0.177656573943,816
0.177853733836,817
0.177937973836,818
0.177992453836,815
0.178079333795,800
0.178188053726,764
0.178295877723,819
0.178438016295,820
0.178479776266,810
0.178739578299,821
0.180145616744,822
0.180146712551,823
0.180594853351,824
0.180746190395,825
0.180996195801,826
0.181039267495,827
0.181192281026,830
0.181403960761,828
0.181444692234,829
0.181564286072,833
0.181689266786,834
0.182125225472,832
0.182556659298,837
0.182648424592,831
0.182724539166,838
0.182916062065,835
0.182956501897,836
0.182984766375,839
0.182999526296,840
0.183290120895,842
0.183340640685,841
0.183862078284,843
0.183895341446,844
0.184113530711,845
0.184941038262,846
0.185680715945,847
0.185750217586,848
0.185948651714,849
0.186032868532,850
0.186048168335,851
0.186271725949,852
0.187076931374,854
0.18767620858,856
0.187703328549,857
0.187756848439,853
0.188059610985,858
0.18903736537,859
0.189787239623,855
0.190317382446,860
0.190652765225,862
0.190978683128,863
0.191177282019,864
0.191371321515,865
0.192056276353,866
0.192328314588,861
0.192692473586,867
0.192945925286,868
0.193032421627,870
0.193609767564,871
0.194393966512,872
0.194963484642,874
0.195299724372,875
0.195780203591,877
0.196000883337,878
0.196088843322,876
0.196361067685,879
0.19672028587,880
0.196855165653,882
0.197070205403,881
0.197237125353,883
0.197304805291,884
0.197381368544,885
0.19754804826,886
0.19781420768,887
0.198238647028,869
0.198558086713,889
0.19878523136,893
0.199118951353,896
0.199210391261,897
0.199263361635,898
0.199545526183,900
0.199669006178,892
0.19974328618,899
0.199770886184,895
0.200258085975,902
0.200735925711,905
0.200752245715,903
0.201320085249,891
0.201531045121,901
0.201635565028,890
0.202242648201,911
0.202329768205,888
0.20239539119,873
0.202450831186,908
0.202683151081,894
0.202705231077,914
0.202901008447,910
0.202901608449,915
0.202972834123,909
0.203453677315,916
0.203699917316,907
0.203706757319,904
0.203726557319,918
0.203810128325,917
0.204385117095,919
0.204575316839,920
0.204696036589,912
0.205538369414,924
0.205823489415,922
0.206055809411,926
0.206425049415,921
0.206747198858,929
0.206806478861,927
0.207059678856,930
0.207257078857,923
0.207297452606,925
0.207624455801,928
0.207643535784,931
0.209013813181,906
0.209138612957,934
0.209222012897,936
0.209232426034,937
0.209441735931,938
0.209828615928,941
0.209875535901,942
0.210114939083,935
0.210137642487,944
0.210232538958,945
0.210356738885,946
0.210449258891,939
0.21087658215,947
0.211499382147,950
0.212139461941,951
0.21237646187,953
0.212738741875,940
0.21295318187,955
0.213007421868,952
0.213087821853,956
0.213542861775,949
0.213670781835,943
0.213968621839,913
0.214008824966,957
0.214053944966,958
0.214730267005,954
0.215000026754,948
0.215483388437,932
0.215502607706,959
0.215507986535,960
0.216120469405,964
0.21633118928,965
0.216647148992,967
0.216796308991,968
0.216935988993,962
0.217014228993,966
0.217197232186,970
0.217224112187,961
0.217261672185,972
0.217278352186,971
0.217462915357,973
0.217613995105,974
0.217743234857,963
0.217909557957,976
0.218068314357,977
0.218385714108,969
0.218386074108,933
0.218475912883,978
0.21873407578,975
0.218852933579,980
0.219070520554,979
0.219433914779,981
0.219959474271,983
0.219962714271,984
0.220507273931,982
0.220509712034,985
0.220582722163,986
0.220947571201,988
0.221213249491,989
0.221673808398,993
0.221941768401,987
0.222041500864,995
0.222543280873,998
0.222718724063,999
0.222777404064,997
0.222809684062,1000
0.222908356724,1001
0.223168604007,1002
0.223197164009,994
0.223232564011,1003
0.223321964007,1004
0.223324604009,991
0.223389524007,1005
0.223872763874,990
0.223974887061,1006
0.224214169761,992
0.22434760915,996
0.224724890204,1007
0.224997418192,1008
0.225565414477,1009
0.225817957554,1010
0.227167374975,1013
0.227284614964,1014
0.22752221447,1012
0.227631812726,1015
0.227793815574,1011
0.227914567469,1017
0.22792461875,1018
0.228058538595,1016
0.228581834111,1020
0.228603074023,1019
0.228699196269,1021
0.228760346756,1022
0.229182112162,1023
0.229307057682,1024
0.229361203317,1025
0.229536342001,1026
0.229924671332,1027
0.230055649745,1029
0.230141689387,1028
0.230245451829,1030
0.230803745136,1031
0.230953200314,1032
0.231074248932,1033
0.231363008116,1034
0.231423897539,1035
0.232141223709,1036
0.232797622437,1037
0.233177307507,1039
0.233335707374,1041
0.233479707313,1042
0.233491227307,1043
0.233629947122,1045
0.233897761821,1040
0.23407632168,1048
0.234399481602,1049
0.234438601602,1050
0.234496201599,1052
0.234660121573,1047
0.234881404597,1053
0.234915724601,1051
0.235071127718,1054
0.235106153636,1055
0.235314727535,1056
0.235465810702,1059
0.235467850703,1058
0.235606090668,1046
0.236105410078,1061
0.236370609788,1062
0.236863929145,1057
0.237506169144,1065
0.237648129141,1067
0.237748089114,1069
0.238055528944,1073
0.238174448943,1074
0.238178288945,1070
0.238204328943,1076
0.238229168944,1075
0.238328052134,1078
0.238340892135,1071
0.238618455325,1072
0.238718775326,1066
0.239580374654,1080
0.239638454656,1068
0.239650694658,1044
0.239660603154,1081
0.239870534605,1084
0.239916494609,1083
0.240023414607,1085
0.240079216457,1086
0.240143894603,1079
0.240480854546,1087
0.240597617744,1082
0.240651974546,1088
0.241047977737,1089
0.241214897737,1090
0.241537217736,1091
0.24174913774,1063
0.24200425454,1093
0.242011221467,1094
0.242182694483,1097
0.242277974402,1098
0.242444417535,1099
0.24252261722,1100
0.242612177481,1092
0.242651980412,1102
0.242719060412,1103
0.242864260343,1060
0.242869900345,1101
0.243394814135,1064
0.243411974134,1105
0.243787903601,1106
0.243908383598,1108
0.244125703597,1104
0.244216303598,1038
0.244320525991,1109
0.244515106663,1110
0.244544532821,1111
0.244707135989,1112
0.245190946635,1113
0.245509306484,1107
0.245707186481,1114
0.246339226482,1117
0.246395386481,1118
0.246401146482,1116
0.246501469677,1119
0.246577429676,1120
0.246700072868,1077
0.24673546329,1122
0.247294432203,1115
0.247562272081,1126
0.247589272079,1125
0.248413795229,1128
0.248494442987,1121
0.248549155228,1132
0.248616779616,1130
0.248638206177,1129
0.248689086183,1133
0.248939728466,1124
0.249030568459,1135
0.249103408398,1131
0.24931749151,1138
0.249410371415,1136
0.249544771385,1139
0.250048414576,1140
0.250167454558,1141
0.250389091283,1137
0.250553014438,1143
0.251084737498,1147
0.251087977501,1145
0.251399017498,1146
0.251429497505,1123
0.251647537471,1148
0.251908417474,1096
0.252309694274,1134
0.252332854276,1142
0.252362974275,1144
0.252730057065,1150
0.252749781459,1151
0.252930696985,1152
0.253211616734,1149
0.253267776698,1153
0.253423659876,1154
0.253672419366,1127
0.253674939366,1095
0.253870838085,1156
0.253965108356,1157
0.254030436673,1158
0.254058329223,1159
0.254131428159,1155
0.254300551845,1161
0.254632109596,1162
0.254677349408,1160
0.254943393535,1163
0.255095883627,1165
0.255246122896,1166
0.255262802827,1164
0.255377396763,1167
0.255917740112,1168
0.256814592197,1169
0.256875202619,1170
0.257644851686,1171
0.258031257617,1172
0.258436516081,1173
0.258689637094,1174
0.258886232205,1175
0.258955967881,1176
0.259367372895,1179
0.259523372776,1180
0.259527572777,1178
0.259562012778,1177
0.260027495835,1182
0.260595691603,1183
0.260941639919,1184
0.261096093082,1185
0.261124172986,1186
0.261293372462,1181
0.262219980055,1187
0.26250370148,1188
0.262599530337,1189
0.263363666332,1190
0.26356211996,1191
0.264189667295,1192
0.264456047388,1193
0.264704321452,1194
0.264924771916,1195
0.264977582976,1196
0.265178878758,1197
0.26576669833,1198
0.266148540222,1200
0.266237700152,1204
0.266312463419,1201
0.266474946605,1205
0.266504466545,1203
0.266715429363,1202
0.266920628155,1199
0.267238805936,1206
0.267415116255,1207
0.267529445257,1208
0.267669564221,1209
0.267965366514,1211
0.267974141042,1213
0.268126886247,1214
0.268236566248,1212
0.268579767586,1210
0.268614718967,1215
0.268762380482,1216
0.269061882536,1217
0.269588895512,1219
0.269673410398,1220
0.26984813314,1218
0.270209514748,1221
0.270817573053,1223
0.271154290749,1222
0.271331893467,1224
0.272312395621,1225
0.272540008783,1226
0.272676923593,1227
0.272765132634,1228
0.272799781253,1229
0.273578824634,1231
0.273616485354,1232
0.27393532693,1233
0.273962129984,1234
0.275052688891,1236
0.275123488853,1237
0.275133901667,1238
0.275309464692,1239
0.275399194369,1240
0.275443384623,1230
0.275536744551,1235
0.275574010147,1241
0.276170760724,1242
0.276515327404,1243
0.276736857346,1244
0.27674846081,1245
0.277368383628,1247
0.27739202353,1246
0.277881169008,1248
0.278054451776,1250
0.278293851356,1252
0.278764729897,1249
0.278882332732,1251
0.279625801041,1253
0.279632337439,1256
0.279703825739,1257
0.279778977263,1258
0.279813777192,1254
0.27995899325,1260
0.280299792331,1261
0.280393032307,1263
0.280494435525,1265
0.280657878675,1266
0.280881678669,1269
0.280904958671,1262
0.28091263867,1270
0.281770758416,1274
0.281792522021,1268
0.282198798348,1275
0.282228678346,1271
0.282235158346,1276
0.28233703833,1277
0.282426678306,1278
0.282499518259,1279
0.282544278215,1273
0.282638838212,1259
0.282998117717,1255
0.283011800879,1272
0.283022726929,1280
0.28310970805,1281
0.283502470111,1267
0.283578549794,1264
0.284112045494,1284
0.284638603803,1282
0.28467207929,1283
0.284813143735,1286
0.284917183302,1285
0.285170665338,1287
0.285440014555,1288
0.285555819964,1289
0.285813161308,1290
0.285950458867,1291
0.286229079794,1292
0.286321684245,1294
0.286447927391,1293
0.286819448493,1295
0.286913588494,1296
0.287207572486,1298
0.287219212438,1297
0.287322853548,1299
0.287333095162,1300
0.287461892986,1302
0.28815513001,1301
0.288239654865,1305
0.288464297626,1304
0.288495737501,1306
0.288626780602,1303
0.288951863629,1310
0.289101110502,1307
0.289252346695,1309
0.289568905778,1314
0.28957088427,1312
0.289796727459,1317
0.289803927462,1318
0.289874776781,1319
0.289906345737,1320
0.289955364223,1313
0.290359523774,1321
0.290485523766,1316
0.291146603407,1323
0.291255803408,1324
0.291406185053,1325
0.291602624899,1322
0.291678468027,1326
0.291862307845,1315
0.291867827832,1327
0.292663548233,1328
0.292765188161,1329
0.293503546977,1330
0.293741146973,1334
0.293880586974,1335
0.293923426977,1311
0.293970350173,1332
0.294178073369,1308
0.294323273266,1331
0.294382553086,1333
0.294581200275,1338
0.295318002933,1336
0.295611276183,1341
0.296100875933,1340
0.296387195241,1339
0.296667033497,1342
0.296976272118,1343
0.297168991047,1344
0.297575429286,1345
0.297624509274,1347
0.297751712453,1337
0.297860792346,1346
0.29803443231,1348
0.298184105662,1349
0.29864490427,1352
0.29904630315,1353
0.29904774315,1354
0.299525464861,1355
0.300328264719,1357
0.300626104352,1359
0.301298724771,1362
0.301332599057,1363
0.30171612225,1360
0.301981325444,1351
0.301983845447,1364
0.302196002063,1358
0.302235848366,1356
0.302402888002,1361
0.302415967949,1365
0.302836807155,1366
0.302857732827,1368
0.303070209967,1367
0.303135246316,1369
0.30327372936,1350
0.30369934898,1371
0.303712188927,1370
0.304163530719,1372
0.304211616886,1373
0.304388132736,1374
0.304506720668,1375
0.304638190049,1376
0.304716273812,1377
0.305036616953,1378
0.305132298639,1379
0.305168664779,1380
0.305639063185,1381
0.305884312253,1382
0.306139821366,1383
0.306505762256,1386
0.306569962205,1387
0.306704962033,1388
0.306784042034,1385
0.306997160935,1389
0.3070103609,1390
0.307135524076,1391
0.307175480666,1384
0.307190361234,1392
0.307549282721,1395
0.307999521447,1396
0.308007848819,1397
0.308164211865,1394
0.308257811475,1393
0.30848007466,1398
0.308502980885,1400
0.308505974181,1401
0.308506100881,1399
0.308627664066,1402
0.308746740136,1403
0.309204188746,1404
0.309534516731,1406
0.309569676585,1407
0.30989295479,1408
0.30991449653,1409
0.31011087408,1410
0.310256793369,1411
0.310280193272,1405
0.310619314644,1412
0.310931075217,1413
0.311096153987,1414
0.311123873218,1415
0.311811064746,1416
0.311873250711,1417
0.312411309407,1418
0.312877795192,1419
0.313124296646,1420
0.313354620867,1421
0.313516911932,1422
0.313944889049,1424
0.314407365697,1423
0.314495580306,1425
0.315088880541,1426
0.315302404585,1427
0.315473618785,1429
0.315514221286,1430
0.315588578635,1431
0.315907661003,1428
0.315933144595,1432
0.316233662329,1433
0.316302032156,1434
0.317011165982,1435
0.317081906388,1438
0.317164466788,1436
0.317462307767,1439
0.31767062657,1440
0.317674346561,1441
0.317934749192,1443
0.318210628787,1444
0.318442348501,1437
0.318750027974,1448
0.318897267921,1446
0.319086991091,1450
0.319264409324,1442
0.31953813249,1451
0.319644692484,1445
0.319727410098,1453
0.320257350369,1454
0.320513790054,1452
0.320538450481,1455
0.320591918519,1456
0.321076720196,1449
0.321772122256,1460
0.321874002257,1457
0.322103968956,1461
0.322377398497,1462
0.322403929124,1463
0.323149957288,1459
0.323268737442,1466
0.323582297237,1465
0.323741437002,1464
0.323793156895,1458
0.323945920024,1469
0.324127123219,1468
0.324471162383,1470
0.324651522134,1447
0.325429959289,1477
0.325476759242,1474
0.325501479218,1467
0.325548409281,1478
0.325856765636,1479
0.32590494378,1481
0.325914245577,1475
0.326797565514,1476
0.326898368774,1473
0.326966405417,1482
0.327541023461,1483
0.327661263212,1471
0.327777063189,1484
0.327913023171,1485
0.32807202301,1472
0.32893193964,1488
0.328998659502,1489
0.329457662395,1491
0.329929382396,1493
0.330202262393,1487
0.330276062395,1486
0.330287872068,1494
0.330389949863,1490
0.33072162149,1492
0.331149298427,1480
0.331310132346,1495
0.331574874598,1496
0.331979973039,1500
0.331993476394,1499
0.332188655922,1498
0.332330495242,1497
0.332609464182,1501
0.332693532165,1502
0.333068910453,1503
0.333480658233,1505
0.334167655906,1507
0.334252495907,1504
0.334331738424,1506
0.334345899868,1508
0.334487637227,1509
0.334620360424,1512
0.334696123257,1511
0.334993244979,1510
0.335276418373,1513
0.33558247799,1514
0.335672666095,1515
0.335779074632,1516
0.335880674416,1517
0.335936200244,1518
0.336458611482,1519
0.336565326773,1520
0.33732730904,1524
0.337347264191,1525
0.33739640687,1526
0.337475962434,1521
0.337478362434,1527
0.337648885429,1528
0.338299163227,1529
0.338431883176,1530
0.338434643176,1522
0.338644522882,1533
0.338701162879,1534
0.338896042763,1531
0.338936722763,1532
0.338967202764,1523
0.339565764923,1535
0.339841571021,1537
0.339948838959,1538
0.339976690587,1536
0.340579956452,1539
0.340866398554,1540
0.341043400613,1543
0.341141920614,1542
0.34138396333,1545
0.341535883199,1544
0.341716722194,1541
0.342111060489,1546
0.342658440381,1547
0.342877377159,1548
0.343773355687,1549
0.344041668158,1550
0.344312667661,1551
0.344376360648,1552
0.344480928961,1553
0.34494143848,1554
0.345824970516,1556
0.346172008126,1555
0.346655573752,1558
0.346904452538,1560
0.34714925202,1557
0.347194546825,1561
0.347468861086,1559
0.347753619219,1563
0.348037057381,1564
0.348296375728,1565
0.34870437283,1562
0.349630749233,1567
0.349885027942,1568
0.349934779878,1569
0.350273225818,1570
0.350479624618,1571
0.350755623135,1573
0.351069182503,1575
0.351075504959,1576
0.35113835098,1574
0.351157195057,1577
0.351557045493,1580
0.351630605495,1581
0.351654245496,1572
0.351777302011,1582
0.351836701888,1579
0.351877205261,1578
0.352087447913,1583
0.35215548763,1566
0.352373845619,1584
0.352481209636,1585
0.352643525366,1586
0.352690148465,1587
0.352894803291,1588
0.352975263342,1589
0.353440929284,1591
0.353477334609,1592
0.353677857136,1590
0.353759066409,1593
0.353849370218,1594
0.354052465482,1596
0.354185064882,1597
0.354442077456,1599
0.354452037457,1595
0.354893876289,1598
0.354902931275,1602
0.355218054354,1604
0.355246488512,1605
0.35552669138,1601
0.35573489113,1600
0.35590793103,1607
0.356065850932,1608
0.35631905051,1609
0.356514050199,1606
0.356638493396,1611
0.356748889984,1612
0.356801569964,1603
0.357083211855,1613
0.357382729861,1610
0.357517492936,1614
0.358083464318,1617
0.358091984319,1616
0.358107104305,1618
0.358124463138,1619
0.358181876836,1620
0.35824664058,1621
0.358536322388,1615
0.358539289902,1622
0.358569989057,1623
0.358903710493,1625
0.358986152853,1626
0.359307154442,1627
0.359509953676,1624
0.359602870368,1630
0.359817750836,1628
0.359951190782,1629
0.360344668005,1631
0.360812789382,1632
0.361029871771,1633
0.36105207845,1634
0.361723187504,1635
0.361983814306,1636
0.362399170006,1637
0.362598551409,1638
0.362643764729,1639
0.362845847584,1640
0.362962367099,1641
0.363149009681,1642
0.363280924207,1643
0.363473046804,1644
0.363535539399,1645
0.363608360141,1646
0.363627982375,1647
0.363901273098,1648
0.364193781182,1649
0.364258467192,1650
0.364496902743,1651
0.364536620311,1652
0.364772000097,1653
0.365316308321,1654
0.365693149587,1655
0.366188901228,1656
0.36654580017,1657
0.367631867786,1659
0.367685987561,1658
0.367918267666,1661
0.367922467649,1660
0.368071870602,1662
0.368098733185,1663
0.368320121529,1664
0.368815370011,1665
0.36889435643,1666
0.369418829992,1667
0.369547287636,1668
0.369610006477,1669
0.370180749851,1670
0.370224763106,1672
0.370377432593,1671
0.37072816311,1674
0.37115800161,1676
0.371444680954,1677
0.371591440915,1678
0.371891924112,1679
0.372340479418,1675
0.372525278388,1680
0.372738882969,1681
0.373018839389,1682
0.373177959036,1673
0.373420666625,1683
0.37358333793,1684
0.373967670976,1687
0.374340870119,1685
0.374432031096,1686
0.374555011552,1690
0.374562695276,1691
0.374726494566,1689
0.37474965447,1688
0.375071125622,1692
0.375169470273,1693
0.375296025023,1694
0.375449717281,1695
0.375517132424,1696
0.375600166779,1697
0.37568509064,1698
0.375705435001,1699
0.376290757338,1700
0.376359741951,1702
0.376583619968,1701
0.376853065701,1704
0.377042304626,1703
0.377314870459,1705
0.377556586265,1706
0.377710423808,1707
0.377749272548,1708
0.377834970777,1709
0.378485379759,1713
0.378593859718,1715
0.378727422928,1714
0.378743019666,1716
0.378880182861,1717
0.379050102758,1718
0.379116582699,1719
0.379183539492,1720
0.379228846176,1721
0.37924557949,1722
0.379580382353,1724
0.379870422349,1726
0.379884473408,1727
0.379989942308,1725
0.380380422305,1729
0.381115422286,1731
0.381174342264,1733
0.381210101073,1732
0.381567942202,1730
0.381603822204,1712
0.381611057662,1728
0.382115384626,1735
0.382169264625,1736
0.382206704628,1737
0.382251104608,1723
0.382280744606,1739
0.382429948856,1740
0.382465948856,1741
0.382488413552,1742
0.382893224532,1744
0.383231267723,1746
0.383307107722,1747
0.38361598752,1749
0.383625467511,1748
0.383756510673,1745
0.383784950672,1750
0.384129473863,1752
0.384292313795,1754
0.384559553782,1753
0.384592073777,1757
0.384820426435,1755
0.384944629626,1734
0.385081312823,1756
0.38532647673,1759
0.38548619673,1758
0.385663436728,1760
0.385887956726,1761
0.386284316729,1711
0.386296076725,1763
0.386297636725,1762
0.386676719381,1751
0.386770799185,1743
0.387000842119,1710
0.38747232014,1766
0.387656051433,1764
0.387713022448,1767
0.388148053984,1770
0.388184809442,1771
0.388247173983,1772
0.38837197398,1774
0.388374493983,1773
0.38846233718,1769
0.388477319107,1775
0.388560853984,1768
0.389484257273,1765
0.389550377274,1776
0.38967277698,1777
0.389788456536,1778
0.389789416535,1779
0.389829016528,1738
0.389963501001,1780
0.39001995074,1781
0.390096265007,1782
0.390511505237,1784
0.390596224893,1785
0.390628466261,1786
0.390684064887,1787
0.3908093448,1789
0.390868024794,1790
0.391192987972,1793
0.391387511014,1791
0.391463382049,1794
0.39157051408,1792
0.392459706463,1798
0.392479746464,1797
0.39265614635,1783
0.392681109457,1799
0.393211746248,1800
0.393361625959,1801
0.393572345708,1796
0.393802625251,1795
0.394547582156,1803
0.394603502158,1788
0.39463534217,1804
0.394874632003,1807
0.395003031756,1802
0.395058235116,1808
0.396260150476,1809
0.396392150472,1810
0.396408230473,1806
0.396659512577,1805
0.396998847294,1811
0.397919114297,1814
0.398414474035,1816
0.398532673914,1815
0.39867343711,1817
0.398718197109,1818
0.399416355298,1813
0.399482118692,1821
0.399491903074,1820
0.399545598487,1822
0.39978092141,1823
0.399799041412,1819
0.399936444534,1824
0.400543639999,1825
0.401404875613,1827
0.402048719984,1830
0.402106398627,1812
0.402138599985,1829
0.402463442952,1833
0.402531602951,1835
0.40267712159,1828
0.40280816157,1832
0.402977481272,1836
0.40302405003,1837
0.403160841134,1834
0.403210041135,1831
0.403337604301,1838
0.403836917288,1839
0.403943476852,1840
0.404102356088,1826
0.404225599259,1841
0.404429889977,1842
0.40452782511,1844
0.40466491665,1843
0.40534679953,1845
0.406020537879,1846
0.406082571322,1847
0.406210413357,1848
0.40625378431,1849
0.406284334444,1850
0.40644140489,1851
0.406868585401,1854
0.406982585282,1856
0.407023868524,1853
0.407190911525,1857
0.407415671115,1858
0.407475671116,1852
0.407586787568,1859
0.407734630534,1855
0.407770635907,1860
0.407988078293,1861
0.407997310596,1862
0.408583713655,1864
0.408731192927,1863
0.408850950403,1866
0.408950586543,1867
0.409063349727,1868
0.409098867305,1869
0.409408708921,1865
0.40960071155,1871
0.410058748239,1872
0.410101227005,1873
0.410359229576,1874
0.410541028562,1870
0.410798593527,1875
0.411239936685,1876
0.411390023886,1877
0.411675037534,1878
0.41222284084,1879
0.412318548332,1880
0.412637260245,1882
0.413000618699,1884
0.413160818548,1885
0.41333133846,1883
0.413631337712,1886
0.414019536062,1887
0.414301654225,1888
0.414333694107,1889
0.414564333612,1891
0.414755493317,1890
0.414870332839,1881
0.41498843789,1892
0.415046949038,1893
0.415180952317,1894
0.41581339392,1895
0.415949468376,1896
0.416340123669,1897
0.416777908707,1898
0.416894796256,1899
0.417322689339,1900
0.417936765809,1902
0.418012605509,1904
0.418016325502,1903
0.418254528121,1905
0.418368407656,1906
0.418534610469,1901
0.418806513045,1907
0.419014130944,1908
0.419999042366,1909
0.420049038149,1910
0.420079683838,1911
0.42033965212,1912
0.420610660402,1913
0.422038748546,1914
0.42259207188,1916
0.422717595054,1917
0.422854394507,1918
0.422905925192,1919
0.423112687667,1915
0.423204703775,1921
0.423816346131,1928
0.423836146113,1927
0.424059825993,1924
0.42413242599,1930
0.42432358925,1922
0.424706389251,1929
0.424987429249,1931
0.425015632446,1932
0.425704308087,1933
0.426072827604,1934
0.426267347453,1926
0.426848987201,1923
0.427279426579,1937
0.427295275902,1938
0.427470466578,1940
0.427747186577,1941
0.428205826575,1943
0.428238346571,1939
0.428268466537,1944
0.428306386501,1945
0.428737306466,1935
0.429187666463,1947
0.429217546464,1948
0.429585226464,1949
0.429637906463,1950
0.429705706444,1951
0.429714106437,1952
0.429995986364,1955
0.430019746341,1954
0.430125826235,1956
0.43028050622,1942
0.43032694618,1957
0.430539349301,1960
0.430662829262,1953
0.430671826044,1946
0.430678622261,1962
0.430694355512,1963
0.430787272459,1958
0.430906758699,1965
0.430963398702,1936
0.431010918684,1966
0.431159958664,1967
0.431353878664,1968
0.431365761879,1969
0.431485281852,1971
0.431525241854,1970
0.431853805046,1972
0.432385045051,1959
0.432551647793,1974
0.432698287796,1975
0.432757927797,1973
0.432856648242,1964
0.433217367672,1977
0.433313007675,1920
0.434061207258,1981
0.434168490635,1982
0.434246583545,1979
0.434687860272,1976
0.434797781522,1983
0.434885983469,1980
0.435233506664,1925
0.435717225228,1984
0.435826076557,1986
0.436066184893,1985
0.436135784895,1978
0.43687870297,1987
0.436970502588,1961
0.437804966851,1988
0.437891716397,1989
0.438558472728,1992
0.438669895465,1993
0.438815395818,1991
0.439241633269,1994
0.439415992492,1996
0.440248790539,1990
0.440288230127,1999
0.440479359711,1998
0.440645439555,2000
0.440875239165,2001
0.441093495797,2003
0.441239152659,1995
0.441360258912,2005
0.441754461761,2004
0.441974301504,2007
0.442076301293,2006
0.442220301156,2002
0.442303969583,2008
0.442398504111,1997
0.443234170407,2009
0.443394114769,2010
0.443672984981,2012
0.443684624933,2011
0.44390798685,2014
0.443948066718,2015
0.444060269913,2016
0.444151757854,2017
0.444427229193,2018
0.444658108948,2021
0.444816868698,2020
0.445073068189,2022
0.445261107907,2019
0.445448906844,2013
0.446197521,2023
0.44636016681,2024
0.446721214395,2025
0.446865705845,2026
0.446971159845,2027
0.447209259315,2028
0.447440141589,2029
0.447858184396,2030
0.447972700656,2031
0.448051131134,2032
0.44816552469,2033
0.448964119663,2034
0.44926881488,2035
0.449406721097,2036
0.44968692296,2037
0.450012893099,2039
0.450018533076,2038
0.450384811738,2040
0.450685487586,2041
0.450779708471,2042
0.450836830855,2043
0.451030202236,2044
0.451315114196,2045
0.451789115654,2048
0.451836155655,2046
0.452177197751,2047
0.45227215378,2050
0.452372877444,2051
0.452657832609,2053
0.452788872565,2049
0.453043678313,2052
0.453398062094,2054
0.453809230841,2057
0.454000150557,2059
0.454034950486,2055
0.454096812162,2060
0.45414741477,2056
0.454869332992,2061
0.454897772874,2058
0.455000536704,2062
0.455070329908,2063
0.45516294632,2064
0.455181390712,2065
0.456072830349,2066
0.456158290251,2067
0.456618262632,2069
0.456701182287,2068
0.457627441286,2070
0.45824892418,2071
0.458384216942,2072
0.458807148513,2073
0.458923139853,2074
0.45930919111,2076
0.459447310513,2077
0.459568990071,2079
0.459798189618,2080
0.459833469591,2081
0.460185308449,2078
0.460444626836,2082
0.460490346685,2083
0.46051520353,2084
0.460578546568,2075
0.460865637244,2085
0.461924997292,2090
0.462751128254,2094
0.462776640358,2095
0.463110960142,2093
0.463137840143,2097
0.463527697293,2086
0.463590697251,2098
0.463893457135,2100
0.464695417081,2105
0.464811243124,2103
0.464869297081,2106
0.465273460271,2104
0.46541626027,2107
0.466117692763,2088
0.46621165276,2101
0.466251732763,2087
0.466529772759,2109
0.466551012762,2096
0.466598112048,2111
0.466793715162,2110
0.466851315125,2112
0.466885812618,2113
0.467146635083,2115
0.467171235078,2116
0.467576623246,2091
0.467662903248,2114
0.467984715052,2117
0.468101983238,2119
0.468209958136,2118
0.46828123807,2122
0.468300318073,2108
0.46846496127,2123
0.46849663477,2124
0.468649404466,2099
0.468774204462,2121
0.469208724466,2102
0.469292367657,2120
0.469537767472,2125
0.469538847475,2127
0.469608447477,2092
0.469678024565,2128
0.469679250629,2089
0.469758399397,2130
0.469884642579,2132
0.47004760228,2129
0.470049882276,2133
0.470189201977,2134
0.470417681528,2126
0.470550284715,2131
0.470753933963,2137
0.470896373924,2138
0.471194453781,2140
0.471276434779,2141
0.471394405263,2139
0.471600656671,2136
0.471778016438,2143
0.472051855816,2144
0.472216015662,2145
0.47246837552,2142
0.472526575521,2135
0.472739217947,2146
0.473187637246,2147
0.473589758356,2150
0.473632958354,2151
0.473678281547,2149
0.473821444552,2148
0.473885822806,2152
0.473908241589,2153
0.473947900991,2154
0.474015251061,2155
0.474139475547,2156
0.474415226676,2157
0.475028288083,2159
0.475238406833,2158
0.475314291113,2160
0.475616639563,2161
0.475920548376,2163
0.476146506994,2162
0.476669379732,2164
0.476706912031,2165
0.476719675658,2166
0.476833755222,2168
0.476912234938,2167
0.476998878419,2170
0.477043410418,2169
0.477680640957,2171
0.478054449987,2172
0.478503537051,2173
0.478598461751,2174
0.479314484339,2175
0.479605932044,2176
0.479652178607,2177
0.479888701312,2180
0.480113940925,2183
0.480223260924,2184
0.48049650061,2178
0.480678183598,2185
0.480815223428,2186
0.480954183178,2179
0.481027623143,2187
0.481167786256,2181
0.481487584226,2188
0.481783142265,2182
0.481816148429,2189
0.481967641832,2190
0.482007173138,2191
0.48212999924,2192
0.482186021934,2193
0.48260098267,2194
0.482958519741,2195
0.483053677,2197
0.483357641067,2198
0.483839677552,2196
0.483890113156,2199
0.483994010066,2200
0.484623184678,2201
0.485076786416,2202
0.485210899857,2203
0.485217644782,2204
0.485499430453,2205
0.485625101964,2206
0.485724370986,2207
0.486034932606,2209
0.486104292444,2210
0.486224292337,2211
0.48690216138,2208
0.487110121016,2212
0.487303280388,2214
0.487403914834,2215
0.487486283323,2213
0.487927236649,2217
0.48792927665,2216
0.488314508316,2218
0.488766119212,2219
0.489426143875,2220
0.491264250842,2222
0.491294130721,2223
0.491396490589,2225
0.49159425023,2224
0.491668529921,2221
0.491881215028,2226
0.491908682127,2227
0.491924853579,2228
0.492077630502,2230
0.492722265632,2229
0.493342837816,2232
0.49353987671,2233
0.493540966858,2234
0.493815169413,2231
0.494148827738,2235
0.494279976716,2237
0.494292696663,2238
0.494316696664,2236
0.494954762684,2239
0.49534443403,2240
0.496457215233,2241
0.49739608177,2242
0.498527690651,2243
0.498882175906,2245
0.498923541083,2246
0.4989503359,2247
0.499150738448,2248
0.499690254527,2249
0.499945373276,2251
0.500308852337,2252
0.501232370916,2250
0.501259970896,2254
0.501389690892,2256
0.501702071963,2255
0.501830471715,2253
0.502086434619,2258
0.502467673599,2259
0.502588873582,2260
0.502822513336,2262
0.503097192787,2264
0.503145312791,2257
0.503185636229,2265
0.503376436029,2266
0.503629999156,2244
0.503636264793,2269
0.503900122054,2268
0.504110238598,2270
0.504277998311,2271
0.504532758028,2263
0.504818481215,2261
0.504944961211,2275
0.505295601064,2274
0.505682123709,2277
0.505958603707,2276
0.50612168362,2273
0.506140163606,2279
0.506294843569,2278
0.506592082833,2267
0.506939000444,2272
0.507145299918,2280
0.507191545095,2281
0.507547376088,2282
0.507742978656,2283
0.508087474629,2284
0.508297452778,2285
0.508464255605,2287
0.508474695562,2286
0.508492045049,2288
0.50867136872,2289
0.509059662694,2290
0.509811540304,2291
0.510646040479,2293
0.510653840447,2292
0.510819683263,2294
0.511052015943,2295
0.511354858352,2296
0.512535152364,2297
0.513473835071,2298
0.514169234546,2300
0.514355593501,2301
0.515020031021,2303
0.515132230788,2302
0.515571792984,2306
0.515648232827,2305
0.515791636014,2308
0.515970079088,2309
0.516244635499,2307
0.516257962285,2304
0.516407605268,2310
0.517052240914,2312
0.517151600855,2313
0.51719768411,2311
0.517220604111,2299
0.517829478726,2315
0.51799231795,2314
0.5180228145,2316
0.518066339475,2317
0.518442710534,2318
0.518575559772,2319
0.518600922904,2321
0.518606496173,2320
0.518630818106,2322
0.518689206256,2323
0.519269196492,2324
0.519605862303,2326
0.51987166104,2328
0.520601918446,2327
0.520862263279,2331
0.520996426476,2325
0.521047748843,2330
0.521247191511,2332
0.521493430518,2333
0.52153867033,2329
0.521728872943,2334
0.521892963877,2335
0.52227306494,2336
0.522321651721,2337
0.522418300094,2338
0.522690115211,2339
0.522720161065,2340
0.522728938973,2341
0.523317925038,2342
0.52334618107,2343
0.523805732997,2344
0.524363342057,2345
0.524489634427,2346
0.524555801454,2347
0.524977050249,2348
0.525342212493,2350
0.525675691606,2351
0.525701011501,2349
0.525726604022,2352
0.525798342661,2353
0.526162707077,2355
0.526282826577,2354
0.526439552999,2356
0.52661256942,2357
0.527444289786,2358
0.527578868595,2359
0.527814306219,2360
0.527839078311,2361
0.52835828072,2362
0.528697779534,2363
0.528811536701,2364
0.528970756726,2365
0.52899233485,2366
0.529431678927,2369
0.529496358907,2370
0.529536078883,2371
0.530174238762,2376
0.530539518764,2367
0.531374474847,2372
0.531450674848,2368
0.531543791271,2375
0.531583806117,2373
0.53167323851,2379
0.531836054015,2377
0.531842294017,2378
0.532027337213,2374
0.532193897024,2382
0.532478296342,2381
0.532715357807,2380
0.532977987851,2383
0.534011512485,2384
0.534024269044,2386
0.534197395188,2385
0.534940106649,2387
0.534953580855,2389
0.535055536771,2391
0.535206903921,2390
0.535406342761,2388
0.53545159998,2392
0.535588955562,2393
0.535781185433,2394
0.536661269244,2395
0.537071722324,2396
0.537481656386,2397
0.538417739483,2399
0.538669858426,2398
0.538877299672,2400
0.539237780866,2401
0.539455364558,2402
0.539482193948,2403
0.540083714947,2406
0.540156443254,2408
0.540459926113,2410
0.540484646112,2411
0.540773005791,2412
0.540879322534,2407
0.541355728766,2404
0.541517728592,2409
0.541738771368,2405
0.542070689403,2413
0.5423101919,2416
0.542457791783,2417
0.542636471583,2415
0.543346629646,2420
0.543608683972,2422
0.54370720397,2423
0.54374704397,2424
0.544047283638,2425
0.544158043638,2426
0.544365283456,2421
0.544370683447,2419
0.544678966575,2428
0.545586165986,2427
0.545984799567,2431
0.546013716352,2432
0.54614667954,2430
0.546475479273,2433
0.54815199851,2438
0.548277758386,2439
0.54846999826,2435
0.548677721449,2441
0.548689361436,2440
0.54869932143,2429
0.54897628144,2442
0.549290681441,2414
0.549414644631,2443
0.549477284629,2445
0.549490364632,2444
0.549715484532,2447
0.549827564532,2448
0.550142564531,2449
0.55045540453,2446
0.550474160144,2450
0.55078904296,2451
0.550932082914,2418
0.551064922665,2436
0.551113522648,2452
0.551163551232,2453
0.551422525498,2455
0.551490805358,2437
0.551590405248,2456
0.551782285071,2459
0.551902775118,2457
0.552437248017,2458
0.552572858266,2460
0.552783337892,2454
0.553064979776,2461
0.553548216459,2434
0.553683264607,2462
0.553752744358,2464
0.553865599665,2465
0.554461824662,2467
0.554964383077,2468
0.555143062834,2463
0.555753843158,2466
0.555895452345,2469
0.556408588562,2470
0.557105109186,2471
0.557978457791,2472
0.558190098842,2473
0.558601533503,2474
0.558995086941,2475
0.55932857831,2476
0.559425386943,2477
0.559441462434,2478
0.559673143297,2479
0.560265434501,2480
0.560546834511,2481
0.560858025641,2482
0.560983098134,2483
0.561611849248,2484
0.561905523531,2485
0.562365478578,2486
0.562730521877,2487
0.563520665301,2489
0.563681224465,2488
0.563837176275,2490
0.564292566388,2491
0.564445789834,2492
0.565437936451,2493
0.566300993281,2494
0.566632574498,2496
0.56719513036,2497
0.56750712829,2498
0.567814326247,2499
0.567925805783,2495
0.568017692767,2500
0.568304958001,2501
0.568457523754,2504
0.568825082952,2506
0.568847522906,2507
0.568895642906,2508
0.569206922804,2509
0.569279642764,2511
0.569279898097,2512
0.569339711877,2505
0.569746325801,2513
0.569774525766,2514
0.569819520584,2515
0.570172685673,2502
0.570517085539,2510
0.570526217164,2516
0.570683768428,2517
0.570879847308,2518
0.571393443535,2519
0.571467261256,2520
0.571494919656,2521
0.571670183879,2503
0.572141724932,2523
0.5723618036,2522
0.572687694051,2524
0.573488351704,2525
0.573937162356,2526
0.574871057202,2527
0.574900649181,2528
0.574928910707,2529
0.575055993846,2530
0.575407663907,2531
0.575483354792,2532
0.575583706904,2534
0.575620426874,2535
0.575703826872,2536
0.575873746112,2533
0.576140633193,2537
0.57664535414,2540
0.576661274449,2541
0.576789477303,2538
0.577478553118,2542
0.577532193118,2543
0.577739435605,2544
0.577906355115,2546
0.578557472903,2545
0.578909310901,2548
0.579049110821,2539
0.579937800597,2547
0.580086814973,2549
0.58027535916,2550
0.58033135066,2551
0.580393207099,2552
0.580725493817,2553
0.581084370452,2554
0.581341122514,2555
0.581565288522,2556
0.581694922588,2557
0.581779112341,2558
0.581981122518,2559
0.582123472079,2561
0.58220735173,2560
0.582350672562,2563
0.582378872445,2562
0.582527138434,2564
0.582859816259,2566
0.583425973718,2568
0.583998132396,2570
0.584143692143,2571
0.584236211951,2567
0.58436089189,2572
0.584434811758,2573
0.584497455076,2574
0.585090372991,2575
0.585280332717,2576
0.585355245866,2577
0.585588855441,2569
0.585674535084,2565
0.586167111195,2579
0.586360670243,2581
0.586424510245,2578
0.587232250475,2583
0.58779060869,2584
0.58790868866,2585
0.588155531857,2582
0.588255831788,2587
0.588298688472,2588
0.588408234917,2589
0.588471111699,2586
0.588889072414,2580
0.589604341298,2591
0.58981674003,2590
0.58983374488,2592
0.59056201665,2593
0.590693059756,2594
0.591163390042,2595
0.591193630271,2597
0.591367989695,2596
0.59145193242,2598
0.591456019685,2599
0.591546038161,2600
0.592015256242,2601
0.592375886341,2602
0.592802791761,2603
0.592880802056,2604
0.593058109452,2605
0.5938902977,2607
0.593986057348,2608
0.594346054963,2609
0.594760292013,2606
0.594827353247,2610
0.595641431179,2611
0.595815608584,2615
0.595888808433,2614
0.595944128335,2612
0.596248686601,2616
0.596695323381,2613
0.597611957727,2617
0.597842705375,2618
0.59864008516,2619
0.59901049932,2620
0.5994126539,2621
0.59961457048,2622
0.599753216623,2623
0.599793319097,2624
0.599992861343,2626
0.600006901285,2625
0.600170404133,2627
0.600385661884,2628
0.600582317439,2629
0.60070002394,2631
0.600810506054,2633
0.600969106177,2634
0.600977986178,2632
0.601209708525,2635
0.601478987904,2636
0.601640747107,2637
0.601724866857,2638
0.601787626747,2630
0.602441861479,2639
0.602584505164,2640
0.602776531272,2641
0.603147453098,2643
0.603445892748,2646
0.603675095736,2648
0.603725135737,2650
0.603823535737,2647
0.604002218809,2651
0.60425481873,2653
0.604322858729,2654
0.604685981922,2644
0.604753421924,2655
0.60477525873,2642
0.604844618729,2645
0.605037104971,2657
0.605178941571,2656
0.605234381569,2658
0.605521424462,2660
0.605788183962,2659
0.605812783962,2662
0.606012227082,2663
0.60627862363,2664
0.606353263476,2649
0.607163380554,2666
0.607224734768,2668
0.607267574769,2667
0.607296463751,2669
0.607868980432,2670
0.608363860184,2652
0.608587783195,2665
0.608718582607,2661
0.609154210042,2671
0.60919887736,2672
0.609671879956,2673
0.609782776593,2674
0.610515684054,2675
0.610784367288,2676
0.611015262945,2677
0.611481391161,2678
0.611516943003,2679
0.611935006297,2681
0.611954326217,2680
0.612127368973,2682
0.612400209952,2683
0.612528184517,2684
0.613126398651,2685
0.61372531078,2686
0.613946747359,2687
0.614083790415,2688
0.614372064934,2689
0.615483655637,2692
0.615577252221,2691
0.615679642094,2690
0.615761299753,2696
0.615762379754,2695
0.615820885247,2693
0.61601834272,2697
0.616236262313,2698
0.616538180312,2699
0.616609580016,2700
0.61670102334,2701
0.616837826468,2703
0.617080226037,2704
0.617091742397,2705
0.617138783597,2706
0.61716062593,2702
0.617316269005,2708
0.617333071063,2709
0.617418492702,2710
0.617469071593,2711
0.617974833505,2714
0.618031113506,2712
0.618099993497,2713
0.618143617669,2715
0.618618995325,2716
0.618999994622,2694
0.61903183839,2719
0.619365877354,2720
0.619427554009,2717
0.619500517099,2718
0.619750564672,2723
0.619920273504,2724
0.619971513398,2721
0.620297432543,2726
0.620458992084,2727
0.620668151753,2707
0.620763431556,2725
0.620834614077,2729
0.621400045072,2730
0.621517164994,2732
0.621517284993,2722
0.621890243754,2733
0.622086203615,2728
0.622630994148,2735
0.622661114147,2737
0.623036837342,2731
0.623144748341,2742
0.623158397324,2734
0.62334197732,2739
0.623342337317,2743
0.623565057107,2744
0.623735820299,2746
0.623774404177,2747
0.623995863492,2748
0.624062287372,2749
0.624253383492,2736
0.624344583492,2741
0.624551106525,2751
0.624666786524,2752
0.624947349401,2753
0.625091586057,2755
0.62559318601,2758
0.625817229202,2756
0.626102952393,2759
0.626162550471,2760
0.62624479557,2761
0.626640429054,2762
0.626717709054,2754
0.626982435525,2763
0.627172515523,2764
0.627363555523,2765
0.627551235444,2767
0.628169715316,2768
0.628281195291,2738
0.628564035276,2770
0.628589835278,2771
0.628948875179,2772
0.629009951906,2773
0.629065395141,2774
0.6293059951,2769
0.629309475101,2757
0.629632874677,2745
0.629810474338,2750
0.629824757725,2776
0.630068720872,2775
0.630184160875,2766
0.630262558462,2777
0.63105788259,2778
0.631256485749,2781
0.631485805482,2780
0.631488746945,2782
0.631532605397,2783
0.631659208567,2779
0.632251529614,2786
0.632504362693,2784
0.6327671621,2785
0.632846851884,2740
0.633157725526,2787
0.633174108977,2788
0.633305254053,2789
0.634318046371,2790
0.634371215557,2791
0.634597418312,2793
0.634678252626,2794
0.634831615591,2795
0.634937422443,2797
0.635618814228,2801
0.635624077516,2800
0.635692890218,2802
0.635699194341,2803
0.636194917538,2804
0.636353817414,2805
0.636482097417,2806
0.636711773942,2798
0.636874736939,2799
0.636964131158,2807
0.637450858608,2796
0.637737540417,2792
0.63818424019,2808
0.638614535741,2809
0.639222437539,2811
0.639609931865,2813
0.639627214176,2814
0.639688531714,2812
0.639956373825,2815
0.640172492529,2816
0.640359452042,2818
0.640375892028,2819
0.640543171695,2820
0.640830404886,2822
0.641107411198,2821
0.641269654324,2825
0.641767170344,2824
0.642353972727,2827
0.64253912919,2828
0.642665489188,2829
0.642804449152,2823
0.643253368762,2836
0.643931008763,2837
0.643972888766,2838
0.644006008762,2839
0.644557048764,2840
0.644746048764,2833
0.644839259996,2842
0.644978848756,2843
0.645339928756,2844
0.645429328754,2845
0.645701728757,2846
0.645770128757,2830
0.645940888709,2847
0.645985168709,2848
0.646062568712,2826
0.646761448656,2851
0.646835488654,2852
0.647038168655,2853
0.647453368653,2854
0.647598688653,2855
0.647626768659,2810
0.647639248675,2831
0.647835691783,2856
0.647890531771,2857
0.648366211512,2860
0.648549931512,2858
0.648653731514,2835
0.648690091512,2861
0.648816451476,2841
0.649074094643,2863
0.649425454401,2849
0.649642774214,2832
0.649776334159,2834
0.649853137317,2862
0.649958544001,2867
0.650767890755,2865
0.651075810721,2870
0.651191010677,2864
0.651323733838,2872
0.651632257033,2866
0.651906937034,2850
0.652220013708,2869
0.652261653708,2873
0.652532853395,2868
0.652608813239,2859
0.652665213164,2874
0.653107532438,2876
0.653151311038,2877
0.653323634212,2879
0.653431994214,2817
0.653457880953,2880
0.653504594205,2881
0.653910313644,2885
0.653989993645,2883
0.65447251684,2871
0.654522169723,2888
0.654893836759,2875
0.65502310804,2887
0.655111738225,2891
0.655397511141,2892
0.655656954332,2893
0.655663554333,2889
0.656087877526,2894
0.656251317526,2884
0.656290917526,2882
0.656541717358,2895
0.656800925597,2890
0.656926085578,2886
0.657015952972,2896
0.657202447848,2878
0.657773527295,2898
0.657805327227,2899
0.658488125775,2900
0.658686724622,2897
0.659242855177,2901
0.659328108178,2902
0.659570020378,2904
0.660082776619,2905
0.66046089397,2903
0.660890761918,2906
0.660961115593,2907
0.661062260612,2910
0.661114385841,2911
0.661255996886,2908
0.661423156692,2909
0.66153355657,2914
0.661940358754,2915
0.66200539862,2912
0.662069267231,2916
0.662203660147,2913
0.662440466446,2917
0.662588694836,2918
0.662690887798,2919
0.662751071674,2920
0.663171027213,2921
0.663589345705,2923
0.664101503805,2922
0.664136461057,2926
0.664161617427,2927
0.664395976879,2925
0.664632735425,2928
0.664923373523,2929
0.664983237338,2930
0.66508369314,2931
0.665285415659,2932
0.665323988826,2934
0.665840351435,2936
0.665946060167,2937
0.666323594408,2938
0.666420674227,2939
0.666493703342,2940
0.666540743345,2933
0.666603107068,2941
0.666771866407,2942
0.667075586182,2943
0.66707802339,2944
0.667198447613,2945
0.667217370797,2946
0.66749094572,2924
0.667700224502,2947
0.667779544347,2948
0.667793944317,2949
0.667817704305,2950
0.667860784222,2935
0.667918027514,2951
0.668251435935,2952
0.668638966768,2953
0.66889771075,2954
0.669107575179,2955
0.669452834301,2956
0.66971008972,2957
0.670157557816,2958
0.670576185246,2959
0.670581530368,2960
0.670749151464,2961
0.670987839782,2962
0.671019171939,2963
0.671239400038,2965
0.671583323022,2967
0.671787442674,2966
0.672146840181,2964
0.672319103966,2970
0.673102223482,2973
0.673108583484,2969
0.673355543222,2971
0.673663106369,2975
0.673737266237,2976
0.6738809094,2977
0.674066764409,2978
0.674221708881,2968
0.674878567168,2980
0.675060628169,2972
0.675198508096,2974
0.675295231,2979
0.675316439985,2982
0.675688832611,2984
0.675811592602,2983
0.676115310784,2985
0.676230012476,2986
0.676508054357,2981
0.676589260055,2987
0.677755068104,2989
0.677880827616,2990
0.677988107298,2991
0.678555706078,2993
0.678767145715,2994
0.678866764885,2996
0.679004748674,2988
0.679280015766,2997
0.679281935765,2999
0.680599898958,2992
0.681302736531,2998
0.681634666927,2995
