time,DctcpSim1.flowGenerator3.flowSynSize:vector
1,1.0
2,3157.0
3,5.0
4,224.0
5,4.0
6,127.0
7,13.0
8,769.0
9,45.0
10,359.0
11,9.0
12,7.0
13,2419.0
14,20.0
15,46.0
16,1.0
17,1311.0
18,15.0
19,448.0
20,396.0
21,40.0
22,6458.0
23,1466.0
24,2550.0
25,18.0
26,297.0
27,2.0
28,2257.0
29,52.0
30,2909.0
31,606.0
32,943.0
33,25.0
34,25.0
35,22.0
36,15.0
37,6083.0
38,16.0
39,261.0
40,1096.0
41,2106.0
42,1923.0
43,35.0
44,1229.0
45,4.0
46,9.0
47,27.0
48,562.0
49,2568.0
50,1327.0
51,7.0
52,3148.0
53,1609.0
54,1989.0
55,13.0
56,3011.0
57,20.0
58,21.0
59,48.0
60,282.0
61,35.0
62,41.0
63,17.0
64,40.0
65,11023.0
66,344.0
67,27.0
68,3.0
69,1975.0
70,2625.0
71,7.0
72,869.0
73,227.0
74,5.0
75,23.0
76,672.0
77,6.0
78,5.0
79,7.0
80,5644.0
81,209.0
82,48.0
83,728.0
84,3755.0
85,47.0
86,3.0
87,372.0
88,215.0
89,2226.0
90,1791.0
91,1.0
92,116.0
93,24.0
94,32.0
95,16.0
96,2730.0
97,84.0
98,6.0
99,2.0
100,17.0
101,10.0
102,8.0
103,14.0
104,352.0
105,15.0
106,20.0
107,21.0
108,53.0
109,8.0
110,42.0
111,375.0
112,5.0
113,4.0
114,3.0
115,23.0
116,20.0
117,49.0
118,1.0
119,7.0
120,33.0
121,19.0
122,2018.0
123,29.0
124,5.0
125,2380.0
126,42.0
127,394.0
128,16.0
129,5.0
130,6215.0
131,19.0
132,3.0
133,120.0
134,5975.0
135,36.0
136,31.0
137,1567.0
138,86.0
139,43.0
140,5402.0
141,2.0
142,149.0
143,5.0
144,110.0
145,15.0
146,22.0
147,26.0
148,694.0
149,3.0
150,215.0
151,1211.0
152,983.0
153,44.0
154,1390.0
155,274.0
156,9.0
157,5.0
158,28.0
159,17.0
160,40.0
161,6.0
162,138.0
163,851.0
164,2134.0
165,19.0
166,403.0
167,120.0
168,2398.0
169,9.0
170,27.0
171,20.0
172,67.0
173,31.0
174,51.0
175,49.0
176,32.0
177,6334.0
178,2052.0
179,544.0
180,1.0
181,11951.0
182,1037.0
183,999.0
184,1540.0
185,3.0
186,1419.0
187,6118.0
188,1.0
189,354.0
190,1255.0
191,3756.0
192,4248.0
193,2.0
194,83.0
195,57.0
196,46.0
197,26.0
198,6.0
199,2695.0
200,7.0
201,3099.0
202,2.0
203,36.0
204,8.0
205,4721.0
206,3.0
207,1921.0
208,19.0
209,20.0
210,45.0
211,26.0
212,2260.0
213,19.0
214,2.0
215,3848.0
216,60.0
217,49.0
218,929.0
219,47.0
220,337.0
221,17.0
222,57.0
223,3.0
224,6.0
225,4993.0
226,37.0
227,32.0
228,3944.0
229,212.0
230,7.0
231,22.0
232,276.0
233,224.0
234,40.0
235,16.0
236,1435.0
237,351.0
238,3.0
239,44.0
240,3115.0
241,42.0
242,3702.0
243,12.0
244,22.0
245,2942.0
246,52.0
247,2.0
248,35.0
249,23.0
250,21.0
251,943.0
252,3304.0
253,107.0
254,3869.0
255,17880.0
256,31.0
257,7.0
258,35.0
259,49.0
260,16129.0
261,32.0
262,6.0
263,6.0
264,2934.0
265,94.0
266,2.0
267,1061.0
268,17.0
269,41.0
270,43.0
271,101.0
272,38.0
273,30.0
274,14.0
275,1277.0
276,2353.0
277,3.0
278,1244.0
279,6.0
280,17.0
281,3.0
282,19.0
283,3485.0
284,6328.0
285,164.0
286,1419.0
287,597.0
288,24.0
289,33.0
290,128.0
291,60.0
292,5.0
293,25.0
294,2.0
295,53.0
296,43.0
297,6.0
298,17.0
299,38.0
300,60.0
301,111.0
302,18.0
303,48.0
304,2646.0
305,24.0
306,21.0
307,4.0
308,15.0
309,3495.0
310,5572.0
311,132.0
312,41.0
313,4514.0
314,9.0
315,261.0
316,925.0
317,8255.0
318,1409.0
319,53.0
320,212.0
321,2008.0
322,4.0
323,6546.0
324,1093.0
325,3.0
326,687.0
327,18.0
328,1033.0
329,5252.0
330,2134.0
331,2585.0
332,1780.0
333,23.0
334,40.0
335,3713.0
336,144.0
337,1265.0
338,18668.0
339,9.0
340,2.0
341,2768.0
342,26.0
343,728.0
344,3916.0
345,45.0
346,1976.0
347,1.0
348,6.0
349,5.0
350,16.0
351,1010.0
352,2937.0
353,686.0
354,5884.0
355,13.0
356,718.0
357,37.0
358,6.0
359,20.0
360,2.0
361,2267.0
362,10201.0
363,127.0
364,1.0
365,1174.0
366,2.0
367,42.0
368,4.0
369,5367.0
370,132.0
371,16.0
372,1057.0
373,69.0
374,3797.0
375,24.0
376,8.0
377,43.0
378,1200.0
379,4.0
380,4.0
381,16.0
382,5.0
383,5.0
384,480.0
385,1325.0
386,6.0
387,251.0
388,1206.0
389,16.0
390,32.0
391,9637.0
392,20.0
393,1586.0
394,37.0
395,47.0
396,2817.0
397,4240.0
398,1497.0
399,22.0
400,1.0
401,6.0
402,4884.0
403,4589.0
404,44.0
405,3.0
406,6478.0
407,12606.0
408,80.0
409,25.0
410,1233.0
411,14.0
412,41.0
413,134.0
414,356.0
415,1.0
416,63.0
417,87.0
418,96.0
419,16.0
420,82.0
421,14.0
422,29.0
423,76.0
424,32.0
425,19.0
426,7.0
427,46.0
428,20.0
429,8.0
430,31.0
431,1057.0
432,30.0
433,11.0
434,3288.0
435,2.0
436,434.0
437,13.0
438,50.0
439,4.0
440,20.0
441,37.0
442,2583.0
443,55.0
444,55.0
445,1319.0
446,9.0
447,327.0
448,620.0
449,19.0
450,17.0
451,1215.0
452,419.0
453,53.0
454,43.0
455,8923.0
456,20.0
457,4.0
458,25.0
459,2.0
460,6.0
461,4.0
462,20.0
463,9.0
464,496.0
465,5667.0
466,36.0
467,9047.0
468,47.0
469,20.0
470,32.0
471,13.0
472,10.0
473,53.0
474,3232.0
475,117.0
476,2809.0
477,3282.0
478,910.0
479,5.0
480,40.0
481,134.0
482,16.0
483,1.0
484,2.0
485,1058.0
486,65.0
487,22.0
488,32.0
489,28.0
490,4.0
491,28.0
492,1001.0
493,471.0
494,91.0
495,6.0
496,48.0
497,49.0
498,1236.0
499,3.0
500,1556.0
501,58.0
502,3.0
503,14.0
504,34.0
505,34.0
506,131.0
507,266.0
508,1584.0
509,7951.0
510,25.0
511,27.0
512,5075.0
513,1014.0
514,89.0
515,1946.0
516,1.0
517,3.0
518,30.0
519,41.0
520,5880.0
521,73.0
522,640.0
523,15.0
524,18.0
525,74.0
526,807.0
527,750.0
528,1563.0
529,2709.0
530,15259.0
531,15.0
532,6.0
533,132.0
534,28.0
535,1311.0
536,3224.0
537,4.0
538,47.0
539,32.0
540,614.0
541,20.0
542,4244.0
543,471.0
544,17.0
545,375.0
546,2043.0
547,4.0
548,2.0
549,119.0
550,1183.0
551,53.0
552,441.0
553,21.0
554,1640.0
555,561.0
556,8.0
557,447.0
558,9.0
559,23.0
560,2.0
561,65.0
562,24.0
563,8.0
564,29.0
565,1147.0
566,162.0
567,6.0
568,52.0
569,586.0
570,20.0
571,432.0
572,61.0
573,301.0
574,4150.0
575,14160.0
576,20.0
577,42.0
578,1.0
579,535.0
580,2147.0
581,1121.0
582,42.0
583,92.0
584,2328.0
585,6683.0
586,53.0
587,5021.0
588,11.0
589,133.0
590,575.0
591,100.0
592,577.0
593,3456.0
594,68.0
595,535.0
596,5060.0
597,8.0
598,93.0
599,1245.0
600,26.0
601,20.0
602,6.0
603,46.0
604,651.0
605,5092.0
606,3628.0
607,306.0
608,791.0
609,833.0
610,4114.0
611,2632.0
612,855.0
613,1.0
614,6.0
615,19.0
616,687.0
617,63.0
618,2.0
619,21.0
620,15.0
621,1675.0
622,35.0
623,544.0
624,47.0
625,3.0
626,2911.0
627,2367.0
628,453.0
629,416.0
630,65.0
631,916.0
632,3310.0
633,18216.0
634,3367.0
635,75.0
636,1181.0
637,18.0
638,29.0
639,75.0
640,1182.0
641,25.0
642,14.0
643,3.0
644,41.0
645,1272.0
646,47.0
647,1205.0
648,31.0
649,1718.0
650,3189.0
651,8.0
652,132.0
653,4054.0
654,47.0
655,62.0
656,326.0
657,2.0
658,1058.0
659,240.0
660,3538.0
661,2978.0
662,35.0
663,4413.0
664,47.0
665,5.0
666,11.0
667,1189.0
668,1135.0
669,3.0
670,2.0
671,1146.0
672,40.0
673,7.0
674,16.0
675,19318.0
676,36.0
677,455.0
678,2161.0
679,14.0
680,97.0
681,1136.0
682,24.0
683,5889.0
684,536.0
685,16.0
686,28.0
687,4.0
688,4.0
689,33.0
690,981.0
691,29.0
692,1393.0
693,884.0
694,629.0
695,2537.0
696,622.0
697,935.0
698,27.0
699,21.0
700,11.0
701,515.0
702,42.0
703,54.0
704,5034.0
705,35.0
706,42.0
707,45.0
708,18.0
709,5.0
710,37.0
711,43.0
712,50.0
713,14.0
714,38.0
715,20.0
716,1645.0
717,15.0
718,73.0
719,1114.0
720,5582.0
721,472.0
722,1750.0
723,3976.0
724,2.0
725,8.0
726,17.0
727,2.0
728,7.0
729,432.0
730,2.0
731,5.0
732,4344.0
733,972.0
734,2113.0
735,28.0
736,19.0
737,43.0
738,25.0
739,2646.0
740,1.0
741,18.0
742,6.0
743,1.0
744,836.0
745,329.0
746,627.0
747,4.0
748,3112.0
749,568.0
750,5.0
751,88.0
752,243.0
753,24.0
754,14.0
755,1241.0
756,384.0
757,4.0
758,14685.0
759,2631.0
760,6.0
761,6.0
762,37.0
763,46.0
764,545.0
765,6.0
766,4884.0
767,29.0
768,1.0
769,366.0
770,3.0
771,21.0
772,3.0
773,72.0
774,5.0
775,19.0
776,14.0
777,48.0
778,731.0
779,6.0
780,19.0
781,564.0
782,385.0
783,3153.0
784,13.0
785,6509.0
786,917.0
787,47.0
788,1.0
789,53.0
790,578.0
791,617.0
792,12.0
793,2881.0
794,37.0
795,7.0
796,46.0
797,3146.0
798,8.0
799,2.0
800,4.0
801,29.0
802,4.0
803,258.0
804,21.0
805,25.0
806,4.0
807,17.0
808,9.0
809,3787.0
810,58.0
811,103.0
812,450.0
813,43.0
814,3.0
815,1306.0
816,1077.0
817,5.0
818,13.0
819,3185.0
820,26.0
821,17.0
822,722.0
823,2544.0
824,4.0
825,4.0
826,1268.0
827,73.0
828,29.0
829,40.0
830,281.0
831,23.0
832,28.0
833,63.0
834,77.0
835,6.0
836,31.0
837,607.0
838,2.0
839,2161.0
840,4.0
841,234.0
842,105.0
843,49.0
844,43.0
845,38.0
846,29.0
847,18.0
848,6077.0
849,6.0
850,14.0
851,26.0
852,11.0
853,45.0
854,2477.0
855,8.0
856,1375.0
857,1.0
858,121.0
859,299.0
860,40.0
861,414.0
862,2838.0
863,186.0
864,12.0
865,7884.0
866,2714.0
867,37.0
868,52.0
869,1329.0
870,1161.0
871,6.0
872,24.0
873,1050.0
874,7.0
875,20.0
876,2839.0
877,21.0
878,6653.0
879,210.0
880,4.0
881,17.0
882,14586.0
883,270.0
884,6699.0
885,3.0
886,30.0
887,4.0
888,3.0
889,6570.0
890,2594.0
891,9.0
892,24.0
893,16.0
894,212.0
895,5.0
896,17.0
897,29.0
898,25.0
899,14.0
900,446.0
901,279.0
902,6.0
903,41.0
904,6.0
905,48.0
906,106.0
907,31.0
908,125.0
909,14422.0
910,17.0
911,5.0
912,2235.0
913,32.0
914,166.0
915,797.0
916,24.0
917,547.0
918,17853.0
919,21.0
920,4964.0
921,2839.0
922,3.0
923,5.0
924,655.0
925,43.0
926,2499.0
927,88.0
928,77.0
929,17.0
930,2198.0
931,2780.0
932,9.0
933,831.0
934,3025.0
935,1053.0
936,14.0
937,1323.0
938,47.0
939,28.0
940,783.0
941,7.0
942,2025.0
943,715.0
944,931.0
945,4809.0
946,1201.0
947,110.0
948,8525.0
949,29.0
950,16.0
951,32.0
952,822.0
953,603.0
954,3.0
955,431.0
956,3.0
957,22.0
958,5040.0
959,3558.0
960,1451.0
961,403.0
962,1027.0
963,30.0
964,20.0
965,51.0
966,2813.0
967,194.0
968,15.0
969,15.0
970,38.0
971,32.0
972,459.0
973,32.0
974,19.0
975,232.0
976,16046.0
977,21.0
978,12.0
979,3392.0
980,11702.0
981,273.0
982,1649.0
983,50.0
984,15.0
985,420.0
986,30.0
987,294.0
988,20.0
989,6.0
990,839.0
991,34.0
992,16.0
993,218.0
994,4.0
995,524.0
996,893.0
997,9.0
998,4.0
999,177.0
1000,19.0
1001,531.0
1002,11692.0
1003,29.0
1004,23.0
1005,3.0
1006,88.0
1007,5.0
1008,18.0
1009,10.0
1010,3.0
1011,15.0
1012,31.0
1013,560.0
1014,1865.0
1015,46.0
1016,363.0
1017,126.0
1018,651.0
1019,22.0
1020,296.0
1021,4.0
1022,20.0
1023,1988.0
1024,5287.0
1025,5060.0
1026,710.0
1027,27.0
1028,16.0
1029,45.0
1030,51.0
1031,31.0
1032,752.0
1033,1.0
1034,3297.0
1035,7.0
1036,16.0
1037,4.0
1038,15.0
1039,14.0
1040,3.0
1041,2.0
1042,4688.0
1043,41.0
1044,17519.0
1045,57.0
1046,1491.0
1047,94.0
1048,13193.0
1049,173.0
1050,7384.0
1051,49.0
1052,8.0
1053,3576.0
1054,7.0
1055,2.0
1056,51.0
1057,6415.0
1058,93.0
1059,12.0
1060,48.0
1061,112.0
1062,7.0
1063,260.0
1064,2045.0
1065,47.0
1066,10.0
1067,18.0
1068,42.0
1069,35.0
1070,2952.0
1071,36.0
1072,877.0
1073,111.0
1074,1.0
1075,25.0
1076,2568.0
1077,780.0
1078,2.0
1079,333.0
1080,1425.0
1081,7.0
1082,1962.0
1083,1738.0
1084,294.0
1085,42.0
1086,101.0
1087,14.0
1088,50.0
1089,31.0
1090,307.0
1091,10.0
1092,289.0
1093,1214.0
1094,51.0
1095,1.0
1096,2.0
1097,4.0
1098,10.0
1099,6757.0
1100,37.0
1101,748.0
1102,19.0
1103,1058.0
1104,15449.0
1105,1595.0
1106,3174.0
1107,4.0
1108,173.0
1109,50.0
1110,9637.0
1111,20.0
1112,5.0
1113,22.0
1114,2794.0
1115,422.0
1116,1546.0
1117,29.0
1118,33.0
1119,13.0
1120,14.0
1121,2.0
1122,5.0
1123,92.0
1124,1458.0
1125,167.0
1126,6.0
1127,703.0
1128,5091.0
1129,25.0
1130,927.0
1131,3882.0
1132,4.0
1133,37.0
1134,16.0
1135,19.0
1136,21.0
1137,73.0
1138,45.0
1139,4.0
1140,629.0
1141,2752.0
1142,3122.0
1143,17.0
1144,53.0
1145,7.0
1146,19.0
1147,600.0
1148,15.0
1149,1006.0
1150,21.0
1151,19.0
1152,15762.0
1153,1248.0
1154,8.0
1155,6.0
1156,1181.0
1157,369.0
1158,2742.0
1159,1465.0
1160,3.0
1161,265.0
1162,38.0
1163,4.0
1164,946.0
1165,14399.0
1166,43.0
1167,2102.0
1168,2025.0
1169,293.0
1170,766.0
1171,17.0
1172,3193.0
1173,12809.0
1174,3778.0
1175,25.0
1176,1031.0
1177,3.0
1178,7.0
1179,4.0
1180,23.0
1181,18.0
1182,46.0
1183,41.0
1184,39.0
1185,15.0
1186,11.0
1187,1891.0
1188,75.0
1189,84.0
1190,3.0
1191,13.0
1192,1066.0
1193,6.0
1194,1548.0
1195,30.0
1196,19551.0
1197,132.0
1198,472.0
1199,16.0
1200,427.0
1201,348.0
1202,4927.0
1203,7.0
1204,7.0
1205,403.0
1206,3.0
1207,771.0
1208,56.0
1209,10371.0
1210,26.0
1211,343.0
1212,661.0
1213,1.0
1214,1146.0
1215,1.0
1216,1404.0
1217,3645.0
1218,2559.0
1219,4611.0
1220,10.0
1221,4025.0
1222,858.0
1223,573.0
1224,4368.0
1225,13434.0
1226,6625.0
1227,4.0
1228,204.0
1229,15.0
1230,14.0
1231,311.0
1232,15.0
1233,108.0
1234,6487.0
1235,1697.0
1236,726.0
1237,20.0
1238,2632.0
1239,11378.0
1240,2893.0
1241,46.0
1242,2250.0
1243,20.0
1244,16.0
1245,4.0
1246,5.0
1247,5.0
1248,3159.0
1249,18.0
1250,2026.0
1251,20.0
1252,3333.0
1253,1649.0
1254,1.0
1255,96.0
1256,2414.0
1257,3.0
1258,9.0
1259,74.0
1260,2575.0
1261,245.0
1262,1330.0
1263,3.0
1264,37.0
1265,3.0
1266,4.0
1267,4356.0
1268,156.0
1269,15.0
1270,15.0
1271,72.0
1272,6.0
1273,2338.0
1274,876.0
1275,3.0
1276,3181.0
1277,66.0
1278,502.0
1279,2.0
1280,861.0
1281,3037.0
1282,17.0
1283,1230.0
1284,22.0
1285,1.0
1286,24.0
1287,4495.0
1288,46.0
1289,53.0
1290,10.0
1291,236.0
1292,628.0
1293,14.0
1294,251.0
1295,14926.0
1296,11881.0
1297,50.0
1298,18.0
1299,48.0
1300,207.0
1301,1120.0
1302,198.0
1303,35.0
1304,50.0
1305,3291.0
1306,20.0
1307,3452.0
1308,19.0
1309,15.0
1310,5.0
1311,50.0
1312,20.0
1313,1083.0
1314,2867.0
1315,4.0
1316,531.0
1317,3561.0
1318,4796.0
1319,30.0
1320,50.0
1321,2.0
1322,391.0
1323,5.0
1324,20.0
1325,1206.0
1326,17350.0
1327,1027.0
1328,124.0
1329,18233.0
1330,564.0
1331,5252.0
1332,41.0
1333,50.0
1334,103.0
1335,95.0
1336,2920.0
1337,54.0
1338,1.0
1339,10.0
1340,70.0
1341,395.0
1342,32.0
1343,239.0
1344,51.0
1345,85.0
1346,4.0
1347,33.0
1348,106.0
1349,65.0
1350,3.0
1351,222.0
1352,43.0
1353,2428.0
1354,814.0
1355,4.0
1356,1.0
1357,2639.0
1358,19.0
1359,1230.0
1360,5.0
1361,3778.0
1362,53.0
1363,1281.0
1364,1452.0
1365,562.0
1366,1912.0
1367,48.0
1368,3256.0
1369,9410.0
1370,2.0
1371,18828.0
1372,40.0
1373,3153.0
1374,12.0
1375,6363.0
1376,396.0
1377,5.0
1378,4216.0
1379,41.0
1380,6216.0
1381,5.0
1382,53.0
1383,47.0
1384,216.0
1385,1336.0
1386,5755.0
1387,3362.0
1388,619.0
1389,3.0
1390,2932.0
1391,2780.0
1392,10906.0
1393,5337.0
1394,1008.0
1395,33.0
1396,10.0
1397,103.0
1398,6.0
1399,559.0
1400,1021.0
1401,52.0
1402,4.0
1403,5886.0
1404,2201.0
1405,981.0
1406,31.0
1407,596.0
1408,11.0
1409,20.0
1410,4756.0
1411,3283.0
1412,1117.0
1413,29.0
1414,30.0
1415,5.0
1416,20.0
1417,49.0
1418,2028.0
1419,4.0
1420,1.0
1421,10.0
1422,40.0
1423,51.0
1424,6.0
1425,43.0
1426,5504.0
1427,20.0
1428,23.0
1429,5.0
1430,197.0
1431,18.0
1432,14.0
1433,2599.0
1434,132.0
1435,615.0
1436,15.0
1437,5534.0
1438,405.0
1439,13.0
1440,17.0
1441,1725.0
1442,750.0
1443,4150.0
1444,11.0
1445,2906.0
1446,21.0
1447,359.0
1448,36.0
1449,31.0
1450,28.0
1451,20.0
1452,4767.0
1453,97.0
1454,613.0
1455,1174.0
1456,6191.0
1457,32.0
1458,20.0
1459,2673.0
1460,129.0
1461,1.0
1462,1071.0
1463,50.0
1464,4.0
1465,488.0
1466,1497.0
1467,14.0
1468,320.0
1469,370.0
1470,2.0
1471,13.0
1472,2822.0
1473,39.0
1474,11037.0
1475,1236.0
1476,21.0
1477,22.0
1478,10.0
1479,6.0
1480,7.0
1481,7.0
1482,5018.0
1483,336.0
1484,21.0
1485,42.0
1486,55.0
1487,7.0
1488,30.0
1489,18.0
1490,3200.0
1491,15.0
1492,5.0
1493,52.0
1494,616.0
1495,4842.0
1496,1258.0
1497,2980.0
1498,261.0
1499,417.0
1500,18665.0
1501,266.0
1502,845.0
1503,25.0
1504,6285.0
1505,4306.0
1506,4.0
1507,148.0
1508,8.0
1509,40.0
1510,19.0
1511,11.0
1512,14.0
1513,40.0
1514,21.0
1515,507.0
1516,6.0
1517,1326.0
1518,43.0
1519,22.0
1520,48.0
1521,1418.0
1522,1310.0
1523,6.0
1524,828.0
1525,629.0
1526,911.0
1527,29.0
1528,608.0
1529,885.0
1530,69.0
1531,5233.0
1532,40.0
1533,6280.0
1534,4.0
1535,317.0
1536,1322.0
1537,18.0
1538,85.0
1539,5.0
1540,15.0
1541,20.0
1542,568.0
1543,33.0
1544,34.0
1545,1.0
1546,19.0
1547,40.0
1548,2083.0
1549,52.0
1550,398.0
1551,675.0
1552,2006.0
1553,98.0
1554,20.0
1555,399.0
1556,1406.0
1557,6303.0
1558,18.0
1559,269.0
1560,768.0
1561,6.0
1562,2641.0
1563,459.0
1564,30.0
1565,398.0
1566,50.0
1567,960.0
1568,361.0
1569,763.0
1570,5225.0
1571,4.0
1572,8.0
1573,19.0
1574,999.0
1575,33.0
1576,6.0
1577,42.0
1578,4393.0
1579,1104.0
1580,8.0
1581,80.0
1582,334.0
1583,1.0
1584,1.0
1585,11.0
1586,14.0
1587,49.0
1588,1.0
1589,6.0
1590,6324.0
1591,2446.0
1592,719.0
1593,51.0
1594,321.0
1595,1998.0
1596,44.0
1597,2.0
1598,1498.0
1599,802.0
1600,2230.0
1601,2118.0
1602,1.0
1603,45.0
1604,721.0
1605,17.0
1606,13.0
1607,5.0
1608,27.0
1609,2813.0
1610,1024.0
1611,2.0
1612,5.0
1613,17.0
1614,1183.0
1615,244.0
1616,398.0
1617,1218.0
1618,20.0
1619,6514.0
1620,988.0
1621,513.0
1622,15.0
1623,943.0
1624,18.0
1625,34.0
1626,730.0
1627,18.0
1628,95.0
1629,46.0
1630,13.0
1631,23.0
1632,18.0
1633,4.0
1634,19.0
1635,655.0
1636,1840.0
1637,475.0
1638,5.0
1639,11.0
1640,918.0
1641,13.0
1642,5.0
1643,5.0
1644,14.0
1645,724.0
1646,432.0
1647,2.0
1648,2.0
1649,19.0
1650,74.0
1651,5543.0
1652,37.0
1653,922.0
1654,11.0
1655,1.0
1656,90.0
1657,1167.0
1658,12605.0
1659,2199.0
1660,3220.0
1661,3.0
1662,241.0
1663,39.0
1664,1273.0
1665,13.0
1666,15975.0
1667,4.0
1668,65.0
1669,824.0
1670,53.0
1671,877.0
1672,5.0
1673,2376.0
1674,2940.0
1675,23.0
1676,6260.0
1677,98.0
1678,4778.0
1679,27.0
1680,36.0
1681,3022.0
1682,37.0
1683,7.0
1684,210.0
1685,31.0
1686,127.0
1687,5585.0
1688,28.0
1689,24.0
1690,4.0
1691,76.0
1692,1048.0
1693,2031.0
1694,1033.0
1695,31.0
1696,901.0
1697,14.0
1698,3401.0
1699,874.0
1700,3700.0
1701,31.0
1702,3.0
1703,31.0
1704,281.0
1705,2526.0
1706,22.0
1707,3216.0
1708,19.0
1709,31.0
1710,529.0
1711,35.0
1712,532.0
1713,45.0
1714,6030.0
1715,2.0
1716,1294.0
1717,2917.0
1718,296.0
1719,45.0
1720,6451.0
1721,10.0
1722,21.0
1723,24.0
1724,46.0
1725,120.0
1726,1975.0
1727,1001.0
1728,11.0
1729,90.0
1730,15.0
1731,10.0
1732,12.0
1733,74.0
1734,3.0
1735,6506.0
1736,42.0
1737,7.0
1738,1006.0
1739,4180.0
1740,11.0
1741,14.0
1742,17.0
1743,1122.0
1744,29.0
1745,16.0
1746,8480.0
1747,1697.0
1748,40.0
1749,1206.0
1750,16.0
1751,3.0
1752,18.0
1753,5.0
1754,19.0
1755,5962.0
1756,32.0
1757,360.0
1758,9.0
1759,2.0
1760,6485.0
1761,1704.0
1762,2274.0
1763,1222.0
1764,3171.0
1765,6.0
1766,47.0
1767,862.0
1768,92.0
1769,1677.0
1770,36.0
1771,3.0
1772,2.0
1773,2.0
1774,2977.0
1775,15.0
1776,480.0
1777,17.0
1778,792.0
1779,20.0
1780,5.0
1781,5608.0
1782,2172.0
1783,2330.0
1784,4.0
1785,3159.0
1786,1.0
1787,2.0
1788,194.0
1789,29.0
1790,2767.0
1791,896.0
1792,8.0
1793,2045.0
1794,2.0
1795,7.0
1796,6134.0
1797,7.0
1798,126.0
1799,6.0
1800,311.0
1801,82.0
1802,518.0
1803,17.0
1804,3500.0
1805,37.0
1806,18.0
1807,2568.0
1808,190.0
1809,743.0
1810,6.0
1811,11.0
1812,1.0
1813,3.0
1814,5201.0
1815,21.0
1816,16.0
1817,5493.0
1818,49.0
1819,8.0
1820,3200.0
1821,13.0
1822,4.0
1823,16.0
1824,49.0
1825,27.0
1826,121.0
1827,5.0
1828,41.0
1829,22.0
1830,3575.0
1831,23.0
1832,436.0
1833,11.0
1834,3019.0
1835,2859.0
1836,73.0
1837,15.0
1838,12.0
1839,1103.0
1840,5577.0
1841,10.0
1842,1149.0
1843,132.0
1844,1052.0
1845,3107.0
1846,533.0
1847,16231.0
1848,1072.0
1849,295.0
1850,49.0
1851,53.0
1852,5.0
1853,1.0
1854,8.0
1855,52.0
1856,16.0
1857,868.0
1858,369.0
1859,14.0
1860,5.0
1861,441.0
1862,2.0
1863,595.0
1864,43.0
1865,3937.0
1866,48.0
1867,1662.0
1868,672.0
1869,1062.0
1870,40.0
1871,1301.0
1872,34.0
1873,14.0
1874,2121.0
1875,199.0
1876,22.0
1877,1150.0
1878,20.0
1879,1535.0
1880,3.0
1881,2288.0
1882,13.0
1883,8750.0
1884,3.0
1885,105.0
1886,3799.0
1887,1850.0
1888,764.0
1889,3676.0
1890,15.0
1891,19.0
1892,4.0
1893,77.0
1894,298.0
1895,14.0
1896,48.0
1897,935.0
1898,65.0
1899,28.0
1900,16.0
1901,9.0
1902,6.0
1903,7499.0
1904,31.0
1905,3.0
1906,496.0
1907,12094.0
1908,2382.0
1909,22.0
1910,5732.0
1911,10.0
1912,46.0
1913,50.0
1914,531.0
1915,19.0
1916,277.0
1917,47.0
1918,424.0
1919,19.0
1920,554.0
1921,45.0
1922,39.0
1923,77.0
1924,53.0
1925,13.0
1926,12410.0
1927,21.0
1928,27.0
1929,191.0
1930,8.0
1931,5.0
1932,4912.0
1933,3.0
1934,299.0
1935,58.0
1936,99.0
1937,30.0
1938,1.0
1939,5785.0
1940,39.0
1941,7017.0
1942,4.0
1943,19.0
1944,2227.0
1945,11.0
1946,6.0
1947,29.0
1948,2674.0
1949,2.0
1950,15.0
1951,51.0
1952,2.0
1953,24.0
1954,25.0
1955,1.0
1956,19.0
1957,16.0
1958,48.0
1959,20.0
1960,97.0
1961,2071.0
1962,16.0
1963,2.0
1964,5136.0
1965,2.0
1966,17.0
1967,1333.0
1968,3419.0
1969,4545.0
1970,195.0
1971,3029.0
1972,4.0
1973,16.0
1974,19.0
1975,45.0
1976,16.0
1977,626.0
1978,23.0
1979,846.0
1980,45.0
1981,21.0
1982,109.0
1983,365.0
1984,3086.0
1985,19.0
1986,54.0
1987,78.0
1988,1812.0
1989,945.0
1990,472.0
1991,25.0
1992,1099.0
1993,27.0
1994,4061.0
1995,1149.0
1996,103.0
1997,379.0
1998,19.0
1999,254.0
2000,1.0
2001,1287.0
2002,317.0
2003,41.0
2004,606.0
2005,38.0
2006,97.0
2007,89.0
2008,73.0
2009,32.0
2010,39.0
2011,20.0
2012,30.0
2013,2405.0
2014,2999.0
2015,3091.0
2016,403.0
2017,39.0
2018,37.0
2019,19.0
2020,5.0
2021,2992.0
2022,18.0
2023,12.0
2024,4624.0
2025,59.0
2026,486.0
2027,12.0
2028,243.0
2029,4.0
2030,43.0
2031,36.0
2032,3.0
2033,37.0
2034,2.0
2035,20.0
2036,16.0
2037,17012.0
2038,36.0
2039,420.0
2040,7.0
2041,52.0
2042,1.0
2043,4883.0
2044,4.0
2045,4.0
2046,3.0
2047,54.0
2048,10.0
2049,45.0
2050,1656.0
2051,619.0
2052,42.0
2053,1290.0
2054,2458.0
2055,59.0
2056,1062.0
2057,17.0
2058,4.0
2059,5467.0
2060,2700.0
2061,15.0
2062,5514.0
2063,94.0
2064,440.0
2065,15.0
2066,35.0
2067,6.0
2068,5.0
2069,712.0
2070,23.0
2071,17.0
2072,640.0
2073,2.0
2074,282.0
2075,90.0
2076,2.0
2077,592.0
2078,2.0
2079,21.0
2080,52.0
2081,15.0
2082,19.0
2083,430.0
2084,6.0
2085,40.0
2086,32.0
2087,3995.0
2088,1910.0
2089,55.0
2090,2.0
2091,1270.0
2092,4.0
2093,10.0
2094,2442.0
2095,3.0
2096,304.0
2097,3409.0
2098,18.0
2099,252.0
2100,6.0
2101,206.0
2102,4883.0
2103,38.0
2104,727.0
2105,6.0
2106,10.0
2107,29.0
2108,9.0
2109,361.0
2110,3.0
2111,6.0
2112,3.0
2113,874.0
2114,16058.0
2115,944.0
2116,39.0
2117,6.0
2118,28.0
2119,2090.0
2120,1928.0
2121,101.0
2122,18.0
2123,15.0
2124,476.0
2125,570.0
2126,721.0
2127,1212.0
2128,3918.0
2129,6.0
2130,32.0
2131,9.0
2132,6.0
2133,4.0
2134,6.0
2135,2.0
2136,6.0
2137,52.0
2138,5.0
2139,5.0
2140,77.0
2141,994.0
2142,332.0
2143,326.0
2144,105.0
2145,16.0
2146,39.0
2147,43.0
2148,105.0
2149,12.0
2150,15.0
2151,47.0
2152,12.0
2153,21.0
2154,144.0
2155,28.0
2156,3691.0
2157,184.0
2158,238.0
2159,10.0
2160,623.0
2161,5.0
2162,14.0
2163,5.0
2164,3.0
2165,8.0
2166,21.0
2167,47.0
2168,21.0
2169,17423.0
2170,6.0
2171,2690.0
2172,6107.0
2173,31.0
2174,43.0
2175,41.0
2176,1433.0
2177,15.0
2178,69.0
2179,11.0
2180,107.0
2181,6.0
2182,542.0
2183,6066.0
2184,1083.0
2185,526.0
2186,3157.0
2187,1502.0
2188,3120.0
2189,1.0
2190,7.0
2191,66.0
2192,6.0
2193,531.0
2194,106.0
2195,11.0
2196,112.0
2197,506.0
2198,14.0
2199,2742.0
2200,5379.0
2201,7.0
2202,19.0
2203,24.0
2204,20.0
2205,44.0
2206,3278.0
2207,26.0
2208,7.0
2209,543.0
2210,25.0
2211,2493.0
2212,12856.0
2213,997.0
2214,31.0
2215,3086.0
2216,1203.0
2217,6268.0
2218,7.0
2219,1437.0
2220,50.0
2221,3146.0
2222,104.0
2223,1.0
2224,14.0
2225,15.0
2226,5312.0
2227,694.0
2228,608.0
2229,18.0
2230,2789.0
2231,2071.0
2232,2760.0
2233,6.0
2234,15.0
2235,1138.0
2236,36.0
2237,2965.0
2238,9.0
2239,1341.0
2240,145.0
2241,730.0
2242,16.0
2243,105.0
2244,1183.0
2245,1059.0
2246,787.0
2247,3679.0
2248,216.0
2249,22.0
2250,3186.0
2251,19.0
2252,16.0
2253,7.0
2254,1.0
2255,1038.0
2256,47.0
2257,1.0
2258,2747.0
2259,28.0
2260,3.0
2261,17.0
2262,509.0
2263,657.0
2264,1606.0
2265,21.0
2266,97.0
2267,130.0
2268,13.0
2269,5.0
2270,182.0
2271,6568.0
2272,33.0
2273,6896.0
2274,3778.0
2275,14.0
2276,124.0
2277,3278.0
2278,116.0
2279,38.0
2280,402.0
2281,5.0
2282,31.0
2283,2.0
2284,1284.0
2285,7.0
2286,1.0
2287,47.0
2288,5.0
2289,440.0
2290,6987.0
2291,336.0
2292,2819.0
2293,45.0
2294,41.0
2295,1630.0
2296,13.0
2297,15.0
2298,23.0
2299,74.0
2300,147.0
2301,45.0
2302,32.0
2303,4.0
2304,42.0
2305,54.0
2306,13.0
2307,3.0
2308,1105.0
2309,412.0
2310,5413.0
2311,4.0
2312,1234.0
2313,27.0
2314,1475.0
2315,36.0
2316,30.0
2317,363.0
2318,3863.0
2319,820.0
2320,31.0
2321,2472.0
2322,50.0
2323,3425.0
2324,10.0
2325,101.0
2326,581.0
2327,1.0
2328,4777.0
2329,39.0
2330,620.0
2331,3.0
2332,1259.0
2333,2.0
2334,52.0
2335,1112.0
2336,47.0
2337,16.0
2338,2436.0
2339,1882.0
2340,53.0
2341,1615.0
2342,978.0
2343,632.0
2344,741.0
2345,6069.0
2346,602.0
2347,508.0
2348,13.0
2349,3749.0
2350,22.0
2351,3616.0
2352,1.0
2353,2.0
2354,6.0
2355,4.0
2356,19.0
2357,5651.0
2358,26.0
2359,5112.0
2360,24.0
2361,34.0
2362,5.0
2363,34.0
2364,813.0
2365,22.0
2366,52.0
2367,83.0
2368,1666.0
2369,1910.0
2370,4.0
2371,30.0
2372,1849.0
2373,53.0
2374,5.0
2375,108.0
2376,297.0
2377,874.0
2378,673.0
2379,7.0
2380,550.0
2381,52.0
2382,35.0
2383,1.0
2384,3.0
2385,1262.0
2386,45.0
2387,34.0
2388,2948.0
2389,630.0
2390,2256.0
2391,7.0
2392,31.0
2393,15.0
2394,48.0
2395,43.0
2396,2692.0
2397,42.0
2398,850.0
2399,67.0
2400,5.0
2401,43.0
2402,17.0
2403,446.0
2404,32.0
2405,32.0
2406,37.0
2407,873.0
2408,5.0
2409,6.0
2410,4704.0
2411,4306.0
2412,2.0
2413,33.0
2414,53.0
2415,1015.0
2416,3644.0
2417,114.0
2418,1642.0
2419,87.0
2420,16.0
2421,136.0
2422,18.0
2423,5.0
2424,903.0
2425,2023.0
2426,613.0
2427,56.0
2428,99.0
2429,11.0
2430,214.0
2431,4.0
2432,1059.0
2433,32.0
2434,13.0
2435,10.0
2436,5.0
2437,232.0
2438,24.0
2439,1072.0
2440,4.0
2441,1028.0
2442,128.0
2443,4615.0
2444,5.0
2445,47.0
2446,5137.0
2447,17809.0
2448,1195.0
2449,782.0
2450,16.0
2451,23.0
2452,150.0
2453,19.0
2454,12.0
2455,53.0
2456,5.0
2457,47.0
2458,156.0
2459,3.0
2460,17.0
2461,3.0
2462,18.0
2463,1.0
2464,544.0
2465,7.0
2466,2933.0
2467,359.0
2468,19.0
2469,16.0
2470,3975.0
2471,6.0
2472,20.0
2473,32.0
2474,27.0
2475,34.0
2476,1023.0
2477,7.0
2478,19.0
2479,1028.0
2480,5251.0
2481,114.0
2482,713.0
2483,12.0
2484,2266.0
2485,85.0
2486,19723.0
2487,29.0
2488,1.0
2489,17.0
2490,2464.0
2491,32.0
2492,53.0
2493,2996.0
2494,92.0
2495,6582.0
2496,4.0
2497,1219.0
2498,104.0
2499,45.0
2500,30.0
2501,2.0
2502,19.0
2503,4.0
2504,6189.0
2505,50.0
2506,3857.0
2507,128.0
2508,1785.0
2509,22.0
2510,20.0
2511,711.0
2512,13017.0
2513,51.0
2514,9.0
2515,2519.0
2516,201.0
2517,173.0
2518,31.0
2519,3.0
2520,18399.0
2521,49.0
2522,1152.0
2523,1295.0
2524,18.0
2525,27.0
2526,44.0
2527,70.0
2528,50.0
2529,1368.0
2530,18.0
2531,43.0
2532,1026.0
2533,23.0
2534,1045.0
2535,556.0
2536,15.0
2537,19.0
2538,4.0
2539,819.0
2540,16.0
2541,5.0
2542,18893.0
2543,264.0
2544,2123.0
2545,664.0
2546,583.0
2547,34.0
2548,44.0
2549,17.0
2550,16.0
2551,16.0
2552,30.0
2553,19.0
2554,446.0
2555,44.0
2556,44.0
2557,1539.0
2558,3180.0
2559,2.0
2560,1328.0
2561,1671.0
2562,4.0
2563,83.0
2564,6.0
2565,33.0
2566,393.0
2567,2866.0
2568,17.0
2569,9.0
2570,24.0
2571,54.0
2572,822.0
2573,40.0
2574,37.0
2575,46.0
2576,7.0
2577,30.0
2578,30.0
2579,290.0
2580,9.0
2581,31.0
2582,127.0
2583,193.0
2584,1603.0
2585,530.0
2586,20.0
2587,5070.0
2588,394.0
2589,54.0
2590,1930.0
2591,1.0
2592,1172.0
2593,49.0
2594,12228.0
2595,27.0
2596,32.0
2597,11.0
2598,7.0
2599,96.0
2600,867.0
2601,4272.0
2602,16.0
2603,15.0
2604,15547.0
2605,366.0
2606,570.0
2607,387.0
2608,8.0
2609,13.0
2610,27.0
2611,17.0
2612,15.0
2613,3363.0
2614,3602.0
2615,12341.0
2616,1269.0
2617,1.0
2618,4.0
2619,1081.0
2620,88.0
2621,3.0
2622,3969.0
2623,5937.0
2624,46.0
2625,1232.0
2626,1.0
2627,4461.0
2628,6534.0
2629,8.0
2630,38.0
2631,14.0
2632,8627.0
2633,43.0
2634,27.0
2635,8182.0
2636,40.0
2637,4313.0
2638,339.0
2639,2087.0
2640,72.0
2641,119.0
2642,11.0
2643,49.0
2644,1087.0
2645,365.0
2646,19.0
2647,6374.0
2648,4.0
2649,43.0
2650,609.0
2651,14.0
2652,4793.0
2653,28.0
2654,63.0
2655,2915.0
2656,18.0
2657,2908.0
2658,11220.0
2659,50.0
2660,28.0
2661,36.0
2662,3.0
2663,20.0
2664,4.0
2665,1167.0
2666,2944.0
2667,3447.0
2668,222.0
2669,3246.0
2670,5109.0
2671,30.0
2672,54.0
2673,1.0
2674,478.0
2675,3226.0
2676,53.0
2677,4.0
2678,5378.0
2679,8826.0
2680,3825.0
2681,5296.0
2682,1435.0
2683,17.0
2684,573.0
2685,17.0
2686,657.0
2687,19.0
2688,309.0
2689,463.0
2690,64.0
2691,6642.0
2692,7.0
2693,1225.0
2694,20.0
2695,1469.0
2696,38.0
2697,16144.0
2698,382.0
2699,4.0
2700,13.0
2701,1438.0
2702,12.0
2703,3057.0
2704,3414.0
2705,5067.0
2706,6202.0
2707,4919.0
2708,17.0
2709,8.0
2710,16.0
2711,74.0
2712,16.0
2713,115.0
2714,1742.0
2715,4.0
2716,17115.0
2717,15.0
2718,5.0
2719,28.0
2720,2843.0
2721,41.0
2722,31.0
2723,101.0
2724,6109.0
2725,6851.0
2726,2232.0
2727,1312.0
2728,5.0
2729,39.0
2730,14.0
2731,51.0
2732,46.0
2733,53.0
2734,20.0
2735,4625.0
2736,20.0
2737,543.0
2738,1360.0
2739,138.0
2740,4098.0
2741,84.0
2742,27.0
2743,9.0
2744,72.0
2745,706.0
2746,18.0
2747,6.0
2748,34.0
2749,2507.0
2750,32.0
2751,4972.0
2752,20.0
2753,3330.0
2754,104.0
2755,85.0
2756,579.0
2757,2.0
2758,4421.0
2759,724.0
2760,25.0
2761,493.0
2762,2605.0
2763,7308.0
2764,727.0
2765,6064.0
2766,1258.0
2767,1309.0
2768,12.0
2769,128.0
2770,1.0
2771,45.0
2772,17.0
2773,2107.0
2774,37.0
2775,37.0
2776,22.0
2777,20.0
2778,6260.0
2779,6651.0
2780,15.0
2781,19.0
2782,6.0
2783,24.0
2784,6.0
2785,31.0
2786,4789.0
2787,54.0
2788,1486.0
2789,28.0
2790,46.0
2791,4.0
2792,14.0
2793,35.0
2794,54.0
2795,21.0
2796,3.0
2797,20.0
2798,3.0
2799,5750.0
2800,1389.0
2801,5776.0
2802,145.0
2803,2846.0
2804,1.0
2805,5.0
2806,7.0
2807,3.0
2808,5420.0
2809,1113.0
2810,13.0
2811,44.0
2812,169.0
2813,8.0
2814,2987.0
2815,48.0
2816,91.0
2817,36.0
2818,14.0
2819,22.0
2820,438.0
2821,3.0
2822,50.0
2823,848.0
2824,5499.0
2825,5668.0
2826,32.0
2827,3264.0
2828,1008.0
2829,12.0
2830,24.0
2831,2116.0
2832,1045.0
2833,3275.0
2834,17.0
2835,36.0
2836,7.0
2837,4308.0
2838,2065.0
2839,461.0
2840,1033.0
2841,10.0
2842,15.0
2843,2.0
2844,58.0
2845,4091.0
2846,381.0
2847,34.0
2848,4.0
2849,12.0
2850,997.0
2851,15.0
2852,551.0
2853,338.0
2854,5.0
2855,8.0
2856,44.0
2857,17.0
2858,10.0
2859,50.0
2860,2830.0
2861,49.0
2862,1789.0
2863,10.0
2864,1990.0
2865,1633.0
2866,1030.0
2867,26.0
2868,27.0
2869,952.0
2870,105.0
2871,54.0
2872,3.0
2873,3965.0
2874,64.0
2875,13.0
2876,613.0
2877,4360.0
2878,53.0
2879,29.0
2880,36.0
2881,20.0
2882,7.0
2883,1001.0
2884,42.0
2885,22.0
2886,25.0
2887,1175.0
2888,2551.0
2889,59.0
2890,18.0
2891,400.0
2892,509.0
2893,19.0
2894,16.0
2895,40.0
2896,372.0
2897,6549.0
2898,354.0
2899,15.0
2900,3484.0
2901,17.0
2902,28.0
2903,5110.0
2904,1012.0
2905,4218.0
2906,2677.0
2907,3.0
2908,18.0
2909,10.0
2910,72.0
2911,194.0
2912,5635.0
2913,1050.0
2914,402.0
2915,13.0
2916,369.0
2917,946.0
2918,1.0
2919,4.0
2920,10414.0
2921,2970.0
2922,2805.0
2923,1402.0
2924,732.0
2925,4702.0
2926,7.0
2927,15.0
2928,43.0
2929,2971.0
2930,43.0
2931,6.0
2932,23.0
2933,3956.0
2934,51.0
2935,2885.0
2936,7.0
2937,122.0
2938,7.0
2939,152.0
2940,1200.0
2941,5907.0
2942,1084.0
2943,12.0
2944,958.0
2945,20.0
2946,49.0
2947,26.0
2948,1790.0
2949,32.0
2950,108.0
2951,4142.0
2952,42.0
2953,20.0
2954,482.0
2955,2866.0
2956,12479.0
2957,596.0
2958,8491.0
2959,2577.0
2960,40.0
2961,64.0
2962,79.0
2963,2.0
2964,1254.0
2965,1427.0
2966,38.0
2967,40.0
2968,1112.0
2969,6.0
2970,18.0
2971,71.0
2972,11.0
2973,6.0
2974,98.0
2975,174.0
2976,2780.0
2977,215.0
2978,32.0
2979,16.0
2980,1.0
2981,1279.0
2982,632.0
2983,873.0
2984,55.0
2985,20.0
2986,126.0
2987,44.0
2988,7.0
2989,88.0
2990,490.0
2991,3000.0
2992,30.0
2993,2.0
2994,2225.0
2995,2378.0
2996,839.0
2997,1085.0
2998,757.0
2999,1223.0
3000,6450.0
