time,PerHopSim1.flowGenerator3.flowSynId:vector
0.000035799454,0
0.000487628973,2
0.000819492538,4
0.001011617019,5
0.001532260859,3
0.00168620755,6
0.001967260564,8
0.002092266712,9
0.002178870324,10
0.002274194568,11
0.0023098309,12
0.002364265621,13
0.002638544359,14
0.002892487984,16
0.003071335341,15
0.003140487211,18
0.003430824768,20
0.003641306734,21
0.00422766648,23
0.004382064344,19
0.004387282567,22
0.004462972807,24
0.004503691693,25
0.00481750159,27
0.005013680475,28
0.005091804817,29
0.005526216829,17
0.005637078942,30
0.005786135675,32
0.006128801456,26
0.006224657109,33
0.006426038563,34
0.006558832985,35
0.006625258967,1
0.006668196925,36
0.007131813053,31
0.007141143214,38
0.007594391357,39
0.008299979368,44
0.008417516396,45
0.008510542617,47
0.00872246886,41
0.008863416479,40
0.009097949891,52
0.009110971731,46
0.009210792778,54
0.009252454397,55
0.009574970904,56
0.009627745759,43
0.009627985757,57
0.009967068168,60
0.010098373809,37
0.010253288512,62
0.010261787061,61
0.010566715739,59
0.010681091021,65
0.010922593919,63
0.010951330119,66
0.011043509336,67
0.011158014343,51
0.011297011698,7
0.011383626278,53
0.011524932171,49
0.01156325969,69
0.01167632054,48
0.011811778442,70
0.011859349639,68
0.011917603391,71
0.012009508876,50
0.012312480486,58
0.012399698724,72
0.012928410375,73
0.013037591309,42
0.013257618339,64
0.01376552985,75
0.013781673973,76
0.01382786779,77
0.013836251169,74
0.013979857259,78
0.014165501111,79
0.015445023318,81
0.015669051226,83
0.015720789509,84
0.015756431088,82
0.016225337107,85
0.016659217333,80
0.01745913822,87
0.017529486658,86
0.017543817384,88
0.017734245278,89
0.017805264432,90
0.017932560989,91
0.018439365733,93
0.018542073729,94
0.01880091651,92
0.019026634545,96
0.019200260542,97
0.019273397469,98
0.019367221226,95
0.019976362841,99
0.02032976867,100
0.020518040368,101
0.021004488425,102
0.021486836998,103
0.02159870807,104
0.022098059911,106
0.022180295065,105
0.022532111252,107
0.022697629568,108
0.022818780471,109
0.022869925306,110
0.022890910376,111
0.023193852672,112
0.023271249469,113
0.023385300717,114
0.023922180143,116
0.024160470303,115
0.025064082264,117
0.025779918931,118
0.026515045576,119
0.026672927405,120
0.027042635486,121
0.027318773923,122
0.02795395799,124
0.028140648517,125
0.028292120018,126
0.028335088794,127
0.028362620713,123
0.029063526471,128
0.029272802458,129
0.029275951672,130
0.029438723861,131
0.029577057229,132
0.029630598874,133
0.029959594367,134
0.030137957607,135
0.031235705742,136
0.031511674567,137
0.031803267232,138
0.032274863627,141
0.032500613611,139
0.032750937045,142
0.032764060645,140
0.032841491286,143
0.033024112529,144
0.033406323172,147
0.033515585467,148
0.033668417172,146
0.033680911697,145
0.033921670821,149
0.034516295351,150
0.034902609208,151
0.034931860761,153
0.035230962497,154
0.035257172437,155
0.035566270164,156
0.035651380092,152
0.035725900328,157
0.035821650279,159
0.035883750797,158
0.036263311674,161
0.036374735892,160
0.036647516794,162
0.036693816343,163
0.036843007168,164
0.036962154178,165
0.037121759523,166
0.037354028236,167
0.037566247628,168
0.037723307372,169
0.038644420879,171
0.038809237329,172
0.038821514972,170
0.0392005541,175
0.039526141598,173
0.039586590396,176
0.040132289912,174
0.040259405377,177
0.040373414303,178
0.040379531426,179
0.040490116591,180
0.040716992101,181
0.041332609704,183
0.041575305362,184
0.041882643544,185
0.042077220445,182
0.042603646974,186
0.043217967736,188
0.043273742772,189
0.04333205486,190
0.04365896839,187
0.043707364811,191
0.044404901746,194
0.044467169207,193
0.04453897616,192
0.044625035594,195
0.044965576592,196
0.045147827035,197
0.045208702835,198
0.045678970024,199
0.046467405416,200
0.046812422052,201
0.047006305529,202
0.047027349509,203
0.047545355897,204
0.047726845191,205
0.047775094737,206
0.048090450115,207
0.048776722477,210
0.048868331613,208
0.048873049236,211
0.048950314619,209
0.048962321019,212
0.049030556911,213
0.049650191715,214
0.049909308386,215
0.050097181412,216
0.050238664483,217
0.050698414913,219
0.050884450785,220
0.050959007178,221
0.051468967464,222
0.052248263548,223
0.052757816289,225
0.053610748898,218
0.053786377687,226
0.053805663624,227
0.053858306108,224
0.054367859997,228
0.054585044094,229
0.054732783791,230
0.054994193813,231
0.055407903136,232
0.055517640645,233
0.056076141134,235
0.056666056643,236
0.056678117584,234
0.056699708076,237
0.05687273125,238
0.057026837962,239
0.057104479351,240
0.057297246966,241
0.057407122131,242
0.05768506429,243
0.0577556079,244
0.057825741267,245
0.058453357703,246
0.058498794989,247
0.058670670248,249
0.058962744723,248
0.059106294325,250
0.059178810617,251
0.059240131136,252
0.059462469701,255
0.059483360428,256
0.059564992076,257
0.059608382965,258
0.059654041556,259
0.059842018178,254
0.059858233432,260
0.059880311484,261
0.06040856481,263
0.060563784276,253
0.060766941624,264
0.060809519741,265
0.060970123351,266
0.061280255525,269
0.061284938686,270
0.061652512636,267
0.061685869712,268
0.061787135746,271
0.061871325341,262
0.062097122505,272
0.062368261093,273
0.062428897414,274
0.06344800658,275
0.063726635155,279
0.063782874532,277
0.063829006885,280
0.06396809009,278
0.064045108313,281
0.0640833156,282
0.064121607294,276
0.064124907167,283
0.064177691191,284
0.064645957782,285
0.065058679081,286
0.065401473567,288
0.065726112482,290
0.065806652714,287
0.066195158282,292
0.066268171796,291
0.066472547416,289
0.066573199465,293
0.066636707517,295
0.066738932281,294
0.067024860083,296
0.067123811979,297
0.067252617926,298
0.067540868084,299
0.067544075248,300
0.067567447434,301
0.067578385167,303
0.068216479741,304
0.068302856028,305
0.068415543075,306
0.068466181849,302
0.068616688104,307
0.069170063078,308
0.069181292565,309
0.069587788018,311
0.069609808351,312
0.069752803576,314
0.069814123776,310
0.069836397242,315
0.070089091357,317
0.070289868332,320
0.070733281197,319
0.070763118071,321
0.070847910651,322
0.070965563438,323
0.071079069641,324
0.071269808826,318
0.071596408294,328
0.071686461984,313
0.072429312199,326
0.072445805793,329
0.07280911055,316
0.072903166613,330
0.072949862763,327
0.073705513196,331
0.073743305837,332
0.073876061351,333
0.073984676921,334
0.0741723891,325
0.074317573324,335
0.074516821281,336
0.074754335528,337
0.074786285235,338
0.0749202887,339
0.07523082459,340
0.075392787951,341
0.075881538212,343
0.075981855322,345
0.07599468356,344
0.076285542564,346
0.076327498392,347
0.076380391081,348
0.076509368349,349
0.076769237729,350
0.076997275082,352
0.077172366904,353
0.077274448644,354
0.077615983071,355
0.077616343068,356
0.078032728427,351
0.078137156245,357
0.078209644143,358
0.078624264694,342
0.078925831806,359
0.079013498127,360
0.079079216476,361
0.079341416832,362
0.079489661767,363
0.079861488601,364
0.080063505962,365
0.080555970993,366
0.081004649646,367
0.081042452106,368
0.081162838346,369
0.081995362952,370
0.082263309532,371
0.082343451881,372
0.082857192963,374
0.083088338214,375
0.083146746291,373
0.083217232042,376
0.083347868701,379
0.083666463025,380
0.083783242587,377
0.084114128406,378
0.084310119712,381
0.084483647856,382
0.084605457563,383
0.084733234619,384
0.08485923628,385
0.085417913518,389
0.085562921911,386
0.085757037148,392
0.085772459833,387
0.085842200372,391
0.086366627079,393
0.086531217336,388
0.086592874793,394
0.086724563393,390
0.086877236352,395
0.087135285578,396
0.087801850028,397
0.088100436514,399
0.088541029212,398
0.088836209666,402
0.088971476891,403
0.089783190451,405
0.089888454046,401
0.089904103896,400
0.090253726304,406
0.090269698971,408
0.090388419498,409
0.090491936776,410
0.090673737457,411
0.090742877406,404
0.090881375711,412
0.09111941142,407
0.091323094549,413
0.091457679834,414
0.091715817386,415
0.092737005205,416
0.09285380189,417
0.093331694815,419
0.093349649529,418
0.093600298744,420
0.094256947656,421
0.094723451814,423
0.094923886616,424
0.094956685939,425
0.095078947046,426
0.095175099987,427
0.09519264528,428
0.095195053361,422
0.095271146652,430
0.095336158655,429
0.09571999203,431
0.095778531865,432
0.096148883308,433
0.09697091444,437
0.096984976723,438
0.097378795525,439
0.097385067467,440
0.097480492192,436
0.097792264734,441
0.097884184553,442
0.097946080543,443
0.098175414347,434
0.098258096926,444
0.098404013857,435
0.099039041887,446
0.099059660689,447
0.099138734683,445
0.099372320213,448
0.09938220929,449
0.099482589141,451
0.099958244068,452
0.100213856254,450
0.100549859416,453
0.100958802895,455
0.101267476666,454
0.101563671718,456
0.101760269725,457
0.102784792347,460
0.10301715025,458
0.103059359433,461
0.103698688383,459
0.104055673919,462
0.104390585772,463
0.104508117714,465
0.104607851965,466
0.104613682924,464
0.104664038313,467
0.10487402765,468
0.105161228428,470
0.10525899523,471
0.105290054558,472
0.105840961711,469
0.105992380692,474
0.106202833547,475
0.106208403834,476
0.106322372841,477
0.106681443241,478
0.106769039141,480
0.10687740157,481
0.107249863275,473
0.107681503513,479
0.10769848359,483
0.107829887628,484
0.107941314048,482
0.108157510312,485
0.108202710374,486
0.108348598136,487
0.108748494109,489
0.108859306262,488
0.108860986248,490
0.109089573392,491
0.109329820924,492
0.110220019516,493
0.110465507512,494
0.110526334404,495
0.11064325201,496
0.110943934286,497
0.11160633539,499
0.111714952911,500
0.111907363109,498
0.112288815817,504
0.112425490729,505
0.112591418885,501
0.11266794716,503
0.112753324998,507
0.112910097067,508
0.113037923612,509
0.113231622278,511
0.113574566504,512
0.113587853959,513
0.113882175192,510
0.114428513622,515
0.114490159454,516
0.11451842333,514
0.11463872616,518
0.114832189053,517
0.114957928788,502
0.1150236752,519
0.115078010498,521
0.115191669883,520
0.115317570528,506
0.115384433748,523
0.115684753746,522
0.115939083567,524
0.116341121459,525
0.116371027359,529
0.116432637369,526
0.116475939208,530
0.116761275268,531
0.11705484516,532
0.117126000682,528
0.11720246882,527
0.117374123579,533
0.117388422007,534
0.11831969967,535
0.118351213354,536
0.118592331969,537
0.118759462248,538
0.118902018239,539
0.119398235078,540
0.119419338195,541
0.119459721252,542
0.119645019961,543
0.119962458338,544
0.119999325499,545
0.120045498715,546
0.120209436252,547
0.120835790875,549
0.120993078029,550
0.121371739538,552
0.121415182313,551
0.121461317329,553
0.121664516999,554
0.121871521034,548
0.122678924049,555
0.122835616755,556
0.124041919248,557
0.124294398303,558
0.124539848319,559
0.125774789126,560
0.126428583616,564
0.126591456959,563
0.12669918789,565
0.126699427888,566
0.126907300763,562
0.127021802848,561
0.127376441446,567
0.127462656616,568
0.127899090438,569
0.128394480327,571
0.128398443494,572
0.128546644397,570
0.128680819937,575
0.128724005128,576
0.128783529494,577
0.128834139482,579
0.12892512802,574
0.128977909255,580
0.129087289567,578
0.129161628723,573
0.129479099748,581
0.129682872923,582
0.129942268152,583
0.130015677691,584
0.130182445116,585
0.130482421044,586
0.130677514498,588
0.130831426093,587
0.130878523532,590
0.130885410501,589
0.131077730934,591
0.13121747309,592
0.13139813415,594
0.131422272851,593
0.13153111998,595
0.13156471814,597
0.131601648367,598
0.132111784235,599
0.132942010057,603
0.133420903458,607
0.1334447238,606
0.133566848928,605
0.133613987694,608
0.133643202415,604
0.133666859599,600
0.134087434574,601
0.134125158199,596
0.134177919188,602
0.134266176642,609
0.134388973139,610
0.134527398498,612
0.13482757797,613
0.134917832738,614
0.135005241671,611
0.135016787032,616
0.135462756588,618
0.135531436767,615
0.135565009657,617
0.135947582355,619
0.136557247383,620
0.136604539879,621
0.136690446483,623
0.137106864399,622
0.137121109052,624
0.137899990602,625
0.137958187063,626
0.138211936541,627
0.138750616715,628
0.138910808224,629
0.138996279512,630
0.139104382315,631
0.139330701974,633
0.139348530205,632
0.140074387578,634
0.140767896014,635
0.141229316147,636
0.141556364753,637
0.141726417895,639
0.141885310259,638
0.142008457897,640
0.142017337898,641
0.142169514194,642
0.142226889624,643
0.14224044449,644
0.142894911305,645
0.143056967863,646
0.143338558607,648
0.143732305105,649
0.143818906823,647
0.14389346154,650
0.143895088949,651
0.144206659439,652
0.144274023769,653
0.144396795883,654
0.144501689541,655
0.144760714944,656
0.14480208914,657
0.145004039201,658
0.145061153165,659
0.145173733014,660
0.145308617737,663
0.145542853137,662
0.145687718185,664
0.145708052873,665
0.146051748096,666
0.146618524535,670
0.146952894459,669
0.147115900454,668
0.147251134557,671
0.147286306986,667
0.147462039506,672
0.147517588391,673
0.147751470431,675
0.148290733536,674
0.148364978128,661
0.148455432842,677
0.148557490214,678
0.148615919144,679
0.148710037854,676
0.149014455274,681
0.149061076097,683
0.149430107997,680
0.149741897518,685
0.150069880546,687
0.15008885559,684
0.150404582356,682
0.150467568104,688
0.15056189706,686
0.150732252281,689
0.151014590104,690
0.151301041617,691
0.15162470594,692
0.151772926433,693
0.151940860737,694
0.15241417868,695
0.153051020036,696
0.153107416012,697
0.153818721912,698
0.154042273761,699
0.154321140033,700
0.154544852472,703
0.154669150209,702
0.154781637568,704
0.155329219339,701
0.155387809446,705
0.155411719104,706
0.155841775741,707
0.155891963332,708
0.156277596806,710
0.156337664014,709
0.15711142413,711
0.157227788031,713
0.157398505198,712
0.157438785976,714
0.157607620209,715
0.157905763871,716
0.158400154474,717
0.158967825415,719
0.159045684323,720
0.159334615864,722
0.159498228006,723
0.159932802391,725
0.160181290088,726
0.160259657207,727
0.160752519237,730
0.16086729575,731
0.161483571089,724
0.161592193013,734
0.162269147166,735
0.16227343149,736
0.162367043483,721
0.162981301386,738
0.163233507803,739
0.163280943681,740
0.163483331185,737
0.163567861654,742
0.163634369682,743
0.163885404008,744
0.164500283352,745
0.165156331011,748
0.165281068057,749
0.165523089769,750
0.165601289402,746
0.165639546455,729
0.165802363447,755
0.166315290308,741
0.166433798309,754
0.166563945022,751
0.166624220788,757
0.166779732846,758
0.166959715437,756
0.167201950859,753
0.167303124755,760
0.167435326544,761
0.167777453999,763
0.167819928931,762
0.167865398296,728
0.167918278495,765
0.16803498469,766
0.168248926099,752
0.168798749736,767
0.168974764924,759
0.169050567283,747
0.169090594237,768
0.169113464536,769
0.169254778908,770
0.169271376557,718
0.169475512882,771
0.170098247005,774
0.1701118307,775
0.170189825407,776
0.170308411113,772
0.170464200489,778
0.170830071163,779
0.171161626703,780
0.171691362325,783
0.171905864932,781
0.172021186366,784
0.172239182152,785
0.172345686291,777
0.172502516997,782
0.172614829462,786
0.172691006811,787
0.172918062207,773
0.172998355024,788
0.17300491004,789
0.173116876787,791
0.173181196501,792
0.173385644138,733
0.173568804039,732
0.173656903038,793
0.173962381998,790
0.174175002149,794
0.174196015567,796
0.174241500353,798
0.174306783729,795
0.174308586914,799
0.174932994915,803
0.174997722544,804
0.175022102573,801
0.175225018773,805
0.175474287033,807
0.175581305156,802
0.175675379711,808
0.17574919191,809
0.1757503983,806
0.175935726782,797
0.176214207666,811
0.176257632121,764
0.176749727919,812
0.176879028146,800
0.177106408546,813
0.177156085871,814
0.177251761606,810
0.177567693411,816
0.177626640325,815
0.177743882431,817
0.17782692707,818
0.178201393529,819
0.178350626735,820
0.178573495015,821
0.180050031368,822
0.180058274253,823
0.180500664201,824
0.180658105028,825
0.180901045209,826
0.180944918037,827
0.181104456758,830
0.181167661588,828
0.181255964363,829
0.181474730085,833
0.181592129349,834
0.181935296462,832
0.182071387088,831
0.182414231659,837
0.182576810106,838
0.18262524153,835
0.182683922736,836
0.182888779177,839
0.182910941614,840
0.183202548727,842
0.183245101737,841
0.18376628328,843
0.183799354248,844
0.184018264953,845
0.184852807866,846
0.185584874357,847
0.185655868128,848
0.185852794598,849
0.185945678139,850
0.185953684141,851
0.186181615552,852
0.186983531987,854
0.187548394821,853
0.187580421737,856
0.187604049937,857
0.187933579593,858
0.188946664948,859
0.189546091682,855
0.190228186363,860
0.190559008689,862
0.190886301503,863
0.191085628341,864
0.191256219011,865
0.19196415925,866
0.192062064336,861
0.192605123191,867
0.192817661312,868
0.192937768947,870
0.193516470041,871
0.194276200249,872
0.194873195969,874
0.195206433324,875
0.195690451379,877
0.195912504311,878
0.19595932123,876
0.196232848665,879
0.196625603919,880
0.196760039011,882
0.196952592625,881
0.197136067415,883
0.197205200522,884
0.197293050222,885
0.197452162159,886
0.197507431712,869
0.197723212658,887
0.198355924227,889
0.198690588024,893
0.199027889377,896
0.199120187347,897
0.199170791195,898
0.199450596366,900
0.199487816095,892
0.199626404738,895
0.199629675785,899
0.199800618086,873
0.20013143187,902
0.200548263407,903
0.200625652825,905
0.200876206078,891
0.20110156653,890
0.201121096105,901
0.201210238992,888
0.201639549881,894
0.202035134258,908
0.202138744865,911
0.202474476392,910
0.202512683939,909
0.202594755047,904
0.202598727814,914
0.202766811953,915
0.202903977609,907
0.203357863615,916
0.203617761337,917
0.203633915838,918
0.204098843052,912
0.204285074661,919
0.204487026006,920
0.205448343405,924
0.205722087412,922
0.20596069234,926
0.206262827855,921
0.206654136584,929
0.206705674579,927
0.206964953532,930
0.207072096853,923
0.207121707312,925
0.207450467587,928
0.207551379037,931
0.207788751017,906
0.209046519067,934
0.209118748911,936
0.209131098233,937
0.209346512916,938
0.209568964424,913
0.209738287912,941
0.209773303479,942
0.209869298954,935
0.210034800384,944
0.210141840468,945
0.210156412864,939
0.210244660141,946
0.210781685962,947
0.211408733019,950
0.211784899859,940
0.212038986009,951
0.212270672963,953
0.21263018386,943
0.212704414311,952
0.212761054138,955
0.212971620589,949
0.212997092287,956
0.213918881909,957
0.213951914605,958
0.214155077247,954
0.214284615934,948
0.214304873271,932
0.215177809599,933
0.215409405879,959
0.21541245616,960
0.216017800343,964
0.216229821655,965
0.21635438995,962
0.216439175468,961
0.216550540758,967
0.216657139157,966
0.216685521807,968
0.216786434569,963
0.216970712306,970
0.217156748087,971
0.217161125542,972
0.217317231169,969
0.217366741424,973
0.217517770658,974
0.217790118211,976
0.217977181646,977
0.218147490077,975
0.21838129704,978
0.218755390953,980
0.218890921505,979
0.219330814721,981
0.219864087505,983
0.219868530668,984
0.220371375196,982
0.220422468308,985
0.220492265877,986
0.220856289981,988
0.221124829899,989
0.221497381168,987
0.221573006719,993
0.221942969721,995
0.222448918235,998
0.222628496668,999
0.222670462492,997
0.222719663701,1000
0.222807177534,1001
0.222958540741,994
0.222997428714,991
0.223073170183,1002
0.223129902595,1003
0.223220652927,1004
0.223299612544,1005
0.223532859908,990
0.2238178917,992
0.223885459473,1006
0.223972052572,996
0.224593820248,1007
0.224901649068,1008
0.225478544083,1009
0.225729433846,1010
0.227082541688,1013
0.22719442038,1014
0.227381212422,1012
0.227537641999,1015
0.227586681534,1011
0.227826833077,1017
0.227834240727,1018
0.22788870287,1016
0.228490310813,1020
0.228505649734,1019
0.228598744976,1021
0.228669671928,1022
0.22909380885,1023
0.229218827286,1024
0.229272261341,1025
0.229449801618,1026
0.229836440936,1027
0.229968569078,1029
0.230022808193,1028
0.230149696535,1030
0.230709294598,1031
0.230862859186,1032
0.230987727633,1033
0.231276737727,1034
0.231314374657,1035
0.232045363323,1036
0.232683352545,1037
0.233089965889,1039
0.233242240423,1041
0.233379723132,1042
0.233402399028,1043
0.233538588687,1045
0.233641297542,1040
0.233979554441,1048
0.23430530708,1049
0.234347878218,1050
0.234405737234,1052
0.234498883048,1047
0.234761498916,1051
0.234789180617,1053
0.234982007362,1054
0.235017671217,1055
0.235194398458,1046
0.235218901266,1056
0.235370073668,1058
0.23537103366,1059
0.236011008519,1061
0.236280122109,1062
0.236585536807,1057
0.237410335677,1065
0.237553372053,1067
0.237655654751,1069
0.23796543643,1073
0.238071366145,1070
0.238073889324,1074
0.238108202028,1076
0.23812767187,1075
0.238210522176,1071
0.238224285519,1078
0.238457775027,1044
0.238479852401,1072
0.2385355318,1066
0.239319566777,1068
0.239473856495,1080
0.239560834009,1081
0.239776431391,1084
0.239820745071,1083
0.239852163426,1079
0.239917179673,1085
0.239973459738,1086
0.240386583699,1087
0.240432022141,1082
0.24056113009,1088
0.240952293789,1089
0.241119093126,1090
0.241273599916,1063
0.241447916481,1091
0.241909159706,1093
0.241912646077,1060
0.241915655652,1094
0.242089671846,1097
0.242179680812,1098
0.242343939615,1099
0.242350702808,1092
0.242382850137,1038
0.242417778232,1100
0.242533248767,1102
0.242610025073,1064
0.242627898575,1103
0.24264863852,1101
0.243315042751,1105
0.243687235404,1106
0.243817472207,1108
0.243829672658,1104
0.244230617129,1109
0.244420334519,1110
0.244448604992,1111
0.244612190284,1112
0.24509837813,1113
0.245155020808,1077
0.245184981659,1107
0.245479019922,1114
0.246135915869,1116
0.24623839602,1117
0.246305173062,1118
0.24639508899,1119
0.246486696836,1120
0.246637069729,1122
0.246785083834,1115
0.247466821184,1126
0.247492650785,1125
0.247930027056,1121
0.248284146546,1128
0.248446183525,1132
0.248452129719,1130
0.248471425714,1129
0.248570605104,1133
0.248740457506,1124
0.248882708993,1131
0.248902127224,1096
0.248939850849,1135
0.249221508163,1138
0.24922500076,1136
0.249454993948,1139
0.249948205104,1140
0.250029901993,1137
0.250063257788,1141
0.250442172604,1143
0.250481865346,1123
0.250922297005,1145
0.250978433736,1147
0.251184978027,1146
0.251413269048,1148
0.251511143244,1134
0.251676836116,1095
0.251745610953,1142
0.251836946324,1144
0.252185665225,1127
0.252612144459,1150
0.252655485173,1151
0.252678020693,1149
0.252837334955,1152
0.253165999337,1153
0.253307791549,1154
0.253729334685,1156
0.253830129051,1155
0.253860410684,1157
0.253936641819,1158
0.253965952953,1159
0.254204577587,1161
0.25452442257,1160
0.25454435417,1162
0.254856777265,1163
0.25500754574,1165
0.255119497691,1164
0.255156891276,1166
0.255235246993,1167
0.255823248166,1168
0.256727895138,1169
0.256782016451,1170
0.25755439492,1171
0.257937191397,1172
0.258348538593,1173
0.25860197814,1174
0.258796121808,1175
0.258867817497,1176
0.259272384975,1179
0.2594057157,1178
0.259430582162,1177
0.259431363117,1180
0.259933938427,1182
0.260507166379,1183
0.260846927834,1184
0.260961893493,1181
0.261008776754,1185
0.261034331772,1186
0.262133669668,1187
0.262417231096,1188
0.262499520869,1189
0.263277258793,1190
0.263475337984,1191
0.264103242613,1192
0.264366167037,1193
0.264616343964,1194
0.264823336378,1195
0.264887352579,1196
0.265092568371,1197
0.265679827936,1198
0.266054625509,1200
0.266150841728,1204
0.266181126005,1201
0.266354858632,1203
0.266385321527,1205
0.266535120355,1202
0.266662115579,1199
0.267152265553,1206
0.267305369316,1207
0.267441477718,1208
0.267573757571,1209
0.267871281848,1211
0.26788425134,1213
0.268032847976,1214
0.268089430699,1212
0.268368769976,1210
0.268527008572,1215
0.268675418664,1216
0.268972345486,1217
0.269496508323,1219
0.269578619638,1220
0.269686959804,1218
0.270113819382,1221
0.27073030553,1223
0.271027593205,1222
0.271209571121,1224
0.272222285224,1225
0.272450357535,1226
0.272589573198,1227
0.272677942241,1228
0.272706043747,1229
0.273486179196,1231
0.273528586636,1232
0.273845254428,1233
0.273872672674,1234
0.274959191496,1236
0.274964447802,1230
0.275012477006,1237
0.275030309748,1238
0.275189565781,1235
0.275210855507,1239
0.275310609687,1240
0.275483999772,1241
0.276075885754,1242
0.276427875481,1243
0.276650546959,1244
0.276659990414,1245
0.277277615193,1247
0.277288439904,1246
0.277786508842,1248
0.277966392865,1250
0.278205431799,1252
0.278529186404,1249
0.278659331122,1251
0.279528387505,1253
0.279538960217,1256
0.279607423933,1257
0.279663558382,1258
0.279669868242,1254
0.279870712466,1260
0.280209498241,1261
0.280299280432,1263
0.280405329715,1265
0.28056352294,1266
0.280721807861,1262
0.280783959742,1269
0.280822707963,1270
0.281623852952,1268
0.281673524294,1274
0.282049654986,1259
0.28210272575,1275
0.282105275265,1271
0.282135601876,1276
0.282246893261,1277
0.28232677283,1278
0.282334195072,1255
0.282336866122,1273
0.282402114886,1279
0.282679151338,1272
0.282934010207,1280
0.283020713582,1281
0.283095186165,1267
0.28314879792,1264
0.28402129275,1284
0.284513531671,1282
0.284555285809,1283
0.284718277148,1286
0.284733823271,1285
0.28508158226,1287
0.285350134204,1288
0.28544724673,1289
0.285726570915,1290
0.285864051328,1291
0.286142672255,1292
0.286233719582,1294
0.286278213288,1293
0.286704249888,1295
0.286817598096,1296
0.287116944346,1297
0.287118807569,1298
0.287186759082,1299
0.287237516193,1300
0.287374465572,1302
0.287958727468,1301
0.288131417275,1305
0.28830078906,1304
0.28839623687,1303
0.28840789915,1306
0.288862291619,1310
0.288891540009,1307
0.289085369005,1309
0.289474724712,1312
0.28947976787,1314
0.289710158071,1317
0.289712334053,1318
0.289762481304,1313
0.289764764485,1319
0.289798104971,1320
0.290265140595,1321
0.290314684568,1316
0.291053044383,1323
0.291165685339,1324
0.291311978991,1325
0.291465033228,1322
0.29157443752,1326
0.291597855439,1315
0.291768714647,1327
0.292573575813,1328
0.292662590862,1329
0.293152624876,1308
0.293182809864,1311
0.293316421229,1330
0.293555935608,1332
0.293648877418,1334
0.293734395794,1331
0.293783497917,1335
0.293881881229,1333
0.29448661753,1338
0.294924059815,1336
0.295516097935,1341
0.295899379874,1340
0.296153724421,1339
0.296576170463,1342
0.296882412784,1343
0.297076642131,1344
0.297144924114,1337
0.297426164197,1345
0.297533454505,1347
0.297544629337,1346
0.297743525981,1348
0.297865141312,1349
0.298554212533,1352
0.298952880558,1353
0.298953960549,1354
0.29943760827,1355
0.300235979575,1357
0.300533345844,1359
0.301203399891,1362
0.301237242423,1363
0.301341250761,1351
0.301574575149,1360
0.301802172003,1364
0.301966469527,1358
0.301994004503,1356
0.302139492304,1361
0.302325740103,1365
0.302386190001,1350
0.302554740346,1366
0.302736249778,1367
0.302759492981,1368
0.303037900718,1369
0.303611799633,1371
0.303615688037,1370
0.30406480132,1372
0.304115283362,1373
0.30429240502,1374
0.30439529849,1375
0.304549886737,1376
0.304627331836,1377
0.304941470243,1378
0.305043828243,1379
0.305072677581,1380
0.305543977293,1381
0.305775189365,1382
0.306052162412,1383
0.306418425368,1386
0.306471083609,1387
0.306617286216,1388
0.306619834998,1385
0.306870021332,1384
0.306909739535,1389
0.306920526805,1390
0.307044020054,1391
0.307098599396,1392
0.307460600937,1395
0.307904951632,1396
0.307917328638,1397
0.308000898273,1393
0.308012419468,1394
0.308393204281,1398
0.308415139583,1400
0.308415876726,1399
0.308417583788,1401
0.308539365931,1402
0.308616206292,1403
0.309108466206,1404
0.309444510813,1406
0.309479297423,1407
0.309802534651,1408
0.309818778429,1409
0.309995908294,1405
0.310017076727,1410
0.31016902759,1411
0.310517271139,1412
0.310835247863,1413
0.311005538669,1414
0.311028221848,1415
0.311723509918,1416
0.311782575883,1417
0.312316008711,1418
0.312791098133,1419
0.313037826262,1420
0.313267565024,1421
0.313427488838,1422
0.313855387412,1424
0.31427748555,1423
0.31440308708,1425
0.314993247287,1426
0.315145049857,1427
0.31538084573,1429
0.315415538168,1430
0.315484560924,1431
0.315551350434,1428
0.315705754987,1432
0.316144239235,1433
0.316207682698,1434
0.316924408402,1435
0.316999538033,1438
0.317023196413,1436
0.317375123217,1439
0.317579188888,1440
0.317586534164,1441
0.317846529999,1443
0.317945625884,1437
0.318096833172,1444
0.318552195469,1442
0.318649592357,1448
0.318687656684,1446
0.318987421413,1450
0.319141215171,1445
0.319441282964,1451
0.319627727242,1453
0.320168827104,1454
0.320301572072,1452
0.320407705915,1455
0.320471870497,1456
0.320702439853,1449
0.321678517417,1460
0.321727006762,1457
0.322015562793,1461
0.322286573589,1462
0.322315066494,1463
0.322911956427,1459
0.323173501194,1466
0.323334171601,1447
0.32341172936,1465
0.323460194278,1458
0.323516959926,1464
0.323841607636,1469
0.323903394322,1468
0.324367667428,1470
0.324430047337,1467
0.325342163983,1477
0.325344810361,1474
0.325452480284,1478
0.325716163836,1475
0.325760435742,1479
0.325804033357,1481
0.326607251968,1476
0.326667114194,1473
0.326877842846,1482
0.326939100428,1471
0.327452159762,1483
0.327531605387,1472
0.327682978555,1484
0.327817467742,1485
0.328836713379,1488
0.328902584782,1489
0.32936895071,1491
0.329834110381,1493
0.330040438272,1487
0.330115879347,1486
0.330185550538,1494
0.330227108297,1490
0.330463507233,1480
0.330522566267,1492
0.331214295934,1495
0.331488177539,1496
0.331887848256,1500
0.331896131387,1499
0.332054406479,1498
0.332162236183,1497
0.332518543296,1501
0.332606341772,1502
0.332975588283,1503
0.333391627937,1505
0.334025442586,1504
0.334075116172,1507
0.334134488849,1506
0.33424473947,1508
0.334401020957,1509
0.33452791834,1512
0.334565360348,1511
0.334804064852,1510
0.335180660895,1513
0.335487235524,1514
0.3355849557,1515
0.33568681132,1516
0.335788869049,1517
0.335840209846,1518
0.336367224404,1519
0.336477796265,1520
0.337235369471,1524
0.337254192028,1525
0.337270205149,1521
0.337307161221,1526
0.337349626319,1527
0.33756094226,1528
0.338170144952,1522
0.338211265382,1529
0.33833582874,1530
0.338409815762,1523
0.338560194641,1533
0.338594494927,1534
0.33867213749,1531
0.338719954895,1532
0.339469777725,1535
0.339745738916,1537
0.339833792976,1536
0.339847135554,1538
0.340493486068,1539
0.340728025853,1540
0.340954827095,1543
0.34101419157,1542
0.341298527706,1545
0.341390321024,1544
0.341468917471,1541
0.342022647263,1546
0.342572015699,1547
0.342781888833,1548
0.343677893241,1549
0.34395538686,1550
0.344226242979,1551
0.34428656853,1552
0.344391353118,1553
0.344855168091,1554
0.34573589149,1556
0.346043640548,1555
0.346567022035,1558
0.346814483194,1560
0.346956356617,1557
0.347093999929,1561
0.347186444292,1559
0.347666396984,1563
0.347948759682,1564
0.348209798264,1565
0.348374865346,1562
0.349538162597,1567
0.349793128095,1568
0.349832905208,1569
0.350182343522,1570
0.350390723282,1571
0.350667818638,1573
0.350976789418,1575
0.350983998958,1576
0.351031753076,1574
0.351053828532,1577
0.351401296644,1572
0.351457906181,1580
0.351485146525,1566
0.351534754574,1581
0.351623175696,1579
0.351632274003,1578
0.351677365903,1582
0.35196699616,1583
0.352286495221,1584
0.352390979239,1585
0.352512378655,1586
0.352601678069,1587
0.352808106232,1588
0.352886526283,1589
0.353346265697,1591
0.353386000855,1592
0.353519066966,1590
0.353671356014,1593
0.353748648421,1594
0.353959411445,1596
0.354097243318,1597
0.354157478384,1595
0.354351647306,1599
0.354482416325,1598
0.354817123609,1602
0.355098316866,1600
0.355122597976,1604
0.355152208963,1605
0.35522776214,1601
0.355816177565,1607
0.355972088645,1608
0.356117200301,1606
0.356217844648,1609
0.356225756179,1603
0.35653718599,1611
0.356655559342,1612
0.356992391821,1613
0.357060341418,1610
0.357414788858,1614
0.357990584398,1617
0.357994670764,1616
0.358015284729,1618
0.358035291784,1619
0.358085889638,1620
0.358154644608,1621
0.358360841215,1615
0.358446566194,1622
0.358472010955,1623
0.358814588748,1625
0.358894746583,1626
0.359211172682,1624
0.359213212665,1627
0.359471202649,1628
0.359513303443,1630
0.359695360355,1629
0.360069484964,1631
0.360725337459,1632
0.360895054953,1633
0.360964933768,1634
0.361627909486,1635
0.36188883064,1636
0.362312899617,1637
0.362503297638,1638
0.362550578561,1639
0.362679005675,1640
0.362789865063,1641
0.363062393411,1642
0.36319081381,1643
0.363374885772,1644
0.363440488151,1645
0.363520019758,1646
0.363525886501,1647
0.36381252693,1648
0.364102277273,1649
0.364167116823,1650
0.364410619017,1651
0.364445721357,1652
0.364676444483,1653
0.365228077925,1654
0.365606609204,1655
0.366093301618,1656
0.366459469779,1657
0.3675403112,1659
0.367585215133,1658
0.367823185385,1660
0.367824625373,1661
0.367943270189,1662
0.368011489459,1663
0.36823385114,1664
0.368721158481,1665
0.368807211748,1666
0.369324834942,1667
0.369457061988,1668
0.369522861795,1669
0.370086100216,1670
0.370136791025,1672
0.37021344217,1671
0.370635809257,1674
0.371063964399,1676
0.371353264402,1677
0.371496225735,1678
0.371783257272,1679
0.372143974926,1675
0.372437980877,1680
0.372636828603,1681
0.372731511704,1673
0.372928329919,1682
0.373197884266,1683
0.373496640871,1684
0.373874727258,1687
0.374213338431,1685
0.374294122048,1686
0.374454710164,1690
0.374463936381,1691
0.374483598803,1688
0.374567165639,1689
0.374975355204,1692
0.375073483075,1693
0.37520962315,1694
0.375322666761,1695
0.375420906776,1696
0.375503941131,1697
0.375595940261,1698
0.375616201515,1699
0.376188488175,1700
0.376259434,1702
0.37644161758,1701
0.376761838646,1704
0.376911477733,1703
0.377219925613,1705
0.377469995872,1706
0.377622193412,1707
0.377654455498,1708
0.377738983579,1709
0.378395860415,1713
0.378497978949,1715
0.378606898851,1714
0.378653883138,1716
0.378782375855,1717
0.378938237399,1718
0.379014709879,1719
0.379075076744,1720
0.379118963424,1721
0.379140917436,1722
0.379486163886,1724
0.379775950459,1726
0.379794928077,1727
0.379871437579,1725
0.380285532914,1729
0.381020580103,1731
0.381075062484,1733
0.381107080018,1732
0.381120901331,1712
0.381400850113,1728
0.38140315599,1730
0.381939516519,1723
0.382018723582,1735
0.382081098337,1736
0.382099983709,1737
0.382190948223,1739
0.382340747709,1740
0.382376340527,1741
0.382392874347,1742
0.382798305468,1744
0.383141327053,1746
0.383216714814,1747
0.383521157784,1749
0.383526009534,1748
0.383620983805,1745
0.383695327043,1750
0.384034805095,1752
0.384202464545,1754
0.384303262524,1734
0.384430854576,1753
0.384493911397,1757
0.384660478854,1755
0.384889712929,1756
0.385236864779,1759
0.385336559345,1711
0.385368220876,1758
0.385565248008,1760
0.385798803883,1761
0.386175542289,1710
0.386200045531,1763
0.386204287613,1762
0.386262724804,1751
0.386289685442,1743
0.38738129195,1766
0.387540532097,1764
0.387624209257,1767
0.388055372326,1770
0.388089624769,1771
0.388145047265,1772
0.388274326938,1773
0.388281507034,1774
0.388316801817,1769
0.388329901533,1738
0.388383219268,1768
0.388387747645,1775
0.388830953836,1765
0.389366194952,1776
0.38957672402,1777
0.389694548111,1778
0.389700380795,1779
0.389876960618,1780
0.389923963542,1781
0.390002846943,1782
0.390421437723,1784
0.390508983072,1785
0.390521958964,1786
0.390571128364,1787
0.390713503081,1789
0.390769218294,1790
0.391099230968,1793
0.391248427478,1791
0.391359155002,1794
0.391418721951,1792
0.39198843281,1783
0.392319184763,1797
0.392357276458,1798
0.392587980218,1799
0.393120092745,1800
0.393265941663,1796
0.393267141653,1801
0.393478148171,1795
0.393828322528,1788
0.394328664507,1802
0.39444534749,1803
0.394544871773,1804
0.394780323571,1807
0.394954110333,1808
0.396161904984,1806
0.396171360755,1809
0.396298570685,1810
0.396369778371,1805
0.396853465218,1811
0.397830474465,1814
0.398319892521,1816
0.398427607749,1815
0.398549022466,1817
0.398627729774,1818
0.39919730565,1813
0.399383274921,1820
0.399386069276,1821
0.399454470397,1822
0.399605967328,1819
0.399690399945,1823
0.399798530006,1824
0.400453436389,1825
0.401246814378,1812
0.401318510903,1827
0.401949723963,1830
0.401989736306,1829
0.402090532876,1828
0.402369036619,1833
0.402438528609,1835
0.402597200712,1832
0.402878977754,1831
0.40288186093,1836
0.402917748166,1834
0.402917868165,1837
0.403239771347,1838
0.40344355492,1826
0.403748717077,1839
0.403855574508,1840
0.404137677709,1841
0.404342019608,1842
0.404440363444,1844
0.404492714888,1843
0.405257490072,1845
0.405925640911,1846
0.405994860927,1847
0.406120762109,1848
0.406163553912,1849
0.406185651326,1850
0.40634565647,1851
0.406775099491,1854
0.406887279919,1856
0.406895812648,1853
0.40709501898,1857
0.407272226944,1852
0.407326918809,1858
0.407451984831,1855
0.407495320586,1859
0.407682925512,1860
0.407867587849,1861
0.407904355898,1862
0.408493477477,1864
0.40860246019,1863
0.408761867797,1866
0.408854430839,1867
0.408962850652,1868
0.409000703375,1869
0.409147239955,1865
0.409511792488,1871
0.409971393331,1872
0.410011177599,1873
0.410215375822,1870
0.41026263538,1874
0.410712168845,1875
0.411149941391,1876
0.411294036688,1877
0.411580574056,1878
0.412128284194,1879
0.41223140365,1880
0.412549625006,1882
0.41290630436,1884
0.413071844779,1885
0.413171836143,1883
0.413484467184,1886
0.413926338905,1887
0.414213920248,1888
0.414244728797,1889
0.41428962125,1881
0.414470871496,1891
0.414494507846,1890
0.414899287511,1892
0.414935211652,1893
0.415094481933,1894
0.41571819545,1895
0.415853481178,1896
0.416252038302,1897
0.416689605395,1898
0.416806059197,1899
0.417234711851,1900
0.417844066802,1902
0.41792416186,1903
0.417924521857,1904
0.418161488775,1905
0.418276593394,1901
0.418280490548,1906
0.418717766877,1907
0.418918143746,1908
0.419911590443,1909
0.419961847756,1910
0.419982760095,1911
0.420244190968,1912
0.420516057172,1913
0.421950445234,1914
0.422502286232,1916
0.422623281012,1917
0.422756755143,1918
0.422814728842,1919
0.422893689101,1915
0.423114931236,1921
0.423728987397,1928
0.423742216087,1927
0.423946215944,1924
0.424042545047,1930
0.424144648158,1922
0.42457002018,1929
0.424869244083,1931
0.424914729258,1932
0.425608665481,1933
0.425978318282,1934
0.426072003188,1926
0.426639774223,1923
0.427186047843,1937
0.427201426915,1938
0.427375477482,1940
0.427652215988,1941
0.428084130465,1939
0.428109722134,1943
0.428162925639,1944
0.428215977798,1945
0.42853427211,1935
0.429098537088,1947
0.429120124507,1948
0.429489802946,1949
0.429540053283,1950
0.429602367298,1951
0.429613941238,1952
0.42990150695,1955
0.429924268008,1954
0.429989823442,1942
0.43002718707,1956
0.430226313114,1957
0.430346380881,1946
0.430443276194,1953
0.43044856575,1960
0.430466820642,1936
0.430572953285,1958
0.430587997384,1962
0.430604008148,1963
0.430817201383,1965
0.430912223586,1966
0.431065177504,1967
0.431258055207,1968
0.431270144201,1969
0.431394461516,1971
0.431416795162,1970
0.431758620989,1972
0.431990506129,1959
0.432186765934,1920
0.432462612111,1974
0.432492428795,1964
0.432509284751,1973
0.432593944235,1975
0.433128194183,1977
0.433572310908,1925
0.433963224654,1981
0.434043726534,1979
0.434068446646,1982
0.434262882065,1976
0.434506435231,1980
0.434687932181,1983
0.435433349357,1978
0.435615159158,1984
0.435733922527,1986
0.435851567509,1985
0.43611294381,1961
0.436778121755,1987
0.437711110155,1988
0.437803180127,1989
0.438470278153,1992
0.438571962063,1993
0.438674002265,1991
0.439150738328,1994
0.439325322767,1996
0.439714333391,1990
0.440200152507,1999
0.440267795526,1998
0.440552840642,2000
0.440757336222,1995
0.440779413205,2001
0.441005258916,2003
0.441265190172,2005
0.441620161344,2004
0.441780784471,1997
0.441821783025,2002
0.441885210204,2006
0.441885450874,2007
0.442203872489,2008
0.443139958877,2009
0.443307644385,2010
0.443582823805,2012
0.4435834238,2011
0.443818290179,2014
0.443854920261,2015
0.443969878783,2016
0.444050833954,2017
0.444311280443,2018
0.444567370511,2021
0.444702914425,2020
0.44497828105,2022
0.445070852592,2019
0.445112878615,2013
0.446097526711,2023
0.44622257443,2024
0.446634930669,2025
0.446774318767,2026
0.446880260891,2027
0.447119148918,2028
0.447303582205,2029
0.447771594003,2030
0.447882470259,2031
0.44796333766,2032
0.448031179304,2033
0.448876769265,2034
0.449174240118,2035
0.449318490701,2036
0.449555325281,2037
0.449918731121,2039
0.449922469945,2038
0.45029458609,2040
0.450590459924,2041
0.450656890517,2042
0.450749587129,2043
0.450941344172,2044
0.451219414948,2045
0.451626917815,2046
0.451691640933,2048
0.451903307207,2047
0.452176215909,2050
0.452275427678,2051
0.452336800431,2049
0.452566581664,2053
0.452737028416,2052
0.453302631998,2054
0.453720429968,2057
0.453883455505,2055
0.453911626503,2059
0.453968667703,2056
0.454007722059,2060
0.454667195023,2058
0.454775564806,2061
0.454912196321,2062
0.45497386878,2063
0.455074475924,2064
0.455092680314,2065
0.455984195651,2066
0.456063940793,2067
0.456529227843,2069
0.45658890249,2068
0.457540090891,2070
0.458158698532,2071
0.458294679892,2072
0.458718735287,2073
0.45883594946,2074
0.459212554155,2076
0.459351520226,2077
0.459480943653,2079
0.459707939505,2080
0.45973577918,2081
0.460019250246,2078
0.460206646442,2075
0.460349264188,2082
0.460396143906,2083
0.460423263147,2084
0.460777333932,2085
0.461830502491,2090
0.462656076069,2094
0.462685672455,2095
0.463001131918,2093
0.463020320152,2086
0.463042263431,2097
0.463490995386,2098
0.463798391263,2100
0.46460031464,2105
0.464715733682,2103
0.46477856382,2106
0.465167744941,2104
0.465317585947,2107
0.46579411876,2088
0.465925214152,2087
0.466058883832,2101
0.466236101135,2096
0.466364436159,2109
0.466474798046,2111
0.466596937784,2110
0.46673918867,2112
0.466782032093,2113
0.467050698575,2115
0.467075418781,2116
0.46721675852,2091
0.467490867434,2114
0.467889982612,2117
0.467953238885,2108
0.468002359571,2119
0.468088049719,2118
0.468192068305,2122
0.468212533895,2099
0.468360570216,2123
0.46840608182,2124
0.468566383144,2121
0.468762287129,2102
0.468981454288,2120
0.469057683914,2092
0.46909164873,2089
0.469184584101,2125
0.469405867426,2127
0.469481607926,2128
0.469651984638,2130
0.469793302598,2132
0.469864892369,2129
0.469878599848,2126
0.4699412853,2133
0.470097753532,2134
0.470165433517,2131
0.470664605085,2137
0.470803719478,2138
0.471106696581,2140
0.471176968978,2141
0.471243815518,2139
0.47130761139,2136
0.471690051316,2143
0.47195852225,2135
0.471962353628,2144
0.472060429798,2142
0.472124159807,2145
0.472397460764,2146
0.473091989758,2147
0.473497858502,2150
0.473544698974,2151
0.473560659656,2149
0.473647557969,2148
0.473774281922,2152
0.473812367543,2153
0.473840884208,2154
0.473926540663,2155
0.474016228059,2156
0.474325001028,2157
0.474940756443,2159
0.475108260586,2158
0.475225349137,2160
0.475521891405,2161
0.475830969767,2163
0.475998743503,2162
0.476573745686,2164
0.476617119913,2165
0.476631945166,2166
0.476744351749,2168
0.476783652561,2167
0.476860782259,2169
0.476887627329,2170
0.477585728461,2171
0.477967850788,2172
0.478375636356,2173
0.478511271358,2174
0.479226506851,2175
0.479519648318,2176
0.479555441542,2177
0.47979371314,2180
0.480022189625,2183
0.480124478155,2178
0.480125438147,2184
0.480567169463,2185
0.480677668406,2179
0.48070889739,2186
0.480864756426,2181
0.480929381403,2187
0.481395892089,2188
0.481436773233,2182
0.481705557193,2189
0.481871932232,2190
0.481911374252,2191
0.482041768844,2192
0.482096871555,2193
0.48250628886,2194
0.482864193427,2195
0.482955030753,2197
0.483266952601,2198
0.483653224252,2196
0.483801376097,2199
0.483906216592,2200
0.484527678236,2201
0.484982114604,2202
0.485074582111,2203
0.485121657584,2204
0.485410572389,2205
0.485537851589,2206
0.485630952922,2207
0.485947598818,2209
0.485992807564,2210
0.486086612442,2211
0.486566190778,2208
0.486892238599,2212
0.487132789742,2213
0.487188418593,2214
0.487315204436,2215
0.487695193965,2216
0.487801083548,2217
0.488130384947,2218
0.488678868837,2219
0.489338991757,2220
0.491177166133,2222
0.491206033986,2223
0.491308464299,2225
0.491437939486,2224
0.491489490492,2221
0.491792244669,2226
0.491811985361,2227
0.491837063181,2228
0.491984501213,2230
0.492579523144,2229
0.493252695899,2232
0.493452037881,2233
0.493452881074,2234
0.493495706084,2231
0.493788868795,2235
0.49401688978,2236
0.494103269796,2237
0.494196695455,2238
0.494859257536,2239
0.495257472212,2240
0.496364382195,2241
0.497300094572,2242
0.498437926981,2243
0.498793264596,2245
0.498828117798,2246
0.49886134643,2247
0.499061593015,2248
0.499596295514,2249
0.499858261076,2251
0.500215010823,2252
0.501075904742,2250
0.501158714454,2254
0.501274656782,2256
0.501558660129,2255
0.501663946525,2253
0.50199604709,2258
0.502372492233,2259
0.50249564533,2260
0.502521240077,2244
0.502677837621,2257
0.502724033218,2262
0.503004452544,2264
0.503096784904,2265
0.503268209306,2266
0.503550251969,2269
0.503756450481,2268
0.50378704506,2261
0.503895336886,2263
0.504021604792,2270
0.504175928388,2271
0.504848877261,2275
0.505127105914,2274
0.505338735484,2267
0.505593043057,2277
0.505702822284,2276
0.505766932766,2273
0.505951076989,2278
0.506042830337,2279
0.506276991077,2272
0.507057949523,2280
0.507096728045,2281
0.50745772484,2282
0.507647778963,2283
0.507998391551,2284
0.508201904928,2285
0.508359170036,2286
0.508375058176,2287
0.508393361931,2288
0.508583813892,2289
0.508964571626,2290
0.509724949911,2291
0.510550922043,2293
0.510557600797,2292
0.510663852069,2294
0.510956250701,2295
0.511259168162,2296
0.512448744825,2297
0.513387410389,2298
0.514076059225,2300
0.514268528781,2301
0.514929897965,2303
0.515021054531,2302
0.515481937423,2306
0.515544677245,2305
0.515702121606,2308
0.515865732056,2309
0.516037003973,2304
0.516090618747,2307
0.516319099814,2310
0.516673911238,2299
0.516942383022,2311
0.516959683643,2312
0.517038520141,2313
0.517734871198,2315
0.517849239753,2314
0.517902489372,2316
0.517973569077,2317
0.51834809954,2318
0.518485908524,2319
0.518510572506,2321
0.518511269988,2320
0.518542507712,2322
0.518582700051,2323
0.519182606099,2324
0.519516478643,2326
0.519785351102,2328
0.520475561792,2327
0.52056665101,2325
0.520767881019,2331
0.520818136886,2330
0.521097055719,2329
0.521135448067,2332
0.521329917148,2333
0.521630963798,2334
0.521797207693,2335
0.522183184589,2336
0.522233684182,2337
0.522330589699,2338
0.522603831485,2339
0.522631820682,2340
0.522637508575,2341
0.52322861558,2342
0.523248637734,2343
0.523719325458,2344
0.524275890134,2345
0.52439952403,2346
0.524460515776,2347
0.524882175279,2348
0.52525264222,2350
0.525510544972,2349
0.525563019944,2351
0.5256334936,2352
0.525680587903,2353
0.526075239274,2355
0.526152501416,2354
0.526350806831,2356
0.526489728589,2357
0.527349171367,2358
0.52744332108,2359
0.527718881299,2360
0.527745427952,2361
0.528262433956,2362
0.528602137859,2363
0.528723569162,2364
0.528882562712,2365
0.528892766757,2366
0.529346132562,2369
0.529404002855,2370
0.529433734491,2371
0.530037355335,2367
0.530075746242,2376
0.531116666467,2368
0.531118543419,2372
0.53129866293,2375
0.53132777663,2373
0.531530112227,2377
0.531561832517,2379
0.531639134403,2378
0.531646045152,2374
0.532105937758,2382
0.532293942438,2381
0.532460112376,2380
0.532888222173,2383
0.533917999931,2384
0.533935141767,2386
0.534059064327,2385
0.534846534921,2387
0.534857715586,2389
0.53497091916,2391
0.535074211606,2390
0.535220007316,2388
0.535361148057,2392
0.535499418512,2393
0.535694760751,2394
0.536573918849,2395
0.536972695333,2396
0.537350327006,2397
0.538329445736,2399
0.538503578578,2398
0.538712935696,2400
0.539131322862,2401
0.539359740362,2402
0.539391069782,2403
0.539989848263,2406
0.540063882538,2408
0.54036447336,2410
0.540394528226,2411
0.540678490561,2412
0.540701621184,2407
0.541178573905,2404
0.541329496447,2409
0.54144905842,2405
0.541802614384,2413
0.542216904204,2416
0.542350737831,2417
0.542490222705,2415
0.543254148081,2420
0.543518168651,2422
0.543617980782,2423
0.543657892059,2424
0.543952798439,2425
0.544060050697,2426
0.544184095905,2419
0.544200229267,2421
0.544590650139,2428
0.545429503877,2427
0.545890768603,2431
0.545918087395,2432
0.546030524992,2430
0.546383371858,2433
0.547773217541,2414
0.548060521836,2438
0.548181559292,2439
0.548291919499,2435
0.548336069783,2429
0.548584656003,2440
0.548587539179,2441
0.548876178447,2442
0.549326041358,2443
0.549377627473,2445
0.549386834568,2444
0.549626500658,2447
0.549727490789,2448
0.54989385654,2418
0.550035794634,2449
0.550257738074,2446
0.550370973083,2450
0.550437136447,2436
0.550669651875,2437
0.55069037043,2451
0.551020971749,2452
0.551075101977,2453
0.551291132076,2455
0.551494498471,2456
0.551688287064,2459
0.551772256531,2457
0.552308254961,2458
0.552446044452,2454
0.552483888024,2460
0.552637449677,2434
0.552972685713,2461
0.553500987925,2462
0.553659790866,2464
0.553776961716,2465
0.554366869825,2467
0.554683627698,2463
0.554876726405,2468
0.555443406414,2466
0.555808670369,2469
0.556322278175,2470
0.557011576094,2471
0.557886507261,2472
0.558103482572,2473
0.558505690621,2474
0.558906856545,2475
0.559241522467,2476
0.559338242261,2477
0.559345475236,2478
0.559585792902,2479
0.560178894118,2480
0.560459484113,2481
0.560771600959,2482
0.560894463436,2483
0.561525441709,2484
0.561810441521,2485
0.562240416837,2486
0.562643931484,2487
0.563427799074,2489
0.563553458514,2488
0.563697770269,2490
0.564205869329,2491
0.564356252784,2492
0.565351346058,2493
0.566208144696,2494
0.566539635225,2496
0.567103149399,2497
0.56741599736,2498
0.567628865084,2495
0.567726145802,2499
0.567928750791,2500
0.568218176025,2501
0.568367967949,2504
0.568732056345,2506
0.568751525434,2507
0.568800314887,2508
0.569111162358,2509
0.569137045432,2505
0.569174232015,2511
0.569176779437,2512
0.569650764656,2513
0.569678690113,2514
0.56972598319,2515
0.569836370475,2502
0.570171118362,2510
0.570350291469,2516
0.570593577144,2517
0.570793377607,2518
0.571129238855,2503
0.5713062478,2519
0.571379470858,2520
0.571405038358,2521
0.572049701407,2523
0.572232438875,2522
0.572592945893,2524
0.573393150646,2525
0.573841329826,2526
0.574784440932,2527
0.574812112911,2528
0.574835458759,2529
0.574926736073,2530
0.575313240867,2531
0.575371410587,2532
0.575490974118,2534
0.5755179272,2535
0.575614989237,2536
0.575664535187,2533
0.576053762814,2537
0.576552118413,2540
0.576553201604,2538
0.576565514125,2541
0.57738724003,2542
0.577433901789,2543
0.577651085836,2544
0.577815120074,2546
0.578440218215,2545
0.578554477709,2539
0.578814356399,2548
0.579679074537,2547
0.580000407434,2549
0.580187381672,2550
0.580244000266,2551
0.580305416701,2552
0.580635728139,2553
0.580997754182,2554
0.581246318842,2555
0.581477938127,2556
0.58159893539,2557
0.581689750523,2558
0.5818858445,2559
0.582020302867,2560
0.582036367816,2561
0.582261413379,2563
0.582280666479,2562
0.582377819455,2564
0.582763996829,2566
0.583333460943,2568
0.583905335546,2570
0.584054550277,2571
0.58406959174,2567
0.584270570899,2572
0.584329256738,2573
0.58440790798,2574
0.585002359786,2575
0.585191445855,2576
0.585260565841,2577
0.585303715552,2569
0.585304132355,2565
0.586073336796,2579
0.586237707642,2578
0.586272497631,2581
0.587138475905,2583
0.587698412912,2584
0.587812178835,2585
0.5879727765,2582
0.588158172345,2587
0.588194703088,2588
0.588250984285,2586
0.588279852181,2589
0.588548991973,2580
0.58951239862,2591
0.589686047714,2590
0.589738459202,2592
0.590474252484,2593
0.590593681601,2594
0.591005961405,2595
0.591104795655,2597
0.591200266185,2596
0.591364582026,2598
0.591367309287,2599
0.591439894191,2600
0.59192883156,2601
0.592288122175,2602
0.592716009785,2603
0.592766293522,2604
0.592962249748,2605
0.593802174173,2607
0.593890471431,2608
0.594258470772,2609
0.59456728128,2606
0.594735319233,2610
0.595455785325,2611
0.595688101504,2612
0.595727238662,2615
0.595754432509,2614
0.596156966793,2616
0.596429511119,2613
0.597516345177,2617
0.597747500435,2618
0.598553388101,2619
0.598922196008,2620
0.599325303505,2621
0.599528145798,2622
0.59966616078,2623
0.599699203014,2624
0.599902624856,2626
0.599908326945,2625
0.600083053738,2627
0.6002991915,2628
0.600486683393,2629
0.60059901327,2631
0.60071978296,2633
0.600818926945,2632
0.600870719584,2634
0.601116440148,2635
0.601359043257,2636
0.601425513354,2630
0.601544751693,2637
0.601616547474,2638
0.60234824116,2639
0.602449538581,2640
0.602688337258,2641
0.603055309637,2643
0.603357131047,2646
0.603580950485,2648
0.603636991057,2650
0.603685539245,2647
0.60390617838,2651
0.604160959876,2653
0.604226272109,2654
0.604229875279,2642
0.60439122982,2644
0.604523559992,2645
0.60457292289,2655
0.604946264271,2657
0.605064648033,2656
0.605146188298,2658
0.605430109211,2660
0.605650005399,2659
0.605713850214,2662
0.605754563686,2649
0.605917569641,2663
0.606190367097,2664
0.607070629645,2666
0.607127729047,2668
0.607156862206,2667
0.607191772167,2669
0.607479738927,2652
0.60777471131,2670
0.60809494099,2661
0.608157161523,2665
0.609064099645,2671
0.60909506244,2672
0.609584529558,2673
0.609683952684,2674
0.61042009609,2675
0.610696173274,2676
0.610919950603,2677
0.611381511429,2678
0.611421708086,2679
0.611844014075,2681
0.611851082571,2680
0.612004226959,2682
0.612313879561,2683
0.612430620844,2684
0.613038168255,2685
0.613637651826,2686
0.613856752065,2687
0.613980659506,2688
0.614276672364,2689
0.615389609666,2692
0.615466348267,2691
0.615561147644,2690
0.615643534337,2693
0.61565005743,2695
0.615660763476,2696
0.615917033006,2697
0.616116086255,2698
0.61645022001,2699
0.616519232962,2700
0.6166129388,2701
0.616748551639,2703
0.61698709421,2704
0.616999914521,2702
0.617001843368,2705
0.617042975386,2706
0.617225029407,2708
0.617240343193,2709
0.617312602331,2710
0.617380875368,2711
0.617885556545,2714
0.617906205663,2712
0.617983679828,2713
0.618008067103,2694
0.618033895389,2715
0.618516672885,2716
0.618940204682,2719
0.619111510381,2707
0.619200001402,2717
0.619241727718,2720
0.619259312302,2718
0.619564516735,2721
0.619662195605,2723
0.61983186233,2724
0.620205615851,2726
0.620245834264,2722
0.620352561168,2727
0.620388354241,2725
0.620740021392,2729
0.62104800531,2728
0.621119855078,2730
0.621377524268,2732
0.621744683236,2731
0.621792409386,2733
0.62232099618,2735
0.622499672344,2737
0.622502792318,2734
0.62295264856,2739
0.623053832488,2742
0.62324334985,2736
0.62324575623,2743
0.623476083469,2744
0.6236468642,2746
0.623674371098,2747
0.623885449352,2741
0.623899763921,2748
0.623972171466,2749
0.624458328288,2751
0.624577814601,2752
0.624854708378,2753
0.624997646841,2755
0.62549801753,2758
0.625715637951,2756
0.626007599169,2759
0.626065108723,2760
0.62614777352,2761
0.626545077757,2762
0.626547604136,2754
0.626824018162,2738
0.626883391555,2763
0.627077297962,2764
0.627274255443,2765
0.627435751842,2767
0.627965575984,2768
0.628473253941,2770
0.628493929005,2771
0.628601758485,2745
0.628718379901,2757
0.628843680272,2772
0.628918817934,2773
0.628961207073,2774
0.62901677223,2769
0.629141948621,2750
0.629414372585,2766
0.62973846232,2776
0.629800365806,2775
0.630012485101,2777
0.630725917982,2778
0.631162748366,2781
0.631326566689,2780
0.631390754762,2740
0.63139321657,2782
0.631393758037,2779
0.631441334972,2783
0.632156419155,2786
0.632219066678,2784
0.632374381762,2785
0.633067615129,2787
0.633084533134,2788
0.633218383659,2789
0.634233223165,2790
0.634277738182,2791
0.634475009637,2793
0.634576524484,2794
0.634740001454,2795
0.634839018796,2797
0.63552547966,2801
0.635528486035,2800
0.635590090006,2802
0.635597814356,2803
0.636075227994,2804
0.63625413579,2805
0.636383828345,2806
0.636530205094,2798
0.636692021356,2799
0.636873827972,2807
0.637194775057,2796
0.637337291539,2792
0.638088458126,2808
0.638519750057,2809
0.639130462441,2811
0.63950150333,2813
0.639531341572,2814
0.639556937125,2812
0.639861126332,2815
0.640084812534,2816
0.640272086835,2818
0.640284431484,2819
0.640447874968,2820
0.64073584017,2822
0.64096445643,2821
0.641176920809,2825
0.641638795726,2824
0.642259215266,2827
0.642448327705,2828
0.642568456302,2829
0.642598710054,2823
0.643167366653,2836
0.643835431631,2837
0.643882242218,2838
0.643908097152,2839
0.644461180857,2840
0.644633794221,2833
0.644741721089,2842
0.644882012895,2843
0.645249461607,2844
0.645330662597,2845
0.645380457612,2810
0.645586144094,2830
0.645603390804,2846
0.645651396292,2826
0.645848806191,2847
0.645881632943,2848
0.646612995755,2851
0.646729478934,2852
0.646941093817,2853
0.647121190007,2831
0.647353320594,2854
0.647470153382,2855
0.64774021686,2856
0.647793882684,2857
0.648034310244,2835
0.648179075834,2841
0.648275561782,2860
0.648381091102,2858
0.648583370469,2861
0.648857034509,2849
0.648857280757,2832
0.648952251984,2834
0.648967407924,2863
0.649440694213,2862
0.649862675655,2867
0.650534515703,2865
0.65066041192,2864
0.650875791166,2850
0.650973506571,2870
0.651220643396,2872
0.651266275294,2866
0.651870193727,2859
0.651889480736,2869
0.652085286672,2868
0.652093775545,2817
0.652153349821,2873
0.652576887722,2874
0.652622859864,2871
0.653015848268,2876
0.653062539852,2877
0.653125257563,2875
0.653202156549,2879
0.653362474527,2880
0.653391495257,2881
0.653803321279,2885
0.653847587119,2883
0.654431217695,2888
0.654823346402,2887
0.655012843078,2891
0.655294609868,2892
0.655387033289,2882
0.655472509016,2889
0.655555914874,2893
0.655630796577,2884
0.655871439581,2878
0.65599297566,2894
0.656205271494,2886
0.656219663703,2890
0.656415714575,2895
0.656922158118,2896
0.657686400259,2898
0.657705564632,2899
0.658395611258,2900
0.658459418777,2897
0.659156264784,2901
0.659240397783,2902
0.659482885078,2904
0.659995223941,2905
0.660299182727,2903
0.660804408444,2906
0.660848970746,2907
0.660956400626,2910
0.66101289752,2911
0.661070933242,2908
0.661225571177,2909
0.661446227954,2914
0.661652044195,2912
0.661841103402,2915
0.661843503382,2913
0.661903967866,2916
0.662350815198,2917
0.662498584439,2918
0.662602920259,2919
0.662654610546,2920
0.663075503949,2921
0.663502411828,2923
0.663902127583,2922
0.664040699123,2926
0.664063814184,2927
0.664219964998,2925
0.66454419394,2928
0.664836004663,2929
0.664895069014,2930
0.664995507405,2931
0.665196851021,2932
0.665228267943,2934
0.665745954887,2936
0.665857416302,2937
0.666234634487,2938
0.666299532392,2933
0.666325728629,2939
0.666398626777,2940
0.666502115407,2924
0.666502838601,2941
0.666600167948,2942
0.666935175318,2943
0.66698533214,2944
0.66710389668,2945
0.667120425453,2935
0.667124637226,2946
0.667609947662,2947
0.667652360851,2948
0.667687117476,2949
0.667715234567,2950
0.667826611178,2951
0.668156329339,2952
0.66854920109,2953
0.668807715456,2954
0.669015250933,2955
0.669357245043,2956
0.669614102522,2957
0.670069898862,2958
0.670488733323,2959
0.670492379989,2960
0.670662281085,2961
0.670901249389,2962
0.670931928213,2963
0.671151423895,2965
0.671493167038,2967
0.671662931858,2966
0.671958158877,2964
0.672233071482,2970
0.67294259589,2969
0.673004795658,2973
0.6732205428,2971
0.673568533718,2975
0.673641914732,2976
0.673787043001,2977
0.673862911458,2968
0.673974005329,2978
0.674641787479,2972
0.674775224682,2980
0.674789215392,2974
0.674952287605,2979
0.675226247163,2982
0.67559859416,2984
0.675693018575,2983
0.67602418284,2985
0.676141153232,2986
0.676202925981,2981
0.676497226041,2987
0.677666345935,2989
0.67778758719,2990
0.677884190871,2991
0.678462872509,2993
0.678488586516,2988
0.678608318212,2994
0.678763354645,2996
0.679139599489,2997
0.679184929864,2999
0.680216900584,2992
0.681073829935,2998
0.681309151548,2995
