time,IdealSim1.flowGenerator3.flowSynId:vector
0.000016323164,0
0.000475432005,2
0.000807350673,4
0.000991309965,5
0.001473588008,3
0.001667626462,6
0.001946624836,8
0.002074304379,9
0.002158544085,10
0.002260063762,11
0.002290783701,12
0.002350303551,13
0.002622342506,14
0.002877821647,16
0.003048143252,15
0.003125384538,18
0.003416504035,20
0.003628903646,21
0.004214502888,23
0.004334862891,19
0.004361982859,22
0.004445502819,24
0.004491222752,25
0.004802982382,27
0.004996182007,28
0.005077181936,29
0.005379101433,17
0.00558862102,30
0.00577282085,32
0.006026620349,26
0.006050383547,1
0.006205783013,33
0.006401862376,34
0.006540341907,35
0.006648101518,36
0.006868780651,31
0.00712269881,38
0.007564898802,39
0.008285737143,44
0.008323537148,7
0.00839862933,45
0.008489949328,47
0.008638629201,41
0.008758562427,40
0.008985962309,46
0.009079802289,52
0.009193802214,54
0.009237722202,55
0.00938160207,43
0.009560162045,56
0.009568442039,37
0.009609842033,57
0.009948961986,60
0.010227121852,61
0.010236601853,62
0.010442161857,59
0.01066416185,65
0.010687801853,51
0.010800484942,63
0.010918084872,66
0.010953364864,53
0.010977364863,49
0.011024524858,67
0.01109880486,48
0.011372524315,50
0.011546403998,69
0.011680206947,68
0.011793966898,70
0.011813406873,58
0.011897046584,71
0.012302045743,42
0.012321485714,72
0.012658083739,64
0.012717414907,73
0.013748878899,75
0.013769518778,76
0.013801918561,74
0.013810098189,77
0.013966553659,78
0.014153153777,79
0.015429743132,81
0.015647782083,83
0.015703341929,84
0.01573226186,82
0.016209017978,85
0.016572974996,80
0.017439151221,87
0.017499510769,86
0.01752266021,88
0.017713595675,89
0.017786347512,90
0.017913984085,91
0.018418758299,93
0.018521957509,94
0.018750795653,92
0.019007808636,96
0.019179407263,97
0.019252606709,98
0.019300246363,95
0.019958819609,99
0.02031775587,100
0.020497390765,101
0.020994258371,102
0.02144975984,103
0.021577178456,104
0.022078715411,106
0.02214735489,105
0.022510981633,107
0.022679509921,108
0.022806622061,109
0.022850044942,110
0.022870377505,111
0.02318170979,112
0.023258972011,113
0.023363725401,114
0.023908059802,116
0.024122498066,115
0.025042779325,117
0.025767048821,118
0.026493585961,119
0.026651797801,120
0.027025672757,121
0.027299297633,122
0.027937680578,124
0.028126679102,125
0.028273437965,126
0.028295037836,123
0.028315080016,127
0.029043756869,128
0.029260754265,129
0.029263705485,130
0.029418954259,131
0.029564435567,132
0.029609023558,133
0.029941886152,134
0.030104008101,135
0.031216636078,136
0.031493784966,137
0.031791106234,138
0.032259592268,141
0.032474391425,139
0.032706640202,140
0.032729307722,142
0.032822574366,143
0.033002537213,144
0.033387478589,147
0.033502798209,148
0.033636117706,146
0.033651117632,145
0.033905291647,149
0.034494579079,150
0.034895819027,151
0.034914967527,153
0.035213645143,154
0.035238365091,155
0.035550243548,156
0.035572323415,152
0.035713457238,157
0.035800729701,159
0.035835289464,158
0.036248855354,161
0.036341734631,160
0.036638299668,162
0.036665565187,163
0.036811661215,164
0.036941813134,165
0.037101314353,166
0.037340610764,167
0.037544944689,168
0.037702966328,169
0.03862749548,171
0.038779174267,170
0.03879130894,172
0.039184983773,175
0.039505862877,173
0.039560568303,176
0.040077524046,174
0.040241400673,177
0.040359189078,179
0.04036362906,178
0.040468706986,180
0.040703370177,181
0.04131309122,183
0.041560049255,184
0.041862566812,185
0.042012205616,182
0.042591497622,186
0.043202459699,188
0.043256579329,189
0.04331249893,190
0.043547937504,187
0.043626209151,191
0.044391548654,194
0.044440388503,193
0.044493068115,192
0.044603997414,195
0.044953563792,196
0.045134328041,197
0.045196403379,198
0.045657300417,199
0.046446655793,200
0.0468002727,201
0.046988762297,202
0.047015336709,203
0.047529397009,204
0.047713896147,205
0.047754753693,206
0.048071987167,207
0.048759149958,210
0.048841949665,208
0.048858560788,211
0.048906272498,209
0.048950278148,212
0.049009253972,213
0.049630876421,214
0.049874837688,215
0.05008437212,216
0.050224048664,217
0.050677806979,219
0.05086368549,220
0.050941924934,221
0.05144736078,222
0.052233835228,223
0.052738071629,225
0.053374789028,218
0.053587080495,224
0.053678585019,226
0.053783138622,227
0.054348090395,228
0.054563584479,229
0.054697700346,230
0.054976304213,231
0.055394567186,232
0.055496048186,233
0.056056613862,235
0.056628049806,234
0.056644801423,236
0.056681415885,237
0.056851321645,238
0.057005108353,239
0.057092466551,240
0.057277440982,241
0.05738923253,242
0.057663934686,243
0.057737718299,244
0.057807966917,245
0.058431973975,246
0.058477665385,247
0.058650685158,249
0.058931722867,248
0.059090032162,250
0.059157351002,251
0.059234015648,252
0.059445645646,255
0.059463045631,256
0.059546445356,257
0.059591565246,258
0.059633805127,259
0.0597728846,254
0.059828084351,260
0.059850644309,261
0.060377800275,253
0.060391995623,263
0.060751752764,264
0.060792792502,265
0.060958031176,266
0.061263310268,269
0.061268350271,270
0.061467070207,262
0.061590486098,267
0.061608006077,268
0.06165456574,271
0.062083204255,272
0.062355990105,273
0.062408982783,274
0.06342875275,275
0.063710311305,279
0.06376335128,277
0.063815551238,280
0.063934230796,278
0.06402975009,281
0.06405398994,276
0.06406245825,282
0.064104558567,283
0.064157921589,284
0.064624288175,285
0.065037269476,286
0.065383599074,288
0.065705796502,290
0.065735076433,287
0.066174153538,292
0.066242913303,291
0.066373232269,289
0.066560905185,293
0.066619014436,295
0.066708053746,294
0.067011426815,296
0.067111255017,297
0.067240605126,298
0.067519458479,299
0.067523785645,300
0.067546253841,301
0.067562688077,303
0.068201674392,304
0.068283753779,305
0.068372073095,302
0.068393926811,306
0.068596038501,307
0.06914867935,308
0.069160437249,309
0.069567100278,311
0.069589660154,312
0.069738579722,314
0.069775779619,310
0.069821142592,315
0.07006990161,317
0.07027186108,320
0.070710820194,319
0.070748740148,321
0.070834180075,322
0.070948660048,323
0.071060023038,324
0.071202342929,318
0.071362665979,313
0.071576025551,328
0.072319905133,326
0.072407868174,329
0.072590264951,316
0.072778427416,327
0.07289098653,330
0.073689100336,331
0.073723060109,332
0.073837059211,325
0.073857981004,333
0.073966075832,334
0.074206687772,335
0.074504595583,336
0.074740924526,337
0.074774038082,338
0.074901484785,339
0.07520997671,340
0.075375592621,341
0.075860385501,343
0.075960824776,345
0.075979904748,344
0.076269102421,346
0.076314822142,347
0.076368221826,348
0.076489540882,349
0.076750779725,350
0.076982379361,352
0.077159738735,353
0.077257298405,354
0.077595577055,355
0.077597137054,356
0.077933139645,351
0.078081339077,357
0.078193058227,358
0.078411576458,342
0.078904302192,359
0.079001111973,360
0.079058566873,361
0.079319887218,362
0.079468532163,363
0.079848161709,364
0.08004178969,365
0.080536201391,366
0.080984308602,367
0.081021149167,368
0.081141708742,369
0.08198150552,370
0.082241734216,371
0.082321805357,372
0.082841287771,374
0.083071446011,375
0.083097845843,373
0.083203747916,376
0.083334683512,379
0.083649202278,380
0.08372600201,377
0.084049347144,378
0.084289370089,381
0.084463878254,382
0.084593219817,383
0.08470461942,384
0.084841693048,385
0.085394933144,389
0.08556393456,386
0.085744897405,392
0.085759881877,387
0.085807540573,391
0.086351981609,393
0.086467781178,388
0.086572170781,394
0.086640810261,390
0.086864117794,395
0.08712298871,396
0.08778849208,397
0.088080692979,399
0.088488569632,398
0.088817306887,402
0.088953026392,403
0.089768183281,405
0.089775983267,400
0.089812706376,401
0.090241223914,406
0.090256011113,408
0.090371930711,409
0.090478490387,410
0.090497450359,404
0.090652969123,411
0.090865247563,412
0.090929207082,407
0.091305204948,413
0.091442828109,414
0.091697013471,415
0.092720709665,416
0.092828398293,417
0.093286994834,418
0.093310972114,419
0.09358049276,420
0.094244702548,421
0.09470551764,423
0.094903156054,424
0.094939635829,425
0.095058194898,426
0.095109914519,422
0.095154393231,427
0.095170968023,428
0.095258879665,430
0.095311199281,429
0.09570797923,431
0.095766519065,432
0.096130192768,433
0.096952234117,437
0.096971554091,438
0.097366474028,439
0.097368154029,440
0.097444234028,436
0.097772192718,441
0.097869392399,442
0.097930952267,443
0.098096791629,434
0.098237193764,444
0.098283753428,435
0.09902086479,446
0.099042534877,447
0.099101627508,445
0.099351772138,448
0.099363151268,449
0.099463093113,451
0.099942369284,452
0.100131848116,450
0.10048580301,453
0.100939330683,455
0.101235608266,454
0.101524658577,456
0.101742380124,457
0.102765918554,460
0.102994877652,458
0.103044473607,461
0.103646388643,459
0.104040468671,462
0.104370140602,463
0.104493793796,465
0.10455715332,464
0.104585085407,466
0.104642628708,467
0.104855908003,468
0.105143879344,470
0.105239278622,471
0.105278038351,472
0.105797514074,469
0.105974799979,474
0.106182998315,475
0.106195718313,476
0.106299757544,477
0.106655436114,478
0.106752875461,480
0.10685955509,481
0.106951714758,473
0.107522952904,479
0.10758773124,483
0.107758129872,482
0.107799431041,484
0.108141952111,485
0.108181020763,486
0.108326951612,487
0.108734773033,489
0.108815652474,488
0.108837765916,490
0.10906980379,491
0.109310051322,492
0.110208006716,493
0.110446142212,494
0.110506564802,495
0.11063052424,496
0.1109242376,497
0.111590212219,499
0.111702771333,500
0.111818330959,498
0.112274258389,504
0.112408898348,505
0.112506578323,501
0.112607017956,503
0.112727977137,507
0.112896936721,508
0.113017896278,509
0.113213375859,511
0.11356137574,512
0.113575295738,513
0.113841695714,510
0.114414333482,515
0.114474093437,516
0.114491253414,502
0.114496416607,514
0.114611019526,518
0.114693699233,517
0.114873198502,519
0.11505802123,521
0.115079861191,506
0.115087788015,520
0.115366618209,523
0.115651615886,522
0.115925737265,524
0.116340172853,525
0.11635903807,529
0.116423718047,526
0.116460681176,530
0.116743760073,531
0.117040159653,532
0.117070999577,528
0.117130999129,527
0.117355546675,533
0.117371029846,534
0.118299358626,535
0.118331190844,536
0.118570948241,537
0.118739875476,538
0.118884128638,539
0.119378538392,540
0.119402142865,541
0.119438873372,542
0.119623610356,543
0.119950125238,544
0.119976405567,545
0.120026244885,546
0.120187706643,547
0.120820650555,549
0.120967649931,550
0.12135332724,552
0.121390887135,551
0.121442246777,553
0.121649725137,554
0.121783524074,548
0.122666911249,555
0.12281506868,556
0.124020389634,557
0.124280684505,558
0.124521958718,559
0.125759799882,560
0.12641362231,564
0.126567641336,563
0.126682600965,566
0.12668572096,565
0.126837763576,562
0.126934300555,561
0.127364428646,567
0.127441272888,568
0.127877960819,569
0.128381388537,571
0.128383548534,572
0.128515428352,570
0.128661711027,575
0.128702034225,576
0.128763474024,577
0.128816517222,579
0.128847230775,574
0.128963510419,580
0.1290284302,578
0.129066229937,573
0.129460182828,581
0.129669389457,582
0.129930255352,583
0.130003430538,584
0.130162675514,585
0.13046384414,586
0.130658938954,588
0.130798017847,587
0.130847222902,589
0.130857787536,590
0.131064230646,591
0.13119745058,592
0.131377648797,594
0.131402368642,593
0.131509660365,595
0.131546789158,597
0.131581108934,598
0.132092784741,599
0.132918859073,603
0.133406898548,607
0.133431618537,606
0.133543698535,605
0.133597098533,608
0.133615218533,604
0.133631538527,600
0.133968378504,596
0.134012061571,601
0.134060061223,602
0.13424863341,609
0.134370396235,610
0.134509997916,612
0.134812275494,613
0.134896874857,614
0.1349218347,611
0.134989397562,616
0.13541983567,615
0.13544429408,618
0.135490373747,617
0.135926007039,619
0.136539920737,620
0.136588625419,621
0.136674483298,623
0.137060040136,622
0.137099704411,624
0.137878460988,625
0.137937057459,626
0.138192906902,627
0.138728970191,628
0.138892459474,629
0.138978274808,630
0.139083732715,631
0.139318526317,633
0.139333526244,632
0.140052795119,634
0.140750006414,635
0.141207932419,636
0.141544943888,637
0.141706879091,639
0.141834798077,638
0.141988883124,640
0.141996508291,641
0.142157217326,642
0.142214672984,643
0.14222070905,644
0.142874063425,645
0.143035838259,646
0.143323655445,648
0.143716893489,649
0.143768853108,647
0.143875352803,651
0.143878352791,650
0.144184989832,652
0.14425243131,653
0.144384464077,654
0.144488952713,655
0.144745156743,656
0.144780419533,657
0.144991483533,658
0.145043378815,659
0.145152157698,660
0.145286747793,663
0.145517026886,662
0.145667865696,664
0.145688505579,665
0.146035422791,666
0.146603020039,670
0.146929872279,669
0.147084552256,668
0.147225074942,667
0.147234698813,671
0.147444100392,672
0.147498940018,673
0.147729098755,675
0.148026937566,661
0.148149442694,674
0.148435749022,677
0.148540028268,678
0.148597267842,676
0.148603703843,679
0.149001082455,681
0.149042242354,683
0.149408480881,680
0.149726010914,685
0.150050969746,684
0.15005384974,687
0.150290178339,682
0.150446537093,688
0.15046513699,686
0.150712482679,689
0.15100205514,690
0.151287968349,691
0.15161180348,692
0.151746325659,693
0.151928609159,694
0.152394591908,695
0.153040890427,696
0.153082121378,697
0.153800832311,698
0.154030114057,699
0.154307663037,700
0.154525001894,703
0.154645361444,702
0.154762360538,704
0.155264076409,701
0.155366865291,705
0.155390416165,706
0.155821756127,707
0.155862985801,708
0.156257167008,710
0.156310206618,709
0.157097872082,711
0.157210123752,713
0.157366842497,712
0.157419869056,714
0.157595333693,715
0.157892178179,716
0.158380384872,717
0.158953297506,719
0.159025296979,720
0.159314495586,722
0.159482614978,723
0.15991893437,725
0.160168294279,726
0.160245814218,727
0.160738054016,730
0.160852894015,731
0.161379337212,724
0.161578900407,734
0.16214355701,721
0.162238717008,735
0.162254197008,736
0.162964117006,738
0.163220797005,739
0.163268317004,740
0.163443277007,737
0.163549477002,742
0.163620037,743
0.163869757,744
0.164487036999,745
0.165139716933,748
0.165268431116,749
0.165387471009,729
0.165506990964,750
0.165547910932,746
0.165789590898,755
0.166184750905,741
0.166396670898,754
0.166500350899,751
0.166607150852,757
0.16676735071,758
0.166913990576,756
0.167124590563,753
0.167290910521,760
0.167422430426,761
0.167521190414,728
0.167762806376,763
0.167790046355,762
0.167900446296,765
0.168022126277,766
0.168080393476,752
0.168677513477,718
0.168783353474,767
0.168817193478,747
0.168817673474,759
0.169074953457,768
0.169097513417,769
0.169238753375,770
0.169454392968,771
0.170084512379,774
0.170099331328,775
0.170171211327,776
0.170274291331,772
0.170451115572,778
0.170816995567,779
0.171147595567,780
0.171678595544,783
0.171884155531,781
0.172008595528,784
0.172226275528,785
0.172264795528,777
0.172449115528,782
0.172597675247,786
0.172675195127,787
0.172727395046,733
0.172785598245,773
0.172866481157,732
0.172948560651,788
0.172984560406,789
0.173096759873,791
0.173159639708,792
0.173558878097,790
0.173636757549,793
0.174093356758,794
0.174163076533,795
0.174176996527,796
0.17421347972,798
0.174290279471,799
0.174361919224,764
0.174862198104,801
0.174915851443,803
0.174979931417,804
0.175200731299,805
0.175281851274,797
0.175288451276,802
0.175454095229,807
0.175477255185,806
0.175646772494,808
0.175725011924,809
0.175880890676,800
0.176193876295,811
0.176707832064,810
0.176728077271,812
0.177084303645,813
0.177133441387,814
0.177547313542,816
0.177596153187,815
0.177725191891,817
0.17780767324,818
0.178181157697,819
0.178329497131,820
0.178537613172,821
0.180037616746,822
0.180038712553,823
0.180486853353,824
0.180638190397,825
0.180888195803,826
0.180926227497,827
0.181084280501,830
0.181152440269,828
0.181221251747,829
0.18145418594,833
0.181578505528,834
0.181896144256,832
0.182014703319,831
0.182396819151,837
0.182562658922,838
0.182595538838,835
0.18263238619,836
0.182876766377,839
0.182889486299,840
0.183182120897,842
0.183213440687,841
0.183754078286,843
0.183787341448,844
0.184005530713,845
0.184833038264,846
0.185572715947,847
0.185637177588,848
0.185840651716,849
0.185924268534,850
0.18593656831,851
0.186163725951,852
0.186968931376,854
0.187498608376,853
0.18756445591,856
0.187587855799,857
0.187915934096,858
0.188929447759,859
0.189441123546,855
0.190209382448,860
0.190544765227,862
0.190870682679,863
0.19106928112,864
0.19123896027,865
0.191948274455,866
0.191962554388,861
0.192584473588,867
0.192803845288,868
0.192920512448,870
0.193501670905,871
0.194231989402,872
0.194855506857,874
0.195191626137,875
0.195672224906,877
0.195892904877,878
0.195929667817,876
0.196197071413,879
0.196612390082,880
0.19674702973,882
0.196929309705,881
0.19712298922,883
0.197189109091,884
0.197265788824,869
0.197272748801,885
0.197440150701,886
0.197703908575,887
0.198339427642,889
0.198397267601,873
0.1986713261,893
0.199010445948,896
0.199101832215,897
0.199154152214,898
0.199243072214,892
0.19943471221,900
0.199442392209,895
0.199554832203,899
0.2001171522,902
0.200390632204,891
0.200506672201,903
0.2005958322,905
0.200600632202,890
0.200686915398,888
0.20081243836,901
0.201159961557,894
0.201790920082,904
0.201944070923,908
0.202124399697,911
0.202329153391,910
0.20235371927,909
0.202477198807,907
0.202577158609,914
0.202740971117,915
0.20334180166,916
0.203603641294,917
0.203616225583,918
0.203901484467,912
0.204271326245,919
0.20446680549,920
0.205430524056,924
0.205693684056,922
0.205947964054,926
0.206215684055,921
0.206639097105,929
0.206642097108,906
0.206682297107,927
0.206921099833,923
0.206946486332,930
0.206964726309,925
0.207194888621,928
0.20753112589,931
0.208166160649,913
0.20902770015,934
0.209098980035,936
0.209112621432,937
0.209331173543,938
0.20963930114,935
0.209719247144,941
0.209757242477,942
0.210020642185,944
0.210021362185,939
0.210123961995,945
0.210231361859,946
0.21076656079,947
0.211391400047,950
0.211560960053,940
0.212025963245,951
0.212130963248,932
0.212252283244,953
0.212336283248,943
0.212553126445,952
0.212646006442,955
0.2127283263,949
0.212979366272,956
0.213639726247,954
0.213683766115,948
0.213897844388,957
0.213917047557,958
0.214453923134,933
0.215388367699,959
0.215394466537,960
0.216002330815,964
0.216217099302,965
0.216321259277,962
0.216396019018,961
0.216533058174,967
0.216633617807,966
0.216668417611,968
0.216693257455,963
0.216956995222,970
0.217144553795,972
0.217145153796,971
0.217265392893,969
0.217346091824,973
0.217505757858,974
0.217774988802,976
0.217957267347,977
0.218097426231,975
0.218360352885,978
0.218738841449,980
0.218858720502,979
0.219316074781,981
0.219851474273,983
0.219854714273,984
0.220327273635,982
0.220400752036,985
0.220470882149,986
0.220839571203,988
0.221105249044,989
0.221372247528,987
0.221553400839,993
0.221930080295,995
0.222435282775,998
0.222610482774,999
0.222647442775,997
0.222700842774,1000
0.222793962773,1001
0.222825762774,991
0.22289212586,994
0.223057242619,1002
0.223115082567,1003
0.22320712252,1004
0.223280082488,1005
0.223343322465,990
0.223646564451,992
0.223763326778,996
0.223863454283,1006
0.22457862482,1007
0.224889418194,1008
0.225457414479,1009
0.225709957556,1010
0.227059374977,1013
0.227175294561,1014
0.227343173914,1012
0.227501932642,1011
0.22751657582,1015
0.227805987486,1017
0.227816547466,1018
0.227857110404,1016
0.228473834113,1020
0.228490514026,1019
0.228580396226,1021
0.228649226758,1022
0.229074112164,1023
0.229199057684,1024
0.229251043319,1025
0.229428342003,1026
0.229816671334,1027
0.229947649715,1029
0.229992889389,1028
0.230131691831,1030
0.230695745138,1031
0.230845200316,1032
0.230966008933,1033
0.231255008118,1034
0.231302217541,1035
0.232033223711,1036
0.232665297377,1037
0.233069307412,1039
0.233227706828,1041
0.233364506497,1042
0.233382386484,1043
0.233521706233,1045
0.233550266208,1040
0.233964746042,1048
0.234291628927,1049
0.234330721698,1050
0.234387241693,1052
0.234463201697,1047
0.234728401169,1051
0.234771841131,1053
0.234963121103,1054
0.234997921075,1055
0.235109041052,1046
0.235201923974,1056
0.235355163817,1059
0.235356243818,1058
0.235997403479,1061
0.236262602964,1062
0.236530322434,1057
0.237398045474,1065
0.237540230538,1067
0.237639230527,1069
0.237730190504,1044
0.237947033695,1073
0.238012193692,1070
0.238052273691,1074
0.238096193658,1076
0.23811227366,1075
0.23814803683,1071
0.238205516798,1078
0.238380716636,1072
0.238399556618,1066
0.239159516618,1068
0.239461316619,1080
0.239548316616,1081
0.239762636582,1084
0.239782196576,1079
0.239803556565,1083
0.239905316563,1085
0.239961116562,1086
0.24037271656,1087
0.240385196561,1082
0.24054335656,1088
0.240940436559,1089
0.241043396562,1063
0.241107116453,1090
0.241428835813,1091
0.241556275576,1060
0.241574395551,1038
0.241890835471,1093
0.241898035471,1094
0.241938598647,1064
0.242006761766,1092
0.242070841731,1097
0.242161321691,1098
0.242315761622,1099
0.242399641571,1100
0.242513761416,1102
0.242584561297,1101
0.24261024127,1103
0.243300121193,1105
0.243674122641,1106
0.243799162639,1108
0.243799282644,1104
0.24420092503,1077
0.244211845013,1109
0.24440444497,1110
0.244436724944,1111
0.244593324869,1112
0.244875684511,1107
0.244978767708,1113
0.245464646525,1114
0.2461180453,1116
0.246224845248,1117
0.246285805217,1118
0.246382045159,1119
0.246469165133,1120
0.246621444946,1122
0.246703404803,1115
0.247184367755,1096
0.247454007554,1126
0.247474407555,1125
0.247621611464,1121
0.248167374228,1128
0.248331414219,1130
0.248334930221,1129
0.248418693417,1132
0.248423811021,1124
0.248514210188,1133
0.248658213114,1131
0.248920853676,1135
0.24920969361,1138
0.249211133611,1136
0.249436373609,1139
0.24956957361,1095
0.249791816368,1123
0.249876296345,1137
0.24991841951,1140
0.250045139069,1141
0.250407178781,1143
0.250561498757,1134
0.250838101448,1145
0.250951621289,1147
0.251050933808,1146
0.251113714154,1142
0.251219434131,1148
0.25138083673,1144
0.251449859976,1127
0.252596029709,1150
0.252636109443,1151
0.252652189361,1149
0.252816116933,1152
0.253146634037,1153
0.253294476733,1154
0.253715988349,1156
0.253799627703,1155
0.253839329572,1157
0.253916196649,1158
0.253944569225,1159
0.254192551847,1161
0.254491229409,1160
0.2545226301,1162
0.254835393537,1163
0.254987883629,1165
0.255090122828,1164
0.255135761657,1166
0.255222956595,1167
0.255809740114,1168
0.256706592199,1169
0.256762762621,1170
0.257536851688,1171
0.257923257619,1172
0.258328516083,1173
0.258581637096,1174
0.258778232207,1175
0.258846287883,1176
0.259259372897,1179
0.259379612447,1178
0.259397132353,1177
0.259411021407,1180
0.259919495453,1182
0.260487690772,1183
0.260831008925,1184
0.260888848494,1181
0.260987060482,1185
0.261012802158,1186
0.262111980057,1187
0.262395701482,1188
0.262483610339,1189
0.263255666334,1190
0.263454119962,1191
0.264081667297,1192
0.26434804739,1193
0.264596321454,1194
0.264810171918,1195
0.264869462978,1196
0.26507087876,1197
0.265658698332,1198
0.266040539199,1200
0.266129339069,1204
0.266169659013,1201
0.266325178988,1203
0.266365738882,1205
0.266486338431,1202
0.266602257516,1199
0.267130805938,1206
0.267292596256,1207
0.267419885259,1208
0.267561564223,1209
0.267857297321,1211
0.267866141044,1213
0.268018816828,1214
0.268041976783,1212
0.268305614637,1210
0.268506358969,1215
0.268654380484,1216
0.268953882538,1217
0.269480895514,1219
0.269560934936,1220
0.269646374276,1218
0.27010151475,1221
0.270709573055,1223
0.27099229075,1222
0.271196646663,1224
0.272204395623,1225
0.272432008785,1226
0.272568923595,1227
0.272656532636,1228
0.272686021237,1229
0.273470824636,1231
0.273507664388,1232
0.27382734181,1233
0.273852661663,1234
0.274865576685,1230
0.27494010145,1236
0.275000101058,1237
0.275016061018,1238
0.275094300418,1235
0.275191850763,1239
0.275289034371,1240
0.275463250149,1241
0.276062760726,1242
0.276407327406,1243
0.276628857348,1244
0.276640460812,1245
0.27726038363,1247
0.277278263532,1246
0.27777316901,1248
0.27794645088,1250
0.278185850011,1252
0.278464248903,1249
0.278592416589,1251
0.279517801043,1253
0.279524337441,1256
0.279590337235,1257
0.279627297215,1254
0.279640740427,1258
0.279850979275,1260
0.280191777908,1261
0.280281657663,1263
0.28038605745,1265
0.280549977182,1266
0.280684856955,1262
0.280770900091,1269
0.280804020093,1270
0.281595059988,1268
0.281661059963,1274
0.281889179952,1259
0.281921699954,1255
0.282030419954,1271
0.282075299937,1275
0.282111899928,1276
0.282204419763,1273
0.282227342957,1277
0.282308822911,1278
0.282385142871,1279
0.282522062845,1272
0.28288614138,1267
0.282913744453,1280
0.282914344451,1264
0.282999908049,1281
0.284004045496,1284
0.284494603504,1282
0.284517398992,1283
0.284705143261,1286
0.284719543192,1285
0.28506266534,1287
0.285332014557,1288
0.285435099966,1289
0.28570516131,1290
0.285842458869,1291
0.286121079796,1292
0.286213440569,1294
0.286246680343,1293
0.286689289968,1295
0.286799708496,1296
0.287099572488,1298
0.28711121244,1297
0.287174533384,1299
0.287217175149,1300
0.287353892988,1302
0.287901209695,1301
0.288115454361,1305
0.288253813836,1304
0.288321493323,1303
0.288386681597,1306
0.288843950462,1310
0.288872270438,1307
0.28904999297,1309
0.289460874063,1314
0.289462914066,1312
0.289688754055,1317
0.289695954058,1318
0.289722714056,1313
0.289749594055,1319
0.289776354054,1320
0.290251553235,1321
0.290268833226,1316
0.291038513093,1323
0.291146872901,1324
0.291298312633,1325
0.291430552387,1322
0.291492232361,1315
0.291551752279,1326
0.291754911543,1327
0.292555428279,1328
0.292648428051,1329
0.292806827443,1308
0.292868630228,1311
0.293050170383,1330
0.293353545873,1331
0.293446379332,1332
0.293628357827,1334
0.293708277213,1333
0.293762194978,1335
0.294473199391,1338
0.294895359163,1336
0.295503036531,1341
0.295871316506,1340
0.296098115612,1339
0.296559031908,1342
0.296868270079,1343
0.297005428987,1337
0.297056943457,1344
0.297416312473,1345
0.297509162164,1346
0.29751335149,1347
0.297733440101,1348
0.297838402856,1349
0.298536902358,1352
0.298938300788,1353
0.298939740788,1354
0.299417462051,1355
0.300220261459,1357
0.300518101316,1359
0.301097964569,1351
0.301183884566,1362
0.301215119107,1363
0.301505039111,1360
0.301758567761,1364
0.301877727542,1358
0.301881567534,1356
0.30202940695,1361
0.302177005772,1350
0.302307723267,1365
0.302511091869,1366
0.302722851786,1367
0.302739250913,1368
0.303018535418,1369
0.303591348982,1371
0.303603828929,1370
0.304055530721,1372
0.304085616888,1373
0.304280132738,1374
0.30438312067,1375
0.304530190051,1376
0.304606113814,1377
0.304928616955,1378
0.305024058641,1379
0.305060664781,1380
0.305531063187,1381
0.305761672255,1382
0.306031821368,1383
0.306397762258,1386
0.306455602145,1387
0.306588441643,1385
0.306596961614,1388
0.306815479859,1384
0.306888609931,1389
0.306900677191,1390
0.30702367901,1391
0.307077561216,1392
0.307441263045,1395
0.307891501321,1396
0.307899848821,1397
0.307951931853,1393
0.307965131794,1394
0.308372074662,1398
0.308394260882,1400
0.308396060877,1399
0.308397374188,1401
0.308518236312,1402
0.308603820138,1403
0.309096188748,1404
0.309426516733,1406
0.309461556494,1407
0.309784953893,1408
0.309803317066,1409
0.309942032736,1405
0.30999805679,1410
0.310148377987,1411
0.310502808115,1412
0.310823075219,1413
0.310988153989,1414
0.311008073221,1415
0.311703064748,1416
0.311762130713,1417
0.312303309409,1418
0.312769795194,1419
0.313016296648,1420
0.313246620869,1421
0.313408911934,1422
0.313836889051,1424
0.314245365698,1423
0.314383500308,1425
0.314980880543,1426
0.31513800442,1427
0.315365617848,1429
0.31540149764,1430
0.315470737157,1431
0.315473257147,1428
0.315632379121,1432
0.316125662331,1433
0.316188992158,1434
0.316903165984,1435
0.316973368815,1438
0.316983328816,1436
0.317354303267,1439
0.31756262162,1440
0.317566341612,1441
0.317745623963,1437
0.317825827513,1443
0.318083225581,1444
0.318172144891,1442
0.318516167297,1446
0.318630406946,1448
0.318867286011,1445
0.318967368669,1450
0.319426486852,1451
0.319614166794,1453
0.320149366765,1454
0.320258326547,1452
0.320373766521,1455
0.320459446367,1456
0.320558206007,1449
0.321664001106,1460
0.32170420105,1457
0.321996044244,1461
0.322269524206,1462
0.322295564175,1463
0.32237728415,1447
0.32272000401,1459
0.323018057626,1458
0.32310145733,1464
0.323153060216,1466
0.323160860184,1465
0.323823457098,1469
0.32388093691,1468
0.324240093969,1467
0.324347463381,1470
0.325320604558,1477
0.325326500697,1474
0.325440409222,1478
0.325677889224,1475
0.325740172418,1479
0.325781812422,1481
0.326548012419,1476
0.326601532337,1473
0.32685665231,1471
0.326858092308,1482
0.327414653238,1472
0.327432533142,1483
0.327663771288,1484
0.32780033024,1485
0.328823925058,1488
0.328890765032,1489
0.329349764706,1491
0.329821484574,1493
0.329971964576,1487
0.329981924578,1480
0.330020927775,1486
0.330100487495,1490
0.330161207079,1494
0.330264526269,1492
0.331202132348,1495
0.3314668746,1496
0.331871973041,1500
0.331885116398,1499
0.3320265357,1498
0.332114375019,1497
0.332501464184,1501
0.332584932167,1502
0.332960910455,1503
0.333372657909,1505
0.333999655348,1504
0.334056817961,1507
0.334086697763,1506
0.334226619823,1508
0.334379637229,1509
0.334512282864,1512
0.334545522777,1511
0.334765960991,1510
0.335168418375,1513
0.335474477992,1514
0.335564306097,1515
0.335667114634,1516
0.335768954418,1517
0.335822320246,1518
0.336350611484,1519
0.336456006775,1520
0.337207926928,1521
0.337219181916,1524
0.337236101913,1525
0.337287101756,1526
0.337335581738,1527
0.337540780943,1528
0.338091938699,1522
0.338190558476,1529
0.338294477661,1523
0.338323686979,1530
0.338535720144,1533
0.338573520123,1534
0.338649359859,1531
0.33867690917,1532
0.339457764925,1535
0.339733571023,1537
0.339802090503,1536
0.339829078912,1538
0.340471956454,1539
0.340714861907,1540
0.340935519984,1543
0.340988919813,1542
0.341275958338,1545
0.341365478016,1544
0.341377957963,1541
0.342003060491,1546
0.342550440383,1547
0.342769377161,1548
0.343665355689,1549
0.34393366816,1550
0.344204667663,1551
0.34426572065,1552
0.344370408963,1553
0.344833438482,1554
0.345716970518,1556
0.346010008127,1555
0.346547573754,1558
0.34679645209,1560
0.346897251722,1557
0.347080305667,1561
0.347108745481,1559
0.347645617825,1563
0.347929055537,1564
0.348188373433,1565
0.348277052745,1562
0.349522749235,1567
0.349777027494,1568
0.349820587235,1569
0.350165224444,1570
0.350371622793,1571
0.350647620859,1573
0.350961179777,1575
0.350967504961,1576
0.351008630969,1574
0.351037742937,1577
0.351138062618,1566
0.351240542243,1572
0.3514384847,1578
0.351439804528,1580
0.351464375893,1579
0.35152251459,1581
0.351657024859,1582
0.351954719996,1583
0.352265845621,1584
0.352373089638,1585
0.352499525367,1586
0.352581908467,1587
0.352786803293,1588
0.352865223344,1589
0.353332929286,1591
0.353367129071,1592
0.35349096809,1590
0.353650706411,1593
0.35373309022,1594
0.353944465155,1596
0.354077064104,1597
0.354107303904,1595
0.354331316258,1599
0.354421795555,1598
0.354793609965,1602
0.354994849524,1600
0.355096043559,1604
0.355134683474,1605
0.355158683425,1601
0.355799960497,1607
0.35595787995,1608
0.356075239512,1606
0.356078479499,1603
0.356189799631,1609
0.356521351983,1611
0.356636551092,1612
0.356975188361,1613
0.357000988197,1610
0.357402546338,1614
0.35797546432,1617
0.357983984321,1616
0.357996944299,1618
0.358015784197,1619
0.358073983764,1620
0.358135303321,1621
0.358271502237,1615
0.358427089904,1622
0.358452869021,1623
0.358795709895,1625
0.358875269308,1626
0.359155827021,1624
0.359191226878,1627
0.359457060327,1628
0.359492710031,1630
0.359666592556,1629
0.360029907381,1631
0.360704789384,1632
0.360881565017,1633
0.360943358452,1634
0.361615187506,1635
0.361875814308,1636
0.362291170008,1637
0.36249043141,1638
0.362531324731,1639
0.362666653359,1640
0.362754126952,1641
0.363041009683,1642
0.363172924209,1643
0.363362067422,1644
0.363422139401,1645
0.363498560143,1646
0.363512182326,1647
0.3637932731,1648
0.364085781184,1649
0.364146987194,1650
0.364388902745,1651
0.364425380313,1652
0.364664000099,1653
0.365208308323,1654
0.365585149589,1655
0.36608090123,1656
0.366437800172,1657
0.367523867788,1659
0.367556987563,1658
0.367810267668,1661
0.367814467651,1660
0.367930754635,1662
0.367989773187,1663
0.368212121531,1664
0.368707370013,1665
0.368785636432,1666
0.369310829994,1667
0.369439287638,1668
0.369501286479,1669
0.370072749853,1670
0.370115474229,1672
0.37018747368,1671
0.370620162753,1674
0.371050000805,1676
0.371336679699,1677
0.37148343921,1678
0.371768679015,1679
0.372074797791,1675
0.372417274997,1680
0.372548074115,1673
0.372591042897,1681
0.372907781844,1682
0.373183426418,1683
0.373475337932,1684
0.373859670978,1687
0.37418126969,1685
0.374244470434,1686
0.37438323157,1688
0.374438251456,1690
0.374445815299,1691
0.374496818174,1689
0.374963125624,1692
0.375061470275,1693
0.375188025025,1694
0.375287717282,1695
0.375403132426,1696
0.375486166781,1697
0.375574810642,1698
0.375594554991,1699
0.376167637299,1700
0.376227741754,1702
0.376389099627,1701
0.376745065703,1704
0.376880304627,1703
0.377206870461,1705
0.377448586267,1706
0.37760242381,1707
0.37763599255,1708
0.377726970779,1709
0.378377379761,1713
0.378485884138,1715
0.378578742608,1714
0.3786343058,1716
0.378770259316,1717
0.3789191121,1718
0.379000662139,1719
0.379052862045,1720
0.379097985173,1721
0.379124885711,1722
0.379472267981,1724
0.379762187769,1726
0.379776467768,1727
0.379850267769,1725
0.380272547767,1729
0.380909627768,1712
0.381001187767,1731
0.381058227947,1733
0.381077307947,1732
0.381321147946,1728
0.381339507938,1730
0.381801870356,1723
0.382004790306,1735
0.382060950278,1736
0.382084950256,1737
0.382172190097,1739
0.382321828534,1740
0.382357588493,1741
0.382377391688,1742
0.382785391532,1744
0.383123191529,1746
0.383198311528,1747
0.383508151411,1749
0.383511991407,1748
0.3835778714,1745
0.383676871398,1750
0.384021751398,1752
0.384036151401,1734
0.384184231397,1754
0.384377551303,1753
0.384480751276,1757
0.384615151261,1755
0.384755311265,1711
0.384834271263,1756
0.385218030967,1759
0.385288230969,1758
0.385551633679,1760
0.385649793504,1710
0.385779153474,1761
0.385953153448,1751
0.385957713449,1743
0.386183914875,1762
0.386187868323,1763
0.387149063613,1738
0.387361210972,1766
0.387391690897,1764
0.387604540298,1767
0.388033779535,1770
0.3880638995,1771
0.388120422645,1772
0.388134702621,1769
0.388162785753,1768
0.388244145174,1773
0.388263465066,1774
0.388367504254,1775
0.388391744103,1765
0.389353707866,1776
0.38956471122,1777
0.389674102941,1778
0.389680851193,1779
0.389855501003,1780
0.389911950742,1781
0.389983705009,1782
0.39040350502,1784
0.390487504378,1785
0.390510904331,1786
0.390547387528,1787
0.390698946999,1789
0.390756546842,1790
0.391084869869,1793
0.391216869622,1791
0.391346109516,1794
0.39137466949,1792
0.391822027678,1783
0.392301789523,1797
0.392345229469,1798
0.392571549428,1799
0.393103989386,1800
0.393213069361,1796
0.393248949319,1801
0.393365468885,1795
0.39364338662,1788
0.394293711143,1802
0.39442757314,1803
0.394526982172,1804
0.394766719943,1807
0.394940119394,1808
0.396113114558,1806
0.396151754291,1809
0.396271753343,1805
0.396280484908,1810
0.396838527296,1811
0.397811114299,1814
0.398306473586,1816
0.398397313495,1815
0.398522473468,1817
0.398610193154,1818
0.399091751199,1813
0.399369913438,1820
0.3993739042,1821
0.399435107208,1822
0.399515746923,1819
0.399670905698,1823
0.399780345135,1824
0.400435659749,1825
0.400903896546,1812
0.401296318826,1827
0.401935796596,1830
0.40197083657,1829
0.402040316332,1828
0.402352314935,1833
0.402420482793,1835
0.40257084251,1832
0.402837125677,1831
0.402864245671,1836
0.402870965672,1834
0.402900248772,1837
0.403116127024,1826
0.403220662613,1838
0.403727187463,1839
0.403833999192,1840
0.404117441877,1841
0.404321889979,1842
0.404419156886,1844
0.404461516584,1843
0.405238799532,1845
0.405912537881,1846
0.405974211324,1847
0.406102413359,1848
0.406142904312,1849
0.406166734406,1850
0.406333404892,1851
0.406760585403,1854
0.40687062527,1856
0.406875305261,1853
0.407082990641,1857
0.407221350115,1852
0.40730570948,1858
0.407370268993,1855
0.407474190967,1859
0.407662275909,1860
0.407854292013,1861
0.407884990598,1862
0.408475713657,1864
0.40856919293,1863
0.408740670037,1866
0.408838709305,1867
0.408949468482,1868
0.408986188266,1869
0.409085307492,1865
0.409492688576,1871
0.409950724814,1872
0.409991524542,1873
0.410131083453,1870
0.410197149378,1874
0.410690593529,1875
0.411131936687,1876
0.411282023888,1877
0.411567037536,1878
0.412114840842,1879
0.412209828334,1880
0.412529260107,1882
0.412892618111,1884
0.41305281751,1885
0.413127337251,1883
0.413448219163,1886
0.413911536436,1887
0.414154294464,1881
0.414192104222,1888
0.414222960285,1889
0.414453284754,1891
0.414474524628,1890
0.414878157892,1892
0.41491746904,1893
0.415072952319,1894
0.415705393922,1895
0.415841468378,1896
0.416232123671,1897
0.416669908709,1898
0.416784756258,1899
0.417214689341,1900
0.417828765811,1902
0.417904125256,1904
0.417905445257,1903
0.41814652346,1905
0.418207123007,1901
0.418258707969,1906
0.418698513047,1907
0.418906130946,1908
0.419891042368,1909
0.419940438151,1910
0.419963283805,1911
0.420231652122,1912
0.420502660404,1913
0.421930748548,1914
0.422484071882,1916
0.422606230966,1917
0.422744469952,1918
0.422795709595,1919
0.422815509481,1915
0.42309509841,1921
0.423708416821,1928
0.423727256811,1927
0.423921176814,1924
0.424024257039,1930
0.42410501704,1922
0.424523457041,1929
0.424837737039,1931
0.424902656985,1932
0.42559625559,1933
0.425964774882,1934
0.425982294874,1926
0.426536814849,1923
0.427171492928,1937
0.427186732928,1938
0.427362472899,1940
0.427638712898,1941
0.428053072895,1939
0.428095552894,1943
0.428150632897,1944
0.428196952896,1945
0.428465512894,1935
0.429079792891,1947
0.429107272889,1948
0.429476872893,1949
0.429527752888,1950
0.429589672889,1951
0.429601676087,1952
0.429878756072,1942
0.42988811606,1955
0.429907916058,1954
0.43001399606,1956
0.430212716054,1957
0.430228796055,1946
0.43028243606,1936
0.43034669273,1953
0.430428892597,1960
0.430461292558,1958
0.430568692343,1962
0.430585372338,1963
0.430797652021,1965
0.430899292019,1966
0.431051932018,1967
0.431245852017,1968
0.431257686715,1969
0.431376532016,1971
0.431402572017,1970
0.431449492017,1920
0.431733174702,1959
0.4317394147,1972
0.432241133681,1964
0.432324846767,1973
0.432442496442,1974
0.432579895963,1975
0.432847614899,1925
0.433108853509,1977
0.433768731871,1976
0.433947171557,1981
0.433960971557,1979
0.434051934736,1982
0.434356374712,1980
0.434673296708,1983
0.435228174448,1978
0.435481735635,1961
0.435596374932,1984
0.435709076955,1986
0.435745196705,1985
0.436762446003,1987
0.437696966853,1988
0.437781796399,1989
0.43845047273,1992
0.438557632389,1993
0.438638392104,1991
0.439133628528,1994
0.439307987302,1996
0.439562866292,1990
0.440180109401,1999
0.440242389376,1998
0.440537348232,2000
0.440537468234,1995
0.440761749708,2001
0.440985068699,2003
0.441248107848,2005
0.441279794708,1997
0.441473473953,2004
0.441589029832,2002
0.441671585973,2006
0.441863875558,2007
0.442185409541,2008
0.443126170409,2009
0.443286114771,2010
0.443564984983,2012
0.443576624935,2011
0.443799986852,2014
0.443837186617,2015
0.443952145711,2016
0.444037825098,2017
0.444297744031,2018
0.444550223249,2021
0.444681756194,2020
0.444941545416,2013
0.444961108584,2022
0.44498810517,2019
0.446089521002,2023
0.446198166811,2024
0.446613214397,2025
0.446757705847,2026
0.446859919847,2027
0.447101259317,2028
0.447289922755,2029
0.447750184398,2030
0.447864580658,2031
0.447941691136,2032
0.448018764682,2033
0.448856119665,2034
0.449160814882,2035
0.449298721099,2036
0.449541181875,2037
0.449904893101,2039
0.449910533078,2038
0.45027681174,2040
0.450577487588,2041
0.450644588473,2042
0.450727870857,2043
0.450922202238,2044
0.451207114198,2045
0.451616837112,2046
0.451676178427,2048
0.451859296953,2047
0.452164152647,2050
0.452257991944,2049
0.452260437409,2051
0.452547558429,2053
0.452687597313,2052
0.453290062096,2054
0.453701230775,2057
0.453855790183,2055
0.453891694483,2059
0.453909454461,2056
0.453988096013,2060
0.454609450886,2058
0.454756535167,2061
0.454890736706,2062
0.45495620991,2063
0.455054706322,2064
0.455072910712,2065
0.455964830351,2066
0.456045250253,2067
0.456510262634,2069
0.45655778229,2068
0.457519441288,2070
0.458140924182,2071
0.458276216944,2072
0.458699148515,2073
0.458814539855,2074
0.459196031004,2076
0.459339309914,2077
0.459460389036,2079
0.45969018813,2080
0.459722108089,2081
0.459979747067,2078
0.460112106015,2075
0.460331029868,2082
0.460375802862,2083
0.460401803532,2084
0.460757637246,2085
0.461816992893,2090
0.46264312803,2094
0.462668515749,2095
0.462976057284,2093
0.462978337286,2086
0.46302166048,2097
0.463478140478,2098
0.463785340461,2100
0.464587420287,2105
0.464694820292,2103
0.46476118029,2106
0.465137863481,2104
0.465304903481,2107
0.465627103485,2088
0.465733423483,2087
0.465960223484,2101
0.466079146674,2096
0.466282306483,2109
0.466448782714,2111
0.466529302707,2110
0.466719349502,2112
0.466766869477,2113
0.46701130947,2091
0.467038789465,2115
0.467060029463,2116
0.46743383266,2114
0.467803552661,2108
0.467871349403,2117
0.467969509227,2099
0.467988349219,2119
0.46805626922,2118
0.46817231231,2122
0.468347272305,2123
0.468387472306,2124
0.468515272308,2102
0.468516224374,2121
0.468716872306,2092
0.468741592306,2089
0.468777107473,2120
0.468912803425,2125
0.469390076672,2127
0.469469036297,2128
0.469637035134,2130
0.469776354938,2132
0.469780794931,2126
0.469818118031,2129
0.469928997211,2133
0.470040476333,2131
0.470076552387,2134
0.470645932966,2137
0.470788372478,2138
0.471086452313,2140
0.471162444293,2141
0.47121332749,2139
0.471232287463,2136
0.471669982163,2143
0.471861141418,2135
0.471942260806,2144
0.471958340723,2142
0.472103121627,2145
0.472383048206,2146
0.473079637248,2147
0.47348171617,2150
0.473524796045,2151
0.473541476027,2149
0.473608915517,2148
0.473762102808,2152
0.473792561559,2153
0.473823340976,2154
0.473906771061,2155
0.474003875549,2156
0.474307226678,2157
0.474920288085,2159
0.475076406836,2158
0.475204131115,2160
0.475508639565,2161
0.47581254825,2163
0.475969026998,2162
0.476561379734,2164
0.476596272033,2165
0.476610475655,2166
0.476724020553,2168
0.47675810032,2167
0.47684925008,2169
0.476868237156,2170
0.477572640959,2171
0.477946449989,2172
0.478341537054,2173
0.478489861753,2174
0.479206484341,2175
0.479497932046,2176
0.479536978594,2177
0.479780700341,2180
0.480005940145,2183
0.480019980146,2178
0.480109023287,2184
0.480553334774,2185
0.480603771276,2179
0.480680811197,2186
0.480767690887,2181
0.480911176473,2187
0.481271893519,2182
0.481363659441,2188
0.481693388431,2189
0.481859641834,2190
0.48189029314,2191
0.482021999242,2192
0.482075741936,2193
0.482492982672,2194
0.482850519743,2195
0.482939695892,2197
0.483249533419,2198
0.483598850559,2196
0.483780073158,2199
0.483884570068,2200
0.48451518468,2201
0.484968786418,2202
0.485061979859,2203
0.485109644784,2204
0.485391430455,2205
0.485517101966,2206
0.485611810988,2207
0.485926863716,2209
0.48598086363,2210
0.486058383359,2211
0.486464222288,2208
0.486834719686,2212
0.487052478481,2213
0.487176204541,2214
0.487295434834,2215
0.487680831457,2216
0.487777084877,2217
0.488089387633,2218
0.488658119214,2219
0.489318143877,2220
0.491156250844,2222
0.491185770652,2223
0.491288370161,2225
0.491412089697,2224
0.491434289563,2221
0.49177321503,2226
0.491794442129,2227
0.491815653576,2228
0.491969630349,2230
0.492545265603,2229
0.493234837338,2232
0.493425155803,2231
0.49343177001,2233
0.49343296686,2234
0.493724447731,2235
0.49400325621,2236
0.4940727445,2237
0.494184682655,2238
0.494846762686,2239
0.495236434032,2240
0.496349215235,2241
0.497288081772,2242
0.498419690653,2243
0.498774175491,2245
0.498805738609,2246
0.498841855157,2247
0.499042733554,2248
0.499582249184,2249
0.499837367482,2251
0.500200846092,2252
0.501016364219,2250
0.501146323783,2254
0.50126080373,2256
0.501529366394,2255
0.501577729591,2253
0.501978407997,2258
0.502140767372,2244
0.502354125692,2259
0.502366485641,2257
0.50247402541,2260
0.502707490598,2262
0.502985288995,2264
0.503076488671,2265
0.503254448153,2266
0.50327724811,2261
0.503527073976,2269
0.503657753952,2268
0.503692193861,2263
0.504001194589,2270
0.504161153346,2271
0.504501591935,2267
0.504828234479,2275
0.504964674455,2274
0.505468674241,2273
0.505528434044,2276
0.505571993738,2277
0.505848232498,2278
0.505955271657,2272
0.506021780994,2279
0.50703729992,2280
0.507078265097,2281
0.50743937609,2282
0.507634954143,2283
0.507979474631,2284
0.50818945278,2285
0.50834648885,2286
0.508356167211,2287
0.508374445011,2288
0.508563368722,2289
0.508951662696,2290
0.509703540306,2291
0.510538040481,2293
0.510545840449,2292
0.510651000075,2294
0.510944015945,2295
0.511246858354,2296
0.512427152366,2297
0.513365835073,2298
0.514061147855,2300
0.514247626358,2301
0.514912063426,2303
0.514999217181,2302
0.515463735629,2306
0.515523945046,2305
0.515683545022,2308
0.51585214479,2309
0.515950784766,2304
0.51601990453,2307
0.516299622282,2310
0.51651370055,2299
0.516929285168,2311
0.516941408367,2312
0.517021907221,2313
0.517721478728,2315
0.51782095795,2314
0.517890214502,2316
0.517952819454,2317
0.518334710536,2318
0.518467559774,2319
0.518492016158,2320
0.518492802905,2321
0.518521378108,2322
0.518563446221,2323
0.519161196494,2324
0.519497861913,2326
0.5197636602,2328
0.520457918749,2327
0.520490142765,2325
0.520750360937,2330
0.520751680938,2331
0.521006558911,2329
0.521123267659,2332
0.52131719973,2333
0.52161816874,2334
0.521784963879,2335
0.522165064942,2336
0.522212091723,2337
0.522309940096,2338
0.522582115213,2339
0.522610361067,2340
0.522618658956,2341
0.52320992504,2342
0.523230861072,2343
0.523697732999,2344
0.524255342059,2345
0.524381634429,2346
0.524442281456,2347
0.524869050251,2348
0.525234269283,2350
0.525487228281,2349
0.525515477854,2351
0.525612844,2352
0.525665382655,2353
0.526054707079,2355
0.526120826579,2354
0.526331553001,2356
0.526476849421,2357
0.527336289788,2358
0.527416868598,2359
0.527706306221,2360
0.527726398313,2361
0.528250280722,2362
0.528587739535,2363
0.528701976703,2364
0.528862756728,2365
0.528881121538,2366
0.529323678017,2369
0.52938595784,2370
0.529416797834,2371
0.529802357785,2367
0.530063474779,2376
0.53101339478,2368
0.531022086149,2372
0.531199445774,2375
0.531223850294,2373
0.531401329607,2377
0.531442852593,2374
0.531514213633,2378
0.531537657007,2379
0.532085958876,2382
0.532265718179,2381
0.532415116985,2380
0.532869987853,2383
0.533903512487,2384
0.533916029045,2386
0.534017274892,2385
0.534832106651,2387
0.534845100853,2389
0.534946380149,2391
0.535049459772,2390
0.535146299016,2388
0.535340599982,2392
0.535480955564,2393
0.535673185435,2394
0.536553269246,2395
0.536963722326,2396
0.537319656389,2397
0.538309739485,2399
0.538453858428,2398
0.538661299674,2400
0.539116577746,2401
0.53934736456,2402
0.53937083395,2403
0.539975714949,2406
0.54004688335,2408
0.5403519229,2410
0.540375802883,2411
0.54065108234,2407
0.540664885529,2412
0.541103845504,2404
0.541255284925,2409
0.541351767421,2405
0.541787359432,2413
0.542202191101,2416
0.542335630886,2417
0.542457670429,2415
0.543238507495,2420
0.543500587267,2422
0.543598688796,2423
0.543639008741,2424
0.543939488185,2425
0.544046288024,2426
0.544127167884,2419
0.54415308786,2421
0.544570930551,2428
0.545391130371,2427
0.545876773536,2431
0.545902933534,2432
0.546002173355,2430
0.546367336534,2433
0.547312336008,2414
0.548043135134,2438
0.548044335138,2429
0.548110171037,2435
0.54816489416,2439
0.54856856548,2441
0.548572765481,2440
0.54886304815,2442
0.549306687257,2443
0.549320247258,2418
0.549360090445,2445
0.549365370446,2444
0.549606810317,2447
0.549708450189,2448
0.550022489687,2449
0.550143209465,2436
0.550150529449,2446
0.550353208699,2450
0.550376488655,2437
0.550672409512,2451
0.551001446839,2452
0.551054126456,2453
0.551270485849,2455
0.551482405018,2456
0.551674055232,2459
0.551737055131,2457
0.551899538299,2434
0.552149500507,2458
0.552211296875,2454
0.552462058232,2460
0.552952989027,2461
0.553489428365,2462
0.553641503268,2464
0.553756102379,2465
0.554353818993,2467
0.554551338223,2463
0.554855886324,2468
0.555318362522,2466
0.555787452347,2469
0.556300588564,2470
0.556997109188,2471
0.557870457793,2472
0.558082098844,2473
0.558493533505,2474
0.558887086943,2475
0.559220578312,2476
0.559316666945,2477
0.559333462436,2478
0.559565143299,2479
0.560157434503,2480
0.560438834513,2481
0.560750025643,2482
0.560875098136,2483
0.56150384925,2484
0.561797523533,2485
0.562206238579,2486
0.562622521879,2487
0.563412665303,2489
0.563519224467,2488
0.563684896277,2490
0.56418456639,2491
0.564337789836,2492
0.565329936453,2493
0.566192993283,2494
0.566524574052,2496
0.567087129464,2497
0.567399126944,2498
0.567544325786,2495
0.567704616188,2499
0.567907532769,2500
0.568196958003,2501
0.568349523689,2504
0.568717082437,2506
0.568739642411,2507
0.56878392237,2508
0.569099162344,2509
0.569107562329,2505
0.569158412602,2511
0.569164458099,2512
0.569638175753,2513
0.569664095708,2514
0.56970873567,2515
0.569773655645,2502
0.57008973438,2510
0.570308256642,2516
0.570575734505,2517
0.570771812935,2518
0.570983851219,2503
0.571284838195,2519
0.571358061253,2520
0.571383319658,2521
0.572033724934,2523
0.572199803602,2522
0.572579694053,2524
0.573380351706,2525
0.573829162358,2526
0.574763057204,2527
0.574790729183,2528
0.574814910684,2529
0.574914393915,2530
0.575299663909,2531
0.575343554795,2532
0.575472959572,2534
0.575500922705,2535
0.575595358741,2536
0.575603158709,2533
0.576032633195,2537
0.576537349099,2540
0.5765375891,2538
0.576551392292,2541
0.577370551836,2542
0.577410391722,2543
0.577631429948,2544
0.577798349008,2546
0.578411906504,2545
0.578433626375,2539
0.578796847232,2548
0.579643560228,2547
0.579978814975,2549
0.580167359162,2550
0.580222870662,2551
0.580284007096,2552
0.580617493819,2553
0.580976370454,2554
0.581233122516,2555
0.581457288524,2556
0.58158692259,2557
0.581668712343,2558
0.58187312252,2559
0.582007071731,2560
0.582015456737,2561
0.582242672564,2563
0.582262832448,2562
0.582365138269,2564
0.582751816261,2566
0.583317973269,2568
0.583890131496,2570
0.584023811471,2567
0.584035571469,2571
0.584252770637,2572
0.5843112642,2573
0.584388373577,2574
0.584982251158,2575
0.585120610634,2565
0.585155770392,2569
0.585169643931,2576
0.585237525868,2577
0.586059111197,2579
0.586201190065,2578
0.58625221536,2581
0.587124249107,2583
0.587682606871,2584
0.58779708649,2585
0.587905686321,2582
0.588143525433,2587
0.588178205393,2588
0.588181445387,2586
0.588236275475,2589
0.588400447091,2580
0.5894963413,2591
0.589654740032,2590
0.589720224882,2592
0.590454016652,2593
0.590581515427,2594
0.590963235546,2595
0.591083589854,2597
0.59114058943,2596
0.591343452422,2598
0.591347779685,2599
0.591423398102,2600
0.591907256244,2601
0.592267886343,2602
0.592694791763,2603
0.592754082058,2604
0.592950109454,2605
0.593782297702,2607
0.59387421702,2608
0.594238054052,2609
0.594500371917,2606
0.594715513249,2610
0.595408048009,2611
0.595585631298,2612
0.595707007922,2615
0.595710127923,2614
0.596140687667,2616
0.596336166089,2613
0.597503957729,2617
0.597734705377,2618
0.598532085162,2619
0.598902499322,2620
0.599304653902,2621
0.599506570482,2622
0.599645216625,2623
0.599680399099,2624
0.599884861345,2626
0.599897941288,2625
0.600062404135,2627
0.600277661886,2628
0.600474317441,2629
0.600585903701,2631
0.600700383066,2633
0.600795542721,2632
0.600842462514,2634
0.601101660484,2635
0.601305659687,2630
0.601326325519,2636
0.601526862093,2637
0.601600754317,2638
0.602333861481,2639
0.602422505166,2640
0.602668531274,2641
0.603039442029,2643
0.603338001458,2646
0.603566964235,2648
0.603616834583,2650
0.603659554584,2647
0.603894203738,2651
0.604020566699,2642
0.604143396899,2653
0.60421100642,2654
0.604279646304,2644
0.604392686145,2645
0.604505369313,2655
0.604929087795,2657
0.60504404777,2656
0.605126007484,2658
0.605413527267,2660
0.605454927243,2649
0.605574567056,2659
0.605693006687,2662
0.605901205908,2663
0.606170124845,2664
0.60700460142,2652
0.607051612482,2666
0.607101772387,2668
0.607125532363,2667
0.607168252306,2669
0.607758049937,2670
0.607758169939,2661
0.607878772234,2665
0.609046210044,2671
0.609081037362,2672
0.609563879958,2673
0.609667456595,2674
0.610407684056,2675
0.61067636729,2676
0.610907262947,2677
0.611373391163,2678
0.611397183006,2679
0.611827006299,2681
0.61184272622,2680
0.611991443547,2682
0.612292209954,2683
0.612417424518,2684
0.613018398653,2685
0.613617310782,2686
0.613838747361,2687
0.613968387224,2688
0.614264064936,2689
0.615375655639,2692
0.615448015505,2691
0.61552388214,2690
0.615597201887,2693
0.615627841828,2695
0.61564251613,2696
0.615904203493,2697
0.61609020277,2698
0.616430160001,2699
0.616501439459,2700
0.616592158762,2701
0.616729917809,2703
0.616968116926,2702
0.616972316927,2704
0.616982760125,2705
0.617030883024,2706
0.617208242048,2708
0.617223871075,2709
0.61729680508,2710
0.617330524992,2694
0.6173601648,2711
0.617719083576,2712
0.617829483167,2713
0.617866082915,2714
0.618014401789,2715
0.618501957852,2716
0.618570837329,2707
0.618915282614,2719
0.619010922268,2717
0.619044468679,2718
0.619114885781,2720
0.619553551226,2721
0.619641483812,2723
0.619811402451,2724
0.620126999873,2722
0.620185032131,2726
0.620285951342,2725
0.620333110186,2727
0.620721683433,2729
0.621001521671,2728
0.621077484338,2730
0.621361186442,2732
0.621713383558,2731
0.621773155556,2733
0.622305794169,2735
0.622481473902,2734
0.622484918009,2737
0.622936597128,2739
0.62303452031,2742
0.6230538403,2736
0.623230003448,2743
0.623456683419,2744
0.62362756308,2746
0.62365840308,2747
0.623777082862,2741
0.623887722834,2748
0.623952642804,2749
0.624443202569,2751
0.624558522359,2752
0.624839681817,2753
0.624983681689,2755
0.62548540164,2758
0.625696001627,2756
0.625995041628,2759
0.626051801627,2760
0.626134601623,2761
0.626494001624,2754
0.626519441626,2738
0.626529164815,2762
0.626868884198,2763
0.62706292384,2764
0.627255283469,2765
0.627420283401,2767
0.6279419234,2768
0.628217083403,2745
0.628456003399,2770
0.628466563401,2757
0.628481803395,2771
0.628830660068,2772
0.628857645914,2750
0.628863525901,2769
0.628901219907,2773
0.628944299806,2774
0.629200378792,2766
0.629716603989,2776
0.629773123805,2775
0.629977843472,2777
0.63048988139,2740
0.630591284062,2778
0.63086791533,2779
0.631021387308,2780
0.631135395332,2781
0.631372466947,2782
0.631419616272,2783
0.632140697489,2786
0.632195657312,2784
0.632330480936,2785
0.633049725528,2787
0.63306394898,2788
0.633197254055,2789
0.634210046373,2790
0.634240775529,2791
0.634449097778,2793
0.634564056924,2794
0.634723655691,2795
0.634825655082,2797
0.635510853957,2801
0.63551604104,2800
0.635577394302,2802
0.635585389761,2803
0.636058552916,2804
0.636240874041,2805
0.636371035698,2806
0.63646383368,2798
0.636614313655,2799
0.636854397775,2807
0.637084076871,2796
0.637135559742,2792
0.638076240192,2808
0.638506535743,2809
0.639114437541,2811
0.639486077298,2813
0.639516437258,2814
0.639520997259,2812
0.639848357976,2815
0.640064476229,2816
0.640251435291,2818
0.640266795285,2819
0.640435154714,2820
0.640722434446,2822
0.640936974197,2821
0.641161637136,2825
0.641604676241,2824
0.642246195368,2827
0.642431238217,2828
0.642517804879,2823
0.642552124823,2829
0.643145644662,2836
0.643823167854,2837
0.643864691044,2838
0.643894091042,2839
0.644297531047,2810
0.644449210898,2840
0.644557570803,2833
0.644726290761,2842
0.644865610663,2843
0.645232090297,2844
0.645313450264,2845
0.645332290264,2826
0.645395410249,2830
0.645586930246,2846
0.645831370245,2847
0.645867370243,2848
0.646595770225,2851
0.646716853354,2852
0.646800613283,2831
0.646927213258,2853
0.647340733227,2854
0.647453293123,2855
0.647668453114,2835
0.647721373107,2856
0.647772733105,2857
0.647871853109,2841
0.6482574131,2860
0.648336133088,2858
0.64840165309,2832
0.648481573091,2834
0.648562332993,2861
0.648574212994,2849
0.648950295749,2863
0.649314135749,2862
0.649850655442,2867
0.650243775444,2850
0.650470698641,2865
0.65052385864,2864
0.650960661271,2870
0.651029661272,2866
0.65108294127,2817
0.651198144301,2872
0.651254268472,2859
0.651563148448,2869
0.651626988234,2868
0.652113944227,2871
0.652133653135,2873
0.6525556051,2874
0.652995689331,2876
0.653041889003,2877
0.653066848847,2875
0.65318988637,2879
0.65334348516,2880
0.653377444969,2881
0.653786042937,2885
0.653830922873,2883
0.654412442064,2888
0.65480160206,2887
0.655000322056,2891
0.655275362055,2892
0.655305362059,2882
0.655425362055,2889
0.655529761872,2884
0.655542245068,2893
0.655607525043,2878
0.655974723585,2894
0.656033403393,2886
0.656049003315,2890
0.656402281307,2895
0.656901712948,2896
0.657665546956,2898
0.657692186829,2899
0.658380021189,2900
0.658404861034,2897
0.659134855179,2901
0.65921974818,2902
0.65946202038,2904
0.65997477617,2905
0.660244893971,2903
0.66078276192,2906
0.660836795584,2907
0.660941900557,2910
0.661001660403,2911
0.661023863602,2908
0.66116322518,2909
0.661423754671,2914
0.661522394312,2912
0.661744899465,2913
0.661819021404,2915
0.661862747209,2916
0.662332466448,2917
0.662480694838,2918
0.6625813278,2919
0.662636951676,2920
0.663063027215,2921
0.663481345707,2923
0.663841223437,2922
0.664028536727,2926
0.664048456724,2927
0.664167136281,2925
0.66452473337,2928
0.664815371018,2929
0.664873570598,2930
0.664974729814,2931
0.665177408179,2932
0.665216047963,2934
0.665732406928,2936
0.665837766899,2937
0.666046086876,2924
0.666173529617,2933
0.666215049326,2938
0.666306368634,2939
0.666379088098,2940
0.666485047295,2941
0.666587166841,2942
0.666794765163,2935
0.666878286616,2943
0.666963183392,2944
0.667082647602,2945
0.667103250799,2946
0.667589298062,2947
0.667640193383,2948
0.667668997829,2949
0.667695212057,2950
0.667805308239,2951
0.668143435937,2952
0.66853096677,2953
0.668789710752,2954
0.668999575181,2955
0.669344834303,2956
0.669602089722,2957
0.670049557818,2958
0.670468185248,2959
0.67047353037,2960
0.670641151466,2961
0.670879839784,2962
0.670910211941,2963
0.67113140004,2965
0.67147531896,2967
0.671636958338,2966
0.671898196213,2964
0.672211103654,2970
0.672905422838,2969
0.672990982787,2973
0.673166902582,2971
0.673555232803,2975
0.673627112759,2976
0.673762472723,2968
0.673773032701,2977
0.673956635233,2978
0.67448283377,2972
0.674616873264,2974
0.674751995516,2980
0.674809595088,2979
0.67520590435,2982
0.675580781882,2984
0.675667541572,2983
0.676007379002,2985
0.676095698317,2981
0.676119372467,2986
0.676477420057,2987
0.677647068106,2989
0.677770067181,2990
0.677869786489,2991
0.678331544681,2988
0.678413016727,2993
0.678571775887,2994
0.678747815273,2996
0.679125094595,2997
0.679171464958,2999
0.679973137746,2992
0.680950293727,2998
0.681142939358,2995
