time,RcpSim1.flowGenerator3.flowSynId:vector
0.000032529564,0
0.000734260169,2
0.000821527872,4
0.001003459007,5
0.001682223062,6
0.00175939121,3
0.001971432875,8
0.002088630488,9
0.002170956484,10
0.002272448001,11
0.002307338293,12
0.002362611961,13
0.002634360214,14
0.002906560024,16
0.003107844481,15
0.003139773751,18
0.003428874658,20
0.003641453532,21
0.004227229665,23
0.00440423028,22
0.004435786804,19
0.00445748241,24
0.004503326281,25
0.004816228828,27
0.005008897816,28
0.005088945361,29
0.00566597699,17
0.005668386846,30
0.005790025771,32
0.006188126598,26
0.006223095926,33
0.006424457047,34
0.006558946327,35
0.006662816565,36
0.007148543532,38
0.007555881099,31
0.007785723682,1
0.007821648342,39
0.008305800403,44
0.008411137936,45
0.008517130934,47
0.008803609834,41
0.009047238667,40
0.009092695852,52
0.00915576644,46
0.009206050484,54
0.009252733295,55
0.009574096125,56
0.009622381382,57
0.009700066234,43
0.009966476914,60
0.010258351015,62
0.010282838934,61
0.010629774048,59
0.01068544811,65
0.010962413997,66
0.011001722644,63
0.011044369591,67
0.011301125651,51
0.011560224822,53
0.01157126473,69
0.01163699786,37
0.011759827557,49
0.011816893502,70
0.011913341897,71
0.011948554687,48
0.012021229796,68
0.012328083778,50
0.012542544214,72
0.012764635962,58
0.013160509444,73
0.013205069268,7
0.013521032666,42
0.013768248343,75
0.013785174702,76
0.013822296603,77
0.014018872905,64
0.014238421273,78
0.014247866183,79
0.014252369062,74
0.015662706068,83
0.015686705868,81
0.015716619993,84
0.015891024738,82
0.016221163733,85
0.016834358741,80
0.017451281215,87
0.017510025454,86
0.01753466661,88
0.017725602075,89
0.017798353912,90
0.017925990485,91
0.018430888635,93
0.018534114178,94
0.01876011344,92
0.019019939042,96
0.019191592497,97
0.019264675134,98
0.019304141608,95
0.019970826009,99
0.02032976227,100
0.020509397165,101
0.021227901804,102
0.02159104378,104
0.021714991348,103
0.022090768009,106
0.022291830863,105
0.022522988033,107
0.022691516321,108
0.022818628461,109
0.022862051342,110
0.022879383904,111
0.02319371619,112
0.023270978411,113
0.023375731801,114
0.02392019312,116
0.02429107498,115
0.025054785725,117
0.025779055656,118
0.026505592361,119
0.026663804201,120
0.027037679157,121
0.027311304033,122
0.028144883649,125
0.028193961135,124
0.028285540329,126
0.02833582641,127
0.028583201789,123
0.029055763269,128
0.029272644544,129
0.02927432453,130
0.029430960659,131
0.029576442199,132
0.029621029958,133
0.029953892552,134
0.030112280276,135
0.03122864772,136
0.031505791366,137
0.031803112634,138
0.032369067968,141
0.032711167002,139
0.032742034116,142
0.032839609227,143
0.032980919565,140
0.033014543613,144
0.033530322053,147
0.033543870033,148
0.033868126477,146
0.033886151562,145
0.033917349693,149
0.034506585479,150
0.035061574487,153
0.035134518997,151
0.035224211889,154
0.03524809169,155
0.035730108314,156
0.03581416202,159
0.035837801823,157
0.036102969963,158
0.036344190807,161
0.036594971043,152
0.036719940202,162
0.036777414934,163
0.036929001157,160
0.03695708254,165
0.036978886412,164
0.037113320753,166
0.037352618039,167
0.037556951089,168
0.037714972728,169
0.03880818765,172
0.038881936285,171
0.039200312617,175
0.039323609035,170
0.039620558043,176
0.039866695422,173
0.04025934152,177
0.040452767889,179
0.040507776826,180
0.040560976367,178
0.040592866364,174
0.040756178614,181
0.041325097617,183
0.041572122014,184
0.041874728017,185
0.042038162814,182
0.042603504022,186
0.04321459198,188
0.043268598729,189
0.043324483193,190
0.043787966356,187
0.043878630154,191
0.044458501774,194
0.044621141,195
0.044682776164,193
0.044748526515,192
0.044965570192,196
0.04514633538,197
0.045208409779,198
0.045669306817,199
0.046458662193,200
0.0468122791,201
0.047000768697,202
0.047027343109,203
0.047541406245,204
0.047725902982,205
0.047766760093,206
0.048083993567,207
0.048920700742,211
0.048962379519,212
0.049006567053,210
0.049026934855,213
0.049081800121,208
0.049187299549,209
0.050041042433,214
0.050194800675,216
0.050246294904,217
0.050326469877,215
0.050689937073,219
0.050875875516,220
0.05095399307,221
0.051459546837,222
0.05247191948,223
0.052847618796,225
0.053812824715,227
0.053897171345,226
0.054172414265,224
0.054230318575,218
0.054360096795,228
0.054575590879,229
0.054707427516,230
0.054988310613,231
0.055406574348,232
0.055508054586,233
0.056068743513,235
0.056753712857,237
0.056854222201,234
0.056865445814,238
0.056886999473,236
0.057017114753,239
0.057104472951,240
0.057289447382,241
0.05740123893,242
0.057675941086,243
0.057749724699,244
0.057819973317,245
0.058443980375,246
0.058489671785,247
0.058662814737,249
0.058945062915,248
0.059102038562,250
0.059169357402,251
0.059246021868,252
0.059476700303,255
0.059477942511,256
0.05955876731,257
0.059604133432,258
0.059645839318,259
0.05985281345,260
0.059906125602,261
0.060071826971,254
0.06056829696,263
0.060774621766,264
0.060822157201,265
0.06097009738,266
0.061277855346,269
0.061283255301,270
0.061387576692,253
0.061819113029,268
0.061857990994,267
0.061858250942,271
0.062443220184,274
0.062450349918,273
0.062575734878,272
0.062772987904,262
0.06344075915,275
0.063755318667,279
0.063838930382,280
0.064051000969,281
0.064080256603,282
0.064105484274,277
0.064125219979,283
0.064163651685,278
0.064170305997,284
0.064341842198,276
0.064636294575,285
0.065049275876,286
0.065395730734,288
0.065730007652,290
0.065732287633,287
0.066186121359,292
0.066273908371,291
0.066683740942,295
0.066783811535,293
0.06689809851,289
0.066971353486,294
0.067023433215,296
0.067123261608,297
0.067252611526,298
0.067531464879,299
0.067535432045,300
0.067558260241,301
0.067573605901,303
0.068213721423,304
0.068296699762,305
0.068407699147,306
0.06844070778,302
0.068608044901,307
0.06916068895,308
0.069171732158,309
0.069579229868,311
0.069603596065,312
0.069769694273,314
0.069831633896,310
0.069835593863,315
0.070081827674,317
0.070291960103,320
0.070754872792,319
0.070761832734,321
0.070846934745,322
0.070962349272,323
0.071098359393,324
0.071373719895,318
0.071589371767,328
0.071913485803,313
0.072478132751,329
0.072518670963,326
0.072903222121,330
0.072917981998,316
0.073005334238,327
0.073784226546,332
0.073870654385,333
0.073923646989,331
0.073983745588,334
0.074448613126,335
0.074537074754,336
0.074809811856,338
0.074905530609,325
0.074919213423,339
0.075000125376,337
0.07522198311,340
0.075387599021,341
0.07587251613,343
0.075982935845,345
0.075987975803,344
0.076281134771,346
0.076329380869,347
0.076380867931,348
0.076501675263,349
0.076832633609,350
0.077086968474,352
0.077172582295,353
0.077269647636,354
0.077607457218,355
0.0776096172,356
0.078175367704,351
0.078202492408,357
0.078208336799,358
0.07874025846,342
0.078916308592,359
0.079013118373,360
0.079070573273,361
0.079331893618,362
0.079480538563,363
0.079860168859,364
0.08005379609,365
0.080548207791,366
0.080996315002,367
0.081033155567,368
0.081153715142,369
0.081993513115,370
0.082253740616,371
0.082333811757,372
0.083076640014,374
0.083091202549,375
0.083222170686,376
0.083582682424,379
0.083664303181,380
0.083859123987,373
0.084116776743,377
0.084304260602,381
0.08445393702,378
0.084475884654,382
0.084605109834,383
0.084719099754,384
0.084853699448,385
0.085590137173,389
0.085756882546,392
0.085817317677,386
0.085966297321,391
0.086013374622,387
0.086364162335,393
0.086587394445,394
0.086741655821,388
0.087034548146,395
0.08709076253,390
0.08713499511,396
0.087800502444,397
0.088092828566,399
0.088507347453,398
0.088969337724,403
0.088975742241,402
0.089783462559,405
0.090183756237,400
0.09027652833,408
0.090302823636,401
0.090361284417,406
0.090384067634,409
0.090491543771,410
0.090665956749,411
0.090910495931,412
0.091133623554,404
0.091317565547,413
0.091337245383,407
0.091454834509,414
0.091709019871,415
0.093048790364,416
0.093165688917,417
0.093326684611,419
0.093557671523,418
0.09359249916,420
0.094256708948,421
0.094717650122,423
0.094915245639,424
0.09495248046,425
0.095070253845,426
0.095106443274,422
0.095166399631,427
0.095182974423,428
0.095271009215,430
0.09534076664,429
0.09571998563,431
0.095778525465,432
0.096142199168,433
0.096968769888,437
0.096983350726,438
0.097377924783,439
0.097385364721,440
0.097658009586,436
0.09778417277,441
0.097881697028,442
0.097943042186,443
0.098250321054,444
0.098359296372,434
0.098562405375,435
0.099061077012,447
0.099288350412,446
0.099366928642,448
0.099378448546,449
0.099440984861,445
0.099475115477,451
0.099954530883,452
0.100333665337,450
0.100631764458,453
0.100951460354,455
0.101247809991,454
0.101536666917,456
0.101754386524,457
0.102988668614,460
0.103061031448,461
0.103259056605,458
0.103913647721,459
0.104052475071,462
0.104382147002,463
0.104505923895,465
0.104600275512,466
0.104630826382,464
0.104654635108,467
0.104867914403,468
0.10515600881,470
0.10528996406,472
0.105348077367,471
0.106204983696,475
0.106223724824,476
0.106249630433,474
0.106314051797,477
0.106489646336,469
0.106772459232,480
0.106794899045,478
0.106874838445,481
0.107871695215,484
0.107882133653,483
0.107972845197,479
0.108171007925,485
0.108202853793,486
0.108322732822,482
0.108340812974,487
0.108364060594,473
0.108746902681,489
0.109020153326,490
0.109071417948,488
0.109081882885,491
0.109322057722,492
0.110220013116,493
0.110458148612,494
0.110518571202,495
0.110642530941,496
0.110936244,497
0.111602344067,499
0.111714944856,500
0.11222409059,498
0.112287258507,504
0.112420938346,505
0.112684940312,503
0.112750012733,507
0.11295056937,508
0.113008918936,501
0.113030119297,509
0.113229244215,511
0.113572018762,512
0.11360554666,513
0.113915035219,510
0.114438708462,515
0.114494836847,516
0.114549541008,514
0.114639879879,518
0.114872044213,517
0.115071292586,521
0.115088572442,519
0.115302966319,520
0.115395131439,523
0.11570602379,502
0.115854167978,506
0.116117662387,524
0.116186639926,522
0.116370981032,529
0.11647990125,530
0.116585097108,526
0.116696461335,525
0.116755707619,531
0.117083693633,532
0.117288515935,528
0.117372907128,533
0.117391386974,527
0.117392586964,534
0.118311365026,535
0.118343197244,536
0.118582954641,537
0.118751881876,538
0.118896135038,539
0.119390544792,540
0.119414149265,541
0.119450879772,542
0.119635616756,543
0.119962131638,544
0.119988411967,545
0.120038251285,546
0.120199713043,547
0.120832781769,549
0.120993826661,550
0.121481935032,552
0.121500889389,553
0.121623913583,551
0.121663012448,554
0.122037511196,548
0.122678917649,555
0.12282707508,556
0.124032396034,557
0.124292691994,558
0.124533965118,559
0.126046048071,560
0.126453846648,564
0.126644605939,563
0.126696261237,566
0.126698061222,565
0.12710416893,562
0.127276784951,561
0.127376435046,567
0.127453279288,568
0.127889967219,569
0.128391242775,571
0.128396885928,572
0.1286214433,570
0.128673778278,575
0.128713497947,576
0.128775801526,577
0.128840832139,579
0.128983652799,580
0.129079210105,574
0.129137709943,578
0.129271207985,573
0.129472189228,581
0.129681396718,582
0.129942261752,583
0.130015436938,584
0.130174681914,585
0.13047585054,586
0.130671068648,588
0.130814108618,587
0.130857316116,589
0.130869439318,590
0.131076237923,591
0.13120945698,592
0.131389778552,594
0.131408378397,593
0.131521666765,595
0.131558795557,597
0.131593478468,598
0.132104930479,599
0.132976578187,603
0.133419264411,607
0.133445413836,606
0.133581948645,605
0.133609078741,608
0.133650602282,604
0.133881702111,600
0.134208608118,596
0.134273398187,609
0.134283718101,601
0.13436772232,602
0.134382515116,610
0.134522127488,612
0.134824405334,613
0.13490892576,614
0.134955088254,611
0.135012510555,616
0.135458866341,618
0.135527168353,615
0.1355813472,617
0.135938013439,619
0.136551930988,620
0.13660063181,621
0.136686513076,623
0.137083421767,622
0.137111710811,624
0.137890467388,625
0.137949063859,626
0.138204913302,627
0.138740976591,628
0.138904465874,629
0.138990281208,630
0.139095739115,631
0.13933065632,633
0.139339536246,632
0.140064801519,634
0.140762012814,635
0.141219938819,636
0.141556833508,637
0.141718942412,639
0.141859987394,638
0.142000889524,640
0.142007674691,641
0.142169223726,642
0.142226682584,643
0.142231005848,644
0.142886069825,645
0.143047844659,646
0.143335785392,648
0.143893168598,651
0.143901208531,650
0.143988672339,649
0.144071198791,647
0.144196996232,652
0.14426443771,653
0.144396470477,654
0.144500959451,655
0.144757163143,656
0.144792425933,657
0.145003490133,658
0.145055385215,659
0.145164164098,660
0.145319280553,663
0.145681509506,664
0.145701603747,665
0.145757741467,662
0.146047532846,666
0.146625573037,670
0.146993782574,669
0.147153063714,668
0.14724880457,671
0.14745996308,672
0.147514850243,673
0.147548275823,667
0.147787980609,675
0.148455938678,677
0.148567284908,678
0.148615710243,679
0.148677856182,674
0.149061158832,683
0.14910744749,681
0.149281123661,676
0.149810155202,685
0.15007703002,687
0.150221465008,680
0.150342722153,661
0.150459871153,688
0.150538868272,684
0.150725886862,689
0.150888827262,686
0.151300626333,690
0.151388798318,682
0.151447809498,691
0.151623813413,692
0.151753537627,693
0.151940615559,694
0.152406598308,695
0.153278643604,696
0.153331911538,697
0.153812838711,698
0.154042120457,699
0.154319670316,700
0.154677770708,703
0.154776991067,704
0.154885976666,702
0.155381556064,705
0.155409159034,706
0.155525594514,701
0.155833762514,707
0.15586904222,708
0.15626929658,710
0.156323564083,709
0.157109879421,711
0.157222130102,713
0.157387642746,712
0.157431875456,714
0.157607340093,715
0.157904185581,716
0.158392391272,717
0.158965427064,719
0.159037305674,720
0.159335355871,722
0.159494611648,723
0.159931924936,725
0.160181790613,726
0.160258745301,727
0.160767332039,730
0.160865623669,731
0.161604466922,734
0.161659549479,724
0.162273248233,736
0.162281984891,735
0.162977219244,738
0.163237731398,739
0.163286803002,740
0.163305771325,721
0.163567755721,742
0.163648048992,743
0.163650808969,737
0.163881753786,744
0.164508110254,745
0.165151903918,748
0.165280709202,749
0.165522396306,750
0.165624858761,746
0.165808987847,755
0.166086152785,729
0.166438099906,741
0.166492324378,754
0.166627505416,757
0.166635564267,751
0.166779304154,758
0.166981554678,756
0.167274263129,753
0.167305795011,760
0.167444235891,761
0.167779854139,763
0.167819573808,762
0.167918467677,765
0.168037555312,766
0.168309405757,728
0.168378988118,752
0.168797848198,767
0.169055078136,759
0.169090907693,768
0.169114430697,769
0.169176937298,747
0.169253381234,770
0.169522478241,771
0.170091308047,718
0.170104611354,774
0.170111436067,775
0.170184457172,776
0.170430266439,772
0.17046486534,778
0.170829178459,779
0.17115993756,780
0.171690818957,783
0.171936164595,781
0.172020813246,784
0.172238841539,785
0.172419513236,777
0.172530875856,782
0.172610675828,786
0.172687277711,787
0.1729872959,773
0.172998900852,789
0.173018026866,788
0.173112103154,791
0.173179010543,792
0.17366670006,793
0.174079315366,733
0.174211356875,796
0.174271182375,798
0.174309786448,799
0.174417948965,790
0.174437324068,732
0.174527450112,794
0.174694777882,795
0.174932927386,803
0.174992332817,804
0.175098210991,801
0.175229757701,805
0.175469995244,807
0.175621452214,802
0.175674700729,808
0.175748295921,809
0.175763175797,806
0.176209159582,811
0.17625203553,797
0.17674533358,812
0.177114081871,813
0.177154272795,814
0.177198141187,764
0.177325984844,800
0.177710885936,816
0.177804721212,817
0.177832928911,818
0.17792217224,815
0.177949153542,810
0.178193164097,819
0.178341503531,820
0.17854734094,821
0.180049626346,822
0.18005058964,823
0.180498860918,824
0.180650196797,825
0.180900202587,826
0.180938233897,827
0.181309512887,830
0.181398213181,828
0.181469442568,833
0.18159568842,834
0.181625015106,829
0.182044371029,832
0.182664892549,838
0.182696629215,837
0.182822687039,831
0.182889300769,839
0.18290478064,840
0.183016431953,835
0.183030980184,836
0.183194250963,842
0.183219450753,841
0.183766084686,843
0.183799347848,844
0.184017537393,845
0.184845044664,846
0.185584722347,847
0.185649183988,848
0.185852658116,849
0.185936274934,850
0.185945454709,851
0.186175732351,852
0.18722054452,854
0.187580552399,856
0.187607675373,857
0.188085755286,858
0.18817707125,853
0.189168878493,859
0.190025311793,855
0.190221388848,860
0.190556895611,862
0.190882797953,863
0.191110623412,864
0.191268268109,865
0.191960446826,866
0.19223578113,861
0.192596479988,867
0.192815852839,868
0.192932642052,870
0.193744345439,871
0.194657724907,872
0.194867938491,874
0.195236448896,875
0.19568769832,877
0.19590477902,878
0.196004391863,876
0.196243967695,879
0.196655696567,880
0.196771057092,882
0.196985939828,881
0.197161320635,883
0.197203496445,884
0.197286055428,885
0.197452228765,886
0.197718159817,887
0.19817065673,869
0.198482558158,889
0.198689498633,893
0.199023305664,896
0.199114477901,897
0.199166921193,898
0.199454081226,900
0.199536494756,892
0.199626049282,895
0.199633205875,899
0.200181675485,902
0.200644559647,905
0.200677793693,903
0.201183180573,891
0.201395750296,901
0.201473745263,890
0.201989049607,873
0.202113800775,888
0.202142737412,911
0.202302114955,908
0.202423680613,894
0.202605903876,914
0.20267198714,910
0.202731727304,909
0.202792101818,915
0.203357840033,916
0.203399049642,904
0.203402780574,907
0.203630641431,918
0.203642888807,917
0.204289085143,919
0.204408240423,912
0.204479161789,920
0.205445357124,924
0.205780389038,922
0.205960432186,926
0.206368523131,921
0.206681464827,929
0.206749645255,927
0.206964022949,930
0.207157672226,923
0.207195553734,925
0.207492780764,928
0.207545331679,931
0.208549113403,906
0.209042278609,934
0.209116972988,936
0.209128852889,937
0.209346092204,938
0.209732617258,941
0.209777140087,942
0.210043255379,944
0.210052975298,935
0.210138130406,945
0.210255293211,946
0.210351393981,939
0.210780591123,947
0.211403724717,950
0.212043341813,951
0.212280983632,953
0.212604712596,940
0.212783489521,913
0.212854095906,955
0.212898416829,952
0.212992345462,956
0.213337179532,949
0.213413054782,943
0.213912144825,957
0.213945984543,958
0.214392689658,954
0.214654623484,948
0.215020530966,932
0.215402911609,959
0.215409151557,960
0.216024648038,964
0.216235543043,965
0.216561321654,967
0.216700550973,968
0.21690144475,966
0.217105867869,933
0.217124347263,970
0.217164690403,972
0.217174770319,971
0.217273320242,962
0.217368125373,973
0.21742080005,961
0.217520350383,974
0.21754899864,963
0.217975349996,977
0.217997306107,976
0.218052591739,969
0.218375059893,978
0.218404265589,975
0.218750971565,980
0.218888360727,979
0.219328083041,981
0.219860726987,983
0.21986876692,984
0.220390289409,982
0.220412758436,985
0.220482888549,986
0.220851702318,988
0.221117365312,989
0.22157953146,993
0.221688641564,987
0.221942144829,995
0.222455524346,998
0.222622645037,999
0.222676755677,997
0.222712865753,1000
0.222806240211,1001
0.222999073255,994
0.223071214301,1002
0.223130372585,1003
0.223222368523,1004
0.223283021152,991
0.223292459094,1005
0.223866117552,990
0.223877760755,1006
0.223993663228,992
0.224101161053,996
0.22459063348,1007
0.224901424594,1008
0.225469420879,1009
0.225721963956,1010
0.227155669824,1013
0.227196909287,1014
0.227536173146,1015
0.227591549807,1012
0.227764936451,1011
0.22781810581,1017
0.227827825729,1018
0.227862024508,1016
0.228485966062,1020
0.228496525974,1019
0.228594007776,1021
0.228661233158,1022
0.229086118564,1023
0.229211064084,1024
0.229263049719,1025
0.229440348403,1026
0.229828677734,1027
0.229959779307,1029
0.230000166477,1028
0.230143698231,1030
0.230707752479,1031
0.230857206716,1032
0.230978015333,1033
0.231267014518,1034
0.231314223941,1035
0.232045230111,1036
0.232677308192,1037
0.233081442222,1039
0.233348400671,1041
0.233395270629,1043
0.233401630576,1042
0.233546263547,1045
0.234003228629,1048
0.234107882089,1040
0.234315824001,1049
0.234342418939,1050
0.234407787044,1052
0.234584935616,1047
0.234782600892,1051
0.234785000872,1053
0.234975404373,1054
0.235010370976,1055
0.235218986723,1056
0.235352837653,1046
0.235368307385,1059
0.235369387376,1058
0.236017542888,1061
0.236274964932,1062
0.236630658113,1057
0.237409175082,1065
0.237553371744,1067
0.237656446252,1069
0.237960015128,1073
0.238077226626,1074
0.238093628617,1070
0.238108063007,1076
0.238127169001,1075
0.238216052285,1071
0.238225172209,1078
0.238494955466,1072
0.238579578875,1066
0.239002516859,1044
0.239435377474,1068
0.239474166437,1080
0.239560361533,1081
0.239790852206,1084
0.239831866453,1083
0.239901389157,1079
0.239919269008,1085
0.239976181308,1086
0.240398063272,1087
0.240453079546,1082
0.240555598311,1088
0.24095204093,1089
0.24111882823,1090
0.241397296383,1063
0.24144073239,1091
0.241908104537,1093
0.241915304477,1094
0.242087197206,1097
0.242180355317,1098
0.24218959524,1060
0.242343880217,1099
0.24242170844,1100
0.242422308435,1092
0.24253902623,1102
0.242624414916,1103
0.24270162218,1101
0.24285085975,1064
0.24332317944,1105
0.243324859426,1038
0.243685173304,1106
0.243813355753,1108
0.243871627665,1104
0.244224116454,1109
0.244419361019,1110
0.244449847265,1111
0.244611351041,1112
0.245111623459,1113
0.245195836868,1107
0.24558016841,1114
0.245618349149,1077
0.246151256274,1116
0.246237811828,1117
0.246297699624,1118
0.246394769417,1119
0.246481874826,1120
0.246635343115,1122
0.246834599313,1115
0.247466036622,1126
0.247491003076,1125
0.248069184006,1121
0.248310485868,1128
0.248445628483,1132
0.248479724802,1130
0.248506532713,1129
0.248566914862,1133
0.248770401319,1124
0.248906578524,1131
0.248933776237,1135
0.249223638088,1138
0.249298088168,1136
0.249449278814,1139
0.249888599057,1096
0.249948050597,1140
0.250067378783,1141
0.250198064152,1137
0.250447654409,1143
0.250807625054,1123
0.250962270588,1145
0.250977390462,1147
0.251204311555,1146
0.251415422023,1148
0.251803173825,1134
0.251896322693,1142
0.251981756194,1144
0.252274921851,1095
0.252690247398,1151
0.252748683587,1150
0.252834323613,1152
0.252847283505,1127
0.252988685773,1149
0.253158640437,1153
0.253306483133,1154
0.253895526212,1157
0.253934698904,1158
0.253961860491,1159
0.253962100489,1156
0.254063831596,1155
0.254204558247,1161
0.254497549466,1160
0.2545346365,1162
0.254847399937,1163
0.255000013212,1165
0.255102144832,1164
0.255147768057,1166
0.255234962995,1167
0.255821747403,1168
0.256718598599,1169
0.256774769021,1170
0.257548858088,1171
0.25793526523,1172
0.258340522483,1173
0.258593643496,1174
0.258790238607,1175
0.258858294283,1176
0.259383383066,1179
0.259427370219,1180
0.259701483591,1178
0.25973701145,1177
0.259948398728,1182
0.260499806279,1183
0.261001050955,1185
0.26102833069,1186
0.2610714946,1184
0.261318907574,1181
0.262123986457,1187
0.262407707882,1188
0.262495616739,1189
0.263267672734,1190
0.263466126362,1191
0.264093673697,1192
0.26436005379,1193
0.264608327854,1194
0.264822178958,1195
0.264881469378,1196
0.26508288516,1197
0.265670704732,1198
0.266144764402,1204
0.266348251912,1200
0.266380054565,1205
0.266415648322,1201
0.26648250343,1203
0.266668916348,1202
0.26683968237,1199
0.267142812338,1206
0.267304603027,1207
0.267431891659,1208
0.267573570623,1209
0.268028107053,1213
0.268060290625,1214
0.268109322269,1211
0.26824748732,1212
0.268518920105,1215
0.268543999896,1210
0.268666386884,1216
0.268965888938,1217
0.269493025439,1219
0.269573231317,1220
0.269677010525,1218
0.27011352115,1221
0.270721704421,1223
0.27100001635,1222
0.271208653538,1224
0.272216402023,1225
0.272444015185,1226
0.272580929995,1227
0.272668539036,1228
0.272698027637,1229
0.273520592411,1232
0.273708682746,1231
0.273839459364,1233
0.273868865619,1234
0.274956686615,1236
0.275019908851,1237
0.275031788752,1238
0.275213812597,1239
0.275302746186,1240
0.275480965506,1241
0.275571757564,1235
0.275635855848,1230
0.276074767729,1242
0.276419333806,1243
0.276640866948,1244
0.276652270153,1245
0.277272513189,1247
0.277284273091,1246
0.277785179339,1248
0.277958585445,1250
0.278198486102,1252
0.278577909352,1249
0.278727432329,1251
0.279608552,1257
0.279702153055,1258
0.27972975352,1256
0.279777270007,1253
0.279866501274,1260
0.279928975057,1254
0.280204188585,1261
0.280300386135,1263
0.280399172181,1265
0.280562253934,1266
0.280786783289,1269
0.280809874628,1262
0.280818141782,1270
0.28167545555,1274
0.281702205844,1268
0.282102957415,1275
0.282144883278,1276
0.282161099055,1271
0.282241685426,1277
0.282328215253,1278
0.282394621094,1273
0.282401221039,1279
0.282455768451,1259
0.282830114862,1272
0.282928080509,1280
0.282990773569,1255
0.283012914681,1281
0.283288245048,1267
0.283352901938,1264
0.284038539992,1284
0.284737508792,1286
0.284830472948,1282
0.284878024821,1283
0.284918682776,1285
0.28507467174,1287
0.285344020957,1288
0.285447106366,1289
0.28571716771,1290
0.285854465269,1291
0.286133086196,1292
0.286225450421,1294
0.286252690194,1293
0.286701298417,1295
0.286811714896,1296
0.287111578871,1298
0.287117458822,1297
0.287186539784,1299
0.287229181549,1300
0.287365899384,1302
0.288153471941,1305
0.288317144726,1301
0.288401500762,1306
0.288448205321,1304
0.288857275122,1310
0.289012948287,1303
0.289260468593,1307
0.289369896626,1309
0.289471554728,1312
0.289485505672,1314
0.289702385942,1317
0.289712727211,1318
0.289768581493,1319
0.289795336334,1320
0.289855763825,1313
0.290274830338,1321
0.290357226771,1316
0.291064801999,1323
0.291160609243,1324
0.291310169335,1325
0.291467888676,1322
0.291573697338,1326
0.291663575428,1315
0.291768540835,1327
0.292567444977,1328
0.29266090734,1329
0.293515659786,1330
0.2936453678,1334
0.293663967645,1311
0.29378409766,1335
0.293830635755,1332
0.294187539331,1331
0.294189369538,1308
0.29422931643,1333
0.294485349027,1338
0.295276379666,1336
0.295515171751,1341
0.29600421065,1340
0.296313785647,1339
0.296571194168,1342
0.297079157984,1344
0.297112312967,1343
0.297626898226,1347
0.297749183796,1345
0.298141593194,1348
0.298196410705,1346
0.298306256681,1349
0.298551026936,1352
0.298669820898,1337
0.298950584426,1353
0.298957904365,1354
0.299429631363,1355
0.30023224578,1357
0.300537727763,1359
0.301202723757,1362
0.30125004818,1363
0.301655349513,1360
0.301892460598,1364
0.3021353348,1358
0.302214548401,1356
0.302279834041,1351
0.302319973544,1365
0.302344949848,1361
0.302763236536,1368
0.302825796931,1366
0.302979593841,1367
0.303034879936,1369
0.303236409552,1350
0.303603479288,1371
0.303609839235,1370
0.304299945817,1372
0.304356636694,1374
0.304385270654,1373
0.304407719654,1375
0.304542196451,1376
0.304618120214,1377
0.304940623761,1378
0.305036065041,1379
0.305072671181,1380
0.305543069999,1381
0.305773679575,1382
0.306043827768,1383
0.306436535017,1386
0.30662125098,1388
0.306660569476,1387
0.306819655441,1385
0.306901246584,1389
0.306913486482,1390
0.307039150689,1391
0.30707157398,1384
0.307090615096,1392
0.307473406742,1395
0.307903577255,1396
0.307921941106,1397
0.308215962761,1393
0.308230431709,1394
0.308384081062,1398
0.308406267276,1400
0.308407107269,1399
0.308408180583,1401
0.308530242712,1402
0.308615826553,1403
0.309108195148,1404
0.30943852758,1406
0.309473813786,1407
0.309797006964,1408
0.30982268675,1409
0.309965544485,1405
0.31001006319,1410
0.310160384387,1411
0.310514816183,1412
0.310835081619,1413
0.311000160373,1414
0.311014080257,1415
0.311715071148,1416
0.311774137113,1417
0.312315316128,1418
0.312781801594,1419
0.313028303048,1420
0.313258627269,1421
0.313420918334,1422
0.313849018628,1424
0.314259544476,1423
0.314395506708,1425
0.314992886943,1426
0.315384099801,1427
0.315386379782,1429
0.315421745581,1430
0.315482775822,1431
0.315812193511,1432
0.315911007848,1428
0.316137668731,1433
0.316200998558,1434
0.316915172384,1435
0.316983516129,1436
0.317012275379,1438
0.317366467774,1439
0.317574813952,1440
0.317582493888,1441
0.317839289258,1443
0.318002304055,1437
0.318096419409,1444
0.318654862019,1448
0.318761848518,1446
0.318993235221,1450
0.319116953324,1442
0.319440455211,1445
0.3194417752,1451
0.319626331001,1453
0.320161348848,1454
0.32032434284,1452
0.320419900838,1455
0.32047277868,1456
0.320850203976,1449
0.321676255633,1460
0.321938768919,1457
0.322008720679,1461
0.322281468116,1462
0.322309311084,1463
0.32317295564,1466
0.323253034749,1459
0.323522780335,1465
0.323692087513,1464
0.323858592837,1469
0.323905555107,1458
0.324042559229,1468
0.324313938742,1447
0.324368829703,1470
0.325063065005,1467
0.325335698919,1477
0.325409592833,1474
0.325452530328,1478
0.325761976538,1475
0.325783079767,1479
0.325813238156,1481
0.326634032808,1476
0.326731910676,1473
0.326870053316,1482
0.327445270514,1483
0.327681179997,1484
0.327722979521,1471
0.327818958396,1485
0.327825798339,1472
0.328843070924,1488
0.328902510281,1489
0.329364321788,1491
0.329833471187,1493
0.330111381536,1487
0.330187570812,1494
0.330298446863,1490
0.330578474355,1486
0.330698602859,1492
0.331037008126,1480
0.331214138748,1495
0.331478881,1496
0.331939489332,1500
0.332010145723,1499
0.33225986824,1498
0.332360936402,1497
0.332513470584,1501
0.332596938567,1502
0.332972918636,1503
0.333692625655,1505
0.334071718546,1507
0.334250406318,1508
0.334349919744,1506
0.334370054399,1504
0.334392334413,1509
0.334700787098,1512
0.334772539137,1511
0.335005532764,1510
0.335180424775,1513
0.335486484779,1514
0.335576312497,1515
0.335679121034,1516
0.335780960818,1517
0.335834326646,1518
0.336362617884,1519
0.336468013175,1520
0.337252151865,1524
0.337258255865,1525
0.337299894943,1526
0.337358522131,1527
0.337553820849,1528
0.337639594502,1521
0.33820326778,1529
0.338335836946,1530
0.338539387067,1522
0.338574068279,1533
0.33865125159,1534
0.338839242109,1531
0.338846623261,1523
0.338872441991,1532
0.339469771325,1535
0.339745701028,1537
0.339808408411,1536
0.339841085312,1538
0.340483962854,1539
0.340726872245,1540
0.341006654396,1543
0.341262386418,1542
0.341287966804,1545
0.341464095264,1544
0.341682984459,1541
0.342015066891,1546
0.342562446783,1547
0.342781383692,1548
0.343677362212,1549
0.34394567456,1550
0.344216674063,1551
0.34427772705,1552
0.344382415363,1553
0.344845444882,1554
0.345729103202,1556
0.346029687509,1555
0.346559705065,1558
0.346987424549,1560
0.347100004316,1561
0.347148216994,1557
0.347598469677,1559
0.347657729744,1563
0.347941088221,1564
0.34820044878,1565
0.348539635127,1562
0.349534880432,1567
0.349978875848,1569
0.350011704276,1568
0.35017729216,1570
0.35038376525,1571
0.350832073842,1573
0.35100276001,1576
0.351015774464,1575
0.351057456193,1577
0.351059422102,1574
0.351463267079,1580
0.351535007256,1581
0.35168300633,1582
0.351749080087,1579
0.351808642263,1578
0.351885138377,1572
0.352112309295,1583
0.352280830711,1584
0.352376707368,1566
0.352385110599,1585
0.352511532164,1586
0.352593914867,1587
0.352798809693,1588
0.352877229744,1589
0.353344938762,1591
0.353521701426,1592
0.353663244011,1593
0.353715986337,1590
0.35374509662,1594
0.353956595573,1596
0.354089100754,1597
0.354130527487,1595
0.354343434376,1599
0.354437561363,1598
0.354945855118,1602
0.355130566412,1604
0.355152501035,1605
0.355317905168,1600
0.355554862763,1601
0.355812242025,1607
0.355972241465,1608
0.356223593102,1609
0.356315763103,1606
0.356446235725,1603
0.356533361752,1611
0.356648638,1612
0.356987370472,1613
0.357034910977,1610
0.357414552738,1614
0.358045610097,1619
0.358082939175,1618
0.358085883238,1620
0.358104999002,1617
0.358151121347,1621
0.358217754699,1616
0.358443510603,1622
0.358475913533,1623
0.358513019738,1615
0.358807807162,1625
0.35888723797,1626
0.359176138198,1624
0.359203233344,1627
0.359468950572,1628
0.359511822348,1630
0.359742208589,1629
0.360102781106,1631
0.360716795784,1632
0.360893572275,1633
0.360955364852,1634
0.361627193906,1635
0.361887821232,1636
0.362303176408,1637
0.362502438214,1638
0.362543331131,1639
0.362896418141,1640
0.363000140499,1641
0.363053016083,1642
0.363184930609,1643
0.363374074215,1644
0.363434145801,1645
0.363510566543,1646
0.363519508725,1647
0.3638052795,1648
0.364097787584,1649
0.364158993594,1650
0.364400909145,1651
0.364437386713,1652
0.364676006627,1653
0.365220314723,1654
0.365597155989,1655
0.366092907713,1656
0.366449806572,1657
0.367535997463,1659
0.367562997238,1658
0.367822397218,1661
0.367824437201,1660
0.367942761162,1662
0.368001779587,1663
0.368224127931,1664
0.368719376413,1665
0.368797642832,1666
0.369322837709,1667
0.369451294038,1668
0.369513292879,1669
0.370226986959,1672
0.370304459664,1670
0.370527363165,1671
0.370632286557,1674
0.371062667579,1676
0.371348730571,1677
0.371496636801,1678
0.37182070185,1679
0.372312465593,1675
0.372429445602,1680
0.37285615101,1681
0.372922902607,1682
0.373487746341,1683
0.373490386319,1684
0.373540820417,1673
0.373992163825,1687
0.374466948664,1690
0.374475708591,1691
0.374719403713,1685
0.374788355794,1689
0.37481702088,1686
0.374860487927,1688
0.374975132024,1692
0.375073476675,1693
0.375200031425,1694
0.375297684175,1695
0.375415138826,1696
0.375498173181,1697
0.375586817042,1698
0.375606561391,1699
0.376343899584,1702
0.376431287678,1700
0.376636784236,1701
0.37697293834,1704
0.377127221895,1703
0.377230143757,1705
0.377460592667,1706
0.37761443021,1707
0.37764799895,1708
0.377738977179,1709
0.378408985168,1713
0.378498013936,1715
0.37859477686,1714
0.378646376489,1716
0.378782507966,1717
0.378978508456,1718
0.379012951006,1719
0.379064090438,1720
0.379111051295,1721
0.37913560655,1722
0.379486477228,1724
0.379782554735,1726
0.379788399366,1727
0.379881459042,1725
0.380284672461,1729
0.381019347317,1731
0.381081892461,1733
0.38111301558,1732
0.381459383648,1730
0.38147474352,1728
0.381608826863,1712
0.382019568739,1735
0.382073340579,1736
0.382081260513,1723
0.382096740384,1737
0.382187130593,1739
0.382334069338,1740
0.382369876497,1741
0.382390188036,1742
0.382797738204,1744
0.383135570106,1746
0.383210819873,1747
0.383529731305,1749
0.383543231393,1748
0.383629042634,1745
0.383688925536,1750
0.384034328258,1752
0.38419692568,1754
0.384468923751,1753
0.38446904375,1734
0.384494539955,1757
0.384686209273,1755
0.38490807474,1756
0.385231179666,1759
0.385371908483,1758
0.385567553494,1760
0.385792160974,1761
0.386020204811,1711
0.386200392818,1762
0.386202072804,1763
0.386413276855,1751
0.386461639252,1743
0.386661991072,1710
0.387441093059,1766
0.387617396995,1767
0.387756125866,1764
0.388051345429,1770
0.388097933516,1771
0.388144967178,1772
0.388274421905,1773
0.388281861843,1774
0.388361984941,1769
0.38838044941,1775
0.388418068614,1768
0.389068881735,1738
0.389263866019,1765
0.389365714401,1776
0.38957671762,1777
0.389686109341,1778
0.389692617593,1779
0.389867507403,1780
0.389923957142,1781
0.389995711409,1782
0.390415637089,1784
0.390499607289,1785
0.390518450332,1786
0.390547730088,1787
0.390806624319,1790
0.390808845606,1789
0.391103855582,1793
0.391298984835,1791
0.391357974907,1794
0.391433183871,1792
0.392363935069,1798
0.392422107234,1797
0.392426238085,1783
0.392583477249,1799
0.393115918255,1800
0.393266191023,1801
0.393373168007,1796
0.393607394136,1795
0.394451832842,1803
0.394452432837,1788
0.39453917765,1804
0.394778622508,1807
0.39497444574,1808
0.395156130288,1802
0.396164125197,1809
0.396296395648,1810
0.396434063658,1806
0.396909377624,1805
0.397144478812,1811
0.397825049429,1814
0.398318735241,1816
0.398505330436,1815
0.398575823649,1817
0.398622173618,1818
0.399394150355,1820
0.399394870349,1821
0.399449801515,1822
0.3996598897,1813
0.399684944687,1823
0.399784843117,1819
0.399864085385,1824
0.400447781594,1825
0.401309406541,1827
0.401952918087,1830
0.402046757342,1829
0.402372297629,1833
0.402438909086,1835
0.402721815085,1828
0.402796135645,1832
0.40282251759,1812
0.402882565288,1836
0.402931397512,1837
0.403081807667,1834
0.403163586478,1831
0.403239138025,1838
0.403741085349,1839
0.403846851004,1840
0.403982019846,1826
0.404129448277,1841
0.404333896379,1842
0.404431286776,1844
0.404468538122,1843
0.405250805932,1845
0.405924544868,1846
0.405986217724,1847
0.406114419759,1848
0.406154910712,1849
0.406178740806,1850
0.406345411292,1851
0.406937740455,1856
0.406948486301,1854
0.407094932665,1857
0.407120012456,1853
0.407320286114,1858
0.407481694966,1852
0.407488618903,1859
0.407605505733,1855
0.407674282309,1860
0.407866299173,1861
0.407896996998,1862
0.408487844778,1864
0.40857587165,1863
0.408752799975,1866
0.408850866006,1867
0.408961534718,1868
0.409004100805,1869
0.409118087551,1865
0.409504819078,1871
0.409962864622,1872
0.410003516122,1873
0.410143455541,1870
0.410212303524,1874
0.410702599929,1875
0.411143943087,1876
0.411294030288,1877
0.411579044858,1878
0.412126848083,1879
0.412221834734,1880
0.412541391271,1882
0.412945678443,1884
0.413066555527,1885
0.413513060318,1883
0.413622110557,1886
0.413996637429,1887
0.414205717042,1888
0.414238239971,1889
0.41459140041,1891
0.414844268521,1890
0.414892532978,1892
0.414950255697,1881
0.414951335688,1893
0.415084958719,1894
0.415717400707,1895
0.415853474778,1896
0.416244130071,1897
0.416681915109,1898
0.416796762658,1899
0.417226695741,1900
0.417940967959,1904
0.417979575104,1903
0.418068661918,1902
0.418158746742,1905
0.418302258725,1906
0.418646462546,1901
0.418710519447,1907
0.418918137346,1908
0.419903048768,1909
0.419952444551,1910
0.419975290205,1911
0.420243658699,1912
0.420514667624,1913
0.421942754948,1914
0.422496201459,1916
0.422618384539,1917
0.422756628548,1918
0.422810211893,1919
0.422882648651,1915
0.423107227995,1921
0.423726775696,1928
0.423745235675,1927
0.423978200981,1924
0.424036246687,1930
0.424643063623,1929
0.424834914746,1922
0.424919908964,1932
0.424986975311,1931
0.425608212457,1933
0.425977064264,1934
0.426195703273,1926
0.426805589876,1923
0.427184819724,1937
0.427198139613,1938
0.427375655373,1940
0.427651070591,1941
0.428109933477,1943
0.42813901131,1939
0.428168687901,1944
0.428209438696,1945
0.428654589509,1935
0.429091818776,1947
0.429120261739,1948
0.429488926018,1949
0.429540267558,1950
0.429600912764,1951
0.429614232653,1952
0.429903979618,1955
0.429928496872,1954
0.430030580078,1956
0.430050198729,1942
0.430224973282,1957
0.430429555628,1946
0.430447744085,1960
0.430517979773,1953
0.430581856815,1962
0.430598539876,1963
0.430629619617,1936
0.430639729883,1958
0.430815867728,1965
0.430913274011,1966
0.431064109132,1967
0.431257759333,1968
0.431270599226,1969
0.431396882653,1971
0.431424027684,1970
0.431757799917,1972
0.432079899648,1959
0.432455786125,1974
0.43258169867,1964
0.432583858652,1973
0.432599726707,1975
0.432970748535,1920
0.433121257786,1977
0.433965376717,1981
0.434071568826,1982
0.434168785653,1979
0.434485456346,1976
0.434687089088,1925
0.434694769024,1983
0.434734885528,1980
0.435621167161,1984
0.435695076892,1978
0.435724659857,1986
0.435861241613,1985
0.436410118055,1961
0.436774452403,1987
0.437708973253,1988
0.437793802799,1989
0.438627759926,1992
0.438650132422,1993
0.438864944618,1991
0.439324141198,1996
0.439397286548,1994
0.440192988092,1999
0.440412947316,1998
0.440552318157,2000
0.440785212122,2001
0.440997921307,2003
0.441042976765,1990
0.441283219012,2005
0.441422573865,1995
0.441729328298,2004
0.441878311742,2007
0.441976306727,2006
0.442133040695,2002
0.442202903478,2008
0.442307768428,1997
0.443138176809,2009
0.443298121171,2010
0.443577114616,2012
0.443582874568,2011
0.443812116429,2014
0.443850964582,2015
0.44396424113,2016
0.444049876587,2017
0.444557332894,2018
0.444573063503,2021
0.444730430178,2020
0.444977412512,2022
0.445252130668,2019
0.44525933535,2013
0.446307811709,2023
0.446442502729,2024
0.446625220797,2025
0.446769712247,2026
0.446871926247,2027
0.447113265717,2028
0.447301930199,2029
0.447762190798,2030
0.447876587058,2031
0.447953697536,2032
0.448030771148,2033
0.448868126065,2034
0.449172822092,2035
0.449310727499,2036
0.449553189633,2037
0.449916899459,2039
0.449919779435,2038
0.45028881814,2040
0.45058949451,2041
0.450656594873,2042
0.450739877257,2043
0.450934208638,2044
0.451219120598,2045
0.451704968078,2048
0.451862878865,2046
0.452176282715,2050
0.452277028138,2051
0.45249432008,2047
0.452562268238,2053
0.452835088355,2049
0.453004764475,2052
0.453302068659,2054
0.453745717498,2057
0.453904771933,2059
0.45400085908,2060
0.454224845132,2055
0.454306820083,2056
0.454773427827,2061
0.45490476007,2062
0.454918079959,2058
0.45496821631,2063
0.455066712722,2064
0.455084917112,2065
0.455976836751,2066
0.456057256653,2067
0.456522394077,2069
0.456568709064,2068
0.457531447688,2070
0.458152930582,2071
0.458288223344,2072
0.458711154915,2073
0.458826546255,2074
0.459357773102,2077
0.459463676638,2076
0.45947783652,2079
0.4597031005,2080
0.459734253014,2081
0.460015361889,2078
0.460348700575,2082
0.460391185757,2083
0.460415899068,2084
0.460423650068,2075
0.460769643646,2085
0.461840771473,2090
0.462655412177,2094
0.462681655052,2095
0.463019755463,2093
0.463039817524,2097
0.463494959977,2098
0.463681292289,2086
0.46379758221,2100
0.464600209691,2105
0.464722694034,2103
0.46477327051,2106
0.465166430865,2104
0.465319377325,2107
0.466118982976,2101
0.466447859638,2088
0.466491196349,2109
0.466522871437,2096
0.466545068786,2111
0.466767407159,2110
0.466782936427,2112
0.466797190527,2113
0.466996867834,2087
0.467050897626,2115
0.467073817435,2116
0.467567675938,2091
0.467573161006,2114
0.467888631357,2117
0.468006554919,2119
0.468125504366,2118
0.468185643217,2122
0.468260124718,2108
0.468370551142,2123
0.46840109247,2124
0.468574555543,2099
0.468635492128,2121
0.469097203441,2102
0.469146393729,2120
0.46937033629,2125
0.469414179031,2092
0.469426914151,2127
0.469536310219,2128
0.469542512375,2089
0.469655150675,2130
0.469859698931,2132
0.469954202332,2133
0.470088784474,2129
0.470095603363,2134
0.470291503599,2126
0.470661486182,2137
0.470673374788,2131
0.470801108799,2138
0.471098862178,2140
0.471174524533,2141
0.471282847705,2139
0.471682495931,2143
0.471700495781,2136
0.471956034596,2144
0.472120091668,2145
0.472321229192,2142
0.472489969048,2135
0.472615519735,2146
0.473091643648,2147
0.473625647982,2151
0.473715872781,2150
0.473772727417,2149
0.473796664175,2152
0.473812909161,2153
0.473842727567,2154
0.473883085876,2148
0.473918777461,2155
0.474015881949,2156
0.474319233078,2157
0.474932418541,2159
0.475086774675,2158
0.475216137515,2160
0.475520646702,2161
0.475824679196,2163
0.475990561221,2162
0.476573386134,2164
0.476608278433,2165
0.476622482055,2166
0.476736150136,2168
0.476765653651,2167
0.476861139712,2169
0.476874339602,2170
0.477584647909,2171
0.477958456388,2172
0.478347871366,2173
0.478501868153,2174
0.479218490741,2175
0.479509938446,2176
0.479548984994,2177
0.479793670326,2180
0.480019911723,2183
0.480124244921,2184
0.480256575652,2178
0.48058414149,2185
0.480722929766,2186
0.480932539933,2187
0.480942019854,2179
0.481101354418,2181
0.481391730958,2188
0.481720325754,2189
0.481749444952,2182
0.481887400292,2190
0.481902309634,2191
0.482034005642,2192
0.482087748336,2193
0.482504989833,2194
0.482862527157,2195
0.482951825441,2197
0.483261700413,2198
0.483656278437,2196
0.483792079558,2199
0.483896576468,2200
0.484527191174,2201
0.484980793561,2202
0.485073986467,2203
0.485121651184,2204
0.485403436855,2205
0.485529108366,2206
0.485623817388,2207
0.48593899489,2209
0.485993240838,2210
0.4863479805,2211
0.486961306568,2208
0.487098669269,2212
0.487207367709,2214
0.48731152457,2215
0.487822054423,2213
0.488047076215,2217
0.488226314082,2216
0.488415636286,2218
0.488670125614,2219
0.489330150277,2220
0.491168382425,2222
0.491198456158,2223
0.491383549907,2225
0.491643137936,2224
0.491653447251,2221
0.49178522143,2226
0.491806448529,2227
0.491827659976,2228
0.491981759827,2230
0.492641711851,2229
0.493246920137,2232
0.493443205444,2233
0.493445485425,2234
0.493470205219,2231
0.493799877666,2235
0.494015263592,2236
0.494084751047,2237
0.494196689055,2238
0.494858769169,2239
0.495248440432,2240
0.4963612238,2241
0.497300088172,2242
0.498431701567,2243
0.49878631059,2245
0.498818350323,2246
0.498937391226,2247
0.499057161721,2248
0.499594444173,2249
0.499985546467,2251
0.50021329069,2252
0.501163467314,2254
0.501299741796,2256
0.501676957272,2250
0.501681736545,2255
0.501836656702,2253
0.501990585618,2258
0.502371905754,2259
0.502493380718,2260
0.502726441283,2262
0.502983020915,2257
0.503001400247,2264
0.503090859667,2265
0.503285097643,2266
0.503540654642,2269
0.503842809073,2268
0.503856262887,2244
0.504014337873,2270
0.504182317702,2271
0.504348150933,2263
0.504528729815,2261
0.504875163281,2275
0.505390083132,2274
0.505586867832,2277
0.505904802107,2276
0.506044131973,2279
0.506191157246,2278
0.506196810664,2273
0.5065111439,2267
0.506821012944,2272
0.50704930632,2280
0.507090271497,2281
0.50745138249,2282
0.507646960941,2283
0.507991481031,2284
0.508201459265,2285
0.508358498675,2286
0.508365941932,2287
0.508386451411,2288
0.508575375122,2289
0.508963669515,2290
0.509715546706,2291
0.510550170195,2293
0.510554010163,2292
0.510663006875,2294
0.510956022345,2295
0.511258864768,2296
0.512439158766,2297
0.513377841473,2298
0.514260942315,2301
0.514305927816,2300
0.515219555979,2303
0.515304969224,2302
0.515479810607,2306
0.515566276357,2305
0.515697420508,2308
0.515886120422,2309
0.516106216296,2307
0.516250333708,2304
0.51631170148,2310
0.517087572114,2312
0.517122608066,2313
0.517280733144,2311
0.517458204672,2299
0.517972238463,2315
0.517973558452,2317
0.517982822799,2316
0.518108372729,2314
0.518346717737,2318
0.518479566174,2319
0.518504022558,2320
0.518504689305,2321
0.518533384508,2322
0.518575452621,2323
0.519173202894,2324
0.519509993693,2326
0.519891730663,2328
0.520769077259,2331
0.520832909296,2327
0.520885109516,2325
0.520979342378,2330
0.521151288635,2332
0.52151017769,2333
0.521886763149,2335
0.521924640556,2329
0.521947949725,2334
0.522177071342,2336
0.522224098123,2337
0.522321946496,2338
0.522594121613,2339
0.522622367467,2340
0.522628385356,2341
0.52322193144,2342
0.523242867472,2343
0.523709739399,2344
0.524267348459,2345
0.524393640829,2346
0.524454287856,2347
0.524881057259,2348
0.525524613648,2350
0.525632992069,2352
0.525695691459,2353
0.525738635157,2351
0.525798576183,2349
0.526066838034,2355
0.526130678174,2354
0.526343559401,2356
0.526488856267,2357
0.527574505904,2358
0.527680299125,2359
0.527744495647,2361
0.527752451795,2360
0.528262287122,2362
0.528599747529,2363
0.528713983103,2364
0.528874766328,2365
0.528887701201,2366
0.529455892356,2369
0.529541679138,2370
0.52957179307,2371
0.53007849378,2376
0.530276594989,2367
0.531433512877,2372
0.531436082716,2375
0.531502676802,2373
0.531574231902,2379
0.531596551737,2368
0.531738175629,2378
0.53174629833,2377
0.531854036983,2374
0.532098064169,2382
0.532514105111,2381
0.532698084396,2380
0.532881994253,2383
0.533931323272,2386
0.534148830882,2384
0.534270788983,2385
0.534971910467,2391
0.535003217402,2389
0.535082411399,2387
0.535163193199,2390
0.535355819495,2392
0.535384490877,2388
0.535492961964,2393
0.535685191835,2394
0.536565275646,2395
0.536975611747,2396
0.537569070196,2397
0.538321869973,2399
0.538455732396,2398
0.538684662357,2400
0.539128586005,2401
0.539359371006,2402
0.53938284035,2403
0.54012391326,2408
0.540210994072,2406
0.540364374717,2410
0.540391459982,2411
0.540677168434,2412
0.540945942971,2407
0.541416938385,2404
0.541457730051,2409
0.541833456007,2405
0.542218227027,2416
0.542389757089,2417
0.54253603902,2413
0.542714716077,2415
0.543252226171,2420
0.543512505473,2422
0.543610714606,2423
0.543650786498,2424
0.543951438063,2425
0.544058964767,2426
0.544209708812,2421
0.54424128839,2419
0.544583934979,2428
0.545485743255,2427
0.545891724042,2431
0.545953431922,2432
0.546051274868,2430
0.546379315426,2433
0.548056083882,2438
0.548181542659,2439
0.548388458253,2435
0.548563588996,2429
0.548581472047,2441
0.548588191991,2440
0.548880185273,2442
0.549319456259,2443
0.549386895304,2445
0.549397957967,2444
0.549622528958,2447
0.549733294756,2448
0.549993198254,2414
0.550057796207,2449
0.550378579054,2450
0.550423351928,2446
0.550692760503,2451
0.55079810539,2418
0.550924465875,2436
0.551017750907,2452
0.551066663501,2453
0.551192768302,2437
0.551332199417,2455
0.551494750024,2456
0.55170122288,2459
0.551817097171,2457
0.552332450996,2458
0.552476878005,2460
0.552547592455,2454
0.552969134694,2461
0.553163916583,2434
0.553669238546,2462
0.553701655397,2464
0.553768526037,2465
0.554366501277,2467
0.554868491778,2468
0.555268596583,2463
0.555801803163,2469
0.555822922987,2466
0.556312594964,2470
0.557009117209,2471
0.557882467032,2472
0.558094105244,2473
0.558505539905,2474
0.558899093343,2475
0.559232584712,2476
0.559328673345,2477
0.559345468836,2478
0.559577149699,2479
0.560169440903,2480
0.560450840913,2481
0.560762032043,2482
0.560887104536,2483
0.56151585565,2484
0.561809530428,2485
0.562218247973,2486
0.562634528279,2487
0.56366845952,2489
0.563839757216,2490
0.563896359764,2488
0.56419657279,2491
0.564349796236,2492
0.565341942853,2493
0.566204884058,2494
0.566536686872,2496
0.56709927716,2497
0.567411222836,2498
0.567718475867,2499
0.567839645117,2495
0.567919539169,2500
0.568208964403,2501
0.568371256275,2504
0.568751451786,2507
0.568767167528,2506
0.56879597126,2508
0.569111095058,2509
0.569160784244,2505
0.569173504138,2511
0.569198239923,2512
0.569650140829,2513
0.569681101592,2514
0.569720940062,2515
0.570246790807,2502
0.570361316873,2510
0.570443919081,2516
0.57058786489,2517
0.570783902456,2518
0.571297561416,2519
0.571352198548,2503
0.571370067653,2520
0.571395326058,2521
0.572267519032,2523
0.572447639448,2522
0.572591701155,2524
0.57339235851,2525
0.573841168758,2526
0.574775063604,2527
0.574802735583,2528
0.574826917084,2529
0.574926400315,2530
0.575311554603,2531
0.575352507082,2532
0.575485092629,2534
0.575515212378,2535
0.575607308944,2536
0.575633588725,2533
0.576044639595,2537
0.576601623022,2541
0.576602971463,2540
0.576779820338,2538
0.577564614004,2543
0.577629181467,2542
0.577643740742,2544
0.577813832959,2546
0.578688035135,2545
0.578846271703,2548
0.579734353893,2539
0.57999261194,2549
0.580183108831,2550
0.580232003783,2547
0.580235184004,2551
0.580296013496,2552
0.580629500219,2553
0.580988376854,2554
0.581245128916,2555
0.581469294924,2556
0.58159892899,2557
0.581680718743,2558
0.58188512892,2559
0.58201908197,2560
0.58202688521,2561
0.582254678945,2563
0.582268838827,2562
0.5823771451,2564
0.582763946571,2566
0.58358482958,2568
0.583902339975,2570
0.584048097997,2571
0.584266772731,2572
0.584350630337,2573
0.584401643208,2574
0.584531658059,2567
0.584994432022,2575
0.585184411343,2576
0.585256183674,2577
0.585428368164,2569
0.585543181455,2565
0.586276967331,2581
0.586351763557,2579
0.586637245964,2578
0.587183739927,2583
0.587694771734,2584
0.587810650505,2585
0.588160254151,2587
0.588199137027,2588
0.588316005228,2589
0.588366388349,2582
0.588384319087,2586
0.588966456269,2580
0.589731021046,2591
0.589739420976,2592
0.589908149604,2590
0.590466023052,2593
0.590593525027,2594
0.590972847985,2595
0.591095719911,2597
0.591152988203,2596
0.591355458822,2598
0.591359546085,2599
0.591435404502,2600
0.591919262644,2601
0.592279892743,2602
0.592706798163,2603
0.592766088458,2604
0.592962115854,2605
0.593794427284,2607
0.593886310191,2608
0.594250197682,2609
0.594517989311,2606
0.594727519649,2610
0.595420062897,2611
0.595586749925,2612
0.595740741582,2615
0.595890593647,2614
0.59615284858,2616
0.59656201071,2613
0.597515964155,2617
0.597746712111,2618
0.598544091562,2619
0.598914505722,2620
0.599316660302,2621
0.599518576882,2622
0.599657223025,2623
0.599692405499,2624
0.599896990945,2626
0.599903950887,2625
0.600074410535,2627
0.600289668286,2628
0.600486323841,2629
0.600598033248,2631
0.600732318353,2633
0.600850780573,2632
0.600868516007,2634
0.601111889577,2635
0.601550970086,2637
0.60159071246,2636
0.601626789594,2638
0.601708592332,2630
0.602345871081,2639
0.602430714123,2640
0.602680537674,2641
0.603351390653,2646
0.603385953565,2643
0.603579622981,2648
0.603628913707,2650
0.603694810212,2647
0.603906121075,2651
0.604161205802,2653
0.604224853599,2654
0.604610116014,2644
0.604664370745,2655
0.604723297706,2645
0.604823008517,2642
0.604979962642,2657
0.605096886613,2656
0.605138094855,2658
0.605425714678,2660
0.605707357461,2659
0.60571712343,2662
0.605917332455,2663
0.606083556841,2649
0.606184391386,2664
0.607069488787,2666
0.607195027588,2668
0.607203200099,2669
0.607232777001,2667
0.60777316367,2670
0.607992595137,2652
0.608363885653,2665
0.608386676519,2661
0.609058216444,2671
0.609093043762,2672
0.609575886358,2673
0.609679462995,2674
0.610419690523,2675
0.61068837369,2676
0.610919269652,2677
0.611385280812,2678
0.611618549612,2679
0.611839135922,2681
0.611848735842,2680
0.612003450251,2682
0.612304216354,2683
0.612429430918,2684
0.613030405053,2685
0.613629317182,2686
0.613850753761,2687
0.613980393624,2688
0.61427607152,2689
0.615559246324,2692
0.615683480748,2695
0.615684936925,2696
0.615805849769,2691
0.615838293691,2693
0.615901514677,2690
0.615970446908,2697
0.616155475241,2698
0.616442306727,2699
0.616513603986,2700
0.616604220252,2701
0.616843818026,2703
0.616997291634,2705
0.617002319217,2704
0.617042918972,2706
0.617223207285,2708
0.61723717009,2709
0.617290085864,2702
0.617309525702,2710
0.617372746293,2711
0.617879424941,2714
0.617954857357,2712
0.618000586339,2713
0.618034043375,2715
0.618523198977,2716
0.618599315431,2694
0.619035865815,2719
0.619294585681,2720
0.619531872692,2717
0.619602141195,2718
0.61965451218,2723
0.6198241429,2724
0.619904002466,2721
0.620223628699,2726
0.620360825039,2707
0.620363945013,2727
0.620635461583,2725
0.620738741308,2729
0.621251773253,2722
0.621356155225,2730
0.621403773411,2732
0.621794185309,2733
0.621838580732,2728
0.622580874376,2737
0.62286355094,2731
0.622909188403,2735
0.623050345451,2742
0.623249750301,2743
0.623316372468,2739
0.623417439075,2734
0.623469041383,2744
0.623640839879,2746
0.623674261218,2747
0.623899758465,2748
0.623966060117,2749
0.624225424032,2741
0.624318462895,2736
0.624455500499,2751
0.624571067395,2752
0.624851498619,2753
0.625009060849,2755
0.625497582651,2758
0.62575000635,2756
0.626007181598,2759
0.626064310427,2760
0.626146996118,2761
0.62654434179,2762
0.626602552704,2754
0.626886828723,2763
0.627076973716,2764
0.627267818205,2765
0.627477630927,2767
0.628059793609,2738
0.628098148974,2768
0.628468072954,2770
0.628493955238,2771
0.62885327184,2772
0.628913890842,2773
0.628966453604,2774
0.629085199435,2757
0.629144958474,2769
0.629299968214,2745
0.629479298204,2750
0.62972927104,2776
0.629747541798,2766
0.629925363245,2775
0.630074547643,2777
0.630816477845,2778
0.631161179003,2781
0.631372174208,2780
0.631390911765,2782
0.631434235562,2783
0.63149074983,2779
0.632190425787,2786
0.632211866122,2740
0.632487340937,2784
0.632625610666,2785
0.633061731928,2787
0.633075595379,2788
0.633209260455,2789
0.634595126629,2794
0.634671657082,2790
0.634686849006,2793
0.634741507527,2795
0.634747987473,2791
0.634857721748,2797
0.635523664594,2801
0.635527384563,2800
0.63559847732,2802
0.635602802232,2803
0.636088629349,2804
0.636257911438,2805
0.636384118971,2806
0.636626260043,2798
0.63674520776,2799
0.636867112964,2807
0.637288509061,2796
0.637635039144,2792
0.638088246592,2808
0.638518542812,2809
0.639126568126,2811
0.639531507677,2814
0.639537867624,2813
0.639602099959,2812
0.639860417085,2815
0.640077603802,2816
0.64026632,2818
0.640279324553,2819
0.640447366176,2820
0.640735084237,2822
0.641022528836,2821
0.641173750496,2825
0.641656351913,2824
0.642269520917,2827
0.642443306918,2828
0.642568129425,2829
0.642642873689,2823
0.643157567934,2836
0.643836761498,2837
0.643876396448,2838
0.643906396198,2839
0.644461117331,2840
0.644641250609,2833
0.644743097678,2842
0.644883462529,2843
0.645243947627,2844
0.645329481366,2845
0.645605825788,2846
0.645636771284,2830
0.645759617489,2826
0.645844966873,2847
0.645884689742,2848
0.646690100551,2851
0.646737061965,2852
0.646942194717,2853
0.6473570067,2854
0.647437772717,2831
0.647496885844,2855
0.647746786338,2856
0.647799294521,2857
0.647893226674,2810
0.648270406197,2860
0.648446333995,2835
0.648464710057,2858
0.648587656787,2861
0.648599542366,2841
0.648977130703,2863
0.649276091113,2849
0.649397441457,2832
0.649489560913,2834
0.649688542935,2862
0.649862741527,2867
0.650590921228,2865
0.650953937291,2864
0.650978072175,2870
0.651225585804,2872
0.651435303274,2866
0.651617036843,2850
0.652046698653,2869
0.652162894554,2873
0.652312373623,2859
0.65233010896,2868
0.65256864223,2874
0.652757724702,2817
0.653009665482,2876
0.653054397695,2877
0.653242376205,2879
0.653360402715,2880
0.653400128884,2881
0.653444793576,2871
0.653952054934,2885
0.65406454708,2883
0.65421475528,2875
0.654428501923,2888
0.654852714112,2887
0.65501279794,2891
0.655291664746,2892
0.655502828722,2889
0.655558042275,2893
0.655991983138,2894
0.656086937438,2882
0.656087657432,2884
0.65644578454,2895
0.656602054438,2890
0.656642654815,2886
0.656803287105,2878
0.656913719348,2896
0.657677680635,2898
0.657706003599,2899
0.658392177929,2900
0.65841714183,2897
0.659146861579,2901
0.65923175458,2902
0.659474149971,2904
0.659986952379,2905
0.66025242793,2903
0.66079476832,2906
0.660848801984,2907
0.661128704991,2911
0.661172812669,2910
0.661273853545,2908
0.661443991757,2914
0.66149672971,2909
0.661842628811,2915
0.661991504265,2916
0.662059215336,2912
0.662122954259,2913
0.662344472848,2917
0.662492701238,2918
0.6625933342,2919
0.662648958076,2920
0.663075033759,2921
0.663493475301,2923
0.664043311835,2926
0.664064328091,2927
0.664117256669,2922
0.664321756919,2925
0.664536771686,2928
0.664827548704,2929
0.664885745783,2930
0.664986883331,2931
0.665189507529,2932
0.665242073491,2934
0.665744411869,2936
0.665852138249,2937
0.666227677949,2938
0.666322826496,2939
0.666396071012,2940
0.666504625472,2941
0.6666410752,2933
0.666690801429,2942
0.666982029735,2944
0.667024907644,2943
0.667089133216,2924
0.667096955079,2945
0.667117403911,2946
0.667393250063,2935
0.667601304462,2947
0.667652199783,2948
0.667681004276,2949
0.667707218457,2950
0.667817314639,2951
0.668155442732,2952
0.66854297317,2953
0.668801717152,2954
0.669011581581,2955
0.669356840769,2956
0.669614096122,2957
0.670061564218,2958
0.670480191648,2959
0.67048325677,2960
0.670653157866,2961
0.670891846184,2962
0.670922218341,2963
0.671143530022,2965
0.671676619253,2967
0.67187170422,2966
0.672336490566,2970
0.6724629225,2964
0.673017606844,2973
0.673382457084,2971
0.673573240277,2975
0.673592012002,2969
0.6736396092,2976
0.673785047451,2977
0.673970877036,2978
0.674597750511,2968
0.674782856408,2980
0.675158750174,2972
0.675227609655,2982
0.675318128606,2974
0.675359503987,2979
0.675714603544,2984
0.675892380872,2983
0.676178616487,2985
0.676193087191,2986
0.676493446218,2987
0.676728666939,2981
0.677659199,2989
0.677782159382,2990
0.677883013341,2991
0.678677117314,2993
0.67871679472,2994
0.678766275729,2996
0.678878298075,2988
0.679161018911,2997
0.679183585223,2999
0.680706626504,2992
0.681233997305,2998
0.681516408452,2995
